<?xml version="1.0" encoding="utf-8"  standalone="no"?>
<!DOCTYPE svg PUBLIC "-//W3C//DTD SVG 1.1//EN" 
 "http://www.w3.org/Graphics/SVG/1.1/DTD/svg11.dtd">
<svg 
 width="600" height="480" 
 viewBox="0 0 600 480"
 xmlns="http://www.w3.org/2000/svg"
 xmlns:xlink="http://www.w3.org/1999/xlink"
>

<title>Gnuplot</title>
<desc>Produced by GNUPLOT 4.6 patchlevel 1 </desc>

<g id="gnuplot_canvas">

<rect x="0" y="0" width="600" height="480" fill="none"/>
<defs>

	<circle id='gpDot' r='0.5' stroke-width='0.5'/>
	<path id='gpPt0' stroke-width='0.222' stroke='currentColor' d='M-1,0 h2 M0,-1 v2'/>
	<path id='gpPt1' stroke-width='0.222' stroke='currentColor' d='M-1,-1 L1,1 M1,-1 L-1,1'/>
	<path id='gpPt2' stroke-width='0.222' stroke='currentColor' d='M-1,0 L1,0 M0,-1 L0,1 M-1,-1 L1,1 M-1,1 L1,-1'/>
	<rect id='gpPt3' stroke-width='0.222' stroke='currentColor' x='-1' y='-1' width='2' height='2'/>
	<rect id='gpPt4' stroke-width='0.222' stroke='currentColor' fill='currentColor' x='-1' y='-1' width='2' height='2'/>
	<circle id='gpPt5' stroke-width='0.222' stroke='currentColor' cx='0' cy='0' r='1'/>
	<use xlink:href='#gpPt5' id='gpPt6' fill='currentColor' stroke='none'/>
	<path id='gpPt7' stroke-width='0.222' stroke='currentColor' d='M0,-1.33 L-1.33,0.67 L1.33,0.67 z'/>
	<use xlink:href='#gpPt7' id='gpPt8' fill='currentColor' stroke='none'/>
	<use xlink:href='#gpPt7' id='gpPt9' stroke='currentColor' transform='rotate(180)'/>
	<use xlink:href='#gpPt9' id='gpPt10' fill='currentColor' stroke='none'/>
	<use xlink:href='#gpPt3' id='gpPt11' stroke='currentColor' transform='rotate(45)'/>
	<use xlink:href='#gpPt11' id='gpPt12' fill='currentColor' stroke='none'/>
</defs>
<g style="fill:none; color:white; stroke:currentColor; stroke-width:1.00; stroke-linecap:butt; stroke-linejoin:miter">
</g>
<g style="fill:none; color:black; stroke:currentColor; stroke-width:1.00; stroke-linecap:butt; stroke-linejoin:miter">
	<path  d='M80.2,422.4 L89.2,422.4 M575.0,422.4 L566.0,422.4  h0.01'/>	<g transform="translate(71.9,426.9)" style="stroke:none; fill:black; font-family:Arial; font-size:12.00pt; text-anchor:end">
		<text> 0</text>
	</g>
	<path  d='M80.2,361.0 L89.2,361.0 M575.0,361.0 L566.0,361.0  h0.01'/>	<g transform="translate(71.9,365.5)" style="stroke:none; fill:black; font-family:Arial; font-size:12.00pt; text-anchor:end">
		<text> 1000</text>
	</g>
	<path  d='M80.2,299.6 L89.2,299.6 M575.0,299.6 L566.0,299.6  h0.01'/>	<g transform="translate(71.9,304.1)" style="stroke:none; fill:black; font-family:Arial; font-size:12.00pt; text-anchor:end">
		<text> 2000</text>
	</g>
	<path  d='M80.2,238.2 L89.2,238.2 M575.0,238.2 L566.0,238.2  h0.01'/>	<g transform="translate(71.9,242.7)" style="stroke:none; fill:black; font-family:Arial; font-size:12.00pt; text-anchor:end">
		<text> 3000</text>
	</g>
	<path  d='M80.2,176.9 L89.2,176.9 M575.0,176.9 L566.0,176.9  h0.01'/>	<g transform="translate(71.9,181.4)" style="stroke:none; fill:black; font-family:Arial; font-size:12.00pt; text-anchor:end">
		<text> 4000</text>
	</g>
	<path  d='M80.2,115.5 L89.2,115.5 M575.0,115.5 L566.0,115.5  h0.01'/>	<g transform="translate(71.9,120.0)" style="stroke:none; fill:black; font-family:Arial; font-size:12.00pt; text-anchor:end">
		<text> 5000</text>
	</g>
	<path  d='M80.2,54.1 L89.2,54.1 M575.0,54.1 L566.0,54.1  h0.01'/>	<g transform="translate(71.9,58.6)" style="stroke:none; fill:black; font-family:Arial; font-size:12.00pt; text-anchor:end">
		<text> 6000</text>
	</g>
	<path  d='M80.2,422.4 L80.2,413.4 M80.2,54.1 L80.2,63.1  h0.01'/>	<g transform="translate(80.2,444.9)" style="stroke:none; fill:black; font-family:Arial; font-size:12.00pt; text-anchor:middle">
		<text> 0</text>
	</g>
	<path  d='M129.7,422.4 L129.7,413.4 M129.7,54.1 L129.7,63.1  h0.01'/>	<g transform="translate(129.7,444.9)" style="stroke:none; fill:black; font-family:Arial; font-size:12.00pt; text-anchor:middle">
		<text> 10</text>
	</g>
	<path  d='M179.2,422.4 L179.2,413.4 M179.2,54.1 L179.2,63.1  h0.01'/>	<g transform="translate(179.2,444.9)" style="stroke:none; fill:black; font-family:Arial; font-size:12.00pt; text-anchor:middle">
		<text> 20</text>
	</g>
	<path  d='M228.6,422.4 L228.6,413.4 M228.6,54.1 L228.6,63.1  h0.01'/>	<g transform="translate(228.6,444.9)" style="stroke:none; fill:black; font-family:Arial; font-size:12.00pt; text-anchor:middle">
		<text> 30</text>
	</g>
	<path  d='M278.1,422.4 L278.1,413.4 M278.1,54.1 L278.1,63.1  h0.01'/>	<g transform="translate(278.1,444.9)" style="stroke:none; fill:black; font-family:Arial; font-size:12.00pt; text-anchor:middle">
		<text> 40</text>
	</g>
	<path  d='M327.6,422.4 L327.6,413.4 M327.6,54.1 L327.6,63.1  h0.01'/>	<g transform="translate(327.6,444.9)" style="stroke:none; fill:black; font-family:Arial; font-size:12.00pt; text-anchor:middle">
		<text> 50</text>
	</g>
	<path  d='M377.1,422.4 L377.1,413.4 M377.1,54.1 L377.1,63.1  h0.01'/>	<g transform="translate(377.1,444.9)" style="stroke:none; fill:black; font-family:Arial; font-size:12.00pt; text-anchor:middle">
		<text> 60</text>
	</g>
	<path  d='M426.6,422.4 L426.6,413.4 M426.6,54.1 L426.6,63.1  h0.01'/>	<g transform="translate(426.6,444.9)" style="stroke:none; fill:black; font-family:Arial; font-size:12.00pt; text-anchor:middle">
		<text> 70</text>
	</g>
	<path  d='M476.0,422.4 L476.0,413.4 M476.0,54.1 L476.0,63.1  h0.01'/>	<g transform="translate(476.0,444.9)" style="stroke:none; fill:black; font-family:Arial; font-size:12.00pt; text-anchor:middle">
		<text> 80</text>
	</g>
	<path  d='M525.5,422.4 L525.5,413.4 M525.5,54.1 L525.5,63.1  h0.01'/>	<g transform="translate(525.5,444.9)" style="stroke:none; fill:black; font-family:Arial; font-size:12.00pt; text-anchor:middle">
		<text> 90</text>
	</g>
	<path  d='M575.0,422.4 L575.0,413.4 M575.0,54.1 L575.0,63.1  h0.01'/>	<g transform="translate(575.0,444.9)" style="stroke:none; fill:black; font-family:Arial; font-size:12.00pt; text-anchor:middle">
		<text> 100</text>
	</g>
	<path  d='M80.2,54.1 L80.2,422.4 L575.0,422.4 L575.0,54.1 L80.2,54.1 Z  h0.01'/>	<g transform="translate(17.6,238.3) rotate(270)" style="stroke:none; fill:black; font-family:Arial; font-size:12.00pt; text-anchor:middle">
		<text>TCP throughput (kbps)</text>
	</g>
	<g transform="translate(327.6,471.9)" style="stroke:none; fill:black; font-family:Arial; font-size:12.00pt; text-anchor:middle">
		<text>Time (s)</text>
	</g>
	<g transform="translate(327.6,31.6)" style="stroke:none; fill:black; font-family:Arial; font-size:12.00pt; text-anchor:middle">
		<text>Distance 700m, 2kmph: TCP throughput vs link capacity Uplink 100RBs PfffScheduler</text>
	</g>
	<path  d='M325.3,413.4 L325.3,377.4 L566.7,377.4 L566.7,413.4 L325.3,413.4 Z  h0.01'/></g>
	<g id="gnuplot_plot_1" ><title>gnuplot_plot_1</title>
<g style="fill:none; color:red; stroke:currentColor; stroke-width:1.00; stroke-linecap:butt; stroke-linejoin:miter">
	<g transform="translate(507.9,390.9)" style="stroke:none; fill:black; font-family:Arial; font-size:12.00pt; text-anchor:end">
		<text>TCP Throughput</text>
	</g>
	<path  d='M516.2,386.4 L558.4,386.4 M83.2,410.8 L83.4,410.4 L83.7,410.4 L83.9,411.7 L84.2,411.4 L84.4,396.8 
		L84.7,363.4 L84.9,344.6 L85.1,344.6 L85.4,344.6 L85.6,362.5 L85.9,328.5 L86.1,315.7 L86.4,315.7 
		L86.6,329.5 L86.9,329.5 L87.1,333.4 L87.4,333.4 L87.6,333.4 L87.9,333.4 L88.1,333.4 L88.4,353.1 
		L88.6,341.3 L88.9,334.0 L89.1,334.0 L89.4,334.0 L89.6,334.0 L89.8,334.0 L90.1,334.0 L90.3,334.0 
		L90.6,334.0 L90.8,334.0 L91.1,353.2 L91.3,353.2 L91.6,353.2 L91.8,353.2 L92.1,353.2 L92.3,353.2 
		L92.6,353.2 L92.8,353.2 L93.1,353.2 L93.3,366.5 L93.6,366.5 L93.8,366.5 L94.0,370.0 L94.3,370.0 
		L94.5,370.0 L94.8,370.0 L95.0,370.0 L95.3,370.0 L95.5,374.7 L95.8,370.7 L96.0,370.7 L96.3,370.7 
		L96.5,370.7 L96.8,370.7 L97.0,370.7 L97.3,370.7 L97.5,370.7 L97.8,370.7 L98.0,370.7 L98.3,379.1 
		L98.5,376.5 L98.8,371.4 L99.0,368.0 L99.2,368.0 L99.5,368.0 L99.7,368.0 L100.0,368.0 L100.2,367.4 
		L100.5,367.1 L100.7,367.1 L101.0,367.1 L101.2,367.1 L101.5,367.1 L101.7,367.1 L102.0,367.1 L102.2,367.1 
		L102.5,372.2 L102.7,372.2 L103.0,372.2 L103.2,372.2 L103.5,372.2 L103.7,372.2 L103.9,373.4 L104.2,373.1 
		L104.4,373.1 L104.7,373.1 L104.9,373.1 L105.2,373.1 L105.4,375.6 L105.7,375.2 L105.9,375.2 L106.2,374.3 
		L106.4,374.0 L106.7,374.0 L106.9,374.0 L107.2,374.0 L107.4,374.0 L107.7,374.0 L107.9,374.0 L108.2,374.0 
		L108.4,375.0 L108.6,375.0 L108.9,375.0 L109.1,376.3 L109.4,375.6 L109.6,373.3 L109.9,373.3 L110.1,371.1 
		L110.4,371.2 L110.6,370.8 L110.9,370.8 L111.1,370.1 L111.4,370.1 L111.6,370.1 L111.9,370.1 L112.1,370.1 
		L112.4,370.1 L112.6,370.1 L112.9,370.1 L113.1,370.1 L113.3,370.1 L113.6,370.1 L113.8,370.1 L114.1,373.3 
		L114.3,372.9 L114.6,372.9 L114.8,372.9 L115.1,372.9 L115.3,374.2 L115.6,372.9 L115.8,372.9 L116.1,373.6 
		L116.3,372.0 L116.6,370.1 L116.8,370.1 L117.1,370.1 L117.3,370.1 L117.6,371.2 L117.8,371.2 L118.0,371.6 
		L118.3,371.6 L118.5,371.8 L118.8,371.8 L119.0,371.8 L119.3,371.8 L119.5,371.8 L119.8,371.8 L120.0,371.8 
		L120.3,371.8 L120.5,371.8 L120.8,374.0 L121.0,374.0 L121.3,374.0 L121.5,374.3 L121.8,372.6 L122.0,372.5 
		L122.3,372.6 L122.5,372.4 L122.7,371.7 L123.0,371.3 L123.2,371.7 L123.5,371.3 L123.7,370.8 L124.0,371.3 
		L124.2,369.0 L124.5,367.3 L124.7,367.3 L125.0,366.8 L125.2,366.4 L125.5,366.4 L125.7,365.8 L126.0,365.4 
		L126.2,365.4 L126.5,365.4 L126.7,365.4 L127.0,365.8 L127.2,365.8 L127.5,365.8 L127.7,365.6 L127.9,365.9 
		L128.2,365.1 L128.4,364.5 L128.7,364.1 L128.9,364.1 L129.2,364.1 L129.4,364.1 L129.7,364.1 L129.9,364.1 
		L130.2,364.1 L130.4,364.1 L130.7,364.1 L130.9,364.1 L131.2,364.1 L131.4,366.7 L131.7,366.3 L131.9,365.1 
		L132.2,364.8 L132.4,364.8 L132.6,364.8 L132.9,364.8 L133.1,364.8 L133.4,364.8 L133.6,366.3 L133.9,365.9 
		L134.1,365.9 L134.4,365.9 L134.6,365.9 L134.9,366.8 L135.1,366.7 L135.4,366.9 L135.6,366.9 L135.9,366.9 
		L136.1,367.6 L136.4,367.6 L136.6,367.6 L136.9,367.6 L137.1,367.6 L137.3,368.7 L137.6,368.5 L137.8,368.5 
		L138.1,368.5 L138.3,369.2 L138.6,369.2 L138.8,369.2 L139.1,369.1 L139.3,369.1 L139.6,369.0 L139.8,368.9 
		L140.1,368.9 L140.3,368.9 L140.6,368.9 L140.8,368.9 L141.1,368.9 L141.3,368.9 L141.6,368.9 L141.8,370.2 
		L142.1,370.3 L142.3,370.3 L142.5,370.3 L142.8,370.3 L143.0,370.7 L143.3,370.6 L143.5,370.6 L143.8,370.6 
		L144.0,370.6 L144.3,370.6 L144.5,370.6 L144.8,371.5 L145.0,371.5 L145.3,371.7 L145.5,371.7 L145.8,371.9 
		L146.0,371.9 L146.3,371.9 L146.5,372.0 L146.8,371.8 L147.0,371.8 L147.2,371.8 L147.5,371.8 L147.7,371.8 
		L148.0,371.8 L148.2,372.8 L148.5,372.8 L148.7,372.9 L149.0,373.0 L149.2,373.0 L149.5,373.0 L149.7,373.4 
		L150.0,373.4 L150.2,373.4 L150.5,373.4 L150.7,373.4 L151.0,373.4 L151.2,373.4 L151.5,374.3 L151.7,374.4 
		L151.9,374.4 L152.2,374.4 L152.4,374.4 L152.7,374.4 L152.9,375.1 L153.2,375.1 L153.4,375.1 L153.7,375.1 
		L153.9,375.1 L154.2,375.1 L154.4,375.1 L154.7,375.9 L154.9,376.1 L155.2,376.1 L155.4,376.1 L155.7,376.1 
		L155.9,376.1 L156.2,376.1 L156.4,376.1 L156.6,376.9 L156.9,377.1 L157.1,377.1 L157.4,377.1 L157.6,377.1 
		L157.9,377.1 L158.1,377.1 L158.4,377.8 L158.6,377.9 L158.9,377.9 L159.1,378.0 L159.4,378.0 L159.6,378.0 
		L159.9,378.0 L160.1,378.0 L160.4,378.0 L160.6,378.7 L160.9,378.7 L161.1,378.7 L161.3,378.7 L161.6,378.7 
		L161.8,379.3 L162.1,379.3 L162.3,379.5 L162.6,379.5 L162.8,379.5 L163.1,379.6 L163.3,379.5 L163.6,379.5 
		L163.8,379.5 L164.1,379.5 L164.3,379.9 L164.6,379.9 L164.8,379.9 L165.1,380.2 L165.3,380.1 L165.6,380.1 
		L165.8,380.1 L166.0,380.1 L166.3,380.5 L166.5,380.6 L166.8,380.5 L167.0,380.5 L167.3,380.5 L167.5,380.6 
		L167.8,380.5 L168.0,380.5 L168.3,380.4 L168.5,380.2 L168.8,380.2 L169.0,380.2 L169.3,380.1 L169.5,380.1 
		L169.8,380.3 L170.0,380.2 L170.3,380.2 L170.5,380.2 L170.7,380.6 L171.0,380.5 L171.2,380.3 L171.5,379.9 
		L171.7,379.9 L172.0,379.9 L172.2,379.9 L172.5,380.2 L172.7,380.2 L173.0,380.2 L173.2,379.3 L173.5,378.9 
		L173.7,378.9 L174.0,378.9 L174.2,378.9 L174.5,378.9 L174.7,378.6 L175.0,378.3 L175.2,378.1 L175.4,378.1 
		L175.7,378.1 L175.9,378.3 L176.2,378.0 L176.4,377.9 L176.7,377.9 L176.9,377.9 L177.2,377.9 L177.4,378.2 
		L177.7,378.2 L177.9,378.2 L178.2,378.2 L178.4,378.3 L178.7,378.1 L178.9,378.1 L179.2,378.1 L179.4,378.2 
		L179.7,378.2 L179.9,378.2 L180.1,378.2 L180.4,378.6 L180.6,378.6 L180.9,378.6 L181.1,378.6 L181.4,379.0 
		L181.6,378.7 L181.9,378.6 L182.1,378.3 L182.4,378.3 L182.6,378.3 L182.9,378.5 L183.1,377.9 L183.4,377.9 
		L183.6,377.9 L183.9,377.9 L184.1,377.9 L184.4,377.8 L184.6,377.8 L184.9,377.8 L185.1,377.8 L185.3,377.8 
		L185.6,377.8 L185.8,377.8 L186.1,377.8 L186.3,377.8 L186.6,377.8 L186.8,377.8 L187.1,378.8 L187.3,378.6 
		L187.6,378.6 L187.8,378.6 L188.1,378.6 L188.3,378.6 L188.6,379.0 L188.8,379.1 L189.1,379.0 L189.3,379.0 
		L189.6,379.2 L189.8,379.2 L190.0,379.2 L190.3,379.2 L190.5,379.2 L190.8,379.2 L191.0,379.5 L191.3,379.5 
		L191.5,379.5 L191.8,379.5 L192.0,379.5 L192.3,379.5 L192.5,379.5 L192.8,380.0 L193.0,379.6 L193.3,379.6 
		L193.5,379.6 L193.8,379.6 L194.0,379.6 L194.3,379.6 L194.5,380.0 L194.7,379.7 L195.0,379.3 L195.2,379.3 
		L195.5,379.4 L195.7,379.2 L196.0,379.2 L196.2,379.2 L196.5,379.2 L196.7,379.5 L197.0,379.0 L197.2,378.3 
		L197.5,378.2 L197.7,378.2 L198.0,378.2 L198.2,378.2 L198.5,378.5 L198.7,377.8 L199.0,377.7 L199.2,377.7 
		L199.4,377.7 L199.7,377.7 L199.9,377.7 L200.2,377.7 L200.4,377.7 L200.7,378.2 L200.9,378.1 L201.2,378.1 
		L201.4,378.1 L201.7,378.1 L201.9,378.1 L202.2,378.1 L202.4,378.6 L202.7,378.6 L202.9,378.6 L203.2,378.7 
		L203.4,378.7 L203.7,378.7 L203.9,378.7 L204.1,378.7 L204.4,378.7 L204.6,378.7 L204.9,379.3 L205.1,379.3 
		L205.4,379.4 L205.6,379.4 L205.9,379.4 L206.1,379.4 L206.4,379.4 L206.6,379.4 L206.9,379.8 L207.1,379.8 
		L207.4,379.8 L207.6,379.8 L207.9,379.8 L208.1,379.8 L208.4,379.8 L208.6,379.8 L208.8,379.8 L209.1,380.5 
		L209.3,380.5 L209.6,380.6 L209.8,380.6 L210.1,380.6 L210.3,380.6 L210.6,380.6 L210.8,380.6 L211.1,380.6 
		L211.3,381.1 L211.6,381.1 L211.8,381.2 L212.1,381.2 L212.3,381.2 L212.6,381.2 L212.8,381.4 L213.1,381.4 
		L213.3,381.4 L213.5,381.4 L213.8,381.4 L214.0,381.4 L214.3,381.6 L214.5,381.5 L214.8,381.5 L215.0,381.5 
		L215.3,381.5 L215.5,381.5 L215.8,381.8 L216.0,381.8 L216.3,381.8 L216.5,381.8 L216.8,381.8 L217.0,381.8 
		L217.3,382.0 L217.5,382.0 L217.8,382.0 L218.0,381.8 L218.2,381.7 L218.5,381.8 L218.7,381.8 L219.0,381.8 
		L219.2,381.8 L219.5,381.8 L219.7,381.8 L220.0,381.8 L220.2,381.8 L220.5,381.8 L220.7,381.8 L221.0,381.8 
		L221.2,381.8 L221.5,381.8 L221.7,381.8 L222.0,381.8 L222.2,382.7 L222.5,382.6 L222.7,382.6 L222.9,382.6 
		L223.2,382.6 L223.4,382.6 L223.7,382.6 L223.9,382.6 L224.2,382.6 L224.4,382.6 L224.7,382.6 L224.9,383.4 
		L225.2,383.2 L225.4,383.2 L225.7,383.2 L225.9,383.2 L226.2,383.4 L226.4,383.4 L226.7,383.4 L226.9,383.4 
		L227.2,383.4 L227.4,383.4 L227.7,383.4 L227.9,383.7 L228.1,383.7 L228.4,383.7 L228.6,383.7 L228.9,383.6 
		L229.1,383.6 L229.4,383.5 L229.6,383.4 L229.9,383.4 L230.1,383.5 L230.4,383.4 L230.6,383.4 L230.9,383.2 
		L231.1,383.0 L231.4,383.0 L231.6,383.0 L231.9,383.0 L232.1,383.0 L232.4,383.0 L232.6,383.0 L232.8,383.0 
		L233.1,383.0 L233.3,383.5 L233.6,383.2 L233.8,383.2 L234.1,383.2 L234.3,383.2 L234.6,383.1 L234.8,383.1 
		L235.1,383.1 L235.3,383.1 L235.6,383.1 L235.8,383.1 L236.1,383.1 L236.3,383.4 L236.6,383.4 L236.8,383.5 
		L237.1,383.5 L237.3,383.5 L237.5,383.5 L237.8,383.5 L238.0,383.5 L238.3,383.7 L238.5,383.6 L238.8,383.6 
		L239.0,383.6 L239.3,383.6 L239.5,383.6 L239.8,383.6 L240.0,383.6 L240.3,383.6 L240.5,383.6 L240.8,383.6 
		L241.0,383.6 L241.3,384.3 L241.5,384.3 L241.8,384.3 L242.0,384.3 L242.2,384.3 L242.5,384.3 L242.7,384.3 
		L243.0,384.5 L243.2,384.5 L243.5,384.6 L243.7,384.6 L244.0,384.6 L244.2,384.6 L244.5,384.6 L244.7,384.9 
		L245.0,384.9 L245.2,384.9 L245.5,384.9 L245.7,385.0 L246.0,385.0 L246.2,385.0 L246.5,385.0 L246.7,385.3 
		L246.9,385.2 L247.2,385.2 L247.4,385.2 L247.7,385.2 L247.9,385.5 L248.2,385.5 L248.4,385.5 L248.7,385.5 
		L248.9,385.6 L249.2,385.6 L249.4,385.6 L249.7,385.7 L249.9,385.7 L250.2,385.7 L250.4,385.7 L250.7,385.7 
		L250.9,385.7 L251.2,385.7 L251.4,385.9 L251.6,385.9 L251.9,385.9 L252.1,385.9 L252.4,385.9 L252.6,385.9 
		L252.9,385.9 L253.1,385.9 L253.4,385.9 L253.6,386.2 L253.9,386.2 L254.1,386.2 L254.4,386.2 L254.6,386.3 
		L254.9,386.3 L255.1,386.2 L255.4,386.2 L255.6,386.2 L255.9,386.2 L256.1,386.2 L256.3,386.2 L256.6,386.2 
		L256.8,386.6 L257.1,386.5 L257.3,386.5 L257.6,386.5 L257.8,386.5 L258.1,386.5 L258.3,386.5 L258.6,386.7 
		L258.8,386.7 L259.1,386.7 L259.3,386.7 L259.6,386.7 L259.8,386.8 L260.1,386.7 L260.3,386.7 L260.6,386.8 
		L260.8,386.8 L261.0,386.8 L261.3,386.8 L261.5,386.8 L261.8,386.8 L262.0,386.9 L262.3,386.7 L262.5,386.5 
		L262.8,386.4 L263.0,386.3 L263.3,386.3 L263.5,386.5 L263.8,386.4 L264.0,386.5 L264.3,386.5 L264.5,386.5 
		L264.8,386.5 L265.0,386.2 L265.3,385.7 L265.5,385.6 L265.8,385.6 L266.0,385.6 L266.2,385.6 L266.5,385.6 
		L266.7,385.6 L267.0,385.6 L267.2,385.6 L267.5,385.6 L267.7,385.6 L268.0,386.0 L268.2,385.6 L268.5,385.6 
		L268.7,385.6 L269.0,385.6 L269.2,385.6 L269.5,385.5 L269.7,385.5 L270.0,385.4 L270.2,385.4 L270.4,385.4 
		L270.7,385.4 L270.9,385.4 L271.2,385.4 L271.4,385.4 L271.7,385.2 L271.9,385.2 L272.2,385.2 L272.4,385.2 
		L272.7,385.2 L272.9,385.3 L273.2,385.3 L273.4,385.1 L273.7,385.1 L273.9,385.1 L274.2,385.1 L274.4,385.3 
		L274.7,385.3 L274.9,385.3 L275.1,385.3 L275.4,385.3 L275.6,385.3 L275.9,385.3 L276.1,385.3 L276.4,385.3 
		L276.6,385.3 L276.9,385.5 L277.1,385.4 L277.4,385.4 L277.6,385.4 L277.9,385.4 L278.1,385.5 L278.4,385.5 
		L278.6,385.5 L278.9,385.6 L279.1,385.5 L279.4,385.5 L279.6,385.5 L279.8,385.5 L280.1,385.5 L280.3,385.5 
		L280.6,385.5 L280.8,385.7 L281.1,385.7 L281.3,385.7 L281.6,385.7 L281.8,385.7 L282.1,385.7 L282.3,385.7 
		L282.6,385.7 L282.8,385.7 L283.1,385.7 L283.3,385.7 L283.6,385.7 L283.8,385.7 L284.1,386.1 L284.3,386.1 
		L284.5,386.1 L284.8,386.1 L285.0,386.1 L285.3,386.1 L285.5,386.1 L285.8,386.1 L286.0,386.1 L286.3,386.1 
		L286.5,386.1 L286.8,386.5 L287.0,386.5 L287.3,386.5 L287.5,386.5 L287.8,386.5 L288.0,386.6 L288.3,386.6 
		L288.5,386.6 L288.8,386.6 L289.0,386.7 L289.2,386.6 L289.5,386.6 L289.7,386.6 L290.0,386.6 L290.2,386.6 
		L290.5,386.6 L290.7,386.6 L291.0,386.6 L291.2,386.6 L291.5,386.9 L291.7,386.9 L292.0,387.0 L292.2,387.0 
		L292.5,387.0 L292.7,387.0 L293.0,387.0 L293.2,387.0 L293.5,387.1 L293.7,387.1 L293.9,387.1 L294.2,387.1 
		L294.4,387.1 L294.7,387.1 L294.9,387.1 L295.2,387.1 L295.4,387.1 L295.7,387.1 L295.9,387.1 L296.2,387.4 
		L296.4,387.4 L296.7,387.4 L296.9,387.4 L297.2,387.4 L297.4,387.4 L297.7,387.7 L297.9,387.7 L298.2,387.7 
		L298.4,387.7 L298.6,387.8 L298.9,387.8 L299.1,387.8 L299.4,387.8 L299.6,387.8 L299.9,387.8 L300.1,387.9 
		L300.4,387.9 L300.6,387.9 L300.9,387.9 L301.1,387.9 L301.4,388.1 L301.6,388.1 L301.9,388.1 L302.1,388.1 
		L302.4,388.1 L302.6,388.1 L302.9,388.1 L303.1,388.1 L303.3,388.1 L303.6,388.1 L303.8,388.1 L304.1,388.1 
		L304.3,388.1 L304.6,388.1 L304.8,388.3 L305.1,388.4 L305.3,388.3 L305.6,388.3 L305.8,388.3 L306.1,388.4 
		L306.3,388.4 L306.6,388.4 L306.8,388.4 L307.1,388.4 L307.3,388.4 L307.6,388.5 L307.8,388.5 L308.1,388.5 
		L308.3,388.5 L308.5,388.5 L308.8,388.5 L309.0,388.5 L309.3,388.5 L309.5,388.5 L309.8,388.5 L310.0,388.5 
		L310.3,388.5 L310.5,388.5 L310.8,388.5 L311.0,389.0 L311.3,389.0 L311.5,389.0 L311.8,389.0 L312.0,389.0 
		L312.3,389.1 L312.5,389.1 L312.8,389.1 L313.0,389.1 L313.2,389.1 L313.5,389.1 L313.7,389.2 L314.0,389.2 
		L314.2,389.2 L314.5,389.2 L314.7,389.2 L315.0,389.2 L315.2,389.2 L315.5,389.2 L315.7,389.2 L316.0,389.4 
		L316.2,389.3 L316.5,389.3 L316.7,389.2 L317.0,389.1 L317.2,389.1 L317.5,389.1 L317.7,389.1 L317.9,389.1 
		L318.2,389.1 L318.4,389.1 L318.7,389.1 L318.9,389.1 L319.2,389.2 L319.4,389.0 L319.7,388.9 L319.9,388.9 
		L320.2,388.9 L320.4,388.9 L320.7,388.9 L320.9,389.1 L321.2,389.1 L321.4,389.1 L321.7,389.1 L321.9,389.1 
		L322.2,389.1 L322.4,389.2 L322.6,389.1 L322.9,389.0 L323.1,389.0 L323.4,389.1 L323.6,389.1 L323.9,389.1 
		L324.1,389.1 L324.4,389.1 L324.6,389.1 L324.9,389.1 L325.1,389.1 L325.4,389.1 L325.6,389.1 L325.9,389.1 
		L326.1,389.1 L326.4,389.1 L326.6,389.1 L326.9,389.1 L327.1,389.1 L327.3,389.1 L327.6,389.0 L327.8,388.9 
		L328.1,388.9 L328.3,388.8 L328.6,388.7 L328.8,388.7 L329.1,388.8 L329.3,388.7 L329.6,388.5 L329.8,388.5 
		L330.1,388.4 L330.3,388.4 L330.6,388.3 L330.8,388.3 L331.1,388.3 L331.3,388.3 L331.6,388.3 L331.8,388.5 
		L332.0,388.3 L332.3,388.3 L332.5,388.3 L332.8,388.3 L333.0,388.3 L333.3,388.3 L333.5,388.3 L333.8,388.2 
		L334.0,388.2 L334.3,388.2 L334.5,388.1 L334.8,388.1 L335.0,388.1 L335.3,388.1 L335.5,388.1 L335.8,387.9 
		L336.0,387.7 L336.3,387.7 L336.5,387.7 L336.7,387.7 L337.0,387.7 L337.2,387.7 L337.5,387.7 L337.7,387.8 
		L338.0,387.8 L338.2,387.8 L338.5,387.8 L338.7,387.8 L339.0,387.9 L339.2,387.8 L339.5,387.8 L339.7,387.9 
		L340.0,387.9 L340.2,387.8 L340.5,387.8 L340.7,387.8 L341.0,387.8 L341.2,387.8 L341.4,387.9 L341.7,387.9 
		L341.9,387.9 L342.2,387.9 L342.4,387.9 L342.7,387.9 L342.9,387.9 L343.2,387.8 L343.4,387.8 L343.7,387.8 
		L343.9,387.9 L344.2,387.9 L344.4,387.8 L344.7,387.7 L344.9,387.8 L345.2,387.7 L345.4,387.7 L345.7,387.7 
		L345.9,387.7 L346.2,387.7 L346.4,387.7 L346.6,387.7 L346.9,387.7 L347.1,387.7 L347.4,387.7 L347.6,388.1 
		L347.9,388.0 L348.1,388.0 L348.4,388.0 L348.6,387.9 L348.9,388.0 L349.1,387.9 L349.4,387.9 L349.6,387.9 
		L349.9,387.9 L350.1,387.9 L350.4,387.9 L350.6,387.9 L350.9,387.9 L351.1,387.9 L351.3,387.9 L351.6,387.9 
		L351.8,387.9 L352.1,388.1 L352.3,388.1 L352.6,388.1 L352.8,388.1 L353.1,388.1 L353.3,388.1 L353.6,388.1 
		L353.8,388.3 L354.1,388.2 L354.3,388.2 L354.6,388.3 L354.8,388.2 L355.1,388.2 L355.3,388.2 L355.6,388.2 
		L355.8,388.2 L356.0,388.2 L356.3,388.2 L356.5,388.2 L356.8,388.2 L357.0,388.2 L357.3,388.2 L357.5,388.5 
		L357.8,388.4 L358.0,388.4 L358.3,388.4 L358.5,388.4 L358.8,388.4 L359.0,388.4 L359.3,388.4 L359.5,388.4 
		L359.8,388.4 L360.0,388.4 L360.3,388.4 L360.5,388.4 L360.7,388.4 L361.0,388.7 L361.2,388.7 L361.5,388.7 
		L361.7,388.7 L362.0,388.7 L362.2,388.7 L362.5,388.7 L362.7,388.7 L363.0,388.7 L363.2,388.7 L363.5,388.7 
		L363.7,389.0 L364.0,389.0 L364.2,389.0 L364.5,389.1 L364.7,389.1 L365.0,389.1 L365.2,389.1 L365.4,389.1 
		L365.7,389.1 L365.9,389.1 L366.2,389.1 L366.4,389.1 L366.7,389.1 L366.9,389.1 L367.2,389.1 L367.4,389.1 
		L367.7,389.1 L367.9,389.4 L368.2,389.4 L368.4,389.4 L368.7,389.4 L368.9,389.4 L369.2,389.4 L369.4,389.4 
		L369.7,389.5 L369.9,389.5 L370.1,389.5 L370.4,389.5 L370.6,389.5 L370.9,389.5 L371.1,389.5 L371.4,389.6 
		L371.6,389.6 L371.9,389.6 L372.1,389.6 L372.4,389.6 L372.6,389.7 L372.9,389.6 L373.1,389.6 L373.4,389.6 
		L373.6,389.6 L373.9,389.6 L374.1,389.6 L374.4,389.6 L374.6,389.6 L374.8,389.6 L375.1,389.6 L375.3,389.6 
		L375.6,389.6 L375.8,389.6 L376.1,389.8 L376.3,389.7 L376.6,389.7 L376.8,389.7 L377.1,389.7 L377.3,389.7 
		L377.6,389.7 L377.8,389.9 L378.1,389.9 L378.3,389.9 L378.6,389.9 L378.8,389.9 L379.1,389.9 L379.3,389.9 
		L379.5,390.0 L379.8,390.0 L380.0,390.0 L380.3,390.0 L380.5,390.0 L380.8,390.0 L381.0,390.0 L381.3,390.1 
		L381.5,390.1 L381.8,390.1 L382.0,390.1 L382.3,390.2 L382.5,390.2 L382.8,390.2 L383.0,390.2 L383.3,390.2 
		L383.5,390.2 L383.8,390.2 L384.0,390.2 L384.2,390.3 L384.5,390.2 L384.7,390.2 L385.0,390.2 L385.2,390.2 
		L385.5,390.2 L385.7,390.2 L386.0,390.2 L386.2,390.2 L386.5,390.3 L386.7,390.3 L387.0,390.3 L387.2,390.3 
		L387.5,390.3 L387.7,390.4 L388.0,390.4 L388.2,390.4 L388.5,390.4 L388.7,390.5 L389.0,390.4 L389.2,390.4 
		L389.4,390.4 L389.7,390.4 L389.9,390.5 L390.2,390.4 L390.4,390.4 L390.7,390.4 L390.9,390.5 L391.2,390.4 
		L391.4,390.4 L391.7,390.4 L391.9,390.4 L392.2,390.4 L392.4,390.4 L392.7,390.5 L392.9,390.4 L393.2,390.4 
		L393.4,390.4 L393.7,390.4 L393.9,390.4 L394.1,390.4 L394.4,390.4 L394.6,390.4 L394.9,390.4 L395.1,390.4 
		L395.4,390.7 L395.6,390.7 L395.9,390.7 L396.1,390.7 L396.4,390.7 L396.6,390.7 L396.9,390.7 L397.1,390.8 
		L397.4,390.8 L397.6,390.8 L397.9,390.8 L398.1,390.8 L398.4,390.8 L398.6,390.8 L398.8,390.8 L399.1,391.0 
		L399.3,391.0 L399.6,391.0 L399.8,391.0 L400.1,391.1 L400.3,391.1 L400.6,391.1 L400.8,391.1 L401.1,391.1 
		L401.3,391.1 L401.6,391.0 L401.8,390.9 L402.1,390.9 L402.3,390.9 L402.6,390.9 L402.8,390.9 L403.1,390.9 
		L403.3,390.9 L403.5,390.9 L403.8,390.9 L404.0,390.9 L404.3,390.9 L404.5,390.9 L404.8,390.9 L405.0,390.9 
		L405.3,390.9 L405.5,391.2 L405.8,391.2 L406.0,391.2 L406.3,391.1 L406.5,391.1 L406.8,391.1 L407.0,391.1 
		L407.3,391.1 L407.5,391.1 L407.8,391.1 L408.0,391.1 L408.2,391.1 L408.5,391.1 L408.7,391.1 L409.0,391.1 
		L409.2,391.1 L409.5,391.1 L409.7,391.1 L410.0,391.1 L410.2,391.1 L410.5,391.1 L410.7,391.1 L411.0,391.3 
		L411.2,391.3 L411.5,391.3 L411.7,391.3 L412.0,391.3 L412.2,391.3 L412.5,391.3 L412.7,391.3 L412.9,391.3 
		L413.2,391.3 L413.4,391.3 L413.7,391.3 L413.9,391.3 L414.2,391.5 L414.4,391.5 L414.7,391.5 L414.9,391.6 
		L415.2,391.6 L415.4,391.6 L415.7,391.6 L415.9,391.6 L416.2,391.6 L416.4,391.6 L416.7,391.6 L416.9,391.6 
		L417.2,391.6 L417.4,391.6 L417.6,391.6 L417.9,391.6 L418.1,391.6 L418.4,391.6 L418.6,391.6 L418.9,391.6 
		L419.1,391.6 L419.4,391.6 L419.6,391.6 L419.9,391.8 L420.1,391.8 L420.4,391.8 L420.6,391.8 L420.9,391.8 
		L421.1,391.9 L421.4,391.9 L421.6,391.9 L421.9,391.9 L422.1,391.9 L422.3,391.9 L422.6,391.9 L422.8,391.9 
		L423.1,391.9 L423.3,391.9 L423.6,391.9 L423.8,391.9 L424.1,391.9 L424.3,391.9 L424.6,391.9 L424.8,391.9 
		L425.1,391.9 L425.3,391.9 L425.6,391.9 L425.8,391.9 L426.1,391.9 L426.3,391.9 L426.6,391.9 L426.8,392.2 
		L427.0,392.2 L427.3,392.2 L427.5,392.2 L427.8,392.2 L428.0,392.2 L428.3,392.2 L428.5,392.2 L428.8,392.2 
		L429.0,392.2 L429.3,392.2 L429.5,392.2 L429.8,392.3 L430.0,392.2 L430.3,392.2 L430.5,392.2 L430.8,392.2 
		L431.0,392.2 L431.3,392.2 L431.5,392.2 L431.8,392.2 L432.0,392.2 L432.2,392.2 L432.5,392.3 L432.7,392.3 
		L433.0,392.3 L433.2,392.3 L433.5,392.3 L433.7,392.3 L434.0,392.3 L434.2,392.3 L434.5,392.3 L434.7,392.3 
		L435.0,392.3 L435.2,392.3 L435.5,392.3 L435.7,392.3 L436.0,392.3 L436.2,392.3 L436.5,392.3 L436.7,392.4 
		L436.9,392.4 L437.2,392.4 L437.4,392.4 L437.7,392.4 L437.9,392.4 L438.2,392.4 L438.4,392.4 L438.7,392.4 
		L438.9,392.4 L439.2,392.5 L439.4,392.4 L439.7,392.3 L439.9,392.3 L440.2,392.3 L440.4,392.3 L440.7,392.4 
		L440.9,392.3 L441.2,392.3 L441.4,392.3 L441.6,392.3 L441.9,392.3 L442.1,392.3 L442.4,392.3 L442.6,392.3 
		L442.9,392.3 L443.1,392.3 L443.4,392.3 L443.6,392.5 L443.9,392.4 L444.1,392.4 L444.4,392.4 L444.6,392.4 
		L444.9,392.4 L445.1,392.4 L445.4,392.4 L445.6,392.4 L445.9,392.4 L446.1,392.4 L446.3,392.4 L446.6,392.3 
		L446.8,392.3 L447.1,392.3 L447.3,392.3 L447.6,392.3 L447.8,392.3 L448.1,392.3 L448.3,392.3 L448.6,392.3 
		L448.8,392.3 L449.1,392.3 L449.3,392.3 L449.6,392.3 L449.8,392.3 L450.1,392.3 L450.3,392.2 L450.6,392.0 
		L450.8,392.0 L451.0,392.0 L451.3,392.0 L451.5,392.0 L451.8,392.0 L452.0,392.0 L452.3,392.0 L452.5,391.9 
		L452.8,391.9 L453.0,391.9 L453.3,391.9 L453.5,391.9 L453.8,391.9 L454.0,391.9 L454.3,391.9 L454.5,391.9 
		L454.8,391.9 L455.0,391.9 L455.3,392.0 L455.5,392.0 L455.7,392.0 L456.0,392.0 L456.2,392.0 L456.5,392.0 
		L456.7,391.9 L457.0,391.9 L457.2,391.9 L457.5,391.9 L457.7,391.9 L458.0,391.9 L458.2,391.9 L458.5,391.9 
		L458.7,391.9 L459.0,391.9 L459.2,391.9 L459.5,392.1 L459.7,392.1 L460.0,392.1 L460.2,392.1 L460.4,392.1 
		L460.7,392.1 L460.9,392.1 L461.2,392.2 L461.4,392.2 L461.7,392.2 L461.9,392.2 L462.2,392.2 L462.4,392.2 
		L462.7,392.2 L462.9,392.2 L463.2,392.2 L463.4,392.2 L463.7,392.3 L463.9,392.3 L464.2,392.3 L464.4,392.3 
		L464.7,392.3 L464.9,392.3 L465.1,392.3 L465.4,392.3 L465.6,392.3 L465.9,392.3 L466.1,392.3 L466.4,392.4 
		L466.6,392.4 L466.9,392.4 L467.1,392.4 L467.4,392.4 L467.6,392.4 L467.9,392.5 L468.1,392.5 L468.4,392.5 
		L468.6,392.5 L468.9,392.5 L469.1,392.5 L469.4,392.5 L469.6,392.5 L469.9,392.5 L470.1,392.5 L470.3,392.5 
		L470.6,392.6 L470.8,392.6 L471.1,392.6 L471.3,392.6 L471.6,392.6 L471.8,392.6 L472.1,392.6 L472.3,392.6 
		L472.6,392.7 L472.8,392.7 L473.1,392.7 L473.3,392.8 L473.6,392.7 L473.8,392.7 L474.1,392.7 L474.3,392.7 
		L474.6,392.7 L474.8,392.7 L475.0,392.7 L475.3,392.8 L475.5,392.8 L475.8,392.8 L476.0,392.8 L476.3,392.8 
		L476.5,392.8 L476.8,392.7 L477.0,392.7 L477.3,392.7 L477.5,392.7 L477.8,392.7 L478.0,392.7 L478.3,392.7 
		L478.5,392.7 L478.8,392.7 L479.0,392.7 L479.3,392.8 L479.5,392.8 L479.7,392.8 L480.0,392.8 L480.2,392.8 
		L480.5,392.8 L480.7,392.8 L481.0,392.8 L481.2,392.9 L481.5,392.9 L481.7,392.9 L482.0,392.9 L482.2,392.9 
		L482.5,392.9 L482.7,392.9 L483.0,392.9 L483.2,392.9 L483.5,392.8 L483.7,392.8 L484.0,392.8 L484.2,392.8 
		L484.4,392.8 L484.7,392.8 L484.9,392.8 L485.2,392.8 L485.4,392.8 L485.7,392.8 L485.9,392.9 L486.2,392.9 
		L486.4,392.9 L486.7,392.9 L486.9,392.8 L487.2,392.8 L487.4,392.8 L487.7,392.8 L487.9,392.8 L488.2,392.8 
		L488.4,392.8 L488.7,392.8 L488.9,392.8 L489.1,392.9 L489.4,392.7 L489.6,392.7 L489.9,392.7 L490.1,392.7 
		L490.4,392.7 L490.6,392.7 L490.9,392.8 L491.1,392.8 L491.4,392.8 L491.6,392.8 L491.9,392.8 L492.1,392.8 
		L492.4,392.8 L492.6,392.8 L492.9,392.8 L493.1,392.8 L493.4,392.8 L493.6,392.8 L493.8,392.8 L494.1,392.9 
		L494.3,392.9 L494.6,392.9 L494.8,392.9 L495.1,392.9 L495.3,392.9 L495.6,392.9 L495.8,392.9 L496.1,392.9 
		L496.3,392.9 L496.6,392.9 L496.8,393.1 L497.1,393.1 L497.3,393.1 L497.6,393.1 L497.8,393.1 L498.1,393.1 
		L498.3,393.1 L498.5,393.1 L498.8,393.1 L499.0,393.1 L499.3,393.2 L499.5,393.2 L499.8,393.2 L500.0,393.2 
		L500.3,393.2 L500.5,393.2 L500.8,393.2 L501.0,393.2 L501.3,393.2 L501.5,393.3 L501.8,393.2 L502.0,393.2 
		L502.3,393.2 L502.5,393.2 L502.8,393.2 L503.0,393.3 L503.2,393.3 L503.5,393.3 L503.7,393.3 L504.0,393.3 
		L504.2,393.3 L504.5,393.3 L504.7,393.3 L505.0,393.3 L505.2,393.3 L505.5,393.3 L505.7,393.3 L506.0,393.3 
		L506.2,393.3 L506.5,393.4 L506.7,393.4 L507.0,393.4 L507.2,393.4 L507.5,393.4 L507.7,393.4 L507.9,393.4 
		L508.2,393.5 L508.4,393.5 L508.7,393.5 L508.9,393.5 L509.2,393.5 L509.4,393.5 L509.7,393.5 L509.9,393.5 
		L510.2,393.6 L510.4,393.6 L510.7,393.6 L510.9,393.6 L511.2,393.6 L511.4,393.6 L511.7,393.6 L511.9,393.6 
		L512.2,393.6 L512.4,393.6 L512.7,393.6 L512.9,393.6 L513.1,393.6 L513.4,393.6 L513.6,393.6 L513.9,393.6 
		L514.1,393.6 L514.4,393.6 L514.6,393.8 L514.9,393.8 L515.1,393.8 L515.4,393.8 L515.6,393.8 L515.9,393.8 
		L516.1,393.8 L516.4,393.8 L516.6,393.8 L516.9,393.9 L517.1,393.9 L517.4,393.9 L517.6,393.9 L517.8,393.9 
		L518.1,393.9 L518.3,393.9 L518.6,393.9 L518.8,393.9 L519.1,393.9 L519.3,393.9 L519.6,393.9 L519.8,393.9 
		L520.1,393.9 L520.3,394.0 L520.6,394.0 L520.8,394.0 L521.1,394.0 L521.3,394.0 L521.6,394.0 L521.8,394.0 
		L522.1,394.0 L522.3,394.0 L522.5,394.0 L522.8,394.0 L523.0,394.0 L523.3,394.0 L523.5,394.0 L523.8,394.0 
		L524.0,394.1 L524.3,394.1 L524.5,394.1 L524.8,394.1 L525.0,394.1 L525.3,394.1 L525.5,394.1 L525.8,394.1 
		L526.0,394.1 L526.3,394.1 L526.5,394.1 L526.8,394.1 L527.0,394.1 L527.2,394.2 L527.5,394.1 L527.7,394.1 
		L528.0,394.1 L528.2,394.1 L528.5,394.1 L528.7,394.2 L529.0,394.2 L529.2,394.2 L529.5,394.2 L529.7,394.2 
		L530.0,394.2 L530.2,394.2 L530.5,394.2 L530.7,394.2 L531.0,394.2 L531.2,394.2 L531.5,394.2 L531.7,394.3 
		L531.9,394.3 L532.2,394.3 L532.4,394.3 L532.7,394.3 L532.9,394.3 L533.2,394.3 L533.4,394.3 L533.7,394.3 
		L533.9,394.3 L534.2,394.3 L534.4,394.3 L534.7,394.3 L534.9,394.3 L535.2,394.3 L535.4,394.3 L535.7,394.2 
		L535.9,394.2 L536.2,394.2 L536.4,394.2 L536.6,394.2 L536.9,394.2 L537.1,394.2 L537.4,394.2 L537.6,394.2 
		L537.9,394.1 L538.1,394.1 L538.4,394.1 L538.6,394.1 L538.9,394.2 L539.1,394.1 L539.4,394.0 L539.6,394.0 
		L539.9,394.0 L540.1,394.1 L540.4,394.0 L540.6,394.0 L540.9,394.0 L541.1,394.0 L541.3,394.0 L541.6,394.0 
		L541.8,394.1 L542.1,394.1 L542.3,394.1 L542.6,394.1 L542.8,394.1 L543.1,394.1 L543.3,394.1 L543.6,394.1 
		L543.8,394.1 L544.1,394.2 L544.3,394.1 L544.6,394.1 L544.8,394.1 L545.1,394.1 L545.3,394.1 L545.6,394.1 
		L545.8,394.2 L546.0,394.1 L546.3,394.1 L546.5,394.1 L546.8,394.0 L547.0,394.0 L547.3,394.0 L547.5,394.0 
		L547.8,394.0 L548.0,393.9 L548.3,393.9 L548.5,393.9 L548.8,394.0 L549.0,394.0 L549.3,393.9 L549.5,394.0 
		L549.8,393.8 L550.0,393.8 L550.3,393.8 L550.5,393.8 L550.7,393.8 L551.0,393.8 L551.2,393.8 L551.5,393.8 
		L551.7,393.8 L552.0,393.8 L552.2,393.8 L552.5,394.0 L552.7,393.9 L553.0,393.9 L553.2,393.9 L553.5,393.9 
		L553.7,393.9 L554.0,393.9 L554.2,393.9 L554.5,393.9 L554.7,393.9 L555.0,393.9 L555.2,393.9 L555.5,393.9 
		L555.7,393.9 L555.9,393.9 L556.2,393.9 L556.4,393.9 L556.7,393.9 L556.9,394.0 L557.2,394.0 L557.4,394.0 
		L557.7,394.0 L557.9,394.0 L558.2,394.0 L558.4,394.0 L558.7,394.0 L558.9,394.0 L559.2,394.0 L559.4,394.0 
		L559.7,394.0 L559.9,394.0 L560.2,394.0 L560.4,394.1 L560.6,394.1 L560.9,394.1 L561.1,394.1 L561.4,394.1 
		L561.6,394.1 L561.9,394.1 L562.1,394.1 L562.4,394.1 L562.6,394.1 L562.9,394.1 L563.1,394.1 L563.4,394.1 
		L563.6,394.1 L563.9,394.1 L564.1,394.1 L564.4,394.1 L564.6,394.1 L564.9,394.1 L565.1,394.1 L565.3,394.3 
		L565.6,394.3 L565.8,394.3 L566.1,394.3 L566.3,394.3 L566.6,394.4 L566.8,394.4 L567.1,394.4 L567.3,394.4 
		L567.6,394.4 L567.8,394.4 L568.1,394.4 L568.3,394.4 L568.6,394.4 L568.8,394.4 L569.1,394.4 L569.3,394.4 
		L569.6,394.5 L569.8,394.5 L570.0,394.5 L570.3,394.5 L570.5,394.5 L570.8,394.5 L571.0,394.5 L571.3,394.5 
		L571.5,394.5 L571.8,394.5 L572.0,394.5 L572.3,394.5 L572.5,394.5 L572.8,394.5 L573.0,394.4 L573.3,394.4 
		L573.5,394.4 L573.8,394.4 L574.0,394.3 L574.3,394.4 L574.5,394.3 L574.7,394.3 L575.0,394.3  h0.01'/></g>
	</g>
	<g id="gnuplot_plot_2" ><title>gnuplot_plot_2</title>
<g style="fill:none; color:green; stroke:currentColor; stroke-width:1.00; stroke-linecap:butt; stroke-linejoin:miter">
	<g transform="translate(507.9,408.9)" style="stroke:none; fill:black; font-family:Arial; font-size:12.00pt; text-anchor:end">
		<text>Radio maximum capacity</text>
	</g>
	<path  d='M516.2,404.4 L558.4,404.4 M82.9,66.4 L83.2,242.3 L83.4,242.4 L83.7,242.4 L83.9,319.7 L84.2,316.2 
		L84.4,257.2 L84.7,136.1 L84.9,123.2 L85.1,123.2 L85.4,123.2 L85.6,208.3 L85.9,186.5 L86.1,180.9 
		L86.4,180.9 L86.6,213.9 L86.9,213.9 L87.1,231.0 L87.4,231.0 L87.6,231.0 L87.9,231.0 L88.1,231.0 
		L88.4,231.0 L88.6,265.3 L88.9,259.9 L89.1,259.9 L89.4,259.9 L89.6,259.9 L89.8,259.9 L90.1,259.9 
		L90.3,259.9 L90.6,259.9 L90.8,259.9 L91.1,299.4 L91.3,299.4 L91.6,299.4 L91.8,299.4 L92.1,299.4 
		L92.3,299.4 L92.6,299.4 L92.8,299.4 L93.1,299.4 L93.3,323.6 L93.6,323.6 L93.8,323.6 L94.0,330.0 
		L94.3,330.0 L94.5,330.0 L94.8,330.0 L95.0,330.0 L95.3,330.0 L95.5,339.9 L95.8,336.2 L96.0,336.2 
		L96.3,336.2 L96.5,336.2 L96.8,336.2 L97.0,336.2 L97.3,336.2 L97.5,336.2 L97.8,336.2 L98.0,336.2 
		L98.3,350.3 L98.5,348.2 L98.8,343.6 L99.0,340.4 L99.2,340.4 L99.5,340.4 L99.7,340.4 L100.0,340.4 
		L100.2,341.8 L100.5,341.6 L100.7,341.6 L101.0,341.6 L101.2,341.6 L101.5,341.6 L101.7,341.6 L102.0,341.6 
		L102.2,349.5 L102.5,349.3 L102.7,349.3 L103.0,349.3 L103.2,349.3 L103.5,349.3 L103.7,349.3 L103.9,352.3 
		L104.2,352.0 L104.4,352.0 L104.7,352.0 L104.9,352.0 L105.2,352.0 L105.4,355.9 L105.7,355.6 L105.9,355.6 
		L106.2,355.2 L106.4,355.0 L106.7,355.0 L106.9,355.0 L107.2,355.0 L107.4,355.0 L107.7,355.0 L107.9,355.0 
		L108.2,360.0 L108.4,357.5 L108.6,357.5 L108.9,357.5 L109.1,357.5 L109.4,358.8 L109.6,356.7 L109.9,356.7 
		L110.1,354.8 L110.4,355.0 L110.6,354.6 L110.9,354.6 L111.1,354.3 L111.4,354.3 L111.6,354.3 L111.9,354.3 
		L112.1,354.3 L112.4,354.3 L112.6,354.3 L112.9,354.3 L113.1,354.3 L113.3,354.3 L113.6,354.3 L113.8,354.3 
		L114.1,359.0 L114.3,358.6 L114.6,358.6 L114.8,358.6 L115.1,358.6 L115.3,360.5 L115.6,359.2 L115.8,359.2 
		L116.1,359.2 L116.3,358.7 L116.6,356.8 L116.8,356.8 L117.1,356.8 L117.3,356.8 L117.6,358.3 L117.8,358.3 
		L118.0,358.8 L118.3,358.8 L118.5,359.3 L118.8,359.2 L119.0,359.2 L119.3,359.2 L119.5,359.2 L119.8,359.2 
		L120.0,359.2 L120.3,359.2 L120.5,359.2 L120.8,362.2 L121.0,362.2 L121.3,362.2 L121.5,362.8 L121.8,360.8 
		L122.0,360.8 L122.3,361.0 L122.5,360.5 L122.7,359.4 L123.0,359.1 L123.2,359.5 L123.5,359.0 L123.7,358.6 
		L124.0,359.2 L124.2,355.6 L124.5,353.7 L124.7,353.7 L125.0,353.4 L125.2,353.0 L125.5,353.0 L125.7,352.4 
		L126.0,352.1 L126.2,352.1 L126.5,352.1 L126.7,352.1 L127.0,352.9 L127.2,352.9 L127.5,352.9 L127.7,352.7 
		L127.9,353.0 L128.2,352.3 L128.4,351.7 L128.7,351.3 L128.9,351.3 L129.2,351.3 L129.4,351.3 L129.7,351.3 
		L129.9,351.3 L130.2,351.3 L130.4,351.3 L130.7,351.3 L130.9,351.3 L131.2,351.3 L131.4,354.6 L131.7,354.3 
		L131.9,353.2 L132.2,352.5 L132.4,352.5 L132.6,352.5 L132.9,352.5 L133.1,352.5 L133.4,352.5 L133.6,354.4 
		L133.9,353.9 L134.1,353.9 L134.4,353.9 L134.6,353.9 L134.9,353.5 L135.1,353.4 L135.4,353.8 L135.6,353.8 
		L135.9,353.8 L136.1,354.6 L136.4,354.6 L136.6,354.6 L136.9,354.6 L137.1,354.6 L137.3,355.6 L137.6,355.0 
		L137.8,355.0 L138.1,355.0 L138.3,355.8 L138.6,355.8 L138.8,353.5 L139.1,352.6 L139.3,352.4 L139.6,352.4 
		L139.8,350.7 L140.1,350.8 L140.3,350.8 L140.6,350.8 L140.8,350.8 L141.1,350.8 L141.3,350.8 L141.6,350.8 
		L141.8,352.6 L142.1,352.8 L142.3,352.7 L142.5,352.7 L142.8,352.7 L143.0,353.3 L143.3,351.6 L143.5,351.6 
		L143.8,351.6 L144.0,351.6 L144.3,351.6 L144.5,351.6 L144.8,351.9 L145.0,351.9 L145.3,352.0 L145.5,352.0 
		L145.8,351.0 L146.0,349.1 L146.3,349.0 L146.5,349.0 L146.8,348.7 L147.0,348.7 L147.2,348.7 L147.5,348.7 
		L147.7,348.7 L148.0,348.7 L148.2,350.1 L148.5,350.1 L148.7,350.3 L149.0,350.5 L149.2,350.5 L149.5,350.5 
		L149.7,350.9 L150.0,350.9 L150.2,350.9 L150.5,350.9 L150.7,350.9 L151.0,350.9 L151.2,350.9 L151.5,350.8 
		L151.7,348.6 L151.9,348.6 L152.2,348.6 L152.4,348.6 L152.7,348.6 L152.9,349.6 L153.2,348.9 L153.4,348.9 
		L153.7,348.9 L153.9,348.9 L154.2,348.9 L154.4,348.9 L154.7,349.9 L154.9,350.0 L155.2,350.0 L155.4,350.0 
		L155.7,350.0 L155.9,350.0 L156.2,350.0 L156.4,350.0 L156.6,351.3 L156.9,351.5 L157.1,351.5 L157.4,351.5 
		L157.6,351.5 L157.9,351.5 L158.1,351.5 L158.4,351.5 L158.6,348.3 L158.9,347.2 L159.1,347.4 L159.4,347.4 
		L159.6,347.4 L159.9,347.4 L160.1,347.4 L160.4,347.4 L160.6,348.5 L160.9,348.6 L161.1,348.6 L161.3,348.6 
		L161.6,348.6 L161.8,349.6 L162.1,349.4 L162.3,349.0 L162.6,347.1 L162.8,346.9 L163.1,346.9 L163.3,346.3 
		L163.6,346.3 L163.8,346.3 L164.1,346.3 L164.3,347.0 L164.6,347.0 L164.8,347.0 L165.1,347.5 L165.3,346.8 
		L165.6,346.7 L165.8,346.7 L166.0,346.7 L166.3,347.4 L166.5,347.4 L166.8,347.6 L167.0,347.6 L167.3,347.6 
		L167.5,346.9 L167.8,346.6 L168.0,346.6 L168.3,346.3 L168.5,345.5 L168.8,345.5 L169.0,345.4 L169.3,345.4 
		L169.5,345.4 L169.8,345.8 L170.0,345.7 L170.3,345.7 L170.5,345.7 L170.7,346.4 L171.0,346.3 L171.2,345.8 
		L171.5,345.4 L171.7,345.4 L172.0,345.4 L172.2,345.4 L172.5,346.0 L172.7,346.0 L173.0,346.1 L173.2,344.7 
		L173.5,344.2 L173.7,344.2 L174.0,344.2 L174.2,344.2 L174.5,344.2 L174.7,344.3 L175.0,343.0 L175.2,342.4 
		L175.4,342.4 L175.7,342.4 L175.9,342.7 L176.2,341.8 L176.4,341.5 L176.7,341.5 L176.9,341.5 L177.2,341.5 
		L177.4,342.2 L177.7,342.2 L177.9,342.2 L178.2,342.2 L178.4,342.3 L178.7,342.2 L178.9,342.2 L179.2,342.2 
		L179.4,342.5 L179.7,342.5 L179.9,342.5 L180.1,342.5 L180.4,343.2 L180.6,343.2 L180.9,343.2 L181.1,343.2 
		L181.4,344.1 L181.6,343.6 L181.9,343.6 L182.1,343.4 L182.4,343.4 L182.6,343.4 L182.9,343.6 L183.1,343.1 
		L183.4,343.1 L183.6,343.1 L183.9,343.1 L184.1,343.1 L184.4,343.2 L184.6,343.2 L184.9,343.2 L185.1,343.2 
		L185.3,343.2 L185.6,343.2 L185.8,343.2 L186.1,343.2 L186.3,343.2 L186.6,343.2 L186.8,343.2 L187.1,345.0 
		L187.3,344.7 L187.6,344.7 L187.8,344.7 L188.1,344.7 L188.3,344.7 L188.6,345.4 L188.8,345.5 L189.1,345.5 
		L189.3,345.5 L189.6,345.9 L189.8,345.8 L190.0,345.8 L190.3,345.8 L190.5,345.8 L190.8,345.8 L191.0,346.2 
		L191.3,346.2 L191.5,346.2 L191.8,346.2 L192.0,346.2 L192.3,346.2 L192.5,346.2 L192.8,347.2 L193.0,346.7 
		L193.3,346.7 L193.5,346.7 L193.8,346.7 L194.0,346.7 L194.3,346.7 L194.5,347.5 L194.7,346.4 L195.0,346.0 
		L195.2,346.0 L195.5,346.2 L195.7,346.0 L196.0,346.0 L196.2,346.0 L196.5,346.0 L196.7,346.6 L197.0,346.1 
		L197.2,345.5 L197.5,345.4 L197.7,345.4 L198.0,345.4 L198.2,345.4 L198.5,346.0 L198.7,344.7 L199.0,343.3 
		L199.2,343.2 L199.4,343.2 L199.7,343.2 L199.9,343.2 L200.2,343.2 L200.4,343.2 L200.7,344.1 L200.9,344.0 
		L201.2,344.0 L201.4,344.0 L201.7,344.0 L201.9,344.0 L202.2,344.0 L202.4,345.0 L202.7,344.7 L202.9,344.7 
		L203.2,345.0 L203.4,345.0 L203.7,345.0 L203.9,345.0 L204.1,345.0 L204.4,345.0 L204.6,345.0 L204.9,345.6 
		L205.1,343.7 L205.4,342.5 L205.6,342.5 L205.9,342.5 L206.1,342.5 L206.4,342.5 L206.6,342.5 L206.9,343.3 
		L207.1,343.3 L207.4,343.3 L207.6,343.3 L207.9,343.3 L208.1,343.3 L208.4,343.3 L208.6,343.3 L208.8,343.3 
		L209.1,343.3 L209.3,344.7 L209.6,344.8 L209.8,344.8 L210.1,344.8 L210.3,344.8 L210.6,344.8 L210.8,344.8 
		L211.1,344.8 L211.3,345.7 L211.6,345.6 L211.8,345.7 L212.1,345.7 L212.3,345.7 L212.6,345.7 L212.8,346.1 
		L213.1,345.8 L213.3,345.2 L213.5,345.1 L213.8,345.1 L214.0,345.1 L214.3,345.5 L214.5,344.9 L214.8,344.9 
		L215.0,344.9 L215.3,344.9 L215.5,344.9 L215.8,345.4 L216.0,345.4 L216.3,345.4 L216.5,345.4 L216.8,345.4 
		L217.0,346.2 L217.3,345.7 L217.5,345.7 L217.8,345.6 L218.0,344.8 L218.2,344.7 L218.5,344.8 L218.7,344.8 
		L219.0,344.8 L219.2,344.8 L219.5,344.8 L219.7,344.8 L220.0,344.8 L220.2,344.8 L220.5,344.8 L220.7,344.8 
		L221.0,344.8 L221.2,344.8 L221.5,344.8 L221.7,344.8 L222.0,344.8 L222.2,346.8 L222.5,346.7 L222.7,346.7 
		L222.9,346.7 L223.2,346.7 L223.4,346.7 L223.7,346.7 L223.9,346.7 L224.2,346.7 L224.4,346.7 L224.7,346.7 
		L224.9,348.0 L225.2,347.7 L225.4,347.7 L225.7,347.7 L225.9,347.7 L226.2,348.2 L226.4,348.0 L226.7,348.0 
		L226.9,348.0 L227.2,348.0 L227.4,348.0 L227.7,348.0 L227.9,348.4 L228.1,348.5 L228.4,348.5 L228.6,348.4 
		L228.9,348.2 L229.1,348.3 L229.4,347.6 L229.6,347.4 L229.9,347.4 L230.1,347.6 L230.4,347.4 L230.6,347.4 
		L230.9,346.9 L231.1,346.2 L231.4,346.2 L231.6,346.2 L231.9,346.2 L232.1,346.2 L232.4,346.2 L232.6,346.2 
		L232.8,346.2 L233.1,346.2 L233.3,347.0 L233.6,346.6 L233.8,346.6 L234.1,346.7 L234.3,346.0 L234.6,345.4 
		L234.8,345.4 L235.1,345.6 L235.3,345.5 L235.6,345.5 L235.8,345.5 L236.1,345.5 L236.3,346.0 L236.6,346.0 
		L236.8,346.0 L237.1,346.3 L237.3,346.3 L237.5,346.3 L237.8,346.3 L238.0,346.3 L238.3,346.7 L238.5,346.7 
		L238.8,346.7 L239.0,346.7 L239.3,346.7 L239.5,346.7 L239.8,346.7 L240.0,346.7 L240.3,346.7 L240.5,346.7 
		L240.8,346.7 L241.0,346.7 L241.3,347.9 L241.5,347.5 L241.8,347.5 L242.0,347.5 L242.2,347.5 L242.5,347.5 
		L242.7,348.0 L243.0,347.9 L243.2,347.9 L243.5,347.8 L243.7,347.7 L244.0,347.7 L244.2,347.7 L244.5,347.7 
		L244.7,348.0 L245.0,348.0 L245.2,348.0 L245.5,348.0 L245.7,348.2 L246.0,348.2 L246.2,348.2 L246.5,348.2 
		L246.7,348.6 L246.9,348.0 L247.2,348.0 L247.4,348.0 L247.7,348.0 L247.9,348.3 L248.2,348.0 L248.4,348.0 
		L248.7,348.0 L248.9,348.2 L249.2,348.2 L249.4,348.2 L249.7,348.1 L249.9,348.1 L250.2,348.1 L250.4,347.9 
		L250.7,347.9 L250.9,347.9 L251.2,347.9 L251.4,348.2 L251.6,348.2 L251.9,348.2 L252.1,348.2 L252.4,348.2 
		L252.6,348.2 L252.9,348.2 L253.1,348.2 L253.4,348.2 L253.6,348.5 L253.9,348.4 L254.1,348.4 L254.4,348.4 
		L254.6,348.3 L254.9,347.8 L255.1,347.8 L255.4,347.8 L255.6,347.8 L255.9,347.8 L256.1,347.8 L256.3,347.8 
		L256.6,347.8 L256.8,348.5 L257.1,347.9 L257.3,347.9 L257.6,347.9 L257.8,347.9 L258.1,347.9 L258.3,347.9 
		L258.6,348.4 L258.8,348.4 L259.1,348.4 L259.3,348.4 L259.6,348.4 L259.8,348.7 L260.1,348.6 L260.3,348.6 
		L260.6,348.7 L260.8,348.7 L261.0,348.7 L261.3,348.9 L261.5,348.9 L261.8,348.9 L262.0,348.9 L262.3,348.1 
		L262.5,347.6 L262.8,347.5 L263.0,347.5 L263.3,347.5 L263.5,347.8 L263.8,347.7 L264.0,347.8 L264.3,347.8 
		L264.5,347.8 L264.8,348.0 L265.0,347.6 L265.3,347.1 L265.5,347.0 L265.8,347.0 L266.0,347.0 L266.2,347.0 
		L266.5,347.0 L266.7,347.0 L267.0,347.0 L267.2,347.0 L267.5,347.0 L267.7,347.0 L268.0,347.9 L268.2,347.4 
		L268.5,347.4 L268.7,347.3 L269.0,347.3 L269.2,346.9 L269.5,346.7 L269.7,346.7 L270.0,346.5 L270.2,346.4 
		L270.4,346.4 L270.7,346.4 L270.9,346.7 L271.2,346.6 L271.4,346.7 L271.7,346.2 L271.9,346.1 L272.2,346.1 
		L272.4,346.1 L272.7,346.1 L272.9,346.5 L273.2,346.5 L273.4,346.3 L273.7,346.3 L273.9,346.3 L274.2,346.3 
		L274.4,346.5 L274.7,346.6 L274.9,346.5 L275.1,346.5 L275.4,346.3 L275.6,346.3 L275.9,346.3 L276.1,346.3 
		L276.4,346.3 L276.6,346.3 L276.9,346.6 L277.1,345.8 L277.4,345.9 L277.6,345.8 L277.9,345.8 L278.1,345.8 
		L278.4,345.8 L278.6,345.8 L278.9,345.9 L279.1,345.8 L279.4,345.6 L279.6,345.4 L279.8,345.4 L280.1,345.4 
		L280.3,345.4 L280.6,345.4 L280.8,345.8 L281.1,345.8 L281.3,345.8 L281.6,345.8 L281.8,345.8 L282.1,345.8 
		L282.3,345.8 L282.6,345.8 L282.8,345.8 L283.1,345.8 L283.3,345.8 L283.6,345.8 L283.8,345.8 L284.1,346.8 
		L284.3,346.6 L284.5,346.7 L284.8,346.7 L285.0,346.7 L285.3,346.7 L285.5,346.7 L285.8,346.7 L286.0,346.7 
		L286.3,346.7 L286.5,346.7 L286.8,347.4 L287.0,347.4 L287.3,347.5 L287.5,347.3 L287.8,347.3 L288.0,347.4 
		L288.3,347.4 L288.5,347.4 L288.8,347.4 L289.0,347.2 L289.2,346.3 L289.5,346.1 L289.7,346.1 L290.0,346.1 
		L290.2,346.1 L290.5,346.1 L290.7,346.1 L291.0,346.1 L291.2,346.1 L291.5,346.8 L291.7,346.8 L292.0,346.9 
		L292.2,347.0 L292.5,346.6 L292.7,346.5 L293.0,346.5 L293.2,346.5 L293.5,346.8 L293.7,346.7 L293.9,346.7 
		L294.2,346.7 L294.4,346.7 L294.7,346.7 L294.9,346.7 L295.2,346.7 L295.4,346.7 L295.7,346.7 L295.9,346.7 
		L296.2,347.3 L296.4,347.3 L296.7,347.3 L296.9,347.3 L297.2,347.3 L297.4,347.3 L297.7,347.8 L297.9,347.8 
		L298.2,347.8 L298.4,347.8 L298.6,347.9 L298.9,347.5 L299.1,347.5 L299.4,347.5 L299.6,347.5 L299.9,347.5 
		L300.1,347.8 L300.4,347.8 L300.6,347.8 L300.9,347.8 L301.1,347.8 L301.4,348.1 L301.6,348.1 L301.9,347.9 
		L302.1,347.9 L302.4,348.0 L302.6,348.0 L302.9,347.8 L303.1,347.8 L303.3,347.8 L303.6,347.8 L303.8,347.8 
		L304.1,347.8 L304.3,347.8 L304.6,347.8 L304.8,348.4 L305.1,348.5 L305.3,348.4 L305.6,348.4 L305.8,348.4 
		L306.1,348.6 L306.3,348.5 L306.6,348.5 L306.8,348.5 L307.1,348.5 L307.3,348.5 L307.6,348.8 L307.8,348.8 
		L308.1,348.8 L308.3,348.8 L308.5,348.8 L308.8,348.8 L309.0,348.8 L309.3,348.8 L309.5,348.8 L309.8,348.8 
		L310.0,348.8 L310.3,348.8 L310.5,348.8 L310.8,348.8 L311.0,349.8 L311.3,349.5 L311.5,349.4 L311.8,349.4 
		L312.0,349.4 L312.3,349.6 L312.5,349.6 L312.8,349.6 L313.0,349.5 L313.2,349.5 L313.5,349.5 L313.7,349.7 
		L314.0,349.7 L314.2,349.7 L314.5,349.7 L314.7,349.7 L315.0,349.7 L315.2,349.7 L315.5,349.7 L315.7,349.7 
		L316.0,350.1 L316.2,350.0 L316.5,349.9 L316.7,349.1 L317.0,348.5 L317.2,348.5 L317.5,348.5 L317.7,348.5 
		L317.9,348.4 L318.2,348.4 L318.4,348.4 L318.7,348.4 L318.9,348.4 L319.2,348.8 L319.4,348.3 L319.7,348.2 
		L319.9,348.2 L320.2,348.2 L320.4,348.2 L320.7,348.2 L320.9,348.2 L321.2,348.6 L321.4,348.6 L321.7,348.6 
		L321.9,348.6 L322.2,348.6 L322.4,349.0 L322.6,348.9 L322.9,348.7 L323.1,348.7 L323.4,348.7 L323.6,348.7 
		L323.9,348.8 L324.1,348.8 L324.4,348.8 L324.6,348.8 L324.9,348.6 L325.1,348.6 L325.4,348.6 L325.6,348.8 
		L325.9,348.8 L326.1,348.8 L326.4,348.8 L326.6,348.8 L326.9,348.7 L327.1,348.7 L327.3,348.7 L327.6,348.5 
		L327.8,348.3 L328.1,348.3 L328.3,348.2 L328.6,348.2 L328.8,348.2 L329.1,348.3 L329.3,348.2 L329.6,348.1 
		L329.8,348.1 L330.1,348.0 L330.3,348.0 L330.6,348.1 L330.8,348.1 L331.1,348.1 L331.3,348.1 L331.6,348.1 
		L331.8,348.3 L332.0,348.2 L332.3,348.2 L332.5,348.2 L332.8,348.2 L333.0,348.2 L333.3,348.2 L333.5,348.4 
		L333.8,348.4 L334.0,348.4 L334.3,348.4 L334.5,348.3 L334.8,348.3 L335.0,348.3 L335.3,348.4 L335.5,348.4 
		L335.8,348.2 L336.0,348.0 L336.3,348.0 L336.5,348.0 L336.7,348.0 L337.0,348.0 L337.2,348.0 L337.5,348.0 
		L337.7,348.4 L338.0,348.4 L338.2,348.4 L338.5,348.4 L338.7,348.4 L339.0,348.7 L339.2,348.7 L339.5,348.7 
		L339.7,348.7 L340.0,348.8 L340.2,348.8 L340.5,348.8 L340.7,348.8 L341.0,348.8 L341.2,348.8 L341.4,349.1 
		L341.7,349.1 L341.9,349.2 L342.2,349.0 L342.4,349.0 L342.7,349.0 L342.9,349.1 L343.2,349.1 L343.4,349.1 
		L343.7,349.2 L343.9,349.2 L344.2,349.1 L344.4,348.6 L344.7,348.6 L344.9,348.7 L345.2,348.7 L345.4,348.7 
		L345.7,348.7 L345.9,348.7 L346.2,348.7 L346.4,348.7 L346.6,348.7 L346.9,348.7 L347.1,348.7 L347.4,348.7 
		L347.6,349.4 L347.9,349.4 L348.1,349.4 L348.4,349.3 L348.6,349.1 L348.9,349.2 L349.1,348.9 L349.4,348.9 
		L349.6,348.9 L349.9,348.9 L350.1,348.9 L350.4,348.9 L350.6,349.0 L350.9,349.0 L351.1,349.0 L351.3,349.0 
		L351.6,349.0 L351.8,349.0 L352.1,349.3 L352.3,349.3 L352.6,349.3 L352.8,349.3 L353.1,349.3 L353.3,349.3 
		L353.6,349.3 L353.8,349.7 L354.1,349.6 L354.3,349.6 L354.6,349.8 L354.8,349.7 L355.1,349.7 L355.3,349.7 
		L355.6,349.7 L355.8,349.7 L356.0,349.7 L356.3,349.7 L356.5,349.7 L356.8,349.7 L357.0,349.7 L357.3,349.7 
		L357.5,350.4 L357.8,350.1 L358.0,350.1 L358.3,350.1 L358.5,350.1 L358.8,350.1 L359.0,350.1 L359.3,350.1 
		L359.5,350.1 L359.8,350.1 L360.0,350.1 L360.3,350.1 L360.5,350.1 L360.7,350.1 L361.0,350.8 L361.2,350.8 
		L361.5,350.8 L361.7,350.8 L362.0,350.8 L362.2,350.8 L362.5,350.8 L362.7,350.8 L363.0,350.8 L363.2,350.8 
		L363.5,350.8 L363.7,351.4 L364.0,351.4 L364.2,351.4 L364.5,351.4 L364.7,351.4 L365.0,351.4 L365.2,351.4 
		L365.4,351.4 L365.7,351.4 L365.9,351.4 L366.2,351.4 L366.4,351.4 L366.7,351.4 L366.9,351.4 L367.2,351.4 
		L367.4,351.4 L367.7,351.4 L367.9,352.1 L368.2,352.1 L368.4,352.1 L368.7,352.1 L368.9,352.1 L369.2,352.1 
		L369.4,352.5 L369.7,352.3 L369.9,352.3 L370.1,352.3 L370.4,352.3 L370.6,352.3 L370.9,352.3 L371.1,352.3 
		L371.4,352.3 L371.6,352.1 L371.9,352.1 L372.1,352.1 L372.4,352.1 L372.6,352.3 L372.9,351.8 L373.1,351.8 
		L373.4,351.8 L373.6,351.8 L373.9,351.8 L374.1,351.8 L374.4,351.8 L374.6,351.8 L374.8,351.8 L375.1,351.8 
		L375.3,351.8 L375.6,351.8 L375.8,351.8 L376.1,352.2 L376.3,352.1 L376.6,352.1 L376.8,352.1 L377.1,352.1 
		L377.3,352.1 L377.6,352.1 L377.8,352.3 L378.1,352.0 L378.3,351.7 L378.6,351.6 L378.8,351.6 L379.1,351.6 
		L379.3,351.6 L379.5,351.8 L379.8,351.8 L380.0,351.8 L380.3,352.0 L380.5,351.9 L380.8,351.9 L381.0,351.9 
		L381.3,351.9 L381.5,352.0 L381.8,352.0 L382.0,352.0 L382.3,352.0 L382.5,352.0 L382.8,352.0 L383.0,352.0 
		L383.3,351.8 L383.5,351.6 L383.8,351.6 L384.0,351.6 L384.2,351.7 L384.5,351.5 L384.7,351.4 L385.0,351.4 
		L385.2,351.4 L385.5,351.4 L385.7,351.4 L386.0,351.4 L386.2,351.4 L386.5,351.8 L386.7,351.8 L387.0,351.7 
		L387.2,351.7 L387.5,351.7 L387.7,351.8 L388.0,351.8 L388.2,351.8 L388.5,351.8 L388.7,351.9 L389.0,351.7 
		L389.2,351.6 L389.4,351.6 L389.7,351.6 L389.9,351.6 L390.2,351.5 L390.4,351.5 L390.7,351.5 L390.9,351.5 
		L391.2,351.3 L391.4,351.3 L391.7,351.3 L391.9,351.3 L392.2,351.3 L392.4,351.3 L392.7,351.5 L392.9,351.4 
		L393.2,351.4 L393.4,351.4 L393.7,351.4 L393.9,351.4 L394.1,351.4 L394.4,351.4 L394.6,351.4 L394.9,351.4 
		L395.1,351.4 L395.4,352.0 L395.6,352.0 L395.9,352.0 L396.1,352.0 L396.4,352.0 L396.6,352.0 L396.9,352.0 
		L397.1,352.3 L397.4,352.3 L397.6,352.3 L397.9,352.3 L398.1,352.3 L398.4,352.3 L398.6,352.3 L398.8,352.3 
		L399.1,352.8 L399.3,352.8 L399.6,352.8 L399.8,352.8 L400.1,352.9 L400.3,352.9 L400.6,352.9 L400.8,352.9 
		L401.1,353.1 L401.3,353.1 L401.6,352.9 L401.8,352.9 L402.1,352.9 L402.3,352.9 L402.6,352.9 L402.8,352.9 
		L403.1,352.9 L403.3,352.9 L403.5,352.9 L403.8,352.9 L404.0,352.9 L404.3,352.9 L404.5,352.9 L404.8,352.9 
		L405.0,352.9 L405.3,352.9 L405.5,353.6 L405.8,353.5 L406.0,353.6 L406.3,353.3 L406.5,353.0 L406.8,353.0 
		L407.0,353.0 L407.3,353.0 L407.5,353.0 L407.8,353.1 L408.0,352.7 L408.2,352.6 L408.5,352.6 L408.7,352.6 
		L409.0,352.6 L409.2,352.6 L409.5,352.6 L409.7,352.6 L410.0,352.6 L410.2,352.6 L410.5,352.6 L410.7,352.6 
		L411.0,353.1 L411.2,353.1 L411.5,352.9 L411.7,352.9 L412.0,352.9 L412.2,352.9 L412.5,352.9 L412.7,352.9 
		L412.9,352.9 L413.2,352.9 L413.4,352.9 L413.7,352.9 L413.9,352.9 L414.2,353.2 L414.4,353.1 L414.7,353.1 
		L414.9,353.1 L415.2,353.1 L415.4,353.1 L415.7,352.8 L415.9,352.5 L416.2,352.5 L416.4,352.5 L416.7,352.5 
		L416.9,352.5 L417.2,352.8 L417.4,352.7 L417.6,352.7 L417.9,352.7 L418.1,352.7 L418.4,352.7 L418.6,352.7 
		L418.9,352.7 L419.1,352.7 L419.4,352.7 L419.6,352.7 L419.9,353.2 L420.1,353.2 L420.4,353.2 L420.6,353.2 
		L420.9,353.2 L421.1,353.4 L421.4,353.2 L421.6,353.2 L421.9,353.3 L422.1,353.0 L422.3,352.8 L422.6,352.8 
		L422.8,352.9 L423.1,352.8 L423.3,352.8 L423.6,352.8 L423.8,352.8 L424.1,352.8 L424.3,352.8 L424.6,352.8 
		L424.8,352.8 L425.1,352.8 L425.3,352.8 L425.6,352.8 L425.8,352.8 L426.1,352.8 L426.3,352.8 L426.6,352.8 
		L426.8,353.5 L427.0,353.6 L427.3,353.5 L427.5,353.5 L427.8,353.5 L428.0,353.6 L428.3,353.6 L428.5,353.4 
		L428.8,353.1 L429.0,353.1 L429.3,353.1 L429.5,353.1 L429.8,353.2 L430.0,352.9 L430.3,352.8 L430.5,352.8 
		L430.8,352.8 L431.0,352.8 L431.3,352.8 L431.5,353.0 L431.8,353.0 L432.0,353.0 L432.2,353.0 L432.5,353.0 
		L432.7,353.0 L433.0,353.0 L433.2,353.1 L433.5,353.1 L433.7,353.1 L434.0,353.1 L434.2,353.0 L434.5,352.9 
		L434.7,352.9 L435.0,352.9 L435.2,353.0 L435.5,353.0 L435.7,353.0 L436.0,353.0 L436.2,353.0 L436.5,353.0 
		L436.7,353.0 L436.9,353.3 L437.2,353.3 L437.4,353.3 L437.7,353.4 L437.9,353.3 L438.2,353.3 L438.4,353.4 
		L438.7,353.4 L438.9,353.4 L439.2,353.5 L439.4,353.4 L439.7,353.4 L439.9,353.4 L440.2,353.4 L440.4,353.4 
		L440.7,353.5 L440.9,353.5 L441.2,353.5 L441.4,353.5 L441.6,353.5 L441.9,353.5 L442.1,353.5 L442.4,353.5 
		L442.6,353.5 L442.9,353.5 L443.1,353.5 L443.4,353.5 L443.6,353.9 L443.9,353.9 L444.1,353.9 L444.4,353.8 
		L444.6,353.9 L444.9,353.9 L445.1,353.9 L445.4,353.9 L445.6,353.9 L445.9,353.9 L446.1,353.9 L446.3,353.9 
		L446.6,353.9 L446.8,353.8 L447.1,353.8 L447.3,353.8 L447.6,353.8 L447.8,353.8 L448.1,353.8 L448.3,353.7 
		L448.6,353.4 L448.8,353.4 L449.1,353.4 L449.3,353.4 L449.6,353.4 L449.8,353.4 L450.1,353.4 L450.3,353.2 
		L450.6,352.9 L450.8,352.8 L451.0,352.8 L451.3,352.8 L451.5,352.8 L451.8,353.0 L452.0,353.0 L452.3,353.0 
		L452.5,352.7 L452.8,352.1 L453.0,351.9 L453.3,351.9 L453.5,351.9 L453.8,351.9 L454.0,351.9 L454.3,351.9 
		L454.5,351.9 L454.8,351.9 L455.0,351.9 L455.3,352.2 L455.5,351.8 L455.7,351.8 L456.0,351.7 L456.2,351.6 
		L456.5,351.5 L456.7,351.4 L457.0,351.4 L457.2,351.4 L457.5,351.4 L457.7,351.4 L458.0,351.4 L458.2,351.4 
		L458.5,351.4 L458.7,351.4 L459.0,351.4 L459.2,351.4 L459.5,351.4 L459.7,351.7 L460.0,351.6 L460.2,351.6 
		L460.4,351.6 L460.7,351.6 L460.9,351.6 L461.2,351.7 L461.4,351.7 L461.7,351.7 L461.9,351.7 L462.2,351.6 
		L462.4,351.2 L462.7,351.2 L462.9,351.2 L463.2,351.2 L463.4,351.3 L463.7,351.3 L463.9,351.3 L464.2,351.3 
		L464.4,351.3 L464.7,351.3 L464.9,351.3 L465.1,351.3 L465.4,351.3 L465.6,351.3 L465.9,351.3 L466.1,351.3 
		L466.4,351.4 L466.6,351.2 L466.9,351.2 L467.1,351.2 L467.4,351.2 L467.6,351.2 L467.9,351.3 L468.1,351.1 
		L468.4,351.1 L468.6,351.1 L468.9,351.1 L469.1,351.1 L469.4,351.0 L469.6,350.9 L469.9,350.9 L470.1,350.9 
		L470.3,350.9 L470.6,351.1 L470.8,351.1 L471.1,351.1 L471.3,351.1 L471.6,351.1 L471.8,351.1 L472.1,351.1 
		L472.3,351.1 L472.6,351.4 L472.8,351.4 L473.1,351.5 L473.3,351.5 L473.6,351.2 L473.8,351.1 L474.1,351.1 
		L474.3,351.1 L474.6,351.1 L474.8,351.1 L475.0,351.1 L475.3,351.3 L475.5,351.3 L475.8,351.3 L476.0,351.3 
		L476.3,351.5 L476.5,351.2 L476.8,351.0 L477.0,351.0 L477.3,351.1 L477.5,351.1 L477.8,351.1 L478.0,351.1 
		L478.3,351.1 L478.5,351.1 L478.8,351.1 L479.0,351.1 L479.3,351.3 L479.5,351.3 L479.7,351.4 L480.0,351.4 
		L480.2,351.4 L480.5,351.4 L480.7,351.4 L481.0,351.4 L481.2,351.6 L481.5,351.7 L481.7,351.7 L482.0,351.7 
		L482.2,351.7 L482.5,351.7 L482.7,351.7 L483.0,351.7 L483.2,351.7 L483.5,351.3 L483.7,351.3 L484.0,351.3 
		L484.2,351.3 L484.4,351.3 L484.7,351.3 L484.9,351.3 L485.2,351.3 L485.4,351.3 L485.7,351.3 L485.9,351.6 
		L486.2,351.6 L486.4,351.6 L486.7,351.7 L486.9,351.6 L487.2,351.6 L487.4,351.6 L487.7,351.6 L487.9,351.6 
		L488.2,351.6 L488.4,351.6 L488.7,351.6 L488.9,351.6 L489.1,352.0 L489.4,351.5 L489.6,351.4 L489.9,351.4 
		L490.1,351.4 L490.4,351.4 L490.6,351.4 L490.9,351.5 L491.1,351.4 L491.4,351.4 L491.6,351.5 L491.9,351.5 
		L492.1,351.5 L492.4,351.5 L492.6,351.5 L492.9,351.5 L493.1,351.5 L493.4,351.5 L493.6,351.5 L493.8,351.5 
		L494.1,351.7 L494.3,351.7 L494.6,351.7 L494.8,351.7 L495.1,351.7 L495.3,351.7 L495.6,351.7 L495.8,351.7 
		L496.1,351.7 L496.3,351.7 L496.6,351.7 L496.8,352.2 L497.1,352.2 L497.3,352.2 L497.6,352.2 L497.8,352.2 
		L498.1,352.2 L498.3,352.2 L498.5,352.2 L498.8,352.2 L499.0,352.5 L499.3,352.4 L499.5,352.4 L499.8,352.3 
		L500.0,351.8 L500.3,351.6 L500.5,351.6 L500.8,351.6 L501.0,351.6 L501.3,351.6 L501.5,351.8 L501.8,351.7 
		L502.0,351.5 L502.3,351.5 L502.5,351.5 L502.8,351.5 L503.0,351.6 L503.2,351.6 L503.5,351.6 L503.7,351.6 
		L504.0,351.7 L504.2,351.7 L504.5,351.7 L504.7,351.6 L505.0,351.6 L505.2,351.6 L505.5,351.6 L505.7,351.6 
		L506.0,351.6 L506.2,351.6 L506.5,351.8 L506.7,351.8 L507.0,351.8 L507.2,351.8 L507.5,351.8 L507.7,351.8 
		L507.9,352.1 L508.2,352.0 L508.4,352.0 L508.7,352.0 L508.9,352.0 L509.2,352.0 L509.4,352.1 L509.7,352.1 
		L509.9,352.1 L510.2,352.2 L510.4,352.1 L510.7,352.1 L510.9,352.0 L511.2,352.0 L511.4,352.0 L511.7,352.0 
		L511.9,352.0 L512.2,352.0 L512.4,352.0 L512.7,352.0 L512.9,352.0 L513.1,352.0 L513.4,352.0 L513.6,352.0 
		L513.9,352.0 L514.1,352.0 L514.4,352.0 L514.6,352.5 L514.9,352.4 L515.1,352.4 L515.4,352.4 L515.6,352.4 
		L515.9,352.5 L516.1,352.5 L516.4,352.5 L516.6,352.5 L516.9,352.6 L517.1,352.6 L517.4,352.6 L517.6,352.6 
		L517.8,352.6 L518.1,352.7 L518.3,352.7 L518.6,352.7 L518.8,352.7 L519.1,352.7 L519.3,352.7 L519.6,352.7 
		L519.8,352.7 L520.1,352.7 L520.3,353.0 L520.6,352.9 L520.8,352.9 L521.1,353.0 L521.3,353.0 L521.6,353.0 
		L521.8,353.1 L522.1,353.1 L522.3,353.1 L522.5,353.1 L522.8,353.1 L523.0,353.1 L523.3,353.1 L523.5,353.1 
		L523.8,353.1 L524.0,353.3 L524.3,353.1 L524.5,353.0 L524.8,353.0 L525.0,353.1 L525.3,353.1 L525.5,353.1 
		L525.8,353.1 L526.0,353.1 L526.3,353.1 L526.5,353.1 L526.8,353.1 L527.0,353.1 L527.2,353.3 L527.5,353.3 
		L527.7,353.3 L528.0,353.3 L528.2,353.3 L528.5,353.3 L528.7,353.4 L529.0,353.4 L529.2,353.4 L529.5,353.4 
		L529.7,353.4 L530.0,353.4 L530.2,353.4 L530.5,353.4 L530.7,353.4 L531.0,353.4 L531.2,353.4 L531.5,353.4 
		L531.7,353.5 L531.9,353.0 L532.2,352.9 L532.4,352.9 L532.7,352.9 L532.9,352.9 L533.2,352.9 L533.4,352.9 
		L533.7,353.0 L533.9,353.0 L534.2,353.0 L534.4,353.0 L534.7,353.0 L534.9,352.6 L535.2,352.3 L535.4,352.3 
		L535.7,352.4 L535.9,352.4 L536.2,352.4 L536.4,352.2 L536.6,352.1 L536.9,352.1 L537.1,352.1 L537.4,352.1 
		L537.6,352.1 L537.9,352.1 L538.1,352.1 L538.4,352.1 L538.6,352.1 L538.9,352.2 L539.1,352.0 L539.4,351.9 
		L539.6,351.9 L539.9,351.9 L540.1,351.9 L540.4,351.9 L540.6,351.9 L540.9,351.9 L541.1,351.9 L541.3,351.9 
		L541.6,352.1 L541.8,352.0 L542.1,352.0 L542.3,352.0 L542.6,352.2 L542.8,352.0 L543.1,352.0 L543.3,352.0 
		L543.6,352.0 L543.8,352.0 L544.1,352.2 L544.3,352.1 L544.6,352.0 L544.8,352.0 L545.1,352.0 L545.3,352.0 
		L545.6,352.0 L545.8,352.1 L546.0,351.9 L546.3,351.9 L546.5,351.9 L546.8,351.8 L547.0,351.8 L547.3,351.8 
		L547.5,351.8 L547.8,351.8 L548.0,351.7 L548.3,351.7 L548.5,351.7 L548.8,351.8 L549.0,351.8 L549.3,351.8 
		L549.5,351.8 L549.8,351.6 L550.0,351.6 L550.3,351.6 L550.5,351.6 L550.7,351.6 L551.0,351.6 L551.2,351.6 
		L551.5,351.6 L551.7,351.6 L552.0,351.6 L552.2,351.6 L552.5,352.0 L552.7,351.9 L553.0,351.9 L553.2,351.9 
		L553.5,351.9 L553.7,351.9 L554.0,352.0 L554.2,351.7 L554.5,351.7 L554.7,351.7 L555.0,351.7 L555.2,351.7 
		L555.5,351.7 L555.7,351.8 L555.9,351.7 L556.2,351.7 L556.4,351.7 L556.7,351.7 L556.9,351.8 L557.2,351.8 
		L557.4,351.8 L557.7,351.8 L557.9,351.8 L558.2,351.8 L558.4,351.8 L558.7,352.0 L558.9,352.0 L559.2,352.0 
		L559.4,352.0 L559.7,352.0 L559.9,352.0 L560.2,352.0 L560.4,352.0 L560.6,352.2 L560.9,352.2 L561.1,352.3 
		L561.4,352.3 L561.6,352.3 L561.9,352.3 L562.1,352.3 L562.4,352.3 L562.6,352.3 L562.9,352.3 L563.1,352.3 
		L563.4,352.3 L563.6,352.3 L563.9,352.3 L564.1,352.3 L564.4,352.3 L564.6,352.3 L564.9,352.3 L565.1,352.3 
		L565.3,352.8 L565.6,352.8 L565.8,352.8 L566.1,352.8 L566.3,352.8 L566.6,352.9 L566.8,352.8 L567.1,352.8 
		L567.3,352.8 L567.6,352.8 L567.8,352.8 L568.1,352.8 L568.3,352.8 L568.6,352.8 L568.8,352.8 L569.1,352.8 
		L569.3,353.1 L569.6,353.1 L569.8,353.1 L570.0,353.1 L570.3,353.1 L570.5,353.2 L570.8,353.2 L571.0,353.2 
		L571.3,353.3 L571.5,353.0 L571.8,353.0 L572.0,353.0 L572.3,353.0 L572.5,353.0 L572.8,353.0 L573.0,352.9 
		L573.3,352.8 L573.5,352.9 L573.8,352.9 L574.0,352.8 L574.3,352.8 L574.5,352.8 L574.7,352.8 L575.0,352.8 
		 h0.01'/></g>
	</g>
<g style="fill:none; color:black; stroke:currentColor; stroke-width:1.00; stroke-linecap:butt; stroke-linejoin:miter">
	<path  d='M80.2,54.1 L80.2,422.4 L575.0,422.4 L575.0,54.1 L80.2,54.1 Z  h0.01'/></g>
</g>
</svg>

