<?xml version="1.0" encoding="utf-8"  standalone="no"?>
<!DOCTYPE svg PUBLIC "-//W3C//DTD SVG 1.1//EN" 
 "http://www.w3.org/Graphics/SVG/1.1/DTD/svg11.dtd">
<svg 
 width="600" height="480" 
 viewBox="0 0 600 480"
 xmlns="http://www.w3.org/2000/svg"
 xmlns:xlink="http://www.w3.org/1999/xlink"
>

<title>Gnuplot</title>
<desc>Produced by GNUPLOT 4.6 patchlevel 1 </desc>

<g id="gnuplot_canvas">

<rect x="0" y="0" width="600" height="480" fill="none"/>
<defs>

	<circle id='gpDot' r='0.5' stroke-width='0.5'/>
	<path id='gpPt0' stroke-width='0.222' stroke='currentColor' d='M-1,0 h2 M0,-1 v2'/>
	<path id='gpPt1' stroke-width='0.222' stroke='currentColor' d='M-1,-1 L1,1 M1,-1 L-1,1'/>
	<path id='gpPt2' stroke-width='0.222' stroke='currentColor' d='M-1,0 L1,0 M0,-1 L0,1 M-1,-1 L1,1 M-1,1 L1,-1'/>
	<rect id='gpPt3' stroke-width='0.222' stroke='currentColor' x='-1' y='-1' width='2' height='2'/>
	<rect id='gpPt4' stroke-width='0.222' stroke='currentColor' fill='currentColor' x='-1' y='-1' width='2' height='2'/>
	<circle id='gpPt5' stroke-width='0.222' stroke='currentColor' cx='0' cy='0' r='1'/>
	<use xlink:href='#gpPt5' id='gpPt6' fill='currentColor' stroke='none'/>
	<path id='gpPt7' stroke-width='0.222' stroke='currentColor' d='M0,-1.33 L-1.33,0.67 L1.33,0.67 z'/>
	<use xlink:href='#gpPt7' id='gpPt8' fill='currentColor' stroke='none'/>
	<use xlink:href='#gpPt7' id='gpPt9' stroke='currentColor' transform='rotate(180)'/>
	<use xlink:href='#gpPt9' id='gpPt10' fill='currentColor' stroke='none'/>
	<use xlink:href='#gpPt3' id='gpPt11' stroke='currentColor' transform='rotate(45)'/>
	<use xlink:href='#gpPt11' id='gpPt12' fill='currentColor' stroke='none'/>
</defs>
<g style="fill:none; color:white; stroke:currentColor; stroke-width:1.00; stroke-linecap:butt; stroke-linejoin:miter">
</g>
<g style="fill:none; color:black; stroke:currentColor; stroke-width:1.00; stroke-linecap:butt; stroke-linejoin:miter">
	<path  d='M80.2,422.4 L89.2,422.4 M575.0,422.4 L566.0,422.4  h0.01'/>	<g transform="translate(71.9,426.9)" style="stroke:none; fill:black; font-family:Arial; font-size:12.00pt; text-anchor:end">
		<text> 0</text>
	</g>
	<path  d='M80.2,385.6 L89.2,385.6 M575.0,385.6 L566.0,385.6  h0.01'/>	<g transform="translate(71.9,390.1)" style="stroke:none; fill:black; font-family:Arial; font-size:12.00pt; text-anchor:end">
		<text> 500</text>
	</g>
	<path  d='M80.2,348.7 L89.2,348.7 M575.0,348.7 L566.0,348.7  h0.01'/>	<g transform="translate(71.9,353.2)" style="stroke:none; fill:black; font-family:Arial; font-size:12.00pt; text-anchor:end">
		<text> 1000</text>
	</g>
	<path  d='M80.2,311.9 L89.2,311.9 M575.0,311.9 L566.0,311.9  h0.01'/>	<g transform="translate(71.9,316.4)" style="stroke:none; fill:black; font-family:Arial; font-size:12.00pt; text-anchor:end">
		<text> 1500</text>
	</g>
	<path  d='M80.2,275.1 L89.2,275.1 M575.0,275.1 L566.0,275.1  h0.01'/>	<g transform="translate(71.9,279.6)" style="stroke:none; fill:black; font-family:Arial; font-size:12.00pt; text-anchor:end">
		<text> 2000</text>
	</g>
	<path  d='M80.2,238.2 L89.2,238.2 M575.0,238.2 L566.0,238.2  h0.01'/>	<g transform="translate(71.9,242.7)" style="stroke:none; fill:black; font-family:Arial; font-size:12.00pt; text-anchor:end">
		<text> 2500</text>
	</g>
	<path  d='M80.2,201.4 L89.2,201.4 M575.0,201.4 L566.0,201.4  h0.01'/>	<g transform="translate(71.9,205.9)" style="stroke:none; fill:black; font-family:Arial; font-size:12.00pt; text-anchor:end">
		<text> 3000</text>
	</g>
	<path  d='M80.2,164.6 L89.2,164.6 M575.0,164.6 L566.0,164.6  h0.01'/>	<g transform="translate(71.9,169.1)" style="stroke:none; fill:black; font-family:Arial; font-size:12.00pt; text-anchor:end">
		<text> 3500</text>
	</g>
	<path  d='M80.2,127.8 L89.2,127.8 M575.0,127.8 L566.0,127.8  h0.01'/>	<g transform="translate(71.9,132.3)" style="stroke:none; fill:black; font-family:Arial; font-size:12.00pt; text-anchor:end">
		<text> 4000</text>
	</g>
	<path  d='M80.2,90.9 L89.2,90.9 M575.0,90.9 L566.0,90.9  h0.01'/>	<g transform="translate(71.9,95.4)" style="stroke:none; fill:black; font-family:Arial; font-size:12.00pt; text-anchor:end">
		<text> 4500</text>
	</g>
	<path  d='M80.2,54.1 L89.2,54.1 M575.0,54.1 L566.0,54.1  h0.01'/>	<g transform="translate(71.9,58.6)" style="stroke:none; fill:black; font-family:Arial; font-size:12.00pt; text-anchor:end">
		<text> 5000</text>
	</g>
	<path  d='M80.2,422.4 L80.2,413.4 M80.2,54.1 L80.2,63.1  h0.01'/>	<g transform="translate(80.2,444.9)" style="stroke:none; fill:black; font-family:Arial; font-size:12.00pt; text-anchor:middle">
		<text> 0</text>
	</g>
	<path  d='M129.7,422.4 L129.7,413.4 M129.7,54.1 L129.7,63.1  h0.01'/>	<g transform="translate(129.7,444.9)" style="stroke:none; fill:black; font-family:Arial; font-size:12.00pt; text-anchor:middle">
		<text> 10</text>
	</g>
	<path  d='M179.2,422.4 L179.2,413.4 M179.2,54.1 L179.2,63.1  h0.01'/>	<g transform="translate(179.2,444.9)" style="stroke:none; fill:black; font-family:Arial; font-size:12.00pt; text-anchor:middle">
		<text> 20</text>
	</g>
	<path  d='M228.6,422.4 L228.6,413.4 M228.6,54.1 L228.6,63.1  h0.01'/>	<g transform="translate(228.6,444.9)" style="stroke:none; fill:black; font-family:Arial; font-size:12.00pt; text-anchor:middle">
		<text> 30</text>
	</g>
	<path  d='M278.1,422.4 L278.1,413.4 M278.1,54.1 L278.1,63.1  h0.01'/>	<g transform="translate(278.1,444.9)" style="stroke:none; fill:black; font-family:Arial; font-size:12.00pt; text-anchor:middle">
		<text> 40</text>
	</g>
	<path  d='M327.6,422.4 L327.6,413.4 M327.6,54.1 L327.6,63.1  h0.01'/>	<g transform="translate(327.6,444.9)" style="stroke:none; fill:black; font-family:Arial; font-size:12.00pt; text-anchor:middle">
		<text> 50</text>
	</g>
	<path  d='M377.1,422.4 L377.1,413.4 M377.1,54.1 L377.1,63.1  h0.01'/>	<g transform="translate(377.1,444.9)" style="stroke:none; fill:black; font-family:Arial; font-size:12.00pt; text-anchor:middle">
		<text> 60</text>
	</g>
	<path  d='M426.6,422.4 L426.6,413.4 M426.6,54.1 L426.6,63.1  h0.01'/>	<g transform="translate(426.6,444.9)" style="stroke:none; fill:black; font-family:Arial; font-size:12.00pt; text-anchor:middle">
		<text> 70</text>
	</g>
	<path  d='M476.0,422.4 L476.0,413.4 M476.0,54.1 L476.0,63.1  h0.01'/>	<g transform="translate(476.0,444.9)" style="stroke:none; fill:black; font-family:Arial; font-size:12.00pt; text-anchor:middle">
		<text> 80</text>
	</g>
	<path  d='M525.5,422.4 L525.5,413.4 M525.5,54.1 L525.5,63.1  h0.01'/>	<g transform="translate(525.5,444.9)" style="stroke:none; fill:black; font-family:Arial; font-size:12.00pt; text-anchor:middle">
		<text> 90</text>
	</g>
	<path  d='M575.0,422.4 L575.0,413.4 M575.0,54.1 L575.0,63.1  h0.01'/>	<g transform="translate(575.0,444.9)" style="stroke:none; fill:black; font-family:Arial; font-size:12.00pt; text-anchor:middle">
		<text> 100</text>
	</g>
	<path  d='M80.2,54.1 L80.2,422.4 L575.0,422.4 L575.0,54.1 L80.2,54.1 Z  h0.01'/>	<g transform="translate(17.6,238.3) rotate(270)" style="stroke:none; fill:black; font-family:Arial; font-size:12.00pt; text-anchor:middle">
		<text>TCP throughput (kbps)</text>
	</g>
	<g transform="translate(327.6,471.9)" style="stroke:none; fill:black; font-family:Arial; font-size:12.00pt; text-anchor:middle">
		<text>Time (s)</text>
	</g>
	<g transform="translate(327.6,31.6)" style="stroke:none; fill:black; font-family:Arial; font-size:12.00pt; text-anchor:middle">
		<text>Distance 900m, 2kmph: TCP throughput vs link capacity Uplink 100RBs PfffScheduler</text>
	</g>
	<path  d='M325.3,413.4 L325.3,377.4 L566.7,377.4 L566.7,413.4 L325.3,413.4 Z  h0.01'/></g>
	<g id="gnuplot_plot_1" ><title>gnuplot_plot_1</title>
<g style="fill:none; color:red; stroke:currentColor; stroke-width:1.00; stroke-linecap:butt; stroke-linejoin:miter">
	<g transform="translate(507.9,390.9)" style="stroke:none; fill:black; font-family:Arial; font-size:12.00pt; text-anchor:end">
		<text>TCP Throughput</text>
	</g>
	<path  d='M516.2,386.4 L558.4,386.4 M83.2,408.7 L83.4,408.7 L83.7,408.7 L83.9,413.1 L84.2,409.7 L84.4,410.4 
		L84.7,390.6 L84.9,377.4 L85.1,377.4 L85.4,377.4 L85.6,386.7 L85.9,356.1 L86.1,347.0 L86.4,347.0 
		L86.6,347.0 L86.9,347.0 L87.1,361.9 L87.4,361.9 L87.6,361.9 L87.9,361.9 L88.1,361.9 L88.4,361.9 
		L88.6,375.4 L88.9,369.5 L89.1,369.5 L89.4,369.5 L89.6,369.5 L89.8,369.5 L90.1,369.5 L90.3,369.5 
		L90.6,369.5 L90.8,369.5 L91.1,380.5 L91.3,380.5 L91.6,380.5 L91.8,380.5 L92.1,380.5 L92.3,380.5 
		L92.6,380.5 L92.8,380.5 L93.1,380.5 L93.3,380.5 L93.6,380.5 L93.8,380.5 L94.0,380.5 L94.3,380.5 
		L94.5,380.5 L94.8,380.5 L95.0,380.5 L95.3,380.5 L95.5,393.8 L95.8,390.6 L96.0,390.6 L96.3,390.6 
		L96.5,390.6 L96.8,390.6 L97.0,390.6 L97.3,390.6 L97.5,390.6 L97.8,390.6 L98.0,390.6 L98.3,390.6 
		L98.5,395.5 L98.8,391.3 L99.0,388.6 L99.2,388.6 L99.5,388.6 L99.7,388.6 L100.0,388.6 L100.2,387.4 
		L100.5,387.3 L100.7,387.3 L101.0,387.3 L101.2,387.3 L101.5,387.3 L101.7,387.3 L102.0,387.3 L102.2,387.3 
		L102.5,387.3 L102.7,387.3 L103.0,387.3 L103.2,387.3 L103.5,387.3 L103.7,387.3 L103.9,391.2 L104.2,391.1 
		L104.4,391.1 L104.7,391.1 L104.9,391.1 L105.2,391.1 L105.4,392.7 L105.7,392.7 L105.9,392.7 L106.2,392.0 
		L106.4,392.0 L106.7,392.0 L106.9,392.0 L107.2,392.0 L107.4,392.0 L107.7,392.0 L107.9,392.0 L108.2,392.0 
		L108.4,394.4 L108.6,394.4 L108.9,394.4 L109.1,394.4 L109.4,394.5 L109.6,392.9 L109.9,392.9 L110.1,390.8 
		L110.4,390.8 L110.6,390.8 L110.9,390.8 L111.1,390.8 L111.4,390.8 L111.6,390.8 L111.9,390.8 L112.1,390.8 
		L112.4,390.8 L112.6,390.8 L112.9,390.8 L113.1,390.8 L113.3,390.8 L113.6,390.8 L113.8,390.8 L114.1,393.5 
		L114.3,393.2 L114.6,393.2 L114.8,393.2 L115.1,393.2 L115.3,393.9 L115.6,393.1 L115.8,393.1 L116.1,393.1 
		L116.3,393.5 L116.6,391.9 L116.8,391.9 L117.1,391.9 L117.3,391.9 L117.6,391.9 L117.8,391.9 L118.0,391.9 
		L118.3,391.9 L118.5,393.2 L118.8,393.2 L119.0,393.2 L119.3,393.2 L119.5,393.2 L119.8,393.2 L120.0,393.2 
		L120.3,393.2 L120.5,393.2 L120.8,393.2 L121.0,393.2 L121.3,393.2 L121.5,393.2 L121.8,394.6 L122.0,394.6 
		L122.3,394.5 L122.5,394.1 L122.7,393.0 L123.0,392.7 L123.2,392.7 L123.5,392.5 L123.7,392.3 L124.0,392.5 
		L124.2,389.3 L124.5,387.7 L124.7,387.7 L125.0,387.7 L125.2,387.9 L125.5,387.9 L125.7,387.1 L126.0,387.0 
		L126.2,387.0 L126.5,387.0 L126.7,387.0 L127.0,387.3 L127.2,387.3 L127.5,387.3 L127.7,386.9 L127.9,387.1 
		L128.2,386.5 L128.4,385.9 L128.7,385.6 L128.9,385.6 L129.2,385.6 L129.4,385.6 L129.7,385.6 L129.9,385.6 
		L130.2,385.6 L130.4,385.6 L130.7,385.6 L130.9,385.6 L131.2,385.6 L131.4,387.1 L131.7,386.9 L131.9,385.8 
		L132.2,385.3 L132.4,385.3 L132.6,385.3 L132.9,385.3 L133.1,385.3 L133.4,385.3 L133.6,386.3 L133.9,386.3 
		L134.1,386.3 L134.4,386.3 L134.6,386.3 L134.9,386.0 L135.1,385.9 L135.4,385.9 L135.6,385.9 L135.9,385.9 
		L136.1,386.6 L136.4,386.6 L136.6,386.6 L136.9,386.6 L137.1,386.6 L137.3,387.0 L137.6,386.6 L137.8,386.6 
		L138.1,386.6 L138.3,386.6 L138.6,386.6 L138.8,384.9 L139.1,384.1 L139.3,383.9 L139.6,383.9 L139.8,382.2 
		L140.1,382.2 L140.3,382.2 L140.6,382.2 L140.8,382.2 L141.1,382.2 L141.3,382.2 L141.6,382.2 L141.8,382.2 
		L142.1,383.5 L142.3,383.5 L142.5,383.5 L142.8,383.5 L143.0,383.7 L143.3,382.3 L143.5,382.3 L143.8,382.3 
		L144.0,382.3 L144.3,382.3 L144.5,382.3 L144.8,382.2 L145.0,382.2 L145.3,382.2 L145.5,382.2 L145.8,382.5 
		L146.0,380.8 L146.3,380.8 L146.5,380.8 L146.8,380.8 L147.0,380.8 L147.2,380.8 L147.5,380.8 L147.7,380.8 
		L148.0,380.8 L148.2,382.1 L148.5,382.1 L148.7,382.1 L149.0,382.1 L149.2,382.1 L149.5,382.1 L149.7,382.8 
		L150.0,382.8 L150.2,382.8 L150.5,382.8 L150.7,382.8 L151.0,382.8 L151.2,382.8 L151.5,382.0 L151.7,380.0 
		L151.9,380.0 L152.2,380.0 L152.4,380.0 L152.7,380.0 L152.9,380.6 L153.2,380.0 L153.4,380.0 L153.7,380.0 
		L153.9,380.0 L154.2,380.0 L154.4,380.0 L154.7,380.6 L154.9,380.6 L155.2,380.6 L155.4,380.6 L155.7,380.6 
		L155.9,380.6 L156.2,380.6 L156.4,380.6 L156.6,380.6 L156.9,380.6 L157.1,380.6 L157.4,380.6 L157.6,380.6 
		L157.9,380.6 L158.1,380.6 L158.4,381.5 L158.6,378.4 L158.9,377.5 L159.1,377.5 L159.4,377.5 L159.6,377.5 
		L159.9,377.5 L160.1,377.5 L160.4,377.5 L160.6,378.3 L160.9,378.3 L161.1,378.3 L161.3,378.3 L161.6,378.3 
		L161.8,378.9 L162.1,378.8 L162.3,378.8 L162.6,377.7 L162.8,377.6 L163.1,377.5 L163.3,377.0 L163.6,377.0 
		L163.8,377.0 L164.1,377.0 L164.3,377.4 L164.6,377.4 L164.8,377.4 L165.1,377.4 L165.3,377.6 L165.6,377.6 
		L165.8,377.6 L166.0,377.6 L166.3,377.6 L166.5,377.6 L166.8,378.1 L167.0,378.1 L167.3,378.1 L167.5,377.4 
		L167.8,377.3 L168.0,377.3 L168.3,376.9 L168.5,376.2 L168.8,376.2 L169.0,376.1 L169.3,376.1 L169.5,376.1 
		L169.8,376.3 L170.0,376.2 L170.3,376.2 L170.5,376.2 L170.7,376.2 L171.0,376.2 L171.2,376.3 L171.5,375.9 
		L171.7,375.9 L172.0,375.9 L172.2,375.9 L172.5,376.3 L172.7,376.3 L173.0,376.3 L173.2,375.1 L173.5,374.7 
		L173.7,374.7 L174.0,374.7 L174.2,374.7 L174.5,374.7 L174.7,375.3 L175.0,374.3 L175.2,374.2 L175.4,374.2 
		L175.7,374.2 L175.9,374.5 L176.2,374.3 L176.4,374.2 L176.7,374.2 L176.9,374.2 L177.2,374.2 L177.4,374.6 
		L177.7,374.6 L177.9,374.6 L178.2,374.6 L178.4,375.1 L178.7,375.0 L178.9,375.0 L179.2,375.0 L179.4,375.3 
		L179.7,375.3 L179.9,375.3 L180.1,375.3 L180.4,375.3 L180.6,375.3 L180.9,375.3 L181.1,375.3 L181.4,376.2 
		L181.6,376.0 L181.9,376.0 L182.1,376.0 L182.4,376.0 L182.6,376.0 L182.9,376.4 L183.1,376.1 L183.4,376.1 
		L183.6,376.1 L183.9,376.1 L184.1,376.1 L184.4,376.2 L184.6,376.2 L184.9,376.2 L185.1,376.2 L185.3,376.2 
		L185.6,376.2 L185.8,376.2 L186.1,376.2 L186.3,376.2 L186.6,376.2 L186.8,376.2 L187.1,377.3 L187.3,377.3 
		L187.6,377.3 L187.8,377.3 L188.1,377.3 L188.3,377.3 L188.6,377.3 L188.8,377.9 L189.1,377.9 L189.3,377.9 
		L189.6,378.1 L189.8,378.1 L190.0,378.1 L190.3,378.1 L190.5,378.1 L190.8,378.1 L191.0,378.3 L191.3,378.3 
		L191.5,378.3 L191.8,378.3 L192.0,378.3 L192.3,378.3 L192.5,378.3 L192.8,378.3 L193.0,378.8 L193.3,378.8 
		L193.5,378.8 L193.8,378.8 L194.0,378.8 L194.3,378.8 L194.5,379.2 L194.7,378.4 L195.0,378.1 L195.2,378.1 
		L195.5,378.2 L195.7,378.1 L196.0,378.1 L196.2,378.1 L196.5,378.1 L196.7,378.1 L197.0,378.3 L197.2,377.7 
		L197.5,377.7 L197.7,377.7 L198.0,377.7 L198.2,377.7 L198.5,378.0 L198.7,377.1 L199.0,377.0 L199.2,377.0 
		L199.4,377.0 L199.7,377.0 L199.9,377.0 L200.2,377.0 L200.4,377.0 L200.7,377.0 L200.9,377.0 L201.2,377.0 
		L201.4,377.0 L201.7,377.0 L201.9,377.0 L202.2,377.0 L202.4,378.2 L202.7,378.0 L202.9,378.0 L203.2,378.0 
		L203.4,378.0 L203.7,378.0 L203.9,378.0 L204.1,378.0 L204.4,378.0 L204.6,378.0 L204.9,378.0 L205.1,378.8 
		L205.4,378.7 L205.6,378.7 L205.9,378.7 L206.1,378.7 L206.4,378.7 L206.6,378.7 L206.9,378.7 L207.1,378.7 
		L207.4,378.7 L207.6,378.7 L207.9,378.7 L208.1,378.7 L208.4,378.7 L208.6,378.7 L208.8,378.7 L209.1,378.7 
		L209.3,380.0 L209.6,380.1 L209.8,380.1 L210.1,380.1 L210.3,380.1 L210.6,380.1 L210.8,380.1 L211.1,380.1 
		L211.3,380.6 L211.6,380.6 L211.8,380.6 L212.1,380.6 L212.3,380.6 L212.6,380.6 L212.8,380.6 L213.1,381.0 
		L213.3,381.0 L213.5,381.0 L213.8,381.0 L214.0,381.0 L214.3,381.2 L214.5,381.1 L214.8,381.1 L215.0,381.1 
		L215.3,381.1 L215.5,381.1 L215.8,381.3 L216.0,381.3 L216.3,381.3 L216.5,381.3 L216.8,381.3 L217.0,381.3 
		L217.3,381.6 L217.5,381.6 L217.8,381.6 L218.0,381.7 L218.2,381.6 L218.5,381.6 L218.7,381.6 L219.0,381.6 
		L219.2,381.6 L219.5,381.6 L219.7,381.6 L220.0,381.6 L220.2,381.6 L220.5,381.6 L220.7,381.6 L221.0,381.6 
		L221.2,381.6 L221.5,381.6 L221.7,381.6 L222.0,381.6 L222.2,382.7 L222.5,382.7 L222.7,382.7 L222.9,382.7 
		L223.2,382.7 L223.4,382.7 L223.7,382.7 L223.9,382.7 L224.2,382.7 L224.4,382.7 L224.7,382.7 L224.9,383.5 
		L225.2,383.3 L225.4,383.3 L225.7,383.3 L225.9,383.3 L226.2,383.3 L226.4,383.3 L226.7,383.3 L226.9,383.3 
		L227.2,383.3 L227.4,383.3 L227.7,383.3 L227.9,383.9 L228.1,384.0 L228.4,384.0 L228.6,384.0 L228.9,383.9 
		L229.1,383.9 L229.4,384.0 L229.6,384.0 L229.9,384.0 L230.1,384.1 L230.4,384.0 L230.6,384.0 L230.9,384.0 
		L231.1,383.8 L231.4,383.8 L231.6,383.8 L231.9,383.8 L232.1,383.8 L232.4,383.8 L232.6,383.8 L232.8,383.8 
		L233.1,383.8 L233.3,384.3 L233.6,384.1 L233.8,384.1 L234.1,384.1 L234.3,384.1 L234.6,384.0 L234.8,384.0 
		L235.1,384.1 L235.3,384.1 L235.6,384.1 L235.8,384.1 L236.1,384.1 L236.3,384.1 L236.6,384.1 L236.8,384.1 
		L237.1,384.1 L237.3,384.1 L237.5,384.1 L237.8,384.1 L238.0,384.1 L238.3,384.7 L238.5,384.7 L238.8,384.7 
		L239.0,384.7 L239.3,384.7 L239.5,384.7 L239.8,384.7 L240.0,384.7 L240.3,384.7 L240.5,384.7 L240.8,384.7 
		L241.0,384.7 L241.3,384.7 L241.5,385.3 L241.8,385.3 L242.0,385.3 L242.2,385.3 L242.5,385.3 L242.7,385.3 
		L243.0,385.3 L243.2,385.3 L243.5,385.7 L243.7,385.7 L244.0,385.7 L244.2,385.7 L244.5,385.7 L244.7,385.7 
		L245.0,385.7 L245.2,385.7 L245.5,385.7 L245.7,385.7 L246.0,385.7 L246.2,385.7 L246.5,385.7 L246.7,386.4 
		L246.9,386.3 L247.2,386.3 L247.4,386.3 L247.7,386.3 L247.9,386.5 L248.2,386.5 L248.4,386.5 L248.7,386.5 
		L248.9,386.6 L249.2,386.6 L249.4,386.6 L249.7,386.6 L249.9,386.6 L250.2,386.7 L250.4,386.6 L250.7,386.6 
		L250.9,386.6 L251.2,386.6 L251.4,386.8 L251.6,386.8 L251.9,386.8 L252.1,386.8 L252.4,386.8 L252.6,386.8 
		L252.9,386.8 L253.1,386.8 L253.4,386.8 L253.6,387.0 L253.9,387.0 L254.1,387.0 L254.4,387.0 L254.6,386.9 
		L254.9,386.6 L255.1,386.6 L255.4,386.6 L255.6,386.6 L255.9,386.6 L256.1,386.6 L256.3,386.6 L256.6,386.6 
		L256.8,386.9 L257.1,386.6 L257.3,386.6 L257.6,386.6 L257.8,386.6 L258.1,386.6 L258.3,386.6 L258.6,386.6 
		L258.8,386.9 L259.1,386.8 L259.3,386.8 L259.6,386.8 L259.8,386.9 L260.1,386.9 L260.3,386.9 L260.6,386.9 
		L260.8,386.9 L261.0,386.9 L261.3,387.2 L261.5,387.2 L261.8,387.2 L262.0,387.3 L262.3,387.3 L262.5,387.3 
		L262.8,387.2 L263.0,387.2 L263.3,387.2 L263.5,387.2 L263.8,387.2 L264.0,387.2 L264.3,387.2 L264.5,387.2 
		L264.8,387.6 L265.0,387.5 L265.3,387.5 L265.5,387.5 L265.8,387.5 L266.0,387.5 L266.2,387.5 L266.5,387.5 
		L266.7,387.5 L267.0,387.5 L267.2,387.5 L267.5,387.5 L267.7,387.5 L268.0,387.9 L268.2,387.9 L268.5,387.9 
		L268.7,387.9 L269.0,387.9 L269.2,388.0 L269.5,388.0 L269.7,388.0 L270.0,388.0 L270.2,388.0 L270.4,388.0 
		L270.7,388.0 L270.9,388.1 L271.2,388.1 L271.4,388.2 L271.7,388.1 L271.9,388.0 L272.2,388.0 L272.4,388.0 
		L272.7,388.0 L272.9,388.2 L273.2,388.2 L273.4,388.1 L273.7,388.1 L273.9,388.1 L274.2,388.1 L274.4,388.2 
		L274.7,388.2 L274.9,388.1 L275.1,388.1 L275.4,388.1 L275.6,388.1 L275.9,388.1 L276.1,388.1 L276.4,388.1 
		L276.6,388.1 L276.9,388.2 L277.1,388.0 L277.4,388.0 L277.6,388.0 L277.9,388.0 L278.1,388.0 L278.4,388.0 
		L278.6,388.0 L278.9,388.0 L279.1,388.0 L279.4,388.3 L279.6,388.2 L279.8,388.2 L280.1,388.2 L280.3,388.2 
		L280.6,388.2 L280.8,388.2 L281.1,388.2 L281.3,388.2 L281.6,388.2 L281.8,388.2 L282.1,388.2 L282.3,388.2 
		L282.6,388.2 L282.8,388.2 L283.1,388.2 L283.3,388.2 L283.6,388.2 L283.8,388.2 L284.1,388.2 L284.3,389.0 
		L284.5,389.0 L284.8,389.0 L285.0,389.0 L285.3,389.0 L285.5,389.0 L285.8,389.0 L286.0,389.0 L286.3,389.0 
		L286.5,389.0 L286.8,389.3 L287.0,389.3 L287.3,389.3 L287.5,389.4 L287.8,389.4 L288.0,389.4 L288.3,389.5 
		L288.5,389.5 L288.8,389.5 L289.0,389.6 L289.2,389.5 L289.5,389.5 L289.7,389.5 L290.0,389.5 L290.2,389.5 
		L290.5,389.5 L290.7,389.5 L291.0,389.5 L291.2,389.5 L291.5,389.5 L291.7,389.5 L292.0,389.5 L292.2,389.5 
		L292.5,389.8 L292.7,389.8 L293.0,389.8 L293.2,389.8 L293.5,389.8 L293.7,389.8 L293.9,389.8 L294.2,389.8 
		L294.4,389.8 L294.7,389.8 L294.9,389.8 L295.2,389.8 L295.4,389.8 L295.7,389.8 L295.9,389.8 L296.2,390.3 
		L296.4,390.3 L296.7,390.3 L296.9,390.3 L297.2,390.3 L297.4,390.3 L297.7,390.3 L297.9,390.3 L298.2,390.3 
		L298.4,390.3 L298.6,390.6 L298.9,390.6 L299.1,390.6 L299.4,390.6 L299.6,390.6 L299.9,390.6 L300.1,390.6 
		L300.4,390.6 L300.6,390.6 L300.9,390.6 L301.1,390.6 L301.4,390.9 L301.6,390.9 L301.9,390.9 L302.1,390.9 
		L302.4,391.0 L302.6,391.0 L302.9,391.0 L303.1,391.0 L303.3,391.0 L303.6,391.0 L303.8,391.0 L304.1,391.0 
		L304.3,391.0 L304.6,391.0 L304.8,391.0 L305.1,391.0 L305.3,391.2 L305.6,391.2 L305.8,391.2 L306.1,391.2 
		L306.3,391.4 L306.6,391.4 L306.8,391.4 L307.1,391.4 L307.3,391.4 L307.6,391.4 L307.8,391.4 L308.1,391.4 
		L308.3,391.4 L308.5,391.4 L308.8,391.4 L309.0,391.4 L309.3,391.4 L309.5,391.4 L309.8,391.4 L310.0,391.4 
		L310.3,391.4 L310.5,391.4 L310.8,391.4 L311.0,391.9 L311.3,391.9 L311.5,391.9 L311.8,391.9 L312.0,391.9 
		L312.3,391.9 L312.5,391.9 L312.8,391.9 L313.0,392.1 L313.2,392.1 L313.5,392.1 L313.7,392.1 L314.0,392.1 
		L314.2,392.1 L314.5,392.1 L314.7,392.1 L315.0,392.1 L315.2,392.1 L315.5,392.1 L315.7,392.1 L316.0,392.1 
		L316.2,392.4 L316.5,392.4 L316.7,392.4 L317.0,392.3 L317.2,392.3 L317.5,392.3 L317.7,392.3 L317.9,392.3 
		L318.2,392.3 L318.4,392.3 L318.7,392.3 L318.9,392.3 L319.2,392.4 L319.4,392.3 L319.7,392.3 L319.9,392.3 
		L320.2,392.3 L320.4,392.3 L320.7,392.3 L320.9,392.3 L321.2,392.3 L321.4,392.3 L321.7,392.3 L321.9,392.3 
		L322.2,392.3 L322.4,392.3 L322.6,392.3 L322.9,392.6 L323.1,392.6 L323.4,392.5 L323.6,392.5 L323.9,392.5 
		L324.1,392.5 L324.4,392.5 L324.6,392.6 L324.9,392.6 L325.1,392.6 L325.4,392.6 L325.6,392.6 L325.9,392.6 
		L326.1,392.6 L326.4,392.6 L326.6,392.7 L326.9,392.7 L327.1,392.7 L327.3,392.7 L327.6,392.6 L327.8,392.5 
		L328.1,392.5 L328.3,392.5 L328.6,392.5 L328.8,392.5 L329.1,392.5 L329.3,392.7 L329.6,392.6 L329.8,392.7 
		L330.1,392.7 L330.3,392.7 L330.6,392.7 L330.8,392.7 L331.1,392.7 L331.3,392.7 L331.6,392.7 L331.8,392.7 
		L332.0,392.9 L332.3,392.9 L332.5,392.9 L332.8,392.9 L333.0,392.9 L333.3,392.9 L333.5,393.0 L333.8,393.0 
		L334.0,393.0 L334.3,393.0 L334.5,393.0 L334.8,393.0 L335.0,393.0 L335.3,393.0 L335.5,393.0 L335.8,393.1 
		L336.0,393.1 L336.3,393.1 L336.5,393.1 L336.7,393.1 L337.0,393.1 L337.2,393.1 L337.5,393.1 L337.7,393.2 
		L338.0,393.2 L338.2,393.2 L338.5,393.2 L338.7,393.2 L339.0,393.3 L339.2,393.3 L339.5,393.3 L339.7,393.3 
		L340.0,393.3 L340.2,393.3 L340.5,393.3 L340.7,393.3 L341.0,393.3 L341.2,393.3 L341.4,393.5 L341.7,393.5 
		L341.9,393.5 L342.2,393.4 L342.4,393.4 L342.7,393.4 L342.9,393.4 L343.2,393.4 L343.4,393.4 L343.7,393.4 
		L343.9,393.4 L344.2,393.5 L344.4,393.4 L344.7,393.4 L344.9,393.3 L345.2,393.3 L345.4,393.3 L345.7,393.3 
		L345.9,393.3 L346.2,393.3 L346.4,393.3 L346.6,393.3 L346.9,393.3 L347.1,393.3 L347.4,393.3 L347.6,393.6 
		L347.9,393.6 L348.1,393.6 L348.4,393.5 L348.6,393.4 L348.9,393.4 L349.1,393.4 L349.4,393.4 L349.6,393.4 
		L349.9,393.4 L350.1,393.4 L350.4,393.4 L350.6,393.5 L350.9,393.5 L351.1,393.5 L351.3,393.5 L351.6,393.5 
		L351.8,393.5 L352.1,393.5 L352.3,393.5 L352.6,393.5 L352.8,393.5 L353.1,393.5 L353.3,393.5 L353.6,393.5 
		L353.8,393.8 L354.1,393.7 L354.3,393.7 L354.6,393.8 L354.8,393.7 L355.1,393.7 L355.3,393.7 L355.6,393.7 
		L355.8,393.7 L356.0,393.7 L356.3,393.7 L356.5,393.7 L356.8,393.7 L357.0,393.7 L357.3,393.7 L357.5,393.7 
		L357.8,394.0 L358.0,394.0 L358.3,394.0 L358.5,394.0 L358.8,394.0 L359.0,394.0 L359.3,394.0 L359.5,394.0 
		L359.8,394.0 L360.0,394.0 L360.3,394.0 L360.5,394.0 L360.7,394.0 L361.0,394.0 L361.2,394.0 L361.5,394.0 
		L361.7,394.0 L362.0,394.0 L362.2,394.0 L362.5,394.0 L362.7,394.0 L363.0,394.0 L363.2,394.0 L363.5,394.0 
		L363.7,394.0 L364.0,394.0 L364.2,394.0 L364.5,394.7 L364.7,394.7 L365.0,394.7 L365.2,394.7 L365.4,394.7 
		L365.7,394.7 L365.9,394.7 L366.2,394.7 L366.4,394.7 L366.7,394.7 L366.9,394.7 L367.2,394.7 L367.4,394.7 
		L367.7,394.7 L367.9,394.7 L368.2,394.7 L368.4,394.7 L368.7,394.7 L368.9,394.7 L369.2,394.7 L369.4,394.7 
		L369.7,395.1 L369.9,395.1 L370.1,395.1 L370.4,395.1 L370.6,395.1 L370.9,395.1 L371.1,395.1 L371.4,395.2 
		L371.6,395.2 L371.9,395.2 L372.1,395.2 L372.4,395.2 L372.6,395.3 L372.9,395.3 L373.1,395.3 L373.4,395.3 
		L373.6,395.3 L373.9,395.3 L374.1,395.3 L374.4,395.3 L374.6,395.3 L374.8,395.3 L375.1,395.3 L375.3,395.3 
		L375.6,395.3 L375.8,395.3 L376.1,395.5 L376.3,395.5 L376.6,395.5 L376.8,395.5 L377.1,395.5 L377.3,395.5 
		L377.6,395.5 L377.8,395.6 L378.1,395.5 L378.3,395.4 L378.6,395.3 L378.8,395.3 L379.1,395.3 L379.3,395.3 
		L379.5,395.3 L379.8,395.3 L380.0,395.3 L380.3,395.5 L380.5,395.4 L380.8,395.4 L381.0,395.4 L381.3,395.4 
		L381.5,395.4 L381.8,395.4 L382.0,395.4 L382.3,395.4 L382.5,395.4 L382.8,395.4 L383.0,395.4 L383.3,395.5 
		L383.5,395.5 L383.8,395.5 L384.0,395.5 L384.2,395.5 L384.5,395.5 L384.7,395.5 L385.0,395.5 L385.2,395.5 
		L385.5,395.5 L385.7,395.5 L386.0,395.5 L386.2,395.5 L386.5,395.5 L386.7,395.5 L387.0,395.5 L387.2,395.5 
		L387.5,395.5 L387.7,395.5 L388.0,395.5 L388.2,395.5 L388.5,395.5 L388.7,395.8 L389.0,395.7 L389.2,395.7 
		L389.4,395.7 L389.7,395.7 L389.9,395.8 L390.2,395.8 L390.4,395.8 L390.7,395.8 L390.9,395.8 L391.2,395.8 
		L391.4,395.8 L391.7,395.8 L391.9,395.8 L392.2,395.8 L392.4,395.8 L392.7,395.8 L392.9,395.8 L393.2,395.8 
		L393.4,395.8 L393.7,395.8 L393.9,395.8 L394.1,395.8 L394.4,395.8 L394.6,395.8 L394.9,395.8 L395.1,395.8 
		L395.4,395.8 L395.6,395.8 L395.9,395.8 L396.1,395.8 L396.4,395.8 L396.6,395.8 L396.9,395.8 L397.1,395.8 
		L397.4,395.8 L397.6,395.8 L397.9,395.8 L398.1,395.8 L398.4,395.8 L398.6,395.8 L398.8,395.8 L399.1,395.8 
		L399.3,395.8 L399.6,395.8 L399.8,395.8 L400.1,396.4 L400.3,396.4 L400.6,396.4 L400.8,396.4 L401.1,396.4 
		L401.3,396.5 L401.6,396.4 L401.8,396.4 L402.1,396.4 L402.3,396.4 L402.6,396.4 L402.8,396.4 L403.1,396.4 
		L403.3,396.4 L403.5,396.4 L403.8,396.4 L404.0,396.4 L404.3,396.4 L404.5,396.4 L404.8,396.4 L405.0,396.4 
		L405.3,396.4 L405.5,396.7 L405.8,396.7 L406.0,396.7 L406.3,396.7 L406.5,396.7 L406.8,396.7 L407.0,396.7 
		L407.3,396.7 L407.5,396.7 L407.8,396.7 L408.0,396.8 L408.2,396.7 L408.5,396.7 L408.7,396.7 L409.0,396.7 
		L409.2,396.7 L409.5,396.7 L409.7,396.7 L410.0,396.7 L410.2,396.7 L410.5,396.7 L410.7,396.7 L411.0,396.9 
		L411.2,396.9 L411.5,396.9 L411.7,396.9 L412.0,396.9 L412.2,396.9 L412.5,396.9 L412.7,396.9 L412.9,396.9 
		L413.2,396.9 L413.4,396.9 L413.7,396.9 L413.9,396.9 L414.2,397.1 L414.4,397.0 L414.7,397.0 L414.9,397.1 
		L415.2,397.1 L415.4,397.1 L415.7,397.1 L415.9,397.1 L416.2,397.1 L416.4,397.1 L416.7,397.1 L416.9,397.1 
		L417.2,397.1 L417.4,397.1 L417.6,397.1 L417.9,397.1 L418.1,397.1 L418.4,397.1 L418.6,397.1 L418.9,397.1 
		L419.1,397.1 L419.4,397.1 L419.6,397.1 L419.9,397.1 L420.1,397.1 L420.4,397.1 L420.6,397.1 L420.9,397.1 
		L421.1,397.1 L421.4,397.4 L421.6,397.4 L421.9,397.4 L422.1,397.4 L422.3,397.4 L422.6,397.4 L422.8,397.4 
		L423.1,397.4 L423.3,397.4 L423.6,397.4 L423.8,397.4 L424.1,397.4 L424.3,397.4 L424.6,397.4 L424.8,397.4 
		L425.1,397.4 L425.3,397.4 L425.6,397.4 L425.8,397.4 L426.1,397.4 L426.3,397.4 L426.6,397.4 L426.8,397.4 
		L427.0,397.4 L427.3,397.4 L427.5,397.4 L427.8,397.4 L428.0,397.8 L428.3,397.8 L428.5,397.8 L428.8,397.8 
		L429.0,397.8 L429.3,397.8 L429.5,397.8 L429.8,397.8 L430.0,397.8 L430.3,397.8 L430.5,397.8 L430.8,397.8 
		L431.0,397.8 L431.3,397.8 L431.5,397.8 L431.8,397.8 L432.0,397.9 L432.2,397.9 L432.5,397.9 L432.7,397.9 
		L433.0,397.9 L433.2,397.9 L433.5,397.9 L433.7,397.9 L434.0,398.0 L434.2,398.0 L434.5,398.0 L434.7,398.0 
		L435.0,398.0 L435.2,398.0 L435.5,398.0 L435.7,398.0 L436.0,398.0 L436.2,398.0 L436.5,398.0 L436.7,398.0 
		L436.9,398.0 L437.2,398.2 L437.4,398.2 L437.7,398.2 L437.9,398.3 L438.2,398.3 L438.4,398.3 L438.7,398.3 
		L438.9,398.3 L439.2,398.3 L439.4,398.3 L439.7,398.3 L439.9,398.3 L440.2,398.3 L440.4,398.3 L440.7,398.3 
		L440.9,398.3 L441.2,398.3 L441.4,398.3 L441.6,398.3 L441.9,398.3 L442.1,398.3 L442.4,398.3 L442.6,398.3 
		L442.9,398.3 L443.1,398.3 L443.4,398.3 L443.6,398.3 L443.9,398.3 L444.1,398.6 L444.4,398.6 L444.6,398.6 
		L444.9,398.6 L445.1,398.6 L445.4,398.6 L445.6,398.6 L445.9,398.6 L446.1,398.6 L446.3,398.6 L446.6,398.7 
		L446.8,398.7 L447.1,398.7 L447.3,398.7 L447.6,398.7 L447.8,398.7 L448.1,398.7 L448.3,398.8 L448.6,398.7 
		L448.8,398.7 L449.1,398.7 L449.3,398.8 L449.6,398.8 L449.8,398.8 L450.1,398.8 L450.3,398.8 L450.6,398.7 
		L450.8,398.7 L451.0,398.7 L451.3,398.7 L451.5,398.7 L451.8,398.8 L452.0,398.8 L452.3,398.8 L452.5,398.7 
		L452.8,398.6 L453.0,398.6 L453.3,398.6 L453.5,398.6 L453.8,398.6 L454.0,398.6 L454.3,398.6 L454.5,398.6 
		L454.8,398.6 L455.0,398.6 L455.3,398.6 L455.5,398.5 L455.7,398.5 L456.0,398.5 L456.2,398.5 L456.5,398.5 
		L456.7,398.4 L457.0,398.4 L457.2,398.4 L457.5,398.4 L457.7,398.4 L458.0,398.4 L458.2,398.4 L458.5,398.4 
		L458.7,398.4 L459.0,398.4 L459.2,398.4 L459.5,398.4 L459.7,398.5 L460.0,398.5 L460.2,398.5 L460.4,398.5 
		L460.7,398.5 L460.9,398.5 L461.2,398.6 L461.4,398.6 L461.7,398.6 L461.9,398.6 L462.2,398.6 L462.4,398.6 
		L462.7,398.6 L462.9,398.6 L463.2,398.6 L463.4,398.6 L463.7,398.6 L463.9,398.6 L464.2,398.6 L464.4,398.6 
		L464.7,398.6 L464.9,398.6 L465.1,398.6 L465.4,398.6 L465.6,398.6 L465.9,398.6 L466.1,398.6 L466.4,398.8 
		L466.6,398.8 L466.9,398.8 L467.1,398.8 L467.4,398.8 L467.6,398.8 L467.9,398.8 L468.1,398.8 L468.4,398.8 
		L468.6,398.8 L468.9,398.8 L469.1,398.8 L469.4,398.9 L469.6,398.9 L469.9,398.9 L470.1,398.9 L470.3,398.9 
		L470.6,398.9 L470.8,398.9 L471.1,398.9 L471.3,398.9 L471.6,398.9 L471.8,398.9 L472.1,398.9 L472.3,398.9 
		L472.6,398.9 L472.8,398.9 L473.1,398.9 L473.3,398.9 L473.6,399.1 L473.8,399.1 L474.1,399.1 L474.3,399.1 
		L474.6,399.1 L474.8,399.1 L475.0,399.1 L475.3,399.1 L475.5,399.1 L475.8,399.1 L476.0,399.1 L476.3,399.1 
		L476.5,399.2 L476.8,399.2 L477.0,399.2 L477.3,399.2 L477.5,399.2 L477.8,399.2 L478.0,399.2 L478.3,399.2 
		L478.5,399.2 L478.8,399.2 L479.0,399.2 L479.3,399.3 L479.5,399.3 L479.7,399.3 L480.0,399.3 L480.2,399.3 
		L480.5,399.3 L480.7,399.3 L481.0,399.3 L481.2,399.3 L481.5,399.3 L481.7,399.3 L482.0,399.3 L482.2,399.3 
		L482.5,399.3 L482.7,399.3 L483.0,399.3 L483.2,399.4 L483.5,399.4 L483.7,399.4 L484.0,399.4 L484.2,399.4 
		L484.4,399.4 L484.7,399.4 L484.9,399.4 L485.2,399.4 L485.4,399.4 L485.7,399.4 L485.9,399.5 L486.2,399.5 
		L486.4,399.5 L486.7,399.6 L486.9,399.6 L487.2,399.6 L487.4,399.6 L487.7,399.6 L487.9,399.6 L488.2,399.6 
		L488.4,399.6 L488.7,399.6 L488.9,399.6 L489.1,399.7 L489.4,399.7 L489.6,399.7 L489.9,399.7 L490.1,399.7 
		L490.4,399.7 L490.6,399.7 L490.9,399.7 L491.1,399.7 L491.4,399.7 L491.6,399.7 L491.9,399.7 L492.1,399.8 
		L492.4,399.8 L492.6,399.8 L492.9,399.8 L493.1,399.8 L493.4,399.8 L493.6,399.8 L493.8,399.8 L494.1,399.8 
		L494.3,399.8 L494.6,399.8 L494.8,399.8 L495.1,399.8 L495.3,399.8 L495.6,399.8 L495.8,399.8 L496.1,399.8 
		L496.3,399.8 L496.6,399.8 L496.8,399.8 L497.1,399.8 L497.3,399.8 L497.6,399.8 L497.8,399.8 L498.1,399.8 
		L498.3,399.8 L498.5,399.8 L498.8,399.8 L499.0,399.8 L499.3,400.1 L499.5,400.1 L499.8,400.1 L500.0,400.1 
		L500.3,400.1 L500.5,400.1 L500.8,400.1 L501.0,400.1 L501.3,400.1 L501.5,400.1 L501.8,400.1 L502.0,400.1 
		L502.3,400.1 L502.5,400.1 L502.8,400.1 L503.0,400.1 L503.2,400.1 L503.5,400.1 L503.7,400.1 L504.0,400.1 
		L504.2,400.1 L504.5,400.1 L504.7,400.2 L505.0,400.2 L505.2,400.2 L505.5,400.2 L505.7,400.2 L506.0,400.2 
		L506.2,400.2 L506.5,400.2 L506.7,400.2 L507.0,400.2 L507.2,400.2 L507.5,400.2 L507.7,400.2 L507.9,400.2 
		L508.2,400.3 L508.4,400.3 L508.7,400.3 L508.9,400.3 L509.2,400.3 L509.4,400.3 L509.7,400.3 L509.9,400.3 
		L510.2,400.3 L510.4,400.3 L510.7,400.3 L510.9,400.3 L511.2,400.3 L511.4,400.3 L511.7,400.3 L511.9,400.3 
		L512.2,400.3 L512.4,400.3 L512.7,400.3 L512.9,400.3 L513.1,400.3 L513.4,400.3 L513.6,400.3 L513.9,400.3 
		L514.1,400.3 L514.4,400.3 L514.6,400.4 L514.9,400.3 L515.1,400.3 L515.4,400.3 L515.6,400.3 L515.9,400.3 
		L516.1,400.4 L516.4,400.4 L516.6,400.4 L516.9,400.4 L517.1,400.4 L517.4,400.4 L517.6,400.4 L517.8,400.4 
		L518.1,400.5 L518.3,400.5 L518.6,400.5 L518.8,400.5 L519.1,400.5 L519.3,400.5 L519.6,400.5 L519.8,400.5 
		L520.1,400.5 L520.3,400.6 L520.6,400.5 L520.8,400.5 L521.1,400.6 L521.3,400.5 L521.6,400.5 L521.8,400.5 
		L522.1,400.6 L522.3,400.6 L522.5,400.6 L522.8,400.6 L523.0,400.6 L523.3,400.6 L523.5,400.6 L523.8,400.6 
		L524.0,400.6 L524.3,400.6 L524.5,400.5 L524.8,400.5 L525.0,400.5 L525.3,400.5 L525.5,400.5 L525.8,400.5 
		L526.0,400.5 L526.3,400.5 L526.5,400.5 L526.8,400.5 L527.0,400.5 L527.2,400.5 L527.5,400.5 L527.7,400.5 
		L528.0,400.5 L528.2,400.5 L528.5,400.5 L528.7,400.6 L529.0,400.6 L529.2,400.6 L529.5,400.6 L529.7,400.6 
		L530.0,400.6 L530.2,400.6 L530.5,400.6 L530.7,400.6 L531.0,400.6 L531.2,400.6 L531.5,400.6 L531.7,400.7 
		L531.9,400.7 L532.2,400.7 L532.4,400.7 L532.7,400.7 L532.9,400.7 L533.2,400.7 L533.4,400.7 L533.7,400.7 
		L533.9,400.7 L534.2,400.7 L534.4,400.7 L534.7,400.8 L534.9,400.7 L535.2,400.7 L535.4,400.7 L535.7,400.7 
		L535.9,400.7 L536.2,400.7 L536.4,400.7 L536.6,400.6 L536.9,400.6 L537.1,400.6 L537.4,400.6 L537.6,400.6 
		L537.9,400.6 L538.1,400.6 L538.4,400.6 L538.6,400.6 L538.9,400.6 L539.1,400.5 L539.4,400.4 L539.6,400.4 
		L539.9,400.4 L540.1,400.4 L540.4,400.4 L540.6,400.4 L540.9,400.4 L541.1,400.4 L541.3,400.4 L541.6,400.4 
		L541.8,400.4 L542.1,400.4 L542.3,400.4 L542.6,400.5 L542.8,400.4 L543.1,400.4 L543.3,400.4 L543.6,400.4 
		L543.8,400.4 L544.1,400.4 L544.3,400.3 L544.6,400.3 L544.8,400.3 L545.1,400.3 L545.3,400.3 L545.6,400.3 
		L545.8,400.3 L546.0,400.2 L546.3,400.2 L546.5,400.1 L546.8,400.1 L547.0,400.1 L547.3,400.1 L547.5,400.1 
		L547.8,400.1 L548.0,400.0 L548.3,400.0 L548.5,400.0 L548.8,400.0 L549.0,400.0 L549.3,400.0 L549.5,400.0 
		L549.8,399.8 L550.0,399.8 L550.3,399.8 L550.5,399.8 L550.7,399.8 L551.0,399.8 L551.2,399.8 L551.5,399.8 
		L551.7,399.8 L552.0,399.8 L552.2,399.8 L552.5,400.0 L552.7,399.9 L553.0,399.9 L553.2,399.9 L553.5,399.9 
		L553.7,399.9 L554.0,399.8 L554.2,399.7 L554.5,399.7 L554.7,399.7 L555.0,399.7 L555.2,399.7 L555.5,399.7 
		L555.7,399.7 L555.9,399.7 L556.2,399.7 L556.4,399.7 L556.7,399.7 L556.9,399.7 L557.2,399.7 L557.4,399.7 
		L557.7,399.7 L557.9,399.7 L558.2,399.7 L558.4,399.7 L558.7,399.7 L558.9,399.7 L559.2,399.7 L559.4,399.7 
		L559.7,399.7 L559.9,399.7 L560.2,399.7 L560.4,399.7 L560.6,399.9 L560.9,399.9 L561.1,399.9 L561.4,399.9 
		L561.6,399.9 L561.9,399.9 L562.1,399.9 L562.4,399.9 L562.6,399.9 L562.9,399.9 L563.1,399.9 L563.4,399.9 
		L563.6,399.9 L563.9,399.9 L564.1,399.9 L564.4,399.9 L564.6,399.9 L564.9,399.9 L565.1,399.9 L565.3,400.1 
		L565.6,400.1 L565.8,400.1 L566.1,400.1 L566.3,400.1 L566.6,400.1 L566.8,400.1 L567.1,400.1 L567.3,400.1 
		L567.6,400.1 L567.8,400.1 L568.1,400.1 L568.3,400.1 L568.6,400.1 L568.8,400.1 L569.1,400.1 L569.3,400.1 
		L569.6,400.2 L569.8,400.2 L570.0,400.2 L570.3,400.2 L570.5,400.2 L570.8,400.3 L571.0,400.3 L571.3,400.3 
		L571.5,400.3 L571.8,400.2 L572.0,400.2 L572.3,400.2 L572.5,400.2 L572.8,400.2 L573.0,400.2 L573.3,400.2 
		L573.5,400.2 L573.8,400.2 L574.0,400.2 L574.3,400.2 L574.5,400.1 L574.7,400.1 L575.0,400.1  h0.01'/></g>
	</g>
	<g id="gnuplot_plot_2" ><title>gnuplot_plot_2</title>
<g style="fill:none; color:green; stroke:currentColor; stroke-width:1.00; stroke-linecap:butt; stroke-linejoin:miter">
	<g transform="translate(507.9,408.9)" style="stroke:none; fill:black; font-family:Arial; font-size:12.00pt; text-anchor:end">
		<text>Radio maximum capacity</text>
	</g>
	<path  d='M516.2,404.4 L558.4,404.4 M82.9,66.4 L83.2,277.4 L83.4,277.4 L83.7,277.4 L83.9,346.1 L84.2,343.2 
		L84.4,364.7 L84.7,239.7 L84.9,225.0 L85.1,225.0 L85.4,225.0 L85.6,281.3 L85.9,258.7 L86.1,253.5 
		L86.4,253.5 L86.6,253.5 L86.9,253.5 L87.1,290.6 L87.4,290.6 L87.6,290.6 L87.9,290.6 L88.1,290.6 
		L88.4,290.6 L88.6,323.1 L88.9,318.8 L89.1,318.8 L89.4,318.8 L89.6,318.8 L89.8,318.8 L90.1,318.8 
		L90.3,318.8 L90.6,318.8 L90.8,318.8 L91.1,343.7 L91.3,343.7 L91.6,343.7 L91.8,343.7 L92.1,343.7 
		L92.3,343.7 L92.6,343.7 L92.8,343.7 L93.1,343.7 L93.3,343.7 L93.6,343.7 L93.8,343.7 L94.0,343.7 
		L94.3,343.7 L94.5,343.7 L94.8,343.7 L95.0,343.7 L95.3,343.7 L95.5,370.1 L95.8,367.0 L96.0,367.0 
		L96.3,367.0 L96.5,367.0 L96.8,367.0 L97.0,367.0 L97.3,367.0 L97.5,367.0 L97.8,367.0 L98.0,367.0 
		L98.3,367.0 L98.5,376.2 L98.8,372.3 L99.0,369.7 L99.2,369.7 L99.5,369.7 L99.7,369.7 L100.0,369.7 
		L100.2,369.9 L100.5,369.8 L100.7,369.8 L101.0,369.8 L101.2,369.8 L101.5,369.8 L101.7,369.8 L102.0,369.8 
		L102.2,369.8 L102.5,369.8 L102.7,369.8 L103.0,369.8 L103.2,369.8 L103.5,369.8 L103.7,369.8 L103.9,376.8 
		L104.2,376.7 L104.4,376.7 L104.7,376.7 L104.9,376.7 L105.2,376.7 L105.4,379.2 L105.7,379.2 L105.9,379.2 
		L106.2,378.9 L106.4,378.9 L106.7,378.9 L106.9,378.9 L107.2,378.9 L107.4,378.9 L107.7,378.9 L107.9,378.9 
		L108.2,378.9 L108.4,382.5 L108.6,382.5 L108.9,382.5 L109.1,383.5 L109.4,383.0 L109.6,381.5 L109.9,381.5 
		L110.1,379.6 L110.4,379.6 L110.6,379.6 L110.9,379.6 L111.1,379.6 L111.4,379.6 L111.6,379.6 L111.9,379.6 
		L112.1,379.6 L112.4,379.6 L112.6,379.6 L112.9,379.6 L113.1,379.6 L113.3,379.6 L113.6,379.6 L113.8,379.6 
		L114.1,383.7 L114.3,383.4 L114.6,383.4 L114.8,383.4 L115.1,383.4 L115.3,384.5 L115.6,383.8 L115.8,383.8 
		L116.1,383.8 L116.3,384.4 L116.6,382.9 L116.8,382.9 L117.1,382.9 L117.3,382.9 L117.6,382.9 L117.8,382.9 
		L118.0,382.9 L118.3,382.9 L118.5,384.6 L118.8,384.6 L119.0,384.6 L119.3,384.6 L119.5,384.6 L119.8,384.6 
		L120.0,384.6 L120.3,384.6 L120.5,384.6 L120.8,384.6 L121.0,384.6 L121.3,384.6 L121.5,384.6 L121.8,386.7 
		L122.0,386.7 L122.3,386.7 L122.5,386.4 L122.7,385.3 L123.0,385.1 L123.2,385.1 L123.5,385.0 L123.7,384.7 
		L124.0,384.7 L124.2,381.9 L124.5,380.3 L124.7,380.3 L125.0,380.8 L125.2,380.6 L125.5,380.6 L125.7,380.0 
		L126.0,379.9 L126.2,379.9 L126.5,379.9 L126.7,379.9 L127.0,380.3 L127.2,380.3 L127.5,380.3 L127.7,380.0 
		L127.9,380.2 L128.2,379.7 L128.4,379.1 L128.7,378.8 L128.9,378.8 L129.2,378.8 L129.4,378.8 L129.7,378.8 
		L129.9,378.8 L130.2,378.8 L130.4,378.8 L130.7,378.8 L130.9,378.8 L131.2,378.8 L131.4,380.7 L131.7,380.5 
		L131.9,379.5 L132.2,379.1 L132.4,379.1 L132.6,379.1 L132.9,379.1 L133.1,379.1 L133.4,379.1 L133.6,380.2 
		L133.9,380.2 L134.1,380.2 L134.4,380.2 L134.6,380.2 L134.9,380.1 L135.1,380.0 L135.4,380.0 L135.6,380.0 
		L135.9,380.0 L136.1,380.8 L136.4,380.8 L136.6,380.8 L136.9,380.8 L137.1,380.8 L137.3,381.4 L137.6,381.0 
		L137.8,381.0 L138.1,381.0 L138.3,381.0 L138.6,381.0 L138.8,379.4 L139.1,378.6 L139.3,378.4 L139.6,378.4 
		L139.8,376.7 L140.1,376.7 L140.3,376.7 L140.6,376.7 L140.8,376.7 L141.1,376.7 L141.3,376.7 L141.6,376.7 
		L141.8,376.7 L142.1,378.3 L142.3,378.3 L142.5,378.3 L142.8,378.3 L143.0,378.6 L143.3,377.2 L143.5,377.2 
		L143.8,377.2 L144.0,377.2 L144.3,377.2 L144.5,377.2 L144.8,377.2 L145.0,377.2 L145.3,377.3 L145.5,377.3 
		L145.8,377.6 L146.0,375.9 L146.3,375.9 L146.5,375.9 L146.8,375.9 L147.0,375.9 L147.2,375.9 L147.5,375.9 
		L147.7,375.9 L148.0,375.9 L148.2,377.3 L148.5,377.3 L148.7,377.3 L149.0,377.3 L149.2,377.3 L149.5,377.3 
		L149.7,378.1 L150.0,378.1 L150.2,378.1 L150.5,378.1 L150.7,378.1 L151.0,378.1 L151.2,378.1 L151.5,377.5 
		L151.7,375.5 L151.9,375.5 L152.2,375.5 L152.4,375.5 L152.7,375.5 L152.9,376.2 L153.2,375.6 L153.4,375.6 
		L153.7,375.6 L153.9,375.6 L154.2,375.6 L154.4,375.6 L154.7,376.2 L154.9,376.2 L155.2,376.2 L155.4,376.2 
		L155.7,376.2 L155.9,376.2 L156.2,376.2 L156.4,376.2 L156.6,376.2 L156.9,376.2 L157.1,376.2 L157.4,376.2 
		L157.6,376.2 L157.9,376.2 L158.1,376.2 L158.4,377.3 L158.6,374.3 L158.9,373.4 L159.1,373.4 L159.4,373.4 
		L159.6,373.4 L159.9,373.4 L160.1,373.4 L160.4,373.4 L160.6,374.3 L160.9,374.3 L161.1,374.3 L161.3,374.3 
		L161.6,374.3 L161.8,375.0 L162.1,374.9 L162.3,374.9 L162.6,373.8 L162.8,373.6 L163.1,373.6 L163.3,373.1 
		L163.6,373.1 L163.8,373.1 L164.1,373.1 L164.3,373.6 L164.6,373.6 L164.8,373.6 L165.1,373.6 L165.3,373.8 
		L165.6,373.8 L165.8,373.8 L166.0,373.8 L166.3,373.8 L166.5,373.8 L166.8,374.4 L167.0,374.4 L167.3,374.4 
		L167.5,373.7 L167.8,373.6 L168.0,373.6 L168.3,373.2 L168.5,372.5 L168.8,372.5 L169.0,372.4 L169.3,372.4 
		L169.5,372.4 L169.8,372.7 L170.0,372.7 L170.3,372.7 L170.5,372.7 L170.7,372.7 L171.0,372.7 L171.2,372.7 
		L171.5,372.4 L171.7,372.4 L172.0,372.4 L172.2,372.4 L172.5,372.8 L172.7,372.8 L173.0,372.8 L173.2,371.5 
		L173.5,371.1 L173.7,371.1 L174.0,371.1 L174.2,371.1 L174.5,371.1 L174.7,371.7 L175.0,370.5 L175.2,370.1 
		L175.4,370.1 L175.7,370.1 L175.9,370.2 L176.2,369.5 L176.4,369.3 L176.7,369.3 L176.9,369.3 L177.2,369.3 
		L177.4,369.7 L177.7,369.7 L177.9,369.7 L178.2,369.7 L178.4,370.3 L178.7,370.1 L178.9,370.1 L179.2,370.1 
		L179.4,370.4 L179.7,370.4 L179.9,370.4 L180.1,370.4 L180.4,370.4 L180.6,370.4 L180.9,370.4 L181.1,370.4 
		L181.4,370.4 L181.6,371.2 L181.9,371.2 L182.1,371.2 L182.4,371.2 L182.6,371.2 L182.9,371.5 L183.1,371.1 
		L183.4,371.1 L183.6,371.1 L183.9,371.1 L184.1,371.1 L184.4,371.1 L184.6,371.1 L184.9,371.1 L185.1,371.1 
		L185.3,371.1 L185.6,371.1 L185.8,371.1 L186.1,371.1 L186.3,371.1 L186.6,371.1 L186.8,371.1 L187.1,372.2 
		L187.3,372.2 L187.6,372.2 L187.8,372.2 L188.1,372.2 L188.3,372.2 L188.6,372.2 L188.8,372.9 L189.1,372.9 
		L189.3,372.9 L189.6,373.2 L189.8,373.1 L190.0,373.1 L190.3,373.1 L190.5,373.1 L190.8,373.1 L191.0,373.4 
		L191.3,373.4 L191.5,373.4 L191.8,373.4 L192.0,373.4 L192.3,373.4 L192.5,373.4 L192.8,373.4 L193.0,374.0 
		L193.3,374.0 L193.5,374.0 L193.8,374.0 L194.0,374.0 L194.3,374.0 L194.5,374.5 L194.7,373.5 L195.0,373.2 
		L195.2,373.2 L195.5,373.3 L195.7,373.2 L196.0,373.2 L196.2,373.2 L196.5,373.2 L196.7,373.2 L197.0,373.5 
		L197.2,373.0 L197.5,372.9 L197.7,372.9 L198.0,372.9 L198.2,372.9 L198.5,373.3 L198.7,372.1 L199.0,370.7 
		L199.2,370.7 L199.4,370.7 L199.7,370.7 L199.9,370.7 L200.2,370.7 L200.4,370.7 L200.7,370.7 L200.9,370.7 
		L201.2,370.7 L201.4,370.7 L201.7,370.7 L201.9,370.7 L202.2,370.7 L202.4,372.1 L202.7,371.9 L202.9,371.9 
		L203.2,371.9 L203.4,371.9 L203.7,371.9 L203.9,371.9 L204.1,371.9 L204.4,371.9 L204.6,371.9 L204.9,371.9 
		L205.1,371.4 L205.4,370.3 L205.6,370.3 L205.9,370.3 L206.1,370.3 L206.4,370.3 L206.6,370.3 L206.9,370.3 
		L207.1,370.3 L207.4,370.3 L207.6,370.3 L207.9,370.3 L208.1,370.3 L208.4,370.3 L208.6,370.3 L208.8,370.3 
		L209.1,371.8 L209.3,371.8 L209.6,371.9 L209.8,371.9 L210.1,371.9 L210.3,371.9 L210.6,371.9 L210.8,371.9 
		L211.1,371.9 L211.3,372.5 L211.6,372.4 L211.8,372.5 L212.1,372.5 L212.3,372.5 L212.6,372.5 L212.8,372.5 
		L213.1,372.9 L213.3,372.4 L213.5,372.4 L213.8,372.4 L214.0,372.4 L214.3,372.7 L214.5,372.2 L214.8,372.2 
		L215.0,372.2 L215.3,372.2 L215.5,372.2 L215.8,372.5 L216.0,372.5 L216.3,372.5 L216.5,372.5 L216.8,372.5 
		L217.0,372.5 L217.3,372.7 L217.5,372.7 L217.8,372.7 L218.0,372.4 L218.2,372.4 L218.5,372.4 L218.7,372.4 
		L219.0,372.4 L219.2,372.4 L219.5,372.4 L219.7,372.4 L220.0,372.4 L220.2,372.4 L220.5,372.4 L220.7,372.4 
		L221.0,372.4 L221.2,372.4 L221.5,372.4 L221.7,372.4 L222.0,372.4 L222.2,373.8 L222.5,373.7 L222.7,373.7 
		L222.9,373.7 L223.2,373.7 L223.4,373.7 L223.7,373.7 L223.9,373.7 L224.2,373.7 L224.4,373.7 L224.7,373.7 
		L224.9,374.6 L225.2,374.4 L225.4,374.4 L225.7,374.4 L225.9,374.4 L226.2,374.4 L226.4,374.4 L226.7,374.4 
		L226.9,374.4 L227.2,374.4 L227.4,374.4 L227.7,374.4 L227.9,375.0 L228.1,375.0 L228.4,375.0 L228.6,374.9 
		L228.9,374.8 L229.1,374.8 L229.4,374.7 L229.6,374.6 L229.9,374.6 L230.1,374.7 L230.4,374.6 L230.6,374.6 
		L230.9,374.0 L231.1,373.4 L231.4,373.4 L231.6,373.4 L231.9,373.4 L232.1,373.4 L232.4,373.4 L232.6,373.4 
		L232.8,373.4 L233.1,373.4 L233.3,373.9 L233.6,373.6 L233.8,373.6 L234.1,373.7 L234.3,373.1 L234.6,372.6 
		L234.8,372.6 L235.1,372.7 L235.3,372.7 L235.6,372.7 L235.8,372.7 L236.1,372.7 L236.3,372.7 L236.6,372.7 
		L236.8,372.7 L237.1,372.7 L237.3,372.7 L237.5,372.7 L237.8,372.7 L238.0,372.7 L238.3,373.5 L238.5,373.5 
		L238.8,373.5 L239.0,373.5 L239.3,373.5 L239.5,373.5 L239.8,373.5 L240.0,373.5 L240.3,373.5 L240.5,373.5 
		L240.8,373.5 L241.0,373.5 L241.3,373.5 L241.5,374.2 L241.8,374.2 L242.0,374.2 L242.2,374.2 L242.5,374.2 
		L242.7,374.2 L243.0,374.2 L243.2,374.2 L243.5,374.4 L243.7,374.3 L244.0,374.3 L244.2,374.3 L244.5,374.3 
		L244.7,374.3 L245.0,374.3 L245.2,374.3 L245.5,374.3 L245.7,374.3 L246.0,374.3 L246.2,374.3 L246.5,374.3 
		L246.7,375.2 L246.9,374.6 L247.2,374.6 L247.4,374.6 L247.7,374.6 L247.9,374.8 L248.2,374.6 L248.4,374.6 
		L248.7,374.8 L248.9,374.8 L249.2,374.7 L249.4,374.7 L249.7,374.7 L249.9,374.7 L250.2,374.8 L250.4,374.7 
		L250.7,374.7 L250.9,374.7 L251.2,374.7 L251.4,374.9 L251.6,374.9 L251.9,374.9 L252.1,374.9 L252.4,374.9 
		L252.6,374.9 L252.9,374.9 L253.1,374.9 L253.4,374.9 L253.6,375.0 L253.9,374.9 L254.1,374.9 L254.4,374.9 
		L254.6,374.8 L254.9,374.5 L255.1,374.5 L255.4,374.5 L255.6,374.5 L255.9,374.5 L256.1,374.5 L256.3,374.5 
		L256.6,374.5 L256.8,374.9 L257.1,374.4 L257.3,374.4 L257.6,374.4 L257.8,374.4 L258.1,374.4 L258.3,374.4 
		L258.6,374.4 L258.8,374.8 L259.1,374.7 L259.3,374.7 L259.6,374.7 L259.8,374.9 L260.1,374.9 L260.3,374.9 
		L260.6,374.9 L260.8,374.9 L261.0,374.9 L261.3,375.2 L261.5,375.2 L261.8,375.2 L262.0,375.2 L262.3,374.5 
		L262.5,374.0 L262.8,373.9 L263.0,373.9 L263.3,373.9 L263.5,373.9 L263.8,373.9 L264.0,373.9 L264.3,373.9 
		L264.5,373.9 L264.8,374.4 L265.0,374.0 L265.3,373.7 L265.5,373.6 L265.8,373.6 L266.0,373.6 L266.2,373.6 
		L266.5,373.6 L266.7,373.6 L267.0,373.6 L267.2,373.6 L267.5,373.6 L267.7,373.6 L268.0,374.2 L268.2,373.7 
		L268.5,373.7 L268.7,373.7 L269.0,373.7 L269.2,373.4 L269.5,373.2 L269.7,373.2 L270.0,373.2 L270.2,373.2 
		L270.4,373.2 L270.7,373.2 L270.9,373.3 L271.2,373.3 L271.4,373.4 L271.7,372.9 L271.9,372.9 L272.2,372.9 
		L272.4,372.9 L272.7,372.9 L272.9,373.2 L273.2,373.2 L273.4,373.0 L273.7,373.0 L273.9,373.0 L274.2,373.0 
		L274.4,373.1 L274.7,373.1 L274.9,373.1 L275.1,373.1 L275.4,372.9 L275.6,372.9 L275.9,372.9 L276.1,372.9 
		L276.4,372.9 L276.6,372.9 L276.9,373.1 L277.1,372.4 L277.4,372.4 L277.6,372.4 L277.9,372.4 L278.1,372.4 
		L278.4,372.4 L278.6,372.4 L278.9,372.4 L279.1,372.4 L279.4,372.6 L279.6,372.4 L279.8,372.4 L280.1,372.4 
		L280.3,372.4 L280.6,372.4 L280.8,372.4 L281.1,372.4 L281.3,372.4 L281.6,372.4 L281.8,372.4 L282.1,372.4 
		L282.3,372.4 L282.6,372.4 L282.8,372.4 L283.1,372.4 L283.3,372.4 L283.6,372.4 L283.8,372.4 L284.1,372.4 
		L284.3,373.5 L284.5,373.5 L284.8,373.5 L285.0,373.5 L285.3,373.5 L285.5,373.5 L285.8,373.5 L286.0,373.5 
		L286.3,373.5 L286.5,373.5 L286.8,374.0 L287.0,374.0 L287.3,374.1 L287.5,373.9 L287.8,373.9 L288.0,373.9 
		L288.3,374.0 L288.5,374.0 L288.8,374.0 L289.0,373.8 L289.2,372.9 L289.5,372.8 L289.7,372.8 L290.0,372.8 
		L290.2,372.8 L290.5,372.8 L290.7,372.8 L291.0,372.8 L291.2,372.8 L291.5,372.8 L291.7,372.8 L292.0,372.8 
		L292.2,373.4 L292.5,373.1 L292.7,373.0 L293.0,373.0 L293.2,373.0 L293.5,373.0 L293.7,373.0 L293.9,373.0 
		L294.2,373.0 L294.4,373.0 L294.7,373.0 L294.9,373.0 L295.2,373.0 L295.4,373.0 L295.7,373.0 L295.9,373.0 
		L296.2,373.6 L296.4,373.6 L296.7,373.6 L296.9,373.6 L297.2,373.6 L297.4,373.6 L297.7,373.6 L297.9,373.6 
		L298.2,373.6 L298.4,373.6 L298.6,374.0 L298.9,373.6 L299.1,373.6 L299.4,373.6 L299.6,373.6 L299.9,373.6 
		L300.1,373.6 L300.4,373.6 L300.6,373.6 L300.9,373.6 L301.1,373.6 L301.4,374.0 L301.6,374.0 L301.9,373.9 
		L302.1,373.9 L302.4,374.0 L302.6,374.0 L302.9,373.8 L303.1,373.8 L303.3,373.8 L303.6,373.8 L303.8,373.8 
		L304.1,373.8 L304.3,373.8 L304.6,373.8 L304.8,373.8 L305.1,374.2 L305.3,374.2 L305.6,374.2 L305.8,374.2 
		L306.1,374.2 L306.3,374.4 L306.6,374.4 L306.8,374.4 L307.1,374.4 L307.3,374.4 L307.6,374.4 L307.8,374.4 
		L308.1,374.4 L308.3,374.4 L308.5,374.4 L308.8,374.4 L309.0,374.4 L309.3,374.4 L309.5,374.4 L309.8,374.4 
		L310.0,374.4 L310.3,374.4 L310.5,374.4 L310.8,374.4 L311.0,375.3 L311.3,375.3 L311.5,375.2 L311.8,375.2 
		L312.0,375.2 L312.3,375.2 L312.5,375.2 L312.8,375.2 L313.0,375.4 L313.2,375.4 L313.5,375.4 L313.7,375.4 
		L314.0,375.4 L314.2,375.4 L314.5,375.4 L314.7,375.4 L315.0,375.4 L315.2,375.4 L315.5,375.4 L315.7,375.4 
		L316.0,376.0 L316.2,375.9 L316.5,375.8 L316.7,375.1 L317.0,374.6 L317.2,374.6 L317.5,374.6 L317.7,374.6 
		L317.9,374.5 L318.2,374.5 L318.4,374.5 L318.7,374.5 L318.9,374.5 L319.2,374.7 L319.4,374.2 L319.7,374.2 
		L319.9,374.2 L320.2,374.2 L320.4,374.2 L320.7,374.2 L320.9,374.2 L321.2,374.2 L321.4,374.2 L321.7,374.2 
		L321.9,374.2 L322.2,374.2 L322.4,374.2 L322.6,374.2 L322.9,374.7 L323.1,374.7 L323.4,374.6 L323.6,374.6 
		L323.9,374.6 L324.1,374.6 L324.4,374.6 L324.6,374.7 L324.9,374.6 L325.1,374.6 L325.4,374.6 L325.6,374.7 
		L325.9,374.7 L326.1,374.7 L326.4,374.7 L326.6,374.7 L326.9,374.6 L327.1,374.6 L327.3,374.5 L327.6,374.4 
		L327.8,374.2 L328.1,374.2 L328.3,374.2 L328.6,374.2 L328.8,374.2 L329.1,374.2 L329.3,374.4 L329.6,374.4 
		L329.8,374.5 L330.1,374.4 L330.3,374.4 L330.6,374.4 L330.8,374.4 L331.1,374.4 L331.3,374.4 L331.6,374.4 
		L331.8,374.4 L332.0,374.8 L332.3,374.8 L332.5,374.8 L332.8,374.8 L333.0,374.8 L333.3,374.8 L333.5,374.9 
		L333.8,374.9 L334.0,374.9 L334.3,374.9 L334.5,374.8 L334.8,374.7 L335.0,374.7 L335.3,374.7 L335.5,374.7 
		L335.8,374.7 L336.0,374.6 L336.3,374.6 L336.5,374.6 L336.7,374.6 L337.0,374.6 L337.2,374.6 L337.5,374.6 
		L337.7,374.8 L338.0,374.8 L338.2,374.8 L338.5,374.8 L338.7,374.8 L339.0,375.0 L339.2,375.0 L339.5,375.0 
		L339.7,375.0 L340.0,375.0 L340.2,375.0 L340.5,375.0 L340.7,375.0 L341.0,375.0 L341.2,375.0 L341.4,375.4 
		L341.7,375.4 L341.9,375.4 L342.2,375.4 L342.4,375.4 L342.7,375.4 L342.9,375.4 L343.2,375.4 L343.4,375.4 
		L343.7,375.4 L343.9,375.4 L344.2,375.4 L344.4,375.0 L344.7,375.0 L344.9,375.1 L345.2,375.0 L345.4,375.0 
		L345.7,375.0 L345.9,375.0 L346.2,375.0 L346.4,375.0 L346.6,375.0 L346.9,375.0 L347.1,375.0 L347.4,375.0 
		L347.6,375.0 L347.9,375.4 L348.1,375.4 L348.4,375.3 L348.6,375.2 L348.9,375.2 L349.1,375.2 L349.4,375.2 
		L349.6,375.3 L349.9,375.3 L350.1,375.3 L350.4,375.3 L350.6,375.3 L350.9,375.3 L351.1,375.3 L351.3,375.3 
		L351.6,375.3 L351.8,375.3 L352.1,375.3 L352.3,375.3 L352.6,375.3 L352.8,375.3 L353.1,375.3 L353.3,375.3 
		L353.6,375.3 L353.8,375.8 L354.1,375.7 L354.3,375.7 L354.6,375.8 L354.8,375.7 L355.1,375.7 L355.3,375.7 
		L355.6,375.7 L355.8,375.7 L356.0,375.7 L356.3,375.7 L356.5,375.7 L356.8,375.7 L357.0,375.7 L357.3,375.7 
		L357.5,375.7 L357.8,376.2 L358.0,376.2 L358.3,376.2 L358.5,376.2 L358.8,376.2 L359.0,376.2 L359.3,376.2 
		L359.5,376.2 L359.8,376.2 L360.0,376.2 L360.3,376.2 L360.5,376.2 L360.7,376.2 L361.0,376.2 L361.2,376.2 
		L361.5,376.2 L361.7,376.2 L362.0,376.2 L362.2,376.2 L362.5,376.2 L362.7,376.2 L363.0,376.2 L363.2,376.2 
		L363.5,376.2 L363.7,376.2 L364.0,376.2 L364.2,376.2 L364.5,377.1 L364.7,377.1 L365.0,377.0 L365.2,377.0 
		L365.4,377.0 L365.7,377.0 L365.9,377.0 L366.2,377.0 L366.4,377.0 L366.7,377.0 L366.9,377.0 L367.2,377.0 
		L367.4,377.0 L367.7,377.0 L367.9,377.0 L368.2,377.0 L368.4,377.0 L368.7,377.0 L368.9,377.0 L369.2,377.0 
		L369.4,377.0 L369.7,377.8 L369.9,377.8 L370.1,377.8 L370.4,377.8 L370.6,377.8 L370.9,377.8 L371.1,377.8 
		L371.4,377.7 L371.6,377.5 L371.9,377.5 L372.1,377.5 L372.4,377.5 L372.6,377.7 L372.9,377.3 L373.1,377.2 
		L373.4,377.2 L373.6,377.2 L373.9,377.2 L374.1,377.2 L374.4,377.2 L374.6,377.2 L374.8,377.2 L375.1,377.2 
		L375.3,377.2 L375.6,377.2 L375.8,377.2 L376.1,377.4 L376.3,377.4 L376.6,377.4 L376.8,377.4 L377.1,377.4 
		L377.3,377.4 L377.6,377.4 L377.8,377.5 L378.1,377.2 L378.3,377.0 L378.6,376.9 L378.8,376.9 L379.1,376.9 
		L379.3,376.9 L379.5,376.9 L379.8,376.9 L380.0,376.9 L380.3,376.9 L380.5,377.1 L380.8,377.1 L381.0,377.1 
		L381.3,377.1 L381.5,377.1 L381.8,377.1 L382.0,377.1 L382.3,377.1 L382.5,377.1 L382.8,377.1 L383.0,377.1 
		L383.3,377.0 L383.5,376.8 L383.8,376.8 L384.0,376.8 L384.2,376.8 L384.5,376.7 L384.7,376.7 L385.0,376.7 
		L385.2,376.7 L385.5,376.7 L385.7,376.7 L386.0,376.7 L386.2,376.7 L386.5,376.7 L386.7,376.7 L387.0,376.7 
		L387.2,376.7 L387.5,376.7 L387.7,376.7 L388.0,376.7 L388.2,376.7 L388.5,376.7 L388.7,377.2 L389.0,377.0 
		L389.2,377.0 L389.4,377.0 L389.7,377.0 L389.9,377.0 L390.2,376.9 L390.4,376.9 L390.7,376.9 L390.9,376.8 
		L391.2,376.7 L391.4,376.7 L391.7,376.7 L391.9,376.7 L392.2,376.7 L392.4,376.7 L392.7,376.8 L392.9,376.8 
		L393.2,376.8 L393.4,376.8 L393.7,376.8 L393.9,376.8 L394.1,376.8 L394.4,376.8 L394.6,376.8 L394.9,376.8 
		L395.1,376.8 L395.4,376.8 L395.6,376.8 L395.9,376.8 L396.1,376.8 L396.4,376.8 L396.6,376.8 L396.9,376.8 
		L397.1,376.8 L397.4,376.8 L397.6,376.8 L397.9,376.8 L398.1,376.8 L398.4,376.8 L398.6,376.8 L398.8,376.8 
		L399.1,376.8 L399.3,376.8 L399.6,376.8 L399.8,376.8 L400.1,377.8 L400.3,377.8 L400.6,377.8 L400.8,377.8 
		L401.1,377.8 L401.3,377.9 L401.6,377.8 L401.8,377.8 L402.1,377.8 L402.3,377.8 L402.6,377.8 L402.8,377.8 
		L403.1,377.8 L403.3,377.8 L403.5,377.8 L403.8,377.8 L404.0,377.8 L404.3,377.8 L404.5,377.8 L404.8,377.8 
		L405.0,377.8 L405.3,377.8 L405.5,378.3 L405.8,378.3 L406.0,378.3 L406.3,378.1 L406.5,377.8 L406.8,377.8 
		L407.0,377.8 L407.3,377.8 L407.5,377.8 L407.8,377.8 L408.0,377.7 L408.2,377.6 L408.5,377.6 L408.7,377.6 
		L409.0,377.6 L409.2,377.6 L409.5,377.6 L409.7,377.6 L410.0,377.6 L410.2,377.6 L410.5,377.6 L410.7,377.6 
		L411.0,377.9 L411.2,377.9 L411.5,377.8 L411.7,377.8 L412.0,377.8 L412.2,377.8 L412.5,377.8 L412.7,377.8 
		L412.9,377.8 L413.2,377.8 L413.4,377.8 L413.7,377.8 L413.9,377.8 L414.2,378.1 L414.4,378.0 L414.7,378.0 
		L414.9,378.0 L415.2,378.0 L415.4,378.0 L415.7,377.7 L415.9,377.5 L416.2,377.5 L416.4,377.5 L416.7,377.5 
		L416.9,377.5 L417.2,377.6 L417.4,377.6 L417.6,377.6 L417.9,377.6 L418.1,377.6 L418.4,377.6 L418.6,377.6 
		L418.9,377.6 L419.1,377.6 L419.4,377.6 L419.6,377.6 L419.9,377.6 L420.1,377.6 L420.4,377.6 L420.6,377.6 
		L420.9,377.6 L421.1,377.6 L421.4,378.2 L421.6,378.2 L421.9,378.2 L422.1,378.0 L422.3,377.8 L422.6,377.8 
		L422.8,377.8 L423.1,377.8 L423.3,377.8 L423.6,377.8 L423.8,377.8 L424.1,377.8 L424.3,377.8 L424.6,377.8 
		L424.8,377.8 L425.1,377.8 L425.3,377.8 L425.6,377.8 L425.8,377.8 L426.1,377.8 L426.3,377.8 L426.6,377.8 
		L426.8,377.8 L427.0,377.8 L427.3,377.8 L427.5,377.8 L427.8,377.8 L428.0,378.5 L428.3,378.5 L428.5,378.3 
		L428.8,378.0 L429.0,378.0 L429.3,378.0 L429.5,378.0 L429.8,378.0 L430.0,377.9 L430.3,377.8 L430.5,377.8 
		L430.8,377.8 L431.0,377.8 L431.3,377.8 L431.5,377.8 L431.8,378.0 L432.0,378.0 L432.2,378.0 L432.5,378.0 
		L432.7,378.0 L433.0,378.0 L433.2,378.0 L433.5,378.0 L433.7,378.0 L434.0,378.2 L434.2,378.2 L434.5,378.2 
		L434.7,378.2 L435.0,378.2 L435.2,378.2 L435.5,378.2 L435.7,378.2 L436.0,378.2 L436.2,378.2 L436.5,378.2 
		L436.7,378.2 L436.9,378.2 L437.2,378.5 L437.4,378.5 L437.7,378.6 L437.9,378.6 L438.2,378.6 L438.4,378.6 
		L438.7,378.6 L438.9,378.6 L439.2,378.7 L439.4,378.6 L439.7,378.6 L439.9,378.6 L440.2,378.6 L440.4,378.6 
		L440.7,378.6 L440.9,378.6 L441.2,378.6 L441.4,378.6 L441.6,378.6 L441.9,378.6 L442.1,378.6 L442.4,378.6 
		L442.6,378.6 L442.9,378.6 L443.1,378.6 L443.4,378.6 L443.6,378.6 L443.9,378.6 L444.1,379.0 L444.4,379.0 
		L444.6,379.0 L444.9,379.1 L445.1,379.1 L445.4,379.1 L445.6,379.1 L445.9,379.1 L446.1,379.1 L446.3,379.1 
		L446.6,379.0 L446.8,378.9 L447.1,378.9 L447.3,378.9 L447.6,378.9 L447.8,378.9 L448.1,378.9 L448.3,378.8 
		L448.6,378.5 L448.8,378.5 L449.1,378.5 L449.3,378.5 L449.6,378.5 L449.8,378.5 L450.1,378.5 L450.3,378.5 
		L450.6,378.2 L450.8,378.2 L451.0,378.2 L451.3,378.2 L451.5,378.2 L451.8,378.3 L452.0,378.3 L452.3,378.3 
		L452.5,378.0 L452.8,377.5 L453.0,377.3 L453.3,377.3 L453.5,377.3 L453.8,377.3 L454.0,377.3 L454.3,377.3 
		L454.5,377.3 L454.8,377.3 L455.0,377.3 L455.3,377.5 L455.5,377.2 L455.7,377.1 L456.0,377.1 L456.2,377.0 
		L456.5,377.0 L456.7,377.0 L457.0,377.0 L457.2,377.0 L457.5,377.0 L457.7,377.0 L458.0,377.0 L458.2,377.0 
		L458.5,377.0 L458.7,377.0 L459.0,377.0 L459.2,377.0 L459.5,377.3 L459.7,377.1 L460.0,377.1 L460.2,377.1 
		L460.4,377.1 L460.7,377.1 L460.9,377.1 L461.2,377.1 L461.4,377.1 L461.7,377.1 L461.9,377.1 L462.2,376.9 
		L462.4,376.6 L462.7,376.6 L462.9,376.6 L463.2,376.6 L463.4,376.6 L463.7,376.6 L463.9,376.6 L464.2,376.6 
		L464.4,376.6 L464.7,376.6 L464.9,376.6 L465.1,376.6 L465.4,376.6 L465.6,376.6 L465.9,376.6 L466.1,376.6 
		L466.4,376.7 L466.6,376.6 L466.9,376.6 L467.1,376.6 L467.4,376.6 L467.6,376.6 L467.9,376.7 L468.1,376.4 
		L468.4,376.4 L468.6,376.4 L468.9,376.4 L469.1,376.4 L469.4,376.4 L469.6,376.3 L469.9,376.3 L470.1,376.3 
		L470.3,376.3 L470.6,376.3 L470.8,376.3 L471.1,376.3 L471.3,376.3 L471.6,376.3 L471.8,376.3 L472.1,376.3 
		L472.3,376.3 L472.6,376.3 L472.8,376.3 L473.1,376.3 L473.3,376.3 L473.6,376.5 L473.8,376.4 L474.1,376.4 
		L474.3,376.4 L474.6,376.4 L474.8,376.4 L475.0,376.4 L475.3,376.5 L475.5,376.5 L475.8,376.5 L476.0,376.5 
		L476.3,376.5 L476.5,376.4 L476.8,376.3 L477.0,376.3 L477.3,376.3 L477.5,376.3 L477.8,376.3 L478.0,376.3 
		L478.3,376.3 L478.5,376.3 L478.8,376.3 L479.0,376.3 L479.3,376.5 L479.5,376.5 L479.7,376.5 L480.0,376.5 
		L480.2,376.5 L480.5,376.5 L480.7,376.5 L481.0,376.5 L481.2,376.5 L481.5,376.5 L481.7,376.5 L482.0,376.5 
		L482.2,376.5 L482.5,376.5 L482.7,376.5 L483.0,376.5 L483.2,376.6 L483.5,376.4 L483.7,376.4 L484.0,376.4 
		L484.2,376.4 L484.4,376.4 L484.7,376.4 L484.9,376.4 L485.2,376.4 L485.4,376.4 L485.7,376.4 L485.9,376.5 
		L486.2,376.5 L486.4,376.5 L486.7,376.6 L486.9,376.5 L487.2,376.5 L487.4,376.5 L487.7,376.5 L487.9,376.5 
		L488.2,376.5 L488.4,376.5 L488.7,376.5 L488.9,376.5 L489.1,376.8 L489.4,376.3 L489.6,376.2 L489.9,376.2 
		L490.1,376.2 L490.4,376.2 L490.6,376.2 L490.9,376.2 L491.1,376.1 L491.4,376.1 L491.6,376.1 L491.9,376.1 
		L492.1,376.2 L492.4,376.2 L492.6,376.2 L492.9,376.2 L493.1,376.2 L493.4,376.2 L493.6,376.2 L493.8,376.2 
		L494.1,376.4 L494.3,376.4 L494.6,376.4 L494.8,376.4 L495.1,376.4 L495.3,376.4 L495.6,376.4 L495.8,376.4 
		L496.1,376.4 L496.3,376.4 L496.6,376.4 L496.8,376.4 L497.1,376.4 L497.3,376.4 L497.6,376.4 L497.8,376.4 
		L498.1,376.4 L498.3,376.4 L498.5,376.4 L498.8,376.4 L499.0,376.4 L499.3,376.9 L499.5,376.9 L499.8,376.8 
		L500.0,376.4 L500.3,376.2 L500.5,376.2 L500.8,376.2 L501.0,376.2 L501.3,376.2 L501.5,376.2 L501.8,376.3 
		L502.0,376.1 L502.3,376.1 L502.5,376.1 L502.8,376.1 L503.0,376.1 L503.2,376.1 L503.5,376.1 L503.7,376.1 
		L504.0,376.1 L504.2,376.1 L504.5,376.1 L504.7,376.3 L505.0,376.3 L505.2,376.3 L505.5,376.3 L505.7,376.3 
		L506.0,376.3 L506.2,376.3 L506.5,376.4 L506.7,376.4 L507.0,376.4 L507.2,376.4 L507.5,376.4 L507.7,376.4 
		L507.9,376.4 L508.2,376.5 L508.4,376.5 L508.7,376.5 L508.9,376.5 L509.2,376.5 L509.4,376.5 L509.7,376.5 
		L509.9,376.5 L510.2,376.6 L510.4,376.6 L510.7,376.5 L510.9,376.5 L511.2,376.5 L511.4,376.5 L511.7,376.5 
		L511.9,376.5 L512.2,376.5 L512.4,376.5 L512.7,376.5 L512.9,376.5 L513.1,376.5 L513.4,376.5 L513.6,376.5 
		L513.9,376.5 L514.1,376.5 L514.4,376.5 L514.6,376.8 L514.9,376.7 L515.1,376.7 L515.4,376.7 L515.6,376.7 
		L515.9,376.8 L516.1,376.8 L516.4,376.8 L516.6,376.8 L516.9,376.8 L517.1,376.8 L517.4,376.8 L517.6,376.8 
		L517.8,376.8 L518.1,377.0 L518.3,377.0 L518.6,377.0 L518.8,377.0 L519.1,377.0 L519.3,377.0 L519.6,377.0 
		L519.8,377.0 L520.1,377.0 L520.3,377.1 L520.6,377.1 L520.8,377.1 L521.1,377.2 L521.3,377.2 L521.6,377.2 
		L521.8,377.2 L522.1,377.2 L522.3,377.2 L522.5,377.2 L522.8,377.2 L523.0,377.2 L523.3,377.2 L523.5,377.2 
		L523.8,377.2 L524.0,377.4 L524.3,377.2 L524.5,377.1 L524.8,377.1 L525.0,377.1 L525.3,377.1 L525.5,377.2 
		L525.8,377.2 L526.0,377.2 L526.3,377.2 L526.5,377.2 L526.8,377.2 L527.0,377.2 L527.2,377.2 L527.5,377.2 
		L527.7,377.2 L528.0,377.2 L528.2,377.2 L528.5,377.2 L528.7,377.4 L529.0,377.4 L529.2,377.4 L529.5,377.4 
		L529.7,377.4 L530.0,377.4 L530.2,377.4 L530.5,377.4 L530.7,377.4 L531.0,377.4 L531.2,377.4 L531.5,377.4 
		L531.7,377.4 L531.9,376.9 L532.2,376.9 L532.4,376.9 L532.7,376.9 L532.9,376.9 L533.2,376.9 L533.4,376.9 
		L533.7,376.9 L533.9,376.9 L534.2,376.9 L534.4,376.9 L534.7,377.1 L534.9,376.8 L535.2,376.6 L535.4,376.6 
		L535.7,376.6 L535.9,376.6 L536.2,376.6 L536.4,376.5 L536.6,376.4 L536.9,376.4 L537.1,376.4 L537.4,376.4 
		L537.6,376.4 L537.9,376.3 L538.1,376.3 L538.4,376.3 L538.6,376.3 L538.9,376.4 L539.1,376.3 L539.4,376.2 
		L539.6,376.2 L539.9,376.2 L540.1,376.2 L540.4,376.3 L540.6,376.3 L540.9,376.3 L541.1,376.3 L541.3,376.3 
		L541.6,376.4 L541.8,376.4 L542.1,376.4 L542.3,376.4 L542.6,376.5 L542.8,376.4 L543.1,376.4 L543.3,376.4 
		L543.6,376.4 L543.8,376.4 L544.1,376.4 L544.3,376.4 L544.6,376.4 L544.8,376.4 L545.1,376.4 L545.3,376.4 
		L545.6,376.4 L545.8,376.5 L546.0,376.3 L546.3,376.3 L546.5,376.3 L546.8,376.2 L547.0,376.2 L547.3,376.2 
		L547.5,376.2 L547.8,376.3 L548.0,376.2 L548.3,376.2 L548.5,376.2 L548.8,376.2 L549.0,376.2 L549.3,376.3 
		L549.5,376.3 L549.8,376.1 L550.0,376.1 L550.3,376.1 L550.5,376.1 L550.7,376.1 L551.0,376.1 L551.2,376.1 
		L551.5,376.1 L551.7,376.1 L552.0,376.1 L552.2,376.1 L552.5,376.1 L552.7,376.3 L553.0,376.3 L553.2,376.3 
		L553.5,376.3 L553.7,376.3 L554.0,376.3 L554.2,376.1 L554.5,376.1 L554.7,376.1 L555.0,376.1 L555.2,376.1 
		L555.5,376.1 L555.7,376.2 L555.9,376.1 L556.2,376.1 L556.4,376.1 L556.7,376.1 L556.9,376.2 L557.2,376.2 
		L557.4,376.2 L557.7,376.2 L557.9,376.2 L558.2,376.2 L558.4,376.2 L558.7,376.2 L558.9,376.2 L559.2,376.2 
		L559.4,376.2 L559.7,376.2 L559.9,376.2 L560.2,376.2 L560.4,376.5 L560.6,376.5 L560.9,376.5 L561.1,376.5 
		L561.4,376.5 L561.6,376.5 L561.9,376.5 L562.1,376.5 L562.4,376.5 L562.6,376.5 L562.9,376.5 L563.1,376.5 
		L563.4,376.5 L563.6,376.5 L563.9,376.5 L564.1,376.5 L564.4,376.5 L564.6,376.5 L564.9,376.5 L565.1,376.5 
		L565.3,376.9 L565.6,376.9 L565.8,376.9 L566.1,376.9 L566.3,376.9 L566.6,376.9 L566.8,377.0 L567.1,377.0 
		L567.3,377.0 L567.6,377.0 L567.8,377.0 L568.1,377.0 L568.3,377.0 L568.6,377.0 L568.8,377.0 L569.1,377.0 
		L569.3,377.0 L569.6,377.2 L569.8,377.2 L570.0,377.2 L570.3,377.2 L570.5,377.2 L570.8,377.3 L571.0,377.3 
		L571.3,377.3 L571.5,377.1 L571.8,377.1 L572.0,377.1 L572.3,377.1 L572.5,377.1 L572.8,377.1 L573.0,377.0 
		L573.3,377.0 L573.5,377.0 L573.8,377.0 L574.0,377.0 L574.3,377.0 L574.5,376.9 L574.7,376.9 L575.0,376.9 
		 h0.01'/></g>
	</g>
<g style="fill:none; color:black; stroke:currentColor; stroke-width:1.00; stroke-linecap:butt; stroke-linejoin:miter">
	<path  d='M80.2,54.1 L80.2,422.4 L575.0,422.4 L575.0,54.1 L80.2,54.1 Z  h0.01'/></g>
</g>
</svg>

