<?xml version="1.0" encoding="utf-8"  standalone="no"?>
<!DOCTYPE svg PUBLIC "-//W3C//DTD SVG 1.1//EN" 
 "http://www.w3.org/Graphics/SVG/1.1/DTD/svg11.dtd">
<svg 
 width="600" height="480" 
 viewBox="0 0 600 480"
 xmlns="http://www.w3.org/2000/svg"
 xmlns:xlink="http://www.w3.org/1999/xlink"
>

<title>Gnuplot</title>
<desc>Produced by GNUPLOT 4.6 patchlevel 1 </desc>

<g id="gnuplot_canvas">

<rect x="0" y="0" width="600" height="480" fill="none"/>
<defs>

	<circle id='gpDot' r='0.5' stroke-width='0.5'/>
	<path id='gpPt0' stroke-width='0.222' stroke='currentColor' d='M-1,0 h2 M0,-1 v2'/>
	<path id='gpPt1' stroke-width='0.222' stroke='currentColor' d='M-1,-1 L1,1 M1,-1 L-1,1'/>
	<path id='gpPt2' stroke-width='0.222' stroke='currentColor' d='M-1,0 L1,0 M0,-1 L0,1 M-1,-1 L1,1 M-1,1 L1,-1'/>
	<rect id='gpPt3' stroke-width='0.222' stroke='currentColor' x='-1' y='-1' width='2' height='2'/>
	<rect id='gpPt4' stroke-width='0.222' stroke='currentColor' fill='currentColor' x='-1' y='-1' width='2' height='2'/>
	<circle id='gpPt5' stroke-width='0.222' stroke='currentColor' cx='0' cy='0' r='1'/>
	<use xlink:href='#gpPt5' id='gpPt6' fill='currentColor' stroke='none'/>
	<path id='gpPt7' stroke-width='0.222' stroke='currentColor' d='M0,-1.33 L-1.33,0.67 L1.33,0.67 z'/>
	<use xlink:href='#gpPt7' id='gpPt8' fill='currentColor' stroke='none'/>
	<use xlink:href='#gpPt7' id='gpPt9' stroke='currentColor' transform='rotate(180)'/>
	<use xlink:href='#gpPt9' id='gpPt10' fill='currentColor' stroke='none'/>
	<use xlink:href='#gpPt3' id='gpPt11' stroke='currentColor' transform='rotate(45)'/>
	<use xlink:href='#gpPt11' id='gpPt12' fill='currentColor' stroke='none'/>
</defs>
<g style="fill:none; color:white; stroke:currentColor; stroke-width:1.00; stroke-linecap:butt; stroke-linejoin:miter">
</g>
<g style="fill:none; color:black; stroke:currentColor; stroke-width:1.00; stroke-linecap:butt; stroke-linejoin:miter">
	<path  d='M88.5,422.4 L97.5,422.4 M515.5,422.4 L506.5,422.4  h0.01'/>	<g transform="translate(80.2,426.9)" style="stroke:none; fill:black; font-family:Arial; font-size:12.00pt; text-anchor:end">
		<text> 0</text>
	</g>
	<path  d='M88.5,369.8 L97.5,369.8 M515.5,369.8 L506.5,369.8  h0.01'/>	<g transform="translate(80.2,374.3)" style="stroke:none; fill:black; font-family:Arial; font-size:12.00pt; text-anchor:end">
		<text> 2000</text>
	</g>
	<path  d='M88.5,317.2 L97.5,317.2 M515.5,317.2 L506.5,317.2  h0.01'/>	<g transform="translate(80.2,321.7)" style="stroke:none; fill:black; font-family:Arial; font-size:12.00pt; text-anchor:end">
		<text> 4000</text>
	</g>
	<path  d='M88.5,264.6 L97.5,264.6 M515.5,264.6 L506.5,264.6  h0.01'/>	<g transform="translate(80.2,269.1)" style="stroke:none; fill:black; font-family:Arial; font-size:12.00pt; text-anchor:end">
		<text> 6000</text>
	</g>
	<path  d='M88.5,211.9 L97.5,211.9 M515.5,211.9 L506.5,211.9  h0.01'/>	<g transform="translate(80.2,216.4)" style="stroke:none; fill:black; font-family:Arial; font-size:12.00pt; text-anchor:end">
		<text> 8000</text>
	</g>
	<path  d='M88.5,159.3 L97.5,159.3 M515.5,159.3 L506.5,159.3  h0.01'/>	<g transform="translate(80.2,163.8)" style="stroke:none; fill:black; font-family:Arial; font-size:12.00pt; text-anchor:end">
		<text> 10000</text>
	</g>
	<path  d='M88.5,106.7 L97.5,106.7 M515.5,106.7 L506.5,106.7  h0.01'/>	<g transform="translate(80.2,111.2)" style="stroke:none; fill:black; font-family:Arial; font-size:12.00pt; text-anchor:end">
		<text> 12000</text>
	</g>
	<path  d='M88.5,54.1 L97.5,54.1 M515.5,54.1 L506.5,54.1  h0.01'/>	<g transform="translate(80.2,58.6)" style="stroke:none; fill:black; font-family:Arial; font-size:12.00pt; text-anchor:end">
		<text> 14000</text>
	</g>
	<path  d='M88.5,422.4 L88.5,413.4 M88.5,54.1 L88.5,63.1  h0.01'/>	<g transform="translate(88.5,444.9)" style="stroke:none; fill:black; font-family:Arial; font-size:12.00pt; text-anchor:middle">
		<text> 0</text>
	</g>
	<path  d='M131.2,422.4 L131.2,413.4 M131.2,54.1 L131.2,63.1  h0.01'/>	<g transform="translate(131.2,444.9)" style="stroke:none; fill:black; font-family:Arial; font-size:12.00pt; text-anchor:middle">
		<text> 10</text>
	</g>
	<path  d='M173.9,422.4 L173.9,413.4 M173.9,54.1 L173.9,63.1  h0.01'/>	<g transform="translate(173.9,444.9)" style="stroke:none; fill:black; font-family:Arial; font-size:12.00pt; text-anchor:middle">
		<text> 20</text>
	</g>
	<path  d='M216.6,422.4 L216.6,413.4 M216.6,54.1 L216.6,63.1  h0.01'/>	<g transform="translate(216.6,444.9)" style="stroke:none; fill:black; font-family:Arial; font-size:12.00pt; text-anchor:middle">
		<text> 30</text>
	</g>
	<path  d='M259.3,422.4 L259.3,413.4 M259.3,54.1 L259.3,63.1  h0.01'/>	<g transform="translate(259.3,444.9)" style="stroke:none; fill:black; font-family:Arial; font-size:12.00pt; text-anchor:middle">
		<text> 40</text>
	</g>
	<path  d='M302.0,422.4 L302.0,413.4 M302.0,54.1 L302.0,63.1  h0.01'/>	<g transform="translate(302.0,444.9)" style="stroke:none; fill:black; font-family:Arial; font-size:12.00pt; text-anchor:middle">
		<text> 50</text>
	</g>
	<path  d='M344.7,422.4 L344.7,413.4 M344.7,54.1 L344.7,63.1  h0.01'/>	<g transform="translate(344.7,444.9)" style="stroke:none; fill:black; font-family:Arial; font-size:12.00pt; text-anchor:middle">
		<text> 60</text>
	</g>
	<path  d='M387.4,422.4 L387.4,413.4 M387.4,54.1 L387.4,63.1  h0.01'/>	<g transform="translate(387.4,444.9)" style="stroke:none; fill:black; font-family:Arial; font-size:12.00pt; text-anchor:middle">
		<text> 70</text>
	</g>
	<path  d='M430.1,422.4 L430.1,413.4 M430.1,54.1 L430.1,63.1  h0.01'/>	<g transform="translate(430.1,444.9)" style="stroke:none; fill:black; font-family:Arial; font-size:12.00pt; text-anchor:middle">
		<text> 80</text>
	</g>
	<path  d='M472.8,422.4 L472.8,413.4 M472.8,54.1 L472.8,63.1  h0.01'/>	<g transform="translate(472.8,444.9)" style="stroke:none; fill:black; font-family:Arial; font-size:12.00pt; text-anchor:middle">
		<text> 90</text>
	</g>
	<path  d='M515.5,422.4 L515.5,413.4 M515.5,54.1 L515.5,63.1  h0.01'/>	<g transform="translate(515.5,444.9)" style="stroke:none; fill:black; font-family:Arial; font-size:12.00pt; text-anchor:middle">
		<text> 100</text>
	</g>
	<path  d='M515.5,422.4 L506.5,422.4  h0.01'/>	<g transform="translate(523.8,426.9)" style="stroke:none; fill:blue; font-family:Arial; font-size:12.00pt; text-anchor:start">
		<text> 10</text>
	</g>
	<path  d='M515.5,369.8 L506.5,369.8  h0.01'/>	<g transform="translate(523.8,374.3)" style="stroke:none; fill:blue; font-family:Arial; font-size:12.00pt; text-anchor:start">
		<text> 20</text>
	</g>
	<path  d='M515.5,317.2 L506.5,317.2  h0.01'/>	<g transform="translate(523.8,321.7)" style="stroke:none; fill:blue; font-family:Arial; font-size:12.00pt; text-anchor:start">
		<text> 30</text>
	</g>
	<path  d='M515.5,264.6 L506.5,264.6  h0.01'/>	<g transform="translate(523.8,269.1)" style="stroke:none; fill:blue; font-family:Arial; font-size:12.00pt; text-anchor:start">
		<text> 40</text>
	</g>
	<path  d='M515.5,211.9 L506.5,211.9  h0.01'/>	<g transform="translate(523.8,216.4)" style="stroke:none; fill:blue; font-family:Arial; font-size:12.00pt; text-anchor:start">
		<text> 50</text>
	</g>
	<path  d='M515.5,159.3 L506.5,159.3  h0.01'/>	<g transform="translate(523.8,163.8)" style="stroke:none; fill:blue; font-family:Arial; font-size:12.00pt; text-anchor:start">
		<text> 60</text>
	</g>
	<path  d='M515.5,106.7 L506.5,106.7  h0.01'/>	<g transform="translate(523.8,111.2)" style="stroke:none; fill:blue; font-family:Arial; font-size:12.00pt; text-anchor:start">
		<text> 70</text>
	</g>
	<path  d='M515.5,54.1 L506.5,54.1  h0.01'/>	<g transform="translate(523.8,58.6)" style="stroke:none; fill:blue; font-family:Arial; font-size:12.00pt; text-anchor:start">
		<text> 80</text>
	</g>
	<path  d='M88.5,54.1 L88.5,422.4 L515.5,422.4 L515.5,54.1 L88.5,54.1 Z  h0.01'/>	<g transform="translate(17.6,238.3) rotate(270)" style="stroke:none; fill:black; font-family:Arial; font-size:12.00pt; text-anchor:middle">
		<text>TCP throughput (kbps)</text>
	</g>
	<g transform="translate(570.4,238.3) rotate(270)" style="stroke:none; fill:black; font-family:Arial; font-size:12.00pt; text-anchor:middle">
		<text>TCP Uplink Delay(ms)</text>
	</g>
	<g transform="translate(302.0,471.9)" style="stroke:none; fill:black; font-family:Arial; font-size:12.00pt; text-anchor:middle">
		<text>Time (s)</text>
	</g>
	<g transform="translate(302.0,31.6)" style="stroke:none; fill:black; font-family:Arial; font-size:12.00pt; text-anchor:middle">
		<text>Distance 200m, 3kmph: TCP throughput vs link capacity Uplink 100RBs PfffScheduler</text>
	</g>
	<path  d='M265.8,413.4 L265.8,359.4 L507.2,359.4 L507.2,413.4 L265.8,413.4 Z  h0.01'/></g>
	<g id="gnuplot_plot_1" ><title>gnuplot_plot_1</title>
<g style="fill:none; color:red; stroke:currentColor; stroke-width:1.00; stroke-linecap:butt; stroke-linejoin:miter">
	<g transform="translate(448.4,372.9)" style="stroke:none; fill:black; font-family:Arial; font-size:12.00pt; text-anchor:end">
		<text>TCP Throughput</text>
	</g>
	<path  d='M456.7,368.4 L498.9,368.4 M90.8,415.7 L91.1,410.1 L91.3,397.8 L91.5,381.8 L91.7,376.6 L91.9,350.0 
		L92.1,346.4 L92.3,292.1 L92.6,297.9 L92.8,295.1 L93.0,295.1 L93.2,295.1 L93.4,323.5 L93.6,315.0 
		L93.8,293.0 L94.1,287.4 L94.3,287.4 L94.5,282.5 L94.7,274.7 L94.9,274.7 L95.1,289.5 L95.3,257.4 
		L95.5,234.1 L95.8,235.8 L96.0,222.6 L96.2,221.2 L96.4,217.5 L96.6,216.8 L96.8,216.8 L97.0,205.3 
		L97.3,205.6 L97.5,205.6 L97.7,222.8 L97.9,226.7 L98.1,223.1 L98.3,223.4 L98.5,223.4 L98.7,235.5 
		L99.0,241.1 L99.2,232.6 L99.4,232.5 L99.6,228.0 L99.8,231.1 L100.0,231.5 L100.2,231.5 L100.5,232.5 
		L100.7,231.0 L100.9,234.2 L101.1,232.4 L101.3,235.5 L101.5,235.5 L101.7,243.3 L101.9,243.6 L102.2,243.6 
		L102.4,252.9 L102.6,250.9 L102.8,251.8 L103.0,245.5 L103.2,235.2 L103.4,237.7 L103.7,237.8 L103.9,237.7 
		L104.1,233.4 L104.3,229.0 L104.5,227.2 L104.7,226.8 L104.9,226.5 L105.1,225.6 L105.4,221.3 L105.6,219.2 
		L105.8,221.7 L106.0,221.7 L106.2,221.7 L106.4,229.4 L106.6,229.5 L106.9,228.6 L107.1,218.8 L107.3,217.1 
		L107.5,219.3 L107.7,219.3 L107.9,221.8 L108.1,215.0 L108.4,215.0 L108.6,218.1 L108.8,219.3 L109.0,219.3 
		L109.2,223.1 L109.4,223.2 L109.6,224.1 L109.8,224.6 L110.1,226.7 L110.3,225.4 L110.5,223.5 L110.7,222.0 
		L110.9,222.1 L111.1,216.6 L111.3,217.4 L111.6,216.1 L111.8,216.3 L112.0,215.4 L112.2,215.4 L112.4,217.7 
		L112.6,218.3 L112.8,218.3 L113.0,221.6 L113.3,221.6 L113.5,222.4 L113.7,221.9 L113.9,221.9 L114.1,225.3 
		L114.3,222.5 L114.5,222.2 L114.8,222.2 L115.0,223.8 L115.2,225.5 L115.4,224.7 L115.6,224.9 L115.8,224.9 
		L116.0,227.6 L116.3,225.4 L116.5,224.8 L116.7,224.0 L116.9,221.6 L117.1,222.4 L117.3,222.6 L117.5,223.4 
		L117.7,225.3 L118.0,223.4 L118.2,224.6 L118.4,225.4 L118.6,225.4 L118.8,226.7 L119.0,226.7 L119.2,227.4 
		L119.5,227.7 L119.7,225.9 L119.9,223.7 L120.1,217.7 L120.3,213.6 L120.5,214.7 L120.7,214.7 L120.9,217.0 
		L121.2,217.3 L121.4,218.4 L121.6,218.7 L121.8,218.0 L122.0,215.9 L122.2,212.8 L122.4,211.2 L122.7,210.8 
		L122.9,211.7 L123.1,210.8 L123.3,211.9 L123.5,211.9 L123.7,214.7 L123.9,214.4 L124.2,215.9 L124.4,216.5 
		L124.6,215.4 L124.8,215.4 L125.0,217.3 L125.2,218.3 L125.4,218.7 L125.6,217.8 L125.9,218.4 L126.1,215.4 
		L126.3,215.0 L126.5,213.5 L126.7,213.7 L126.9,213.7 L127.1,214.3 L127.4,211.2 L127.6,211.3 L127.8,210.7 
		L128.0,211.8 L128.2,211.9 L128.4,213.4 L128.6,213.3 L128.8,210.4 L129.1,209.2 L129.3,209.6 L129.5,209.7 
		L129.7,211.6 L129.9,210.6 L130.1,210.8 L130.3,210.3 L130.6,209.7 L130.8,209.7 L131.0,209.7 L131.2,212.7 
		L131.4,211.2 L131.6,210.2 L131.8,209.5 L132.1,210.5 L132.3,210.8 L132.5,210.7 L132.7,211.7 L132.9,212.4 
		L133.1,210.8 L133.3,210.9 L133.5,212.1 L133.8,212.1 L134.0,212.9 L134.2,213.8 L134.4,214.6 L134.6,214.9 
		L134.8,214.8 L135.0,215.7 L135.3,215.8 L135.5,213.5 L135.7,212.6 L135.9,212.6 L136.1,211.7 L136.3,211.8 
		L136.5,212.1 L136.8,213.1 L137.0,212.8 L137.2,211.6 L137.4,210.6 L137.6,209.9 L137.8,210.4 L138.0,209.9 
		L138.2,209.1 L138.5,209.7 L138.7,208.9 L138.9,207.4 L139.1,206.5 L139.3,207.2 L139.5,207.2 L139.7,207.2 
		L140.0,209.9 L140.2,208.4 L140.4,208.5 L140.6,208.5 L140.8,208.9 L141.0,207.3 L141.2,206.1 L141.4,206.0 
		L141.7,205.9 L141.9,206.7 L142.1,205.6 L142.3,204.5 L142.5,204.9 L142.7,205.4 L142.9,205.4 L143.2,205.4 
		L143.4,208.0 L143.6,207.5 L143.8,208.2 L144.0,208.7 L144.2,209.5 L144.4,210.1 L144.7,210.6 L144.9,211.0 
		L145.1,211.5 L145.3,210.6 L145.5,210.6 L145.7,209.8 L145.9,210.5 L146.1,210.7 L146.4,210.5 L146.6,210.9 
		L146.8,210.9 L147.0,212.3 L147.2,211.2 L147.4,210.6 L147.6,210.3 L147.9,210.0 L148.1,210.4 L148.3,210.2 
		L148.5,210.6 L148.7,210.6 L148.9,210.8 L149.1,210.8 L149.3,210.8 L149.6,213.3 L149.8,213.3 L150.0,213.3 
		L150.2,215.6 L150.4,215.7 L150.6,216.9 L150.8,217.3 L151.1,217.1 L151.3,216.2 L151.5,216.0 L151.7,216.0 
		L151.9,216.6 L152.1,217.5 L152.3,217.2 L152.6,216.5 L152.8,216.3 L153.0,216.7 L153.2,216.9 L153.4,216.9 
		L153.6,217.0 L153.8,217.4 L154.0,216.3 L154.3,216.3 L154.5,216.2 L154.7,216.8 L154.9,216.9 L155.1,217.5 
		L155.3,217.5 L155.5,217.5 L155.8,218.5 L156.0,218.3 L156.2,218.3 L156.4,218.9 L156.6,218.3 L156.8,218.3 
		L157.0,219.6 L157.2,220.1 L157.5,219.9 L157.7,218.7 L157.9,219.0 L158.1,218.8 L158.3,218.7 L158.5,219.1 
		L158.7,219.8 L159.0,220.0 L159.2,220.7 L159.4,221.1 L159.6,219.8 L159.8,218.8 L160.0,218.3 L160.2,216.6 
		L160.4,217.0 L160.7,217.0 L160.9,216.2 L161.1,216.1 L161.3,216.0 L161.5,215.6 L161.7,214.8 L161.9,214.6 
		L162.2,214.8 L162.4,215.2 L162.6,215.3 L162.8,215.0 L163.0,214.6 L163.2,213.8 L163.4,213.7 L163.7,212.6 
		L163.9,212.5 L164.1,213.4 L164.3,212.1 L164.5,211.5 L164.7,211.2 L164.9,209.8 L165.1,209.7 L165.4,209.7 
		L165.6,210.1 L165.8,210.8 L166.0,211.2 L166.2,211.5 L166.4,211.3 L166.6,210.9 L166.9,210.5 L167.1,210.5 
		L167.3,210.3 L167.5,210.3 L167.7,211.2 L167.9,211.2 L168.1,210.9 L168.3,211.4 L168.6,211.6 L168.8,211.0 
		L169.0,211.1 L169.2,211.1 L169.4,210.7 L169.6,211.2 L169.8,211.5 L170.1,210.2 L170.3,210.0 L170.5,210.1 
		L170.7,210.1 L170.9,210.1 L171.1,210.1 L171.3,211.5 L171.6,212.2 L171.8,212.2 L172.0,211.8 L172.2,212.2 
		L172.4,211.4 L172.6,210.6 L172.8,211.1 L173.0,211.4 L173.3,211.9 L173.5,212.1 L173.7,212.1 L173.9,212.1 
		L174.1,213.5 L174.3,213.0 L174.5,212.6 L174.8,211.8 L175.0,211.8 L175.2,211.6 L175.4,211.7 L175.6,211.5 
		L175.8,210.2 L176.0,210.2 L176.2,208.3 L176.5,207.3 L176.7,206.3 L176.9,204.7 L177.1,204.5 L177.3,203.6 
		L177.5,203.8 L177.7,202.7 L178.0,202.7 L178.2,202.7 L178.4,202.6 L178.6,202.9 L178.8,202.4 L179.0,202.4 
		L179.2,202.5 L179.5,201.8 L179.7,201.2 L179.9,200.9 L180.1,200.9 L180.3,200.2 L180.5,200.4 L180.7,200.4 
		L180.9,201.4 L181.2,201.0 L181.4,200.9 L181.6,201.1 L181.8,201.2 L182.0,202.0 L182.2,202.1 L182.4,202.4 
		L182.7,202.9 L182.9,201.9 L183.1,201.7 L183.3,201.8 L183.5,202.4 L183.7,202.8 L183.9,202.8 L184.1,202.8 
		L184.4,204.3 L184.6,204.2 L184.8,204.5 L185.0,204.7 L185.2,205.0 L185.4,205.0 L185.6,204.3 L185.9,204.2 
		L186.1,203.7 L186.3,203.9 L186.5,202.8 L186.7,202.1 L186.9,201.0 L187.1,200.5 L187.4,200.8 L187.6,199.2 
		L187.8,197.9 L188.0,197.7 L188.2,197.7 L188.4,197.7 L188.6,199.0 L188.8,198.5 L189.1,197.8 L189.3,197.5 
		L189.5,197.5 L189.7,197.8 L189.9,197.7 L190.1,197.4 L190.3,196.8 L190.6,196.7 L190.8,195.8 L191.0,195.2 
		L191.2,195.4 L191.4,194.3 L191.6,192.9 L191.8,192.8 L192.0,193.1 L192.3,193.3 L192.5,192.2 L192.7,191.9 
		L192.9,191.3 L193.1,191.3 L193.3,191.3 L193.5,192.2 L193.8,192.2 L194.0,190.9 L194.2,190.9 L194.4,190.9 
		L194.6,191.7 L194.8,191.0 L195.0,190.6 L195.3,190.3 L195.5,190.6 L195.7,191.2 L195.9,191.4 L196.1,191.2 
		L196.3,191.3 L196.5,191.5 L196.7,190.9 L197.0,190.9 L197.2,191.7 L197.4,191.0 L197.6,190.9 L197.8,191.3 
		L198.0,191.2 L198.2,190.9 L198.5,190.5 L198.7,190.5 L198.9,191.4 L199.1,191.5 L199.3,191.3 L199.5,190.8 
		L199.7,191.4 L199.9,190.8 L200.2,190.3 L200.4,190.3 L200.6,189.9 L200.8,189.5 L201.0,188.9 L201.2,189.1 
		L201.4,189.0 L201.7,189.0 L201.9,189.5 L202.1,189.5 L202.3,189.6 L202.5,190.0 L202.7,189.3 L202.9,189.6 
		L203.1,189.9 L203.4,189.9 L203.6,190.4 L203.8,189.6 L204.0,188.1 L204.2,188.1 L204.4,187.2 L204.6,187.1 
		L204.9,186.3 L205.1,186.3 L205.3,186.3 L205.5,186.3 L205.7,186.4 L205.9,186.3 L206.1,186.2 L206.4,186.8 
		L206.6,186.8 L206.8,186.8 L207.0,187.1 L207.2,187.4 L207.4,187.7 L207.6,187.7 L207.8,188.7 L208.1,188.8 
		L208.3,188.8 L208.5,189.9 L208.7,189.9 L208.9,189.9 L209.1,190.1 L209.3,190.2 L209.6,189.7 L209.8,189.5 
		L210.0,188.8 L210.2,188.7 L210.4,188.8 L210.6,188.8 L210.8,188.8 L211.0,188.8 L211.3,188.8 L211.5,189.7 
		L211.7,189.7 L211.9,189.8 L212.1,189.9 L212.3,189.9 L212.5,189.7 L212.8,189.6 L213.0,189.8 L213.2,189.9 
		L213.4,190.5 L213.6,190.6 L213.8,190.4 L214.0,190.2 L214.3,190.8 L214.5,190.2 L214.7,189.6 L214.9,189.6 
		L215.1,189.4 L215.3,189.2 L215.5,188.9 L215.7,188.8 L216.0,189.1 L216.2,188.6 L216.4,188.5 L216.6,187.6 
		L216.8,186.5 L217.0,186.6 L217.2,186.9 L217.5,187.1 L217.7,187.0 L217.9,186.9 L218.1,187.0 L218.3,186.9 
		L218.5,186.5 L218.7,186.6 L218.9,186.7 L219.2,186.7 L219.4,187.2 L219.6,187.2 L219.8,187.4 L220.0,187.4 
		L220.2,187.9 L220.4,188.1 L220.7,188.3 L220.9,187.9 L221.1,188.0 L221.3,187.8 L221.5,187.9 L221.7,188.0 
		L221.9,188.2 L222.2,188.5 L222.4,188.1 L222.6,188.0 L222.8,188.5 L223.0,188.6 L223.2,188.6 L223.4,188.8 
		L223.6,188.8 L223.9,188.2 L224.1,187.5 L224.3,187.4 L224.5,187.4 L224.7,188.2 L224.9,188.4 L225.1,188.4 
		L225.4,188.5 L225.6,188.3 L225.8,187.7 L226.0,187.6 L226.2,187.7 L226.4,188.1 L226.6,188.3 L226.8,188.4 
		L227.1,188.2 L227.3,188.1 L227.5,187.7 L227.7,187.6 L227.9,187.7 L228.1,187.8 L228.3,187.8 L228.6,188.5 
		L228.8,188.4 L229.0,187.9 L229.2,188.2 L229.4,188.2 L229.6,188.7 L229.8,188.4 L230.1,188.4 L230.3,188.5 
		L230.5,188.4 L230.7,188.4 L230.9,188.0 L231.1,188.3 L231.3,188.6 L231.5,188.5 L231.8,188.7 L232.0,188.7 
		L232.2,188.7 L232.4,188.7 L232.6,188.3 L232.8,188.3 L233.0,188.3 L233.3,187.9 L233.5,188.1 L233.7,187.5 
		L233.9,187.4 L234.1,187.8 L234.3,188.0 L234.5,188.0 L234.7,187.6 L235.0,187.7 L235.2,187.9 L235.4,187.7 
		L235.6,188.0 L235.8,187.7 L236.0,187.5 L236.2,187.6 L236.5,187.6 L236.7,187.4 L236.9,186.9 L237.1,186.8 
		L237.3,186.8 L237.5,187.1 L237.7,187.3 L238.0,187.4 L238.2,187.5 L238.4,187.9 L238.6,187.8 L238.8,188.2 
		L239.0,188.7 L239.2,188.7 L239.4,189.0 L239.7,189.1 L239.9,189.5 L240.1,189.8 L240.3,189.9 L240.5,190.0 
		L240.7,189.9 L240.9,190.2 L241.2,190.0 L241.4,190.0 L241.6,190.2 L241.8,190.1 L242.0,189.5 L242.2,189.2 
		L242.4,189.4 L242.6,189.2 L242.9,188.9 L243.1,188.5 L243.3,188.5 L243.5,188.7 L243.7,188.9 L243.9,189.2 
		L244.1,189.4 L244.4,189.2 L244.6,189.3 L244.8,188.4 L245.0,188.0 L245.2,187.8 L245.4,187.9 L245.6,188.0 
		L245.8,188.0 L246.1,188.6 L246.3,188.7 L246.5,188.7 L246.7,188.9 L246.9,189.1 L247.1,189.2 L247.3,189.2 
		L247.6,189.0 L247.8,189.0 L248.0,189.3 L248.2,189.5 L248.4,189.8 L248.6,188.8 L248.8,188.6 L249.1,188.6 
		L249.3,189.2 L249.5,189.4 L249.7,189.7 L249.9,190.0 L250.1,190.4 L250.3,190.6 L250.5,190.9 L250.8,191.2 
		L251.0,191.5 L251.2,191.7 L251.4,192.0 L251.6,191.8 L251.8,191.6 L252.0,191.3 L252.3,190.9 L252.5,190.9 
		L252.7,191.0 L252.9,190.8 L253.1,190.8 L253.3,190.8 L253.5,190.9 L253.7,190.8 L254.0,190.9 L254.2,190.9 
		L254.4,191.5 L254.6,191.9 L254.8,191.3 L255.0,191.0 L255.2,191.1 L255.5,191.2 L255.7,191.0 L255.9,191.1 
		L256.1,191.6 L256.3,191.1 L256.5,190.9 L256.7,191.0 L256.9,191.4 L257.2,191.3 L257.4,191.5 L257.6,191.6 
		L257.8,192.0 L258.0,192.0 L258.2,192.2 L258.4,192.1 L258.7,191.9 L258.9,191.8 L259.1,191.8 L259.3,191.9 
		L259.5,192.2 L259.7,191.7 L259.9,191.6 L260.1,191.6 L260.4,192.1 L260.6,191.8 L260.8,191.5 L261.0,191.4 
		L261.2,191.7 L261.4,191.9 L261.6,191.8 L261.9,191.8 L262.1,191.8 L262.3,192.3 L262.5,192.1 L262.7,191.6 
		L262.9,191.9 L263.1,191.4 L263.4,191.0 L263.6,190.9 L263.8,191.0 L264.0,191.2 L264.2,191.2 L264.4,191.2 
		L264.6,191.8 L264.8,191.6 L265.1,191.5 L265.3,191.4 L265.5,191.4 L265.7,191.8 L265.9,191.6 L266.1,191.4 
		L266.3,191.5 L266.6,191.9 L266.8,191.8 L267.0,191.8 L267.2,191.8 L267.4,191.6 L267.6,191.8 L267.8,191.6 
		L268.0,191.6 L268.3,191.6 L268.5,192.0 L268.7,192.4 L268.9,192.7 L269.1,192.9 L269.3,193.2 L269.5,193.4 
		L269.8,193.7 L270.0,193.9 L270.2,194.2 L270.4,194.3 L270.6,194.7 L270.8,194.9 L271.0,195.2 L271.3,195.4 
		L271.5,195.7 L271.7,195.8 L271.9,196.3 L272.1,196.4 L272.3,196.5 L272.5,196.5 L272.7,196.8 L273.0,196.9 
		L273.2,196.8 L273.4,196.8 L273.6,196.8 L273.8,197.0 L274.0,197.1 L274.2,197.3 L274.5,197.3 L274.7,197.3 
		L274.9,197.9 L275.1,197.9 L275.3,197.9 L275.5,197.9 L275.7,197.7 L275.9,197.8 L276.2,198.0 L276.4,198.2 
		L276.6,198.3 L276.8,198.1 L277.0,198.0 L277.2,197.6 L277.4,197.9 L277.7,198.0 L277.9,198.2 L278.1,198.2 
		L278.3,198.7 L278.5,198.4 L278.7,198.3 L278.9,198.3 L279.2,199.0 L279.4,199.3 L279.6,199.4 L279.8,199.8 
		L280.0,199.9 L280.2,200.2 L280.4,200.5 L280.6,200.6 L280.9,201.0 L281.1,201.2 L281.3,201.5 L281.5,201.7 
		L281.7,202.0 L281.9,202.2 L282.1,202.4 L282.4,202.5 L282.6,202.7 L282.8,202.8 L283.0,203.2 L283.2,203.2 
		L283.4,203.2 L283.6,203.8 L283.8,204.0 L284.1,204.2 L284.3,204.5 L284.5,204.8 L284.7,205.0 L284.9,205.2 
		L285.1,205.5 L285.3,205.5 L285.6,205.6 L285.8,205.5 L286.0,205.7 L286.2,205.7 L286.4,205.8 L286.6,205.6 
		L286.8,205.5 L287.1,205.7 L287.3,205.5 L287.5,205.5 L287.7,205.8 L287.9,205.8 L288.1,205.8 L288.3,206.1 
		L288.5,206.0 L288.8,205.8 L289.0,205.8 L289.2,205.7 L289.4,205.7 L289.6,205.8 L289.8,206.0 L290.0,206.0 
		L290.3,206.4 L290.5,206.4 L290.7,206.3 L290.9,206.2 L291.1,206.5 L291.3,206.5 L291.5,206.5 L291.7,206.7 
		L292.0,206.4 L292.2,206.2 L292.4,206.2 L292.6,206.6 L292.8,206.6 L293.0,207.0 L293.2,207.0 L293.5,207.2 
		L293.7,207.2 L293.9,207.4 L294.1,207.5 L294.3,207.6 L294.5,207.7 L294.7,207.8 L295.0,207.6 L295.2,207.7 
		L295.4,207.9 L295.6,207.8 L295.8,207.8 L296.0,207.7 L296.2,207.7 L296.4,207.7 L296.7,208.3 L296.9,208.2 
		L297.1,208.3 L297.3,208.6 L297.5,208.4 L297.7,208.1 L297.9,208.1 L298.2,207.7 L298.4,207.7 L298.6,207.7 
		L298.8,207.9 L299.0,207.9 L299.2,208.3 L299.4,208.3 L299.6,208.1 L299.9,208.3 L300.1,208.3 L300.3,208.3 
		L300.5,208.2 L300.7,208.2 L300.9,208.1 L301.1,207.9 L301.4,208.0 L301.6,208.0 L301.8,208.0 L302.0,207.9 
		L302.2,207.9 L302.4,208.1 L302.6,207.9 L302.8,207.9 L303.1,208.0 L303.3,208.2 L303.5,208.3 L303.7,208.4 
		L303.9,208.6 L304.1,208.6 L304.3,208.6 L304.6,209.1 L304.8,209.4 L305.0,209.2 L305.2,209.1 L305.4,209.0 
		L305.6,208.9 L305.8,209.0 L306.1,208.9 L306.3,208.8 L306.5,209.1 L306.7,209.0 L306.9,209.0 L307.1,209.3 
		L307.3,209.5 L307.5,209.3 L307.8,209.5 L308.0,209.6 L308.2,209.9 L308.4,209.7 L308.6,209.6 L308.8,209.6 
		L309.0,209.9 L309.3,210.1 L309.5,209.9 L309.7,209.9 L309.9,209.9 L310.1,210.2 L310.3,209.9 L310.5,209.9 
		L310.7,210.1 L311.0,210.2 L311.2,210.3 L311.4,210.2 L311.6,210.4 L311.8,210.0 L312.0,209.9 L312.2,209.7 
		L312.5,209.6 L312.7,209.6 L312.9,210.0 L313.1,210.0 L313.3,210.1 L313.5,210.2 L313.7,210.2 L314.0,210.2 
		L314.2,210.0 L314.4,210.0 L314.6,209.9 L314.8,209.6 L315.0,209.8 L315.2,209.9 L315.4,209.9 L315.7,210.1 
		L315.9,210.2 L316.1,210.2 L316.3,210.2 L316.5,210.3 L316.7,210.0 L316.9,209.9 L317.2,209.6 L317.4,209.7 
		L317.6,209.8 L317.8,209.8 L318.0,209.8 L318.2,209.8 L318.4,209.9 L318.6,210.0 L318.9,209.6 L319.1,209.3 
		L319.3,208.8 L319.5,208.3 L319.7,208.3 L319.9,207.9 L320.1,207.7 L320.4,207.1 L320.6,206.7 L320.8,206.7 
		L321.0,206.6 L321.2,206.9 L321.4,206.9 L321.6,206.7 L321.9,206.6 L322.1,206.6 L322.3,206.8 L322.5,206.8 
		L322.7,207.1 L322.9,207.0 L323.1,206.8 L323.3,206.8 L323.6,206.9 L323.8,206.8 L324.0,206.9 L324.2,206.9 
		L324.4,206.9 L324.6,207.3 L324.8,207.3 L325.1,207.3 L325.3,207.5 L325.5,207.5 L325.7,207.5 L325.9,207.6 
		L326.1,207.3 L326.3,207.4 L326.5,207.1 L326.8,207.0 L327.0,206.6 L327.2,206.7 L327.4,206.6 L327.6,206.6 
		L327.8,206.7 L328.0,206.9 L328.3,207.1 L328.5,207.2 L328.7,207.4 L328.9,207.3 L329.1,206.9 L329.3,206.7 
		L329.5,206.4 L329.8,206.4 L330.0,206.5 L330.2,206.5 L330.4,206.8 L330.6,206.8 L330.8,207.2 L331.0,207.1 
		L331.2,206.7 L331.5,206.4 L331.7,206.6 L331.9,206.2 L332.1,206.1 L332.3,206.1 L332.5,206.1 L332.7,206.7 
		L333.0,206.6 L333.2,206.7 L333.4,206.5 L333.6,206.3 L333.8,206.2 L334.0,206.2 L334.2,206.1 L334.4,206.1 
		L334.7,206.1 L334.9,206.0 L335.1,206.1 L335.3,206.0 L335.5,206.1 L335.7,206.4 L335.9,206.4 L336.2,206.6 
		L336.4,206.7 L336.6,206.4 L336.8,206.2 L337.0,206.1 L337.2,206.3 L337.4,206.0 L337.7,206.1 L337.9,206.3 
		L338.1,206.3 L338.3,206.7 L338.5,206.6 L338.7,206.7 L338.9,206.8 L339.1,206.8 L339.4,206.9 L339.6,206.9 
		L339.8,207.1 L340.0,207.2 L340.2,207.3 L340.4,207.3 L340.6,207.5 L340.9,207.8 L341.1,207.8 L341.3,208.0 
		L341.5,208.0 L341.7,208.4 L341.9,208.4 L342.1,208.4 L342.3,208.9 L342.6,208.9 L342.8,209.0 L343.0,208.9 
		L343.2,208.6 L343.4,208.6 L343.6,208.8 L343.8,208.8 L344.1,209.0 L344.3,209.0 L344.5,209.3 L344.7,209.3 
		L344.9,209.3 L345.1,208.8 L345.3,208.6 L345.5,208.6 L345.8,208.6 L346.0,209.1 L346.2,209.0 L346.4,209.0 
		L346.6,209.3 L346.8,209.1 L347.0,209.1 L347.3,208.8 L347.5,208.7 L347.7,209.0 L347.9,208.7 L348.1,208.5 
		L348.3,208.4 L348.5,208.5 L348.8,208.5 L349.0,208.5 L349.2,208.5 L349.4,208.7 L349.6,208.9 L349.8,208.9 
		L350.0,209.0 L350.2,208.9 L350.5,208.7 L350.7,208.7 L350.9,208.6 L351.1,208.6 L351.3,208.6 L351.5,208.5 
		L351.7,208.6 L352.0,208.7 L352.2,208.4 L352.4,208.4 L352.6,208.5 L352.8,208.6 L353.0,208.2 L353.2,208.0 
		L353.4,208.3 L353.7,208.3 L353.9,208.4 L354.1,208.4 L354.3,208.7 L354.5,208.8 L354.7,208.8 L354.9,208.9 
		L355.2,209.0 L355.4,208.6 L355.6,208.6 L355.8,208.6 L356.0,208.9 L356.2,209.1 L356.4,209.0 L356.7,209.2 
		L356.9,209.3 L357.1,209.4 L357.3,209.2 L357.5,209.2 L357.7,209.4 L357.9,209.4 L358.1,209.6 L358.4,209.6 
		L358.6,209.8 L358.8,209.7 L359.0,209.7 L359.2,209.3 L359.4,209.4 L359.6,209.5 L359.9,209.6 L360.1,209.7 
		L360.3,209.8 L360.5,209.6 L360.7,209.5 L360.9,209.5 L361.1,210.0 L361.3,210.0 L361.6,210.0 L361.8,210.0 
		L362.0,210.2 L362.2,210.3 L362.4,210.3 L362.6,210.3 L362.8,210.5 L363.1,210.5 L363.3,210.5 L363.5,210.4 
		L363.7,210.5 L363.9,210.2 L364.1,210.2 L364.3,210.2 L364.6,210.5 L364.8,210.1 L365.0,209.9 L365.2,209.9 
		L365.4,210.3 L365.6,210.4 L365.8,210.4 L366.0,210.4 L366.3,210.8 L366.5,210.3 L366.7,210.4 L366.9,210.2 
		L367.1,210.1 L367.3,209.9 L367.5,209.8 L367.8,209.8 L368.0,209.8 L368.2,209.8 L368.4,209.8 L368.6,210.1 
		L368.8,210.2 L369.0,210.3 L369.2,210.0 L369.5,210.0 L369.7,210.0 L369.9,210.1 L370.1,210.1 L370.3,210.2 
		L370.5,210.2 L370.7,210.4 L371.0,210.3 L371.2,210.3 L371.4,210.2 L371.6,210.0 L371.8,210.1 L372.0,210.2 
		L372.2,210.2 L372.5,210.5 L372.7,210.3 L372.9,210.3 L373.1,210.5 L373.3,210.5 L373.5,210.6 L373.7,210.6 
		L373.9,210.7 L374.2,210.5 L374.4,210.6 L374.6,210.6 L374.8,210.6 L375.0,210.4 L375.2,210.4 L375.4,210.5 
		L375.7,210.7 L375.9,210.6 L376.1,210.5 L376.3,210.4 L376.5,210.4 L376.7,210.3 L376.9,210.4 L377.1,210.4 
		L377.4,210.3 L377.6,210.2 L377.8,210.5 L378.0,210.3 L378.2,210.2 L378.4,210.2 L378.6,210.4 L378.9,210.4 
		L379.1,210.6 L379.3,210.6 L379.5,210.8 L379.7,210.9 L379.9,210.9 L380.1,211.1 L380.4,210.9 L380.6,210.9 
		L380.8,211.1 L381.0,211.1 L381.2,211.1 L381.4,211.1 L381.6,211.0 L381.8,210.9 L382.1,210.9 L382.3,210.9 
		L382.5,211.3 L382.7,211.4 L382.9,211.5 L383.1,211.6 L383.3,211.5 L383.6,211.5 L383.8,211.5 L384.0,211.0 
		L384.2,210.9 L384.4,210.9 L384.6,210.9 L384.8,210.9 L385.0,211.1 L385.3,211.0 L385.5,210.7 L385.7,210.3 
		L385.9,210.1 L386.1,210.1 L386.3,210.0 L386.5,209.9 L386.8,210.1 L387.0,210.1 L387.2,210.2 L387.4,210.1 
		L387.6,209.9 L387.8,210.1 L388.0,210.1 L388.2,210.2 L388.5,210.2 L388.7,210.1 L388.9,210.2 L389.1,210.3 
		L389.3,210.0 L389.5,209.8 L389.7,209.7 L390.0,209.7 L390.2,209.9 L390.4,209.5 L390.6,209.4 L390.8,209.3 
		L391.0,209.2 L391.2,209.2 L391.5,209.2 L391.7,209.2 L391.9,209.2 L392.1,208.8 L392.3,208.9 L392.5,208.7 
		L392.7,208.8 L392.9,208.5 L393.2,208.5 L393.4,208.3 L393.6,208.3 L393.8,208.2 L394.0,208.1 L394.2,207.7 
		L394.4,207.6 L394.7,207.6 L394.9,207.6 L395.1,207.6 L395.3,208.1 L395.5,208.0 L395.7,208.0 L395.9,208.0 
		L396.1,208.1 L396.4,208.3 L396.6,208.3 L396.8,208.4 L397.0,208.6 L397.2,208.6 L397.4,208.4 L397.6,208.4 
		L397.9,208.4 L398.1,208.4 L398.3,208.4 L398.5,208.2 L398.7,208.2 L398.9,208.3 L399.1,208.3 L399.4,208.3 
		L399.6,208.5 L399.8,208.6 L400.0,208.7 L400.2,208.8 L400.4,208.6 L400.6,208.7 L400.8,208.6 L401.1,208.7 
		L401.3,208.8 L401.5,208.8 L401.7,208.7 L401.9,208.4 L402.1,208.2 L402.3,208.3 L402.6,208.2 L402.8,208.3 
		L403.0,208.4 L403.2,208.3 L403.4,208.2 L403.6,208.2 L403.8,208.4 L404.0,208.6 L404.3,208.5 L404.5,208.0 
		L404.7,208.1 L404.9,208.1 L405.1,208.1 L405.3,208.5 L405.5,208.5 L405.8,208.7 L406.0,208.4 L406.2,208.4 
		L406.4,208.5 L406.6,208.5 L406.8,208.6 L407.0,208.6 L407.3,208.8 L407.5,208.9 L407.7,209.0 L407.9,208.8 
		L408.1,208.8 L408.3,208.8 L408.5,208.8 L408.7,208.8 L409.0,209.2 L409.2,209.1 L409.4,209.2 L409.6,209.2 
		L409.8,209.4 L410.0,209.5 L410.2,209.2 L410.5,209.2 L410.7,209.3 L410.9,209.2 L411.1,209.2 L411.3,209.1 
		L411.5,209.1 L411.7,209.3 L411.9,209.4 L412.2,209.4 L412.4,209.2 L412.6,209.2 L412.8,209.4 L413.0,209.4 
		L413.2,209.5 L413.4,209.6 L413.7,209.4 L413.9,209.4 L414.1,209.4 L414.3,209.4 L414.5,209.5 L414.7,209.4 
		L414.9,209.4 L415.2,209.5 L415.4,209.5 L415.6,209.4 L415.8,209.4 L416.0,209.4 L416.2,209.5 L416.4,209.2 
		L416.6,209.4 L416.9,209.5 L417.1,209.3 L417.3,209.2 L417.5,209.2 L417.7,209.1 L417.9,209.2 L418.1,209.3 
		L418.4,209.4 L418.6,209.4 L418.8,209.4 L419.0,209.8 L419.2,209.8 L419.4,209.8 L419.6,209.7 L419.8,209.6 
		L420.1,209.5 L420.3,209.2 L420.5,209.3 L420.7,209.3 L420.9,209.2 L421.1,209.0 L421.3,209.0 L421.6,209.2 
		L421.8,209.3 L422.0,209.3 L422.2,209.3 L422.4,209.6 L422.6,209.7 L422.8,209.7 L423.1,209.7 L423.3,209.7 
		L423.5,209.7 L423.7,209.8 L423.9,209.6 L424.1,209.6 L424.3,209.5 L424.5,209.4 L424.8,209.4 L425.0,209.6 
		L425.2,209.7 L425.4,209.7 L425.6,209.8 L425.8,209.2 L426.0,209.2 L426.3,209.2 L426.5,209.3 L426.7,209.5 
		L426.9,209.6 L427.1,209.8 L427.3,209.8 L427.5,210.0 L427.7,210.2 L428.0,210.2 L428.2,210.4 L428.4,210.5 
		L428.6,210.6 L428.8,210.7 L429.0,210.9 L429.2,211.0 L429.5,211.0 L429.7,211.1 L429.9,211.1 L430.1,211.2 
		L430.3,211.2 L430.5,211.2 L430.7,211.3 L430.9,211.1 L431.2,211.1 L431.4,211.1 L431.6,211.1 L431.8,211.4 
		L432.0,211.2 L432.2,211.1 L432.4,211.0 L432.7,210.8 L432.9,210.7 L433.1,210.6 L433.3,210.6 L433.5,210.6 
		L433.7,211.0 L433.9,211.0 L434.2,210.9 L434.4,210.9 L434.6,211.2 L434.8,211.1 L435.0,210.9 L435.2,210.8 
		L435.4,210.8 L435.6,210.7 L435.9,210.7 L436.1,210.7 L436.3,210.8 L436.5,210.9 L436.7,210.9 L436.9,210.7 
		L437.1,210.8 L437.4,210.9 L437.6,210.9 L437.8,210.9 L438.0,210.9 L438.2,210.9 L438.4,210.9 L438.6,210.8 
		L438.8,211.0 L439.1,210.9 L439.3,211.0 L439.5,211.1 L439.7,211.1 L439.9,211.0 L440.1,211.0 L440.3,210.6 
		L440.6,210.6 L440.8,210.6 L441.0,210.8 L441.2,210.8 L441.4,211.0 L441.6,210.8 L441.8,210.8 L442.1,210.7 
		L442.3,210.7 L442.5,210.6 L442.7,210.6 L442.9,210.6 L443.1,210.7 L443.3,210.8 L443.5,210.8 L443.8,210.6 
		L444.0,210.5 L444.2,210.3 L444.4,210.3 L444.6,210.4 L444.8,210.3 L445.0,210.3 L445.3,210.3 L445.5,210.3 
		L445.7,210.6 L445.9,210.8 L446.1,210.9 L446.3,210.9 L446.5,211.0 L446.7,211.0 L447.0,211.0 L447.2,211.3 
		L447.4,211.2 L447.6,211.3 L447.8,211.3 L448.0,211.3 L448.2,211.6 L448.5,211.6 L448.7,211.5 L448.9,211.5 
		L449.1,211.5 L449.3,211.3 L449.5,211.3 L449.7,211.3 L450.0,211.4 L450.2,211.2 L450.4,211.2 L450.6,211.2 
		L450.8,211.4 L451.0,211.4 L451.2,211.6 L451.4,211.6 L451.7,211.8 L451.9,211.8 L452.1,212.0 L452.3,212.0 
		L452.5,211.9 L452.7,211.9 L452.9,211.9 L453.2,212.0 L453.4,212.0 L453.6,212.1 L453.8,211.9 L454.0,211.6 
		L454.2,211.6 L454.4,211.6 L454.6,211.6 L454.9,211.8 L455.1,211.8 L455.3,211.8 L455.5,212.1 L455.7,212.0 
		L455.9,212.0 L456.1,212.1 L456.4,212.0 L456.6,212.0 L456.8,212.1 L457.0,212.1 L457.2,212.0 L457.4,212.0 
		L457.6,212.0 L457.9,211.9 L458.1,211.9 L458.3,212.1 L458.5,212.3 L458.7,212.3 L458.9,212.4 L459.1,212.4 
		L459.3,212.4 L459.6,212.4 L459.8,212.3 L460.0,212.2 L460.2,212.2 L460.4,212.2 L460.6,212.5 L460.8,212.4 
		L461.1,212.4 L461.3,212.3 L461.5,212.3 L461.7,212.4 L461.9,212.4 L462.1,212.4 L462.3,212.4 L462.5,212.5 
		L462.8,212.4 L463.0,212.5 L463.2,212.6 L463.4,212.5 L463.6,212.3 L463.8,212.1 L464.0,212.0 L464.3,212.0 
		L464.5,211.9 L464.7,211.9 L464.9,212.1 L465.1,212.1 L465.3,212.1 L465.5,212.2 L465.8,212.2 L466.0,212.2 
		L466.2,212.2 L466.4,212.4 L466.6,212.4 L466.8,212.3 L467.0,212.2 L467.2,212.2 L467.5,212.2 L467.7,212.2 
		L467.9,212.2 L468.1,212.2 L468.3,212.0 L468.5,212.0 L468.7,212.3 L469.0,212.0 L469.2,212.0 L469.4,211.9 
		L469.6,211.6 L469.8,211.4 L470.0,211.2 L470.2,211.0 L470.4,210.9 L470.7,210.9 L470.9,211.1 L471.1,210.9 
		L471.3,210.9 L471.5,210.9 L471.7,210.9 L471.9,211.2 L472.2,211.1 L472.4,211.1 L472.6,211.1 L472.8,211.2 
		L473.0,211.0 L473.2,211.0 L473.4,210.9 L473.6,210.6 L473.9,210.5 L474.1,210.6 L474.3,210.6 L474.5,210.6 
		L474.7,210.5 L474.9,210.6 L475.1,210.6 L475.4,210.6 L475.6,210.8 L475.8,210.7 L476.0,210.6 L476.2,210.6 
		L476.4,210.6 L476.6,210.7 L476.9,210.5 L477.1,210.5 L477.3,210.6 L477.5,210.6 L477.7,210.6 L477.9,210.8 
		L478.1,210.8 L478.3,210.8 L478.6,210.9 L478.8,210.9 L479.0,211.0 L479.2,211.0 L479.4,210.9 L479.6,210.9 
		L479.8,210.8 L480.1,210.8 L480.3,210.8 L480.5,210.9 L480.7,210.7 L480.9,210.7 L481.1,210.8 L481.3,210.8 
		L481.5,210.8 L481.8,211.1 L482.0,211.1 L482.2,211.2 L482.4,211.2 L482.6,211.1 L482.8,211.2 L483.0,211.1 
		L483.3,211.1 L483.5,211.1 L483.7,211.0 L483.9,211.0 L484.1,211.3 L484.3,211.4 L484.5,211.4 L484.8,211.6 
		L485.0,211.7 L485.2,211.8 L485.4,211.9 L485.6,212.0 L485.8,212.1 L486.0,212.2 L486.2,212.3 L486.5,212.4 
		L486.7,212.5 L486.9,212.6 L487.1,212.7 L487.3,212.7 L487.5,212.7 L487.7,212.7 L488.0,212.6 L488.2,212.5 
		L488.4,212.5 L488.6,212.5 L488.8,212.8 L489.0,212.8 L489.2,212.9 L489.4,213.0 L489.7,213.0 L489.9,213.0 
		L490.1,213.2 L490.3,213.1 L490.5,213.0 L490.7,212.9 L490.9,212.6 L491.2,212.6 L491.4,212.5 L491.6,212.5 
		L491.8,212.6 L492.0,212.5 L492.2,212.4 L492.4,212.1 L492.7,211.8 L492.9,211.7 L493.1,211.8 L493.3,211.8 
		L493.5,211.7 L493.7,211.6 L493.9,211.7 L494.1,211.7 L494.4,211.7 L494.6,211.9 L494.8,211.9 L495.0,212.1 
		L495.2,212.1 L495.4,212.2 L495.6,212.3 L495.9,212.3 L496.1,212.3 L496.3,212.3 L496.5,212.3 L496.7,212.4 
		L496.9,212.5 L497.1,212.5 L497.3,212.5 L497.6,212.7 L497.8,212.6 L498.0,212.7 L498.2,212.7 L498.4,212.7 
		L498.6,213.0 L498.8,212.7 L499.1,212.7 L499.3,212.6 L499.5,212.3 L499.7,212.2 L499.9,211.9 L500.1,211.9 
		L500.3,211.9 L500.6,211.9 L500.8,212.0 L501.0,211.9 L501.2,211.9 L501.4,211.9 L501.6,211.9 L501.8,212.2 
		L502.0,212.4 L502.3,212.4 L502.5,212.5 L502.7,212.6 L502.9,212.4 L503.1,212.1 L503.3,212.2 L503.5,212.2 
		L503.8,212.1 L504.0,212.1 L504.2,212.1 L504.4,212.1 L504.6,212.2 L504.8,212.0 L505.0,211.9 L505.2,212.0 
		L505.5,212.0 L505.7,212.2 L505.9,212.0 L506.1,212.0 L506.3,212.2 L506.5,212.1 L506.7,212.2 L507.0,212.3 
		L507.2,212.3 L507.4,212.4 L507.6,212.6 L507.8,212.6 L508.0,212.8 L508.2,212.8 L508.5,212.8 L508.7,213.0 
		L508.9,213.0 L509.1,212.9 L509.3,212.9 L509.5,212.9 L509.7,213.0 L509.9,213.0 L510.2,212.8 L510.4,212.8 
		L510.6,212.9 L510.8,213.0 L511.0,212.8 L511.2,212.8 L511.4,212.9 L511.7,212.8 L511.9,212.8 L512.1,212.7 
		L512.3,212.7 L512.5,212.7 L512.7,212.7 L512.9,212.7 L513.1,212.9 L513.4,212.7 L513.6,212.6 L513.8,212.6 
		L514.0,212.9 L514.2,212.8 L514.4,212.8 L514.6,212.8 L514.9,212.8 L515.1,213.0 L515.3,212.9 L515.5,212.9 
		 h0.01'/></g>
	</g>
	<g id="gnuplot_plot_2" ><title>gnuplot_plot_2</title>
<g style="fill:none; color:green; stroke:currentColor; stroke-width:1.00; stroke-linecap:butt; stroke-linejoin:miter">
	<g transform="translate(448.4,390.9)" style="stroke:none; fill:black; font-family:Arial; font-size:12.00pt; text-anchor:end">
		<text>Radio maximum capacity</text>
	</g>
	<path  d='M456.7,386.4 L498.9,386.4 M90.8,149.9 L91.1,256.3 L91.3,58.5 L91.5,139.8 L91.7,112.5 L91.9,142.0 
		L92.1,173.8 L92.3,150.7 L92.6,168.7 L92.8,181.3 L93.0,181.3 L93.2,181.3 L93.4,237.0 L93.6,236.8 
		L93.8,220.0 L94.1,218.1 L94.3,218.1 L94.5,222.2 L94.7,216.7 L94.9,216.7 L95.1,237.7 L95.3,208.2 
		L95.5,186.9 L95.8,190.6 L96.0,179.1 L96.2,178.3 L96.4,177.3 L96.6,177.4 L96.8,179.4 L97.0,169.1 
		L97.3,169.6 L97.5,169.6 L97.7,189.6 L97.9,194.9 L98.1,192.2 L98.3,192.5 L98.5,192.5 L98.7,206.7 
		L99.0,213.5 L99.2,205.6 L99.4,206.1 L99.6,202.3 L99.8,205.9 L100.0,206.6 L100.2,206.6 L100.5,209.0 
		L100.7,210.6 L100.9,211.7 L101.1,210.1 L101.3,213.6 L101.5,213.6 L101.7,222.5 L101.9,222.9 L102.2,222.9 
		L102.4,233.2 L102.6,231.7 L102.8,232.8 L103.0,226.9 L103.2,216.8 L103.4,219.6 L103.7,220.0 L103.9,220.0 
		L104.1,216.2 L104.3,212.0 L104.5,210.5 L104.7,210.1 L104.9,210.3 L105.1,209.6 L105.4,205.5 L105.6,203.5 
		L105.8,206.2 L106.0,206.2 L106.2,206.2 L106.4,214.7 L106.6,215.0 L106.9,214.3 L107.1,204.7 L107.3,203.1 
		L107.5,205.4 L107.7,205.4 L107.9,208.3 L108.1,201.7 L108.4,201.7 L108.6,205.0 L108.8,206.4 L109.0,206.4 
		L109.2,210.5 L109.4,210.7 L109.6,211.8 L109.8,212.4 L110.1,214.6 L110.3,213.5 L110.5,211.7 L110.7,210.2 
		L110.9,210.6 L111.1,205.2 L111.3,205.8 L111.6,204.8 L111.8,205.2 L112.0,204.3 L112.2,204.4 L112.4,206.8 
		L112.6,207.7 L112.8,207.7 L113.0,211.1 L113.3,211.2 L113.5,212.1 L113.7,211.6 L113.9,211.6 L114.1,215.2 
		L114.3,212.5 L114.5,212.3 L114.8,212.4 L115.0,214.1 L115.2,215.9 L115.4,215.1 L115.6,215.3 L115.8,215.3 
		L116.0,218.3 L116.3,216.2 L116.5,215.7 L116.7,214.9 L116.9,212.6 L117.1,213.4 L117.3,213.7 L117.5,214.5 
		L117.7,216.5 L118.0,214.7 L118.2,215.9 L118.4,216.8 L118.6,216.9 L118.8,218.3 L119.0,218.3 L119.2,219.0 
		L119.5,219.4 L119.7,217.7 L119.9,215.5 L120.1,209.6 L120.3,205.5 L120.5,206.7 L120.7,206.7 L120.9,209.0 
		L121.2,209.4 L121.4,210.6 L121.6,210.9 L121.8,210.3 L122.0,208.3 L122.2,205.2 L122.4,203.6 L122.7,203.3 
		L122.9,204.2 L123.1,203.3 L123.3,204.5 L123.5,204.5 L123.7,207.5 L123.9,207.2 L124.2,208.7 L124.4,209.4 
		L124.6,208.2 L124.8,208.3 L125.0,210.3 L125.2,211.2 L125.4,211.7 L125.6,210.9 L125.9,211.5 L126.1,208.5 
		L126.3,208.2 L126.5,206.7 L126.7,206.9 L126.9,207.0 L127.1,207.7 L127.4,204.6 L127.6,204.7 L127.8,204.2 
		L128.0,205.2 L128.2,205.4 L128.4,207.0 L128.6,206.9 L128.8,204.0 L129.1,202.8 L129.3,203.3 L129.5,203.4 
		L129.7,205.4 L129.9,204.4 L130.1,204.7 L130.3,204.1 L130.6,203.5 L130.8,203.5 L131.0,203.5 L131.2,206.7 
		L131.4,205.2 L131.6,204.2 L131.8,203.5 L132.1,204.6 L132.3,204.9 L132.5,204.9 L132.7,205.9 L132.9,206.6 
		L133.1,205.0 L133.3,205.1 L133.5,206.3 L133.8,206.4 L134.0,207.2 L134.2,208.1 L134.4,209.0 L134.6,209.3 
		L134.8,209.2 L135.0,210.2 L135.3,210.2 L135.5,208.0 L135.7,207.1 L135.9,207.2 L136.1,206.3 L136.3,206.4 
		L136.5,207.1 L136.8,207.7 L137.0,207.5 L137.2,206.3 L137.4,205.3 L137.6,204.6 L137.8,205.1 L138.0,204.6 
		L138.2,203.9 L138.5,204.4 L138.7,203.8 L138.9,202.2 L139.1,201.3 L139.3,202.1 L139.5,202.1 L139.7,202.1 
		L140.0,204.9 L140.2,203.4 L140.4,203.5 L140.6,203.5 L140.8,203.9 L141.0,202.3 L141.2,201.2 L141.4,201.1 
		L141.7,201.0 L141.9,201.8 L142.1,200.8 L142.3,199.7 L142.5,200.7 L142.7,200.6 L142.9,200.6 L143.2,200.6 
		L143.4,203.3 L143.6,202.8 L143.8,203.5 L144.0,204.0 L144.2,204.7 L144.4,205.5 L144.7,206.0 L144.9,206.3 
		L145.1,206.9 L145.3,206.0 L145.5,205.9 L145.7,205.2 L145.9,206.0 L146.1,206.2 L146.4,206.0 L146.6,206.4 
		L146.8,206.4 L147.0,207.8 L147.2,206.7 L147.4,206.2 L147.6,205.9 L147.9,205.5 L148.1,206.0 L148.3,205.8 
		L148.5,206.2 L148.7,206.2 L148.9,206.5 L149.1,206.5 L149.3,206.5 L149.6,209.0 L149.8,209.0 L150.0,209.0 
		L150.2,211.4 L150.4,211.4 L150.6,212.6 L150.8,213.0 L151.1,212.9 L151.3,212.0 L151.5,211.8 L151.7,211.8 
		L151.9,212.5 L152.1,213.3 L152.3,213.1 L152.6,212.4 L152.8,212.2 L153.0,212.6 L153.2,212.9 L153.4,212.9 
		L153.6,212.9 L153.8,213.3 L154.0,212.3 L154.3,212.3 L154.5,212.2 L154.7,212.9 L154.9,212.9 L155.1,213.5 
		L155.3,213.5 L155.5,213.5 L155.8,214.6 L156.0,214.4 L156.2,214.4 L156.4,215.0 L156.6,214.4 L156.8,214.4 
		L157.0,215.8 L157.2,216.2 L157.5,216.0 L157.7,214.9 L157.9,215.2 L158.1,215.0 L158.3,214.9 L158.5,215.3 
		L158.7,215.3 L159.0,216.3 L159.2,216.9 L159.4,217.3 L159.6,216.0 L159.8,215.1 L160.0,214.6 L160.2,212.9 
		L160.4,213.3 L160.7,213.3 L160.9,212.6 L161.1,212.4 L161.3,212.2 L161.5,212.0 L161.7,211.2 L161.9,211.0 
		L162.2,211.2 L162.4,211.6 L162.6,211.7 L162.8,211.4 L163.0,211.0 L163.2,210.2 L163.4,210.1 L163.7,209.0 
		L163.9,209.0 L164.1,209.8 L164.3,208.6 L164.5,208.0 L164.7,207.7 L164.9,206.3 L165.1,206.2 L165.4,206.2 
		L165.6,206.6 L165.8,207.3 L166.0,207.8 L166.2,208.0 L166.4,207.9 L166.6,207.4 L166.9,207.0 L167.1,207.0 
		L167.3,206.9 L167.5,206.9 L167.7,207.8 L167.9,207.8 L168.1,207.5 L168.3,207.9 L168.6,208.1 L168.8,207.6 
		L169.0,207.7 L169.2,207.7 L169.4,207.3 L169.6,207.8 L169.8,208.1 L170.1,206.8 L170.3,206.7 L170.5,206.7 
		L170.7,206.7 L170.9,206.7 L171.1,206.7 L171.3,208.2 L171.6,208.9 L171.8,208.9 L172.0,208.4 L172.2,208.8 
		L172.4,208.1 L172.6,207.3 L172.8,207.8 L173.0,208.1 L173.3,208.6 L173.5,208.8 L173.7,208.8 L173.9,208.8 
		L174.1,210.3 L174.3,209.8 L174.5,209.4 L174.8,208.6 L175.0,208.6 L175.2,208.4 L175.4,208.5 L175.6,208.3 
		L175.8,207.0 L176.0,207.0 L176.2,205.1 L176.5,204.1 L176.7,203.1 L176.9,201.5 L177.1,201.4 L177.3,200.4 
		L177.5,200.7 L177.7,199.5 L178.0,199.5 L178.2,199.5 L178.4,199.4 L178.6,199.7 L178.8,199.2 L179.0,199.3 
		L179.2,199.3 L179.5,198.7 L179.7,198.0 L179.9,197.7 L180.1,197.8 L180.3,197.1 L180.5,197.3 L180.7,197.3 
		L180.9,198.3 L181.2,197.9 L181.4,197.8 L181.6,198.0 L181.8,198.1 L182.0,198.9 L182.2,199.0 L182.4,199.3 
		L182.7,199.8 L182.9,198.8 L183.1,198.7 L183.3,198.7 L183.5,199.4 L183.7,199.8 L183.9,199.8 L184.1,199.8 
		L184.4,201.3 L184.6,201.1 L184.8,201.5 L185.0,201.7 L185.2,202.0 L185.4,202.0 L185.6,201.3 L185.9,201.3 
		L186.1,200.8 L186.3,200.9 L186.5,199.9 L186.7,199.1 L186.9,198.0 L187.1,197.6 L187.4,197.9 L187.6,196.3 
		L187.8,194.9 L188.0,194.8 L188.2,194.8 L188.4,194.8 L188.6,196.1 L188.8,195.6 L189.1,194.9 L189.3,194.6 
		L189.5,194.6 L189.7,194.9 L189.9,194.8 L190.1,194.5 L190.3,193.9 L190.6,193.9 L190.8,192.9 L191.0,192.3 
		L191.2,192.6 L191.4,191.4 L191.6,190.1 L191.8,189.9 L192.0,190.2 L192.3,190.5 L192.5,189.3 L192.7,189.0 
		L192.9,188.4 L193.1,188.5 L193.3,188.5 L193.5,189.4 L193.8,189.3 L194.0,188.1 L194.2,188.0 L194.4,188.0 
		L194.6,188.9 L194.8,188.2 L195.0,187.8 L195.3,187.6 L195.5,187.8 L195.7,188.5 L195.9,188.7 L196.1,188.5 
		L196.3,188.5 L196.5,188.7 L196.7,188.1 L197.0,188.2 L197.2,189.0 L197.4,188.3 L197.6,188.2 L197.8,188.6 
		L198.0,188.4 L198.2,188.2 L198.5,187.8 L198.7,187.8 L198.9,188.7 L199.1,188.8 L199.3,188.6 L199.5,188.1 
		L199.7,188.1 L199.9,188.1 L200.2,187.7 L200.4,187.7 L200.6,187.2 L200.8,186.8 L201.0,186.2 L201.2,186.4 
		L201.4,186.4 L201.7,186.3 L201.9,186.9 L202.1,186.9 L202.3,186.9 L202.5,187.4 L202.7,186.7 L202.9,186.9 
		L203.1,187.3 L203.4,187.3 L203.6,187.8 L203.8,186.9 L204.0,185.4 L204.2,185.5 L204.4,184.6 L204.6,184.5 
		L204.9,183.7 L205.1,183.7 L205.3,183.7 L205.5,183.7 L205.7,183.8 L205.9,183.7 L206.1,183.7 L206.4,184.2 
		L206.6,184.2 L206.8,184.2 L207.0,184.5 L207.2,184.8 L207.4,185.1 L207.6,185.1 L207.8,186.2 L208.1,186.2 
		L208.3,186.2 L208.5,187.4 L208.7,187.4 L208.9,187.4 L209.1,187.5 L209.3,187.6 L209.6,187.1 L209.8,186.9 
		L210.0,186.2 L210.2,186.2 L210.4,186.3 L210.6,186.3 L210.8,186.3 L211.0,186.3 L211.3,186.3 L211.5,187.2 
		L211.7,187.2 L211.9,187.3 L212.1,187.4 L212.3,187.4 L212.5,187.2 L212.8,187.1 L213.0,187.3 L213.2,187.4 
		L213.4,187.9 L213.6,188.1 L213.8,187.9 L214.0,187.7 L214.3,188.3 L214.5,187.7 L214.7,187.1 L214.9,187.1 
		L215.1,186.9 L215.3,186.7 L215.5,186.4 L215.7,186.4 L216.0,186.6 L216.2,186.1 L216.4,186.1 L216.6,185.1 
		L216.8,184.0 L217.0,184.1 L217.2,184.4 L217.5,184.6 L217.7,184.5 L217.9,184.5 L218.1,184.6 L218.3,184.4 
		L218.5,184.1 L218.7,184.1 L218.9,184.3 L219.2,184.3 L219.4,184.8 L219.6,184.8 L219.8,185.0 L220.0,185.0 
		L220.2,185.4 L220.4,184.2 L220.7,183.7 L220.9,183.2 L221.1,183.3 L221.3,183.2 L221.5,183.3 L221.7,183.4 
		L221.9,183.6 L222.2,183.8 L222.4,183.4 L222.6,183.3 L222.8,183.9 L223.0,184.0 L223.2,184.0 L223.4,184.2 
		L223.6,184.2 L223.9,183.5 L224.1,182.6 L224.3,182.6 L224.5,182.6 L224.7,183.4 L224.9,183.6 L225.1,183.6 
		L225.4,183.7 L225.6,183.5 L225.8,182.9 L226.0,182.8 L226.2,182.9 L226.4,183.3 L226.6,183.5 L226.8,183.6 
		L227.1,182.8 L227.3,182.7 L227.5,182.3 L227.7,182.2 L227.9,182.4 L228.1,182.5 L228.3,182.5 L228.6,183.2 
		L228.8,183.1 L229.0,182.6 L229.2,182.9 L229.4,182.9 L229.6,183.5 L229.8,183.2 L230.1,183.2 L230.3,183.2 
		L230.5,183.1 L230.7,183.1 L230.9,182.8 L231.1,183.0 L231.3,183.4 L231.5,183.3 L231.8,183.4 L232.0,183.5 
		L232.2,183.5 L232.4,183.5 L232.6,183.1 L232.8,183.1 L233.0,183.1 L233.3,182.7 L233.5,183.0 L233.7,182.3 
		L233.9,182.2 L234.1,182.6 L234.3,182.9 L234.5,182.9 L234.7,182.4 L235.0,182.6 L235.2,182.8 L235.4,182.6 
		L235.6,182.9 L235.8,182.6 L236.0,182.4 L236.2,182.5 L236.5,182.5 L236.7,182.3 L236.9,181.8 L237.1,181.7 
		L237.3,181.8 L237.5,182.1 L237.7,182.3 L238.0,182.3 L238.2,182.5 L238.4,182.8 L238.6,182.8 L238.8,183.2 
		L239.0,183.7 L239.2,183.7 L239.4,184.0 L239.7,184.1 L239.9,184.6 L240.1,184.8 L240.3,185.0 L240.5,185.0 
		L240.7,185.0 L240.9,185.2 L241.2,185.0 L241.4,185.1 L241.6,185.2 L241.8,185.2 L242.0,184.6 L242.2,184.3 
		L242.4,184.5 L242.6,184.3 L242.9,184.0 L243.1,183.6 L243.3,183.6 L243.5,183.8 L243.7,184.0 L243.9,184.3 
		L244.1,184.6 L244.4,184.3 L244.6,184.4 L244.8,183.6 L245.0,183.2 L245.2,183.0 L245.4,183.1 L245.6,183.2 
		L245.8,183.2 L246.1,183.8 L246.3,183.9 L246.5,183.9 L246.7,184.1 L246.9,184.4 L247.1,184.4 L247.3,184.4 
		L247.6,184.2 L247.8,184.3 L248.0,184.6 L248.2,184.8 L248.4,185.1 L248.6,184.0 L248.8,184.0 L249.1,184.0 
		L249.3,184.1 L249.5,183.6 L249.7,183.7 L249.9,184.0 L250.1,184.2 L250.3,184.0 L250.5,183.6 L250.8,182.9 
		L251.0,182.8 L251.2,182.8 L251.4,183.0 L251.6,182.8 L251.8,182.5 L252.0,182.1 L252.3,181.6 L252.5,181.5 
		L252.7,181.6 L252.9,181.4 L253.1,181.4 L253.3,181.3 L253.5,181.4 L253.7,181.3 L254.0,181.4 L254.2,181.4 
		L254.4,182.0 L254.6,182.4 L254.8,181.8 L255.0,181.5 L255.2,181.6 L255.5,181.8 L255.7,181.6 L255.9,181.6 
		L256.1,182.1 L256.3,181.0 L256.5,180.5 L256.7,180.6 L256.9,181.0 L257.2,181.0 L257.4,181.2 L257.6,181.3 
		L257.8,181.7 L258.0,181.7 L258.2,181.9 L258.4,181.8 L258.7,181.6 L258.9,181.5 L259.1,181.5 L259.3,181.7 
		L259.5,182.0 L259.7,181.4 L259.9,181.3 L260.1,181.3 L260.4,181.9 L260.6,181.6 L260.8,181.3 L261.0,181.3 
		L261.2,181.3 L261.4,181.8 L261.6,181.7 L261.9,181.7 L262.1,181.7 L262.3,182.2 L262.5,182.0 L262.7,181.5 
		L262.9,181.9 L263.1,181.3 L263.4,180.9 L263.6,180.8 L263.8,181.0 L264.0,181.2 L264.2,181.2 L264.4,181.2 
		L264.6,181.8 L264.8,181.5 L265.1,181.5 L265.3,181.4 L265.5,181.4 L265.7,181.8 L265.9,181.6 L266.1,181.5 
		L266.3,181.6 L266.6,182.0 L266.8,181.9 L267.0,181.9 L267.2,181.9 L267.4,181.8 L267.6,182.0 L267.8,181.8 
		L268.0,181.5 L268.3,181.6 L268.5,181.7 L268.7,181.9 L268.9,181.9 L269.1,182.1 L269.3,182.0 L269.5,182.1 
		L269.8,182.0 L270.0,182.1 L270.2,182.2 L270.4,182.4 L270.6,182.5 L270.8,182.5 L271.0,182.1 L271.3,182.1 
		L271.5,182.1 L271.7,182.1 L271.9,182.4 L272.1,182.3 L272.3,182.5 L272.5,182.5 L272.7,182.8 L273.0,182.9 
		L273.2,182.8 L273.4,182.8 L273.6,182.8 L273.8,183.1 L274.0,183.2 L274.2,183.4 L274.5,183.4 L274.7,183.4 
		L274.9,184.1 L275.1,184.0 L275.3,183.9 L275.5,184.0 L275.7,183.8 L275.9,183.9 L276.2,184.1 L276.4,184.3 
		L276.6,184.4 L276.8,184.0 L277.0,184.0 L277.2,183.6 L277.4,183.6 L277.7,184.0 L277.9,184.2 L278.1,184.2 
		L278.3,184.7 L278.5,183.7 L278.7,183.5 L278.9,183.5 L279.2,183.9 L279.4,183.9 L279.6,183.9 L279.8,183.7 
		L280.0,183.9 L280.2,184.0 L280.4,183.6 L280.6,183.3 L280.9,183.0 L281.1,183.0 L281.3,183.3 L281.5,182.8 
		L281.7,183.0 L281.9,183.0 L282.1,183.0 L282.4,182.4 L282.6,182.2 L282.8,182.2 L283.0,182.6 L283.2,182.6 
		L283.4,182.6 L283.6,183.3 L283.8,183.3 L284.1,183.5 L284.3,183.8 L284.5,183.5 L284.7,183.2 L284.9,183.2 
		L285.1,183.5 L285.3,183.5 L285.6,183.5 L285.8,183.5 L286.0,183.7 L286.2,183.6 L286.4,183.7 L286.6,183.1 
		L286.8,183.0 L287.1,183.2 L287.3,182.8 L287.5,182.8 L287.7,183.1 L287.9,183.2 L288.1,183.2 L288.3,183.4 
		L288.5,183.1 L288.8,182.6 L289.0,182.6 L289.2,182.4 L289.4,182.4 L289.6,182.6 L289.8,182.8 L290.0,182.9 
		L290.3,183.3 L290.5,183.3 L290.7,183.2 L290.9,183.2 L291.1,183.5 L291.3,183.5 L291.5,183.5 L291.7,183.7 
		L292.0,183.4 L292.2,183.2 L292.4,183.2 L292.6,183.6 L292.8,183.6 L293.0,184.1 L293.2,184.1 L293.5,184.2 
		L293.7,184.2 L293.9,184.4 L294.1,184.6 L294.3,184.7 L294.5,184.9 L294.7,185.0 L295.0,184.8 L295.2,184.9 
		L295.4,185.1 L295.6,185.0 L295.8,185.0 L296.0,184.8 L296.2,184.8 L296.4,184.8 L296.7,185.5 L296.9,185.4 
		L297.1,185.5 L297.3,185.9 L297.5,185.7 L297.7,185.4 L297.9,185.4 L298.2,185.0 L298.4,185.0 L298.6,185.0 
		L298.8,185.2 L299.0,185.2 L299.2,185.7 L299.4,185.7 L299.6,185.6 L299.9,185.8 L300.1,185.8 L300.3,185.8 
		L300.5,185.7 L300.7,185.8 L300.9,185.6 L301.1,185.5 L301.4,185.6 L301.6,185.6 L301.8,185.6 L302.0,185.6 
		L302.2,185.6 L302.4,185.8 L302.6,185.6 L302.8,185.6 L303.1,185.7 L303.3,185.9 L303.5,186.1 L303.7,186.2 
		L303.9,186.4 L304.1,186.4 L304.3,186.4 L304.6,187.0 L304.8,187.3 L305.0,187.0 L305.2,187.0 L305.4,186.9 
		L305.6,186.8 L305.8,186.9 L306.1,186.8 L306.3,186.7 L306.5,187.1 L306.7,187.0 L306.9,187.0 L307.1,187.3 
		L307.3,187.5 L307.5,187.4 L307.8,187.6 L308.0,187.7 L308.2,188.0 L308.4,187.9 L308.6,187.8 L308.8,187.8 
		L309.0,188.1 L309.3,188.4 L309.5,188.2 L309.7,188.2 L309.9,188.2 L310.1,188.6 L310.3,188.3 L310.5,188.3 
		L310.7,188.5 L311.0,188.6 L311.2,188.8 L311.4,188.7 L311.6,188.9 L311.8,188.5 L312.0,188.4 L312.2,188.2 
		L312.5,188.1 L312.7,188.1 L312.9,188.6 L313.1,188.6 L313.3,188.8 L313.5,188.8 L313.7,188.9 L314.0,188.9 
		L314.2,188.7 L314.4,188.8 L314.6,188.7 L314.8,188.4 L315.0,188.6 L315.2,188.7 L315.4,188.7 L315.7,189.0 
		L315.9,189.0 L316.1,189.1 L316.3,189.1 L316.5,189.2 L316.7,189.0 L316.9,188.8 L317.2,188.6 L317.4,188.7 
		L317.6,188.8 L317.8,188.8 L318.0,188.8 L318.2,188.9 L318.4,189.0 L318.6,189.1 L318.9,188.7 L319.1,188.4 
		L319.3,188.0 L319.5,187.5 L319.7,187.5 L319.9,187.1 L320.1,187.0 L320.4,186.3 L320.6,186.0 L320.8,185.9 
		L321.0,185.9 L321.2,186.2 L321.4,186.2 L321.6,186.0 L321.9,185.9 L322.1,186.0 L322.3,186.2 L322.5,186.2 
		L322.7,186.5 L322.9,186.5 L323.1,186.2 L323.3,186.3 L323.6,186.5 L323.8,186.3 L324.0,186.4 L324.2,186.4 
		L324.4,186.4 L324.6,186.9 L324.8,186.9 L325.1,186.9 L325.3,187.1 L325.5,187.2 L325.7,187.2 L325.9,187.3 
		L326.1,187.0 L326.3,187.1 L326.5,186.9 L326.8,186.8 L327.0,186.4 L327.2,186.5 L327.4,186.4 L327.6,186.5 
		L327.8,186.5 L328.0,186.8 L328.3,187.0 L328.5,187.1 L328.7,187.4 L328.9,187.2 L329.1,186.9 L329.3,186.7 
		L329.5,186.4 L329.8,186.4 L330.0,186.6 L330.2,186.6 L330.4,186.9 L330.6,186.9 L330.8,187.3 L331.0,187.3 
		L331.2,186.9 L331.5,186.6 L331.7,186.8 L331.9,186.4 L332.1,186.3 L332.3,186.3 L332.5,186.3 L332.7,187.0 
		L333.0,186.9 L333.2,187.1 L333.4,186.8 L333.6,186.6 L333.8,186.5 L334.0,186.5 L334.2,186.5 L334.4,186.5 
		L334.7,186.5 L334.9,186.5 L335.1,186.6 L335.3,186.5 L335.5,186.6 L335.7,186.9 L335.9,186.9 L336.2,187.1 
		L336.4,187.3 L336.6,187.0 L336.8,186.8 L337.0,186.7 L337.2,186.9 L337.4,186.7 L337.7,186.7 L337.9,187.0 
		L338.1,187.0 L338.3,187.4 L338.5,187.3 L338.7,187.4 L338.9,187.6 L339.1,187.6 L339.4,187.7 L339.6,187.7 
		L339.8,187.9 L340.0,188.1 L340.2,188.2 L340.4,188.2 L340.6,188.4 L340.9,188.7 L341.1,188.7 L341.3,188.9 
		L341.5,188.9 L341.7,189.3 L341.9,189.3 L342.1,189.3 L342.3,189.9 L342.6,189.9 L342.8,190.0 L343.0,190.0 
		L343.2,189.7 L343.4,189.7 L343.6,189.9 L343.8,189.9 L344.1,190.1 L344.3,190.1 L344.5,190.5 L344.7,190.5 
		L344.9,190.5 L345.1,190.0 L345.3,189.9 L345.5,189.8 L345.8,189.8 L346.0,190.3 L346.2,190.3 L346.4,190.3 
		L346.6,190.6 L346.8,190.5 L347.0,190.5 L347.3,190.1 L347.5,190.1 L347.7,190.4 L347.9,190.1 L348.1,189.9 
		L348.3,189.9 L348.5,190.0 L348.8,189.9 L349.0,190.0 L349.2,190.0 L349.4,190.3 L349.6,190.4 L349.8,190.4 
		L350.0,190.5 L350.2,190.5 L350.5,190.3 L350.7,190.3 L350.9,190.2 L351.1,190.3 L351.3,190.2 L351.5,190.1 
		L351.7,190.2 L352.0,190.4 L352.2,190.1 L352.4,190.1 L352.6,190.3 L352.8,190.4 L353.0,189.9 L353.2,189.8 
		L353.4,190.1 L353.7,190.1 L353.9,190.2 L354.1,190.2 L354.3,190.6 L354.5,190.7 L354.7,190.6 L354.9,190.8 
		L355.2,190.9 L355.4,190.6 L355.6,190.5 L355.8,190.5 L356.0,190.9 L356.2,191.0 L356.4,191.0 L356.7,191.2 
		L356.9,191.3 L357.1,191.4 L357.3,191.3 L357.5,191.3 L357.7,191.5 L357.9,191.5 L358.1,191.7 L358.4,191.8 
		L358.6,191.9 L358.8,191.9 L359.0,191.8 L359.2,191.3 L359.4,191.3 L359.6,191.6 L359.9,191.7 L360.1,191.8 
		L360.3,191.9 L360.5,191.7 L360.7,191.7 L360.9,191.7 L361.1,191.7 L361.3,192.1 L361.6,192.1 L361.8,192.1 
		L362.0,192.4 L362.2,192.5 L362.4,192.6 L362.6,192.6 L362.8,192.8 L363.1,192.8 L363.3,192.8 L363.5,192.7 
		L363.7,192.9 L363.9,192.6 L364.1,192.5 L364.3,192.6 L364.6,192.9 L364.8,192.5 L365.0,192.3 L365.2,192.3 
		L365.4,192.7 L365.6,192.8 L365.8,192.8 L366.0,192.8 L366.3,193.3 L366.5,192.8 L366.7,192.9 L366.9,192.8 
		L367.1,192.7 L367.3,192.5 L367.5,192.4 L367.8,192.4 L368.0,192.4 L368.2,192.4 L368.4,192.4 L368.6,192.7 
		L368.8,192.8 L369.0,193.0 L369.2,192.7 L369.5,192.7 L369.7,192.7 L369.9,192.8 L370.1,192.8 L370.3,193.0 
		L370.5,193.0 L370.7,193.1 L371.0,193.1 L371.2,193.1 L371.4,193.0 L371.6,192.8 L371.8,192.9 L372.0,193.0 
		L372.2,193.1 L372.5,193.3 L372.7,193.2 L372.9,193.2 L373.1,193.4 L373.3,193.4 L373.5,193.5 L373.7,193.6 
		L373.9,193.6 L374.2,193.5 L374.4,193.5 L374.6,193.5 L374.8,193.6 L375.0,193.4 L375.2,193.4 L375.4,193.5 
		L375.7,193.7 L375.9,193.6 L376.1,193.5 L376.3,193.5 L376.5,193.5 L376.7,193.4 L376.9,193.5 L377.1,193.5 
		L377.4,193.4 L377.6,193.4 L377.8,193.6 L378.0,193.5 L378.2,193.4 L378.4,193.4 L378.6,193.7 L378.9,193.7 
		L379.1,193.8 L379.3,193.9 L379.5,194.1 L379.7,194.2 L379.9,194.2 L380.1,194.4 L380.4,194.3 L380.6,194.2 
		L380.8,194.5 L381.0,194.5 L381.2,194.5 L381.4,194.5 L381.6,194.3 L381.8,194.3 L382.1,194.4 L382.3,194.4 
		L382.5,194.7 L382.7,194.9 L382.9,195.0 L383.1,195.1 L383.3,195.0 L383.6,195.0 L383.8,195.0 L384.0,194.5 
		L384.2,194.5 L384.4,194.4 L384.6,194.4 L384.8,194.4 L385.0,194.7 L385.3,194.5 L385.5,194.3 L385.7,193.9 
		L385.9,193.7 L386.1,193.7 L386.3,193.7 L386.5,193.6 L386.8,193.8 L387.0,193.8 L387.2,193.9 L387.4,193.8 
		L387.6,193.6 L387.8,193.8 L388.0,193.8 L388.2,193.9 L388.5,193.9 L388.7,193.9 L388.9,193.9 L389.1,194.1 
		L389.3,193.8 L389.5,193.6 L389.7,193.5 L390.0,193.5 L390.2,193.7 L390.4,193.3 L390.6,193.2 L390.8,193.1 
		L391.0,193.1 L391.2,193.1 L391.5,193.1 L391.7,193.1 L391.9,193.1 L392.1,192.7 L392.3,192.7 L392.5,192.6 
		L392.7,192.7 L392.9,192.4 L393.2,192.4 L393.4,192.2 L393.6,192.2 L393.8,192.1 L394.0,192.1 L394.2,191.7 
		L394.4,191.6 L394.7,191.6 L394.9,191.6 L395.1,191.6 L395.3,192.1 L395.5,192.0 L395.7,192.0 L395.9,192.0 
		L396.1,192.2 L396.4,192.3 L396.6,192.4 L396.8,192.5 L397.0,192.7 L397.2,192.7 L397.4,192.6 L397.6,192.5 
		L397.9,192.6 L398.1,192.6 L398.3,192.6 L398.5,192.3 L398.7,192.4 L398.9,192.5 L399.1,192.6 L399.4,192.6 
		L399.6,192.7 L399.8,192.8 L400.0,192.9 L400.2,193.0 L400.4,192.9 L400.6,193.0 L400.8,192.9 L401.1,193.0 
		L401.3,193.1 L401.5,193.2 L401.7,193.0 L401.9,192.7 L402.1,192.6 L402.3,192.6 L402.6,192.6 L402.8,192.7 
		L403.0,192.7 L403.2,192.8 L403.4,192.6 L403.6,192.6 L403.8,192.9 L404.0,193.0 L404.3,193.0 L404.5,192.5 
		L404.7,192.6 L404.9,192.6 L405.1,192.6 L405.3,193.0 L405.5,193.0 L405.8,193.3 L406.0,192.9 L406.2,192.9 
		L406.4,193.1 L406.6,193.1 L406.8,193.2 L407.0,193.2 L407.3,193.4 L407.5,193.6 L407.7,193.6 L407.9,193.4 
		L408.1,193.4 L408.3,193.5 L408.5,193.5 L408.7,193.5 L409.0,193.9 L409.2,193.8 L409.4,193.9 L409.6,194.0 
		L409.8,194.2 L410.0,194.2 L410.2,194.0 L410.5,193.9 L410.7,194.1 L410.9,193.9 L411.1,194.0 L411.3,193.9 
		L411.5,194.0 L411.7,194.2 L411.9,194.2 L412.2,194.2 L412.4,194.1 L412.6,194.1 L412.8,194.2 L413.0,194.2 
		L413.2,194.4 L413.4,194.5 L413.7,194.3 L413.9,194.3 L414.1,194.3 L414.3,194.3 L414.5,194.5 L414.7,194.4 
		L414.9,194.4 L415.2,194.4 L415.4,194.5 L415.6,194.4 L415.8,194.4 L416.0,194.4 L416.2,194.6 L416.4,194.3 
		L416.6,194.4 L416.9,194.5 L417.1,194.4 L417.3,194.3 L417.5,194.3 L417.7,194.2 L417.9,194.2 L418.1,194.4 
		L418.4,194.5 L418.6,194.5 L418.8,194.5 L419.0,194.9 L419.2,195.0 L419.4,195.0 L419.6,194.9 L419.8,194.8 
		L420.1,194.6 L420.3,194.4 L420.5,194.5 L420.7,194.5 L420.9,194.4 L421.1,194.3 L421.3,194.3 L421.6,194.4 
		L421.8,194.6 L422.0,194.6 L422.2,194.6 L422.4,194.9 L422.6,195.0 L422.8,195.0 L423.1,195.0 L423.3,195.0 
		L423.5,195.1 L423.7,195.2 L423.9,195.0 L424.1,194.9 L424.3,194.8 L424.5,194.7 L424.8,194.7 L425.0,195.0 
		L425.2,195.1 L425.4,195.1 L425.6,195.2 L425.8,194.6 L426.0,194.5 L426.3,194.5 L426.5,194.6 L426.7,194.7 
		L426.9,194.5 L427.1,194.7 L427.3,194.6 L427.5,194.8 L427.7,194.7 L428.0,194.8 L428.2,194.9 L428.4,194.8 
		L428.6,194.5 L428.8,194.5 L429.0,194.6 L429.2,194.7 L429.5,194.7 L429.7,194.7 L429.9,194.8 L430.1,194.9 
		L430.3,194.9 L430.5,194.9 L430.7,194.9 L430.9,194.6 L431.2,194.6 L431.4,194.5 L431.6,194.5 L431.8,194.9 
		L432.0,194.7 L432.2,194.6 L432.4,194.5 L432.7,194.2 L432.9,194.1 L433.1,194.1 L433.3,194.1 L433.5,194.1 
		L433.7,194.5 L433.9,194.5 L434.2,194.4 L434.4,194.4 L434.6,194.7 L434.8,194.6 L435.0,194.5 L435.2,194.4 
		L435.4,194.3 L435.6,194.3 L435.9,194.2 L436.1,194.3 L436.3,194.4 L436.5,194.5 L436.7,194.5 L436.9,194.3 
		L437.1,194.4 L437.4,194.6 L437.6,194.6 L437.8,194.5 L438.0,194.5 L438.2,194.6 L438.4,194.6 L438.6,194.5 
		L438.8,194.7 L439.1,194.6 L439.3,194.8 L439.5,194.8 L439.7,194.9 L439.9,194.7 L440.1,194.7 L440.3,194.3 
		L440.6,194.2 L440.8,194.2 L441.0,194.5 L441.2,194.5 L441.4,194.8 L441.6,194.5 L441.8,194.5 L442.1,194.5 
		L442.3,194.5 L442.5,194.3 L442.7,194.4 L442.9,194.3 L443.1,194.5 L443.3,194.6 L443.5,194.6 L443.8,194.4 
		L444.0,194.3 L444.2,194.1 L444.4,194.1 L444.6,194.2 L444.8,194.2 L445.0,194.2 L445.3,194.2 L445.5,194.2 
		L445.7,194.5 L445.9,194.7 L446.1,194.8 L446.3,194.8 L446.5,194.9 L446.7,194.9 L447.0,194.9 L447.2,195.2 
		L447.4,195.2 L447.6,195.3 L447.8,195.3 L448.0,195.3 L448.2,195.6 L448.5,195.6 L448.7,195.5 L448.9,195.5 
		L449.1,195.5 L449.3,195.4 L449.5,195.4 L449.7,195.4 L450.0,195.5 L450.2,195.3 L450.4,195.3 L450.6,195.3 
		L450.8,195.5 L451.0,195.5 L451.2,195.8 L451.4,195.8 L451.7,195.9 L451.9,195.9 L452.1,196.2 L452.3,196.2 
		L452.5,196.1 L452.7,196.1 L452.9,196.1 L453.2,196.2 L453.4,196.2 L453.6,196.3 L453.8,196.2 L454.0,195.8 
		L454.2,195.9 L454.4,195.9 L454.6,195.9 L454.9,196.1 L455.1,196.1 L455.3,196.1 L455.5,196.5 L455.7,196.4 
		L455.9,196.3 L456.1,196.5 L456.4,196.4 L456.6,196.3 L456.8,196.5 L457.0,196.5 L457.2,196.4 L457.4,196.4 
		L457.6,196.4 L457.9,196.4 L458.1,196.4 L458.3,196.6 L458.5,196.7 L458.7,196.8 L458.9,196.9 L459.1,196.9 
		L459.3,196.9 L459.6,196.9 L459.8,196.8 L460.0,196.8 L460.2,196.7 L460.4,196.7 L460.6,197.0 L460.8,197.0 
		L461.1,197.0 L461.3,196.9 L461.5,196.9 L461.7,197.0 L461.9,197.0 L462.1,197.0 L462.3,197.0 L462.5,197.1 
		L462.8,197.1 L463.0,197.2 L463.2,197.2 L463.4,197.1 L463.6,196.9 L463.8,196.8 L464.0,196.7 L464.3,196.7 
		L464.5,196.6 L464.7,196.6 L464.9,196.8 L465.1,196.9 L465.3,196.9 L465.5,197.0 L465.8,196.9 L466.0,196.9 
		L466.2,196.9 L466.4,197.2 L466.6,197.1 L466.8,197.1 L467.0,197.0 L467.2,197.0 L467.5,197.0 L467.7,197.0 
		L467.9,197.1 L468.1,197.0 L468.3,196.8 L468.5,196.8 L468.7,197.1 L469.0,196.9 L469.2,196.9 L469.4,196.8 
		L469.6,196.5 L469.8,196.3 L470.0,196.1 L470.2,195.9 L470.4,195.9 L470.7,195.9 L470.9,196.0 L471.1,195.9 
		L471.3,195.9 L471.5,195.9 L471.7,195.9 L471.9,196.2 L472.2,196.1 L472.4,196.1 L472.6,196.1 L472.8,196.2 
		L473.0,196.1 L473.2,196.0 L473.4,195.9 L473.6,195.7 L473.9,195.5 L474.1,195.6 L474.3,195.6 L474.5,195.7 
		L474.7,195.6 L474.9,195.7 L475.1,195.7 L475.4,195.7 L475.6,195.9 L475.8,195.9 L476.0,195.8 L476.2,195.7 
		L476.4,195.7 L476.6,195.9 L476.9,195.7 L477.1,195.7 L477.3,195.8 L477.5,195.8 L477.7,195.8 L477.9,196.0 
		L478.1,196.0 L478.3,196.0 L478.6,196.1 L478.8,196.1 L479.0,196.3 L479.2,196.2 L479.4,196.1 L479.6,196.2 
		L479.8,196.1 L480.1,196.1 L480.3,196.1 L480.5,196.2 L480.7,196.0 L480.9,196.1 L481.1,196.1 L481.3,196.1 
		L481.5,196.1 L481.8,196.5 L482.0,196.5 L482.2,196.6 L482.4,196.6 L482.6,196.5 L482.8,196.5 L483.0,196.5 
		L483.3,196.5 L483.5,196.5 L483.7,196.5 L483.9,196.5 L484.1,196.6 L484.3,196.7 L484.5,196.7 L484.8,196.8 
		L485.0,196.8 L485.2,196.6 L485.4,196.6 L485.6,196.6 L485.8,196.6 L486.0,196.4 L486.2,196.2 L486.5,196.3 
		L486.7,196.3 L486.9,196.4 L487.1,196.3 L487.3,196.3 L487.5,196.3 L487.7,196.2 L488.0,196.2 L488.2,196.1 
		L488.4,196.1 L488.6,196.1 L488.8,196.4 L489.0,196.4 L489.2,196.5 L489.4,196.6 L489.7,196.6 L489.9,196.6 
		L490.1,196.8 L490.3,196.7 L490.5,196.5 L490.7,196.4 L490.9,196.1 L491.2,196.1 L491.4,196.0 L491.6,196.0 
		L491.8,196.1 L492.0,196.0 L492.2,195.9 L492.4,195.6 L492.7,195.3 L492.9,195.2 L493.1,195.3 L493.3,195.3 
		L493.5,195.2 L493.7,195.1 L493.9,195.2 L494.1,195.2 L494.4,195.2 L494.6,195.4 L494.8,195.4 L495.0,195.6 
		L495.2,195.7 L495.4,195.8 L495.6,195.8 L495.9,195.8 L496.1,195.9 L496.3,195.9 L496.5,195.9 L496.7,196.0 
		L496.9,196.2 L497.1,196.2 L497.3,196.2 L497.6,196.4 L497.8,196.3 L498.0,196.4 L498.2,196.4 L498.4,196.4 
		L498.6,196.6 L498.8,196.4 L499.1,196.4 L499.3,196.3 L499.5,195.9 L499.7,195.8 L499.9,195.6 L500.1,195.5 
		L500.3,195.6 L500.6,195.6 L500.8,195.6 L501.0,195.6 L501.2,195.6 L501.4,195.6 L501.6,195.6 L501.8,195.9 
		L502.0,196.1 L502.3,196.2 L502.5,196.2 L502.7,196.3 L502.9,196.1 L503.1,195.8 L503.3,195.9 L503.5,195.9 
		L503.8,195.8 L504.0,195.8 L504.2,195.8 L504.4,195.8 L504.6,196.0 L504.8,195.7 L505.0,195.7 L505.2,195.7 
		L505.5,195.8 L505.7,196.0 L505.9,195.8 L506.1,195.8 L506.3,196.0 L506.5,195.9 L506.7,196.1 L507.0,196.1 
		L507.2,196.2 L507.4,196.3 L507.6,196.4 L507.8,196.4 L508.0,196.7 L508.2,196.7 L508.5,196.7 L508.7,196.9 
		L508.9,196.9 L509.1,196.8 L509.3,196.9 L509.5,196.9 L509.7,196.9 L509.9,197.0 L510.2,196.7 L510.4,196.8 
		L510.6,196.9 L510.8,197.0 L511.0,196.8 L511.2,196.8 L511.4,196.9 L511.7,196.8 L511.9,196.9 L512.1,196.8 
		L512.3,196.7 L512.5,196.7 L512.7,196.7 L512.9,196.8 L513.1,197.0 L513.4,196.7 L513.6,196.7 L513.8,196.7 
		L514.0,197.0 L514.2,196.9 L514.4,196.9 L514.6,197.0 L514.9,197.0 L515.1,197.1 L515.3,197.0 L515.5,197.1 
		 h0.01'/></g>
	</g>
	<g id="gnuplot_plot_3" ><title>gnuplot_plot_3</title>
<g style="fill:none; color:blue; stroke:currentColor; stroke-width:1.00; stroke-linecap:butt; stroke-linejoin:miter">
	<g transform="translate(448.4,408.9)" style="stroke:none; fill:black; font-family:Arial; font-size:12.00pt; text-anchor:end">
		<text>TCP UL Delay</text>
	</g>
	<path  d='M456.7,404.4 L498.9,404.4 M88.5,371.9 L88.7,389.8 L88.9,397.2 L89.1,397.1 L89.4,352.2 L89.6,362.7 
		L89.8,331.0 L90.0,308.4 L90.2,306.7 L90.4,263.8 L90.7,263.8 L90.9,263.8 L91.1,249.6 L91.3,83.7 
		L91.5,118.5 L91.7,136.7 L91.9,136.7 L92.2,112.8 L92.4,133.4 L92.6,133.4 L92.8,130.4 L93.0,145.4 
		L93.2,191.6 L93.4,189.4 L93.7,202.5 L93.9,204.4 L94.1,203.5 L94.3,205.3 L94.5,196.4 L94.7,213.1 
		L94.9,213.3 L95.2,213.3 L95.4,211.8 L95.6,196.6 L95.8,178.6 L96.0,179.0 L96.2,179.0 L96.4,177.5 
		L96.7,171.3 L96.9,153.0 L97.1,156.1 L97.3,159.4 L97.5,160.2 L97.7,159.6 L97.9,159.6 L98.2,145.7 
		L98.4,149.5 L98.6,147.6 L98.8,145.9 L99.0,145.6 L99.2,145.6 L99.4,143.2 L99.7,142.1 L99.9,142.1 
		L100.1,141.7 L100.3,101.1 L100.5,101.2 L100.7,109.5 L101.0,131.7 L101.2,131.7 L101.4,128.2 L101.6,127.8 
		L101.8,132.0 L102.0,141.7 L102.2,145.5 L102.5,146.5 L102.7,144.8 L102.9,146.5 L103.1,152.1 L103.3,156.0 
		L103.5,156.0 L103.7,156.0 L104.0,156.0 L104.2,148.4 L104.4,138.4 L104.6,137.5 L104.8,153.1 L105.0,156.5 
		L105.2,156.5 L105.5,156.5 L105.7,147.0 L105.9,158.5 L106.1,160.0 L106.3,159.9 L106.5,156.9 L106.7,156.4 
		L107.0,153.8 L107.2,146.9 L107.4,144.0 L107.6,142.3 L107.8,141.7 L108.0,138.8 L108.3,141.1 L108.5,145.1 
		L108.7,145.0 L108.9,152.7 L109.1,152.9 L109.3,153.1 L109.5,155.0 L109.8,155.2 L110.0,155.6 L110.2,155.5 
		L110.4,151.4 L110.6,151.4 L110.8,147.9 L111.0,145.1 L111.3,143.1 L111.5,142.8 L111.7,142.8 L111.9,142.6 
		L112.1,139.6 L112.3,142.2 L112.5,142.3 L112.8,139.8 L113.0,139.6 L113.2,135.5 L113.4,135.8 L113.6,135.8 
		L113.8,132.6 L114.0,133.1 L114.3,135.4 L114.5,135.8 L114.7,140.3 L114.9,140.3 L115.1,139.7 L115.3,139.4 
		L115.5,138.7 L115.8,136.2 L116.0,136.1 L116.2,134.7 L116.4,133.5 L116.6,133.2 L116.8,131.6 L117.1,130.0 
		L117.3,128.7 L117.5,131.0 L117.7,134.3 L117.9,144.8 L118.1,152.2 L118.3,152.2 L118.6,152.2 L118.8,152.1 
		L119.0,147.0 L119.2,145.6 L119.4,144.6 L119.6,144.0 L119.8,148.0 L120.1,152.3 L120.3,155.2 L120.5,156.0 
		L120.7,156.1 L120.9,156.0 L121.1,155.9 L121.3,155.9 L121.6,155.7 L121.8,153.0 L122.0,151.2 L122.2,147.5 
		L122.4,148.0 L122.6,148.0 L122.8,147.7 L123.1,147.4 L123.3,143.5 L123.5,142.9 L123.7,143.3 L123.9,146.8 
		L124.1,148.3 L124.4,150.0 L124.6,150.7 L124.8,150.6 L125.0,150.2 L125.2,153.4 L125.4,154.1 L125.6,154.4 
		L125.9,154.5 L126.1,154.3 L126.3,153.6 L126.5,150.0 L126.7,154.3 L126.9,156.5 L127.1,156.3 L127.4,156.2 
		L127.6,156.0 L127.8,154.0 L128.0,154.4 L128.2,154.7 L128.4,155.5 L128.6,155.5 L128.9,155.5 L129.1,153.1 
		L129.3,152.3 L129.5,154.7 L129.7,155.5 L129.9,155.2 L130.2,154.5 L130.4,154.0 L130.6,153.8 L130.8,152.4 
		L131.0,153.0 L131.2,153.3 L131.4,152.8 L131.7,152.6 L131.9,150.2 L132.1,150.1 L132.3,149.5 L132.5,147.5 
		L132.7,146.3 L132.9,145.9 L133.2,144.8 L133.4,147.6 L133.6,149.6 L133.8,150.0 L134.0,150.9 L134.2,151.2 
		L134.4,151.1 L134.7,150.7 L134.9,149.2 L135.1,150.9 L135.3,152.4 L135.5,153.6 L135.7,153.7 L135.9,153.5 
		L136.2,154.6 L136.4,154.9 L136.6,154.9 L136.8,157.4 L137.0,158.8 L137.2,158.9 L137.5,158.9 L137.7,158.9 
		L137.9,158.4 L138.1,155.5 L138.3,155.7 L138.5,155.7 L138.7,154.5 L139.0,157.1 L139.2,159.2 L139.4,159.3 
		L139.6,159.7 L139.8,159.2 L140.0,159.5 L140.2,161.6 L140.5,161.6 L140.7,160.8 L140.9,160.8 L141.1,160.8 
		L141.3,160.4 L141.5,156.7 L141.7,156.7 L142.0,156.6 L142.2,155.5 L142.4,154.6 L142.6,153.7 L142.8,152.9 
		L143.0,151.0 L143.2,151.4 L143.5,152.0 L143.7,152.7 L143.9,152.7 L144.1,152.2 L144.3,151.7 L144.5,151.5 
		L144.8,151.5 L145.0,150.3 L145.2,150.1 L145.4,151.2 L145.6,151.4 L145.8,152.4 L146.0,152.4 L146.3,151.5 
		L146.5,151.9 L146.7,151.7 L146.9,151.4 L147.1,151.4 L147.3,151.4 L147.5,151.1 L147.8,151.1 L148.0,151.1 
		L148.2,151.0 L148.4,150.8 L148.6,149.8 L148.8,148.1 L149.0,139.6 L149.3,141.2 L149.5,141.9 L149.7,142.0 
		L149.9,141.9 L150.1,140.8 L150.3,139.5 L150.5,140.3 L150.8,141.3 L151.0,141.3 L151.2,141.0 L151.4,139.7 
		L151.6,140.1 L151.8,139.7 L152.0,140.5 L152.3,141.2 L152.5,141.1 L152.7,141.1 L152.9,140.9 L153.1,139.2 
		L153.3,138.9 L153.6,138.9 L153.8,136.9 L154.0,137.0 L154.2,137.1 L154.4,136.6 L154.6,137.1 L154.8,137.1 
		L155.1,137.1 L155.3,136.6 L155.5,134.2 L155.7,136.1 L155.9,136.3 L156.1,136.1 L156.3,136.3 L156.6,136.0 
		L156.8,135.9 L157.0,135.5 L157.2,135.2 L157.4,133.9 L157.6,133.8 L157.8,135.4 L158.1,136.9 L158.3,139.5 
		L158.5,139.7 L158.7,139.5 L158.9,140.2 L159.1,140.3 L159.3,141.0 L159.6,141.2 L159.8,142.6 L160.0,143.3 
		L160.2,143.4 L160.4,143.2 L160.6,142.3 L160.9,142.4 L161.1,142.9 L161.3,144.2 L161.5,144.2 L161.7,146.2 
		L161.9,146.4 L162.1,146.3 L162.4,146.9 L162.6,148.2 L162.8,148.6 L163.0,150.7 L163.2,151.3 L163.4,151.3 
		L163.6,150.6 L163.9,150.6 L164.1,150.1 L164.3,149.7 L164.5,148.2 L164.7,149.1 L164.9,149.7 L165.1,149.7 
		L165.4,149.8 L165.6,149.8 L165.8,149.8 L166.0,149.8 L166.2,148.7 L166.4,148.7 L166.6,148.7 L166.9,148.3 
		L167.1,148.9 L167.3,148.7 L167.5,149.0 L167.7,149.0 L167.9,148.4 L168.2,149.7 L168.4,150.2 L168.6,150.4 
		L168.8,150.3 L169.0,150.3 L169.2,150.3 L169.4,149.9 L169.7,149.7 L169.9,147.0 L170.1,147.2 L170.3,147.2 
		L170.5,147.6 L170.7,149.0 L170.9,149.0 L171.2,148.9 L171.4,148.3 L171.6,147.5 L171.8,147.5 L172.0,147.5 
		L172.2,146.2 L172.4,145.0 L172.7,145.6 L172.9,146.8 L173.1,147.2 L173.3,147.3 L173.5,147.0 L173.7,147.6 
		L173.9,149.3 L174.2,149.9 L174.4,152.4 L174.6,154.1 L174.8,155.7 L175.0,158.3 L175.2,158.5 L175.4,160.0 
		L175.7,160.2 L175.9,161.4 L176.1,161.6 L176.3,161.4 L176.5,161.8 L176.7,161.6 L177.0,161.9 L177.2,162.0 
		L177.4,161.6 L177.6,162.7 L177.8,163.6 L178.0,164.0 L178.2,164.5 L178.5,165.2 L178.7,165.2 L178.9,165.2 
		L179.1,165.2 L179.3,163.8 L179.5,164.1 L179.7,164.1 L180.0,164.1 L180.2,163.8 L180.4,163.2 L180.6,162.2 
		L180.8,162.0 L181.0,162.3 L181.2,162.8 L181.5,162.9 L181.7,162.9 L181.9,162.6 L182.1,162.5 L182.3,162.5 
		L182.5,162.4 L182.7,159.7 L183.0,158.8 L183.2,158.5 L183.4,158.3 L183.6,157.8 L183.8,158.7 L184.0,158.8 
		L184.3,159.5 L184.5,159.4 L184.7,160.8 L184.9,161.9 L185.1,163.6 L185.3,164.4 L185.5,164.3 L185.8,166.1 
		L186.0,168.3 L186.2,168.5 L186.4,168.6 L186.6,168.6 L186.8,168.6 L187.0,167.4 L187.3,168.3 L187.5,168.9 
		L187.7,169.0 L187.9,168.8 L188.1,168.7 L188.3,169.0 L188.5,169.9 L188.8,170.1 L189.0,171.2 L189.2,172.0 
		L189.4,172.3 L189.6,173.3 L189.8,175.3 L190.0,175.6 L190.3,175.3 L190.5,175.1 L190.7,176.3 L190.9,176.9 
		L191.1,177.6 L191.3,177.8 L191.6,177.8 L191.8,177.7 L192.0,176.3 L192.2,178.1 L192.4,178.3 L192.6,178.3 
		L192.8,177.8 L193.1,177.8 L193.3,178.7 L193.5,178.9 L193.7,178.9 L193.9,178.9 L194.1,178.0 L194.3,177.8 
		L194.6,177.9 L194.8,177.7 L195.0,178.1 L195.2,178.2 L195.4,178.1 L195.6,177.8 L195.8,178.1 L196.1,178.0 
		L196.3,177.8 L196.5,178.0 L196.7,178.6 L196.9,178.6 L197.1,178.6 L197.3,177.8 L197.6,177.4 L197.8,178.0 
		L198.0,178.0 L198.2,178.0 L198.4,178.7 L198.6,178.7 L198.9,179.2 L199.1,180.0 L199.3,180.7 L199.5,180.8 
		L199.7,180.5 L199.9,180.7 L200.1,180.7 L200.4,179.8 L200.6,179.8 L200.8,179.4 L201.0,180.1 L201.2,180.1 
		L201.4,180.1 L201.6,179.8 L201.9,179.3 L202.1,179.6 L202.3,181.7 L202.5,181.9 L202.7,182.9 L202.9,183.2 
		L203.1,184.0 L203.4,184.3 L203.6,184.3 L203.8,184.0 L204.0,184.3 L204.2,184.2 L204.4,184.2 L204.6,184.2 
		L204.9,183.4 L205.1,183.6 L205.3,183.6 L205.5,183.4 L205.7,183.3 L205.9,183.3 L206.1,183.0 L206.4,182.9 
		L206.6,182.9 L206.8,182.8 L207.0,182.8 L207.2,182.8 L207.4,178.8 L207.7,178.9 L207.9,179.3 L208.1,179.6 
		L208.3,180.5 L208.5,180.8 L208.7,180.8 L208.9,180.7 L209.2,180.7 L209.4,180.7 L209.6,180.7 L209.8,179.2 
		L210.0,179.6 L210.2,179.6 L210.4,179.3 L210.7,179.2 L210.9,179.2 L211.1,179.6 L211.3,179.5 L211.5,179.4 
		L211.7,179.3 L211.9,178.5 L212.2,178.3 L212.4,178.6 L212.6,178.6 L212.8,178.6 L213.0,179.4 L213.2,179.6 
		L213.4,179.7 L213.7,179.9 L213.9,180.3 L214.1,180.5 L214.3,180.2 L214.5,180.7 L214.7,180.8 L215.0,182.1 
		L215.2,183.5 L215.4,183.7 L215.6,183.7 L215.8,183.2 L216.0,182.9 L216.2,183.0 L216.5,182.7 L216.7,183.2 
		L216.9,183.4 L217.1,183.6 L217.3,183.6 L217.5,183.6 L217.7,182.7 L218.0,182.8 L218.2,182.7 L218.4,182.7 
		L218.6,181.7 L218.8,181.7 L219.0,181.9 L219.2,182.7 L219.5,183.0 L219.7,183.3 L219.9,183.4 L220.1,183.4 
		L220.3,183.5 L220.5,183.5 L220.7,184.1 L221.0,184.4 L221.2,184.4 L221.4,184.2 L221.6,184.2 L221.8,184.3 
		L222.0,184.5 L222.3,185.5 L222.5,186.7 L222.7,186.9 L222.9,186.9 L223.1,186.8 L223.3,186.3 L223.5,186.3 
		L223.8,186.4 L224.0,187.0 L224.2,187.8 L224.4,188.1 L224.6,188.2 L224.8,188.2 L225.0,188.1 L225.3,187.9 
		L225.5,188.2 L225.7,188.6 L225.9,189.2 L226.1,189.6 L226.3,189.6 L226.5,189.6 L226.8,189.6 L227.0,189.1 
		L227.2,189.2 L227.4,189.9 L227.6,189.8 L227.8,189.8 L228.0,189.7 L228.3,189.7 L228.5,189.8 L228.7,189.8 
		L228.9,190.1 L229.1,190.4 L229.3,190.8 L229.5,190.8 L229.8,190.8 L230.0,190.5 L230.2,190.6 L230.4,190.6 
		L230.6,190.5 L230.8,190.8 L231.1,191.3 L231.3,191.5 L231.5,191.5 L231.7,192.1 L231.9,192.0 L232.1,192.8 
		L232.3,193.0 L232.6,193.0 L232.8,192.8 L233.0,192.5 L233.2,193.1 L233.4,193.2 L233.6,193.0 L233.8,193.1 
		L234.1,193.1 L234.3,193.2 L234.5,193.6 L234.7,193.6 L234.9,193.6 L235.1,193.9 L235.3,194.5 L235.6,194.9 
		L235.8,194.9 L236.0,194.9 L236.2,194.7 L236.4,194.5 L236.6,194.1 L236.8,194.0 L237.1,193.9 L237.3,193.9 
		L237.5,193.8 L237.7,193.6 L237.9,192.6 L238.1,192.3 L238.4,192.3 L238.6,192.2 L238.8,191.6 L239.0,191.5 
		L239.2,191.3 L239.4,191.3 L239.6,191.3 L239.9,191.3 L240.1,191.3 L240.3,191.2 L240.5,191.9 L240.7,192.5 
		L240.9,192.5 L241.1,192.5 L241.4,192.9 L241.6,193.4 L241.8,193.6 L242.0,193.6 L242.2,193.5 L242.4,193.3 
		L242.6,193.1 L242.9,192.6 L243.1,192.6 L243.3,193.5 L243.5,194.1 L243.7,194.4 L243.9,194.4 L244.1,194.3 
		L244.4,194.3 L244.6,194.1 L244.8,193.5 L245.0,193.3 L245.2,193.1 L245.4,192.8 L245.7,192.5 L245.9,192.5 
		L246.1,192.6 L246.3,192.7 L246.5,192.6 L246.7,192.3 L246.9,192.2 L247.2,192.7 L247.4,192.9 L247.6,192.9 
		L247.8,192.5 L248.0,192.5 L248.2,192.5 L248.4,192.5 L248.7,192.5 L248.9,192.5 L249.1,192.5 L249.3,192.5 
		L249.5,192.6 L249.7,192.6 L249.9,192.6 L250.2,193.0 L250.4,193.5 L250.6,194.1 L250.8,194.7 L251.0,195.1 
		L251.2,195.0 L251.4,195.4 L251.7,195.6 L251.9,195.7 L252.1,195.8 L252.3,196.1 L252.5,196.1 L252.7,196.1 
		L252.9,196.0 L253.2,195.6 L253.4,196.2 L253.6,196.6 L253.8,196.8 L254.0,196.7 L254.2,197.1 L254.4,197.1 
		L254.7,197.1 L254.9,197.4 L255.1,197.8 L255.3,197.9 L255.5,197.8 L255.7,197.6 L256.0,197.5 L256.2,197.5 
		L256.4,197.4 L256.6,197.3 L256.8,197.0 L257.0,197.3 L257.2,197.7 L257.5,198.0 L257.7,198.0 L257.9,197.9 
		L258.1,197.9 L258.3,198.4 L258.5,198.6 L258.7,198.7 L259.0,198.6 L259.2,198.6 L259.4,199.1 L259.6,199.3 
		L259.8,199.3 L260.0,199.2 L260.2,199.0 L260.5,199.1 L260.7,199.1 L260.9,199.1 L261.1,198.9 L261.3,199.6 
		L261.5,199.6 L261.7,200.0 L262.0,200.7 L262.2,200.9 L262.4,200.9 L262.6,200.8 L262.8,200.6 L263.0,200.6 
		L263.3,200.6 L263.5,200.3 L263.7,200.5 L263.9,200.7 L264.1,200.7 L264.3,200.4 L264.5,200.5 L264.8,200.8 
		L265.0,200.8 L265.2,200.7 L265.4,200.4 L265.6,200.5 L265.8,200.5 L266.0,200.8 L266.3,200.7 L266.5,200.7 
		L266.7,200.8 L266.9,200.8 L267.1,200.5 L267.3,200.6 L267.5,200.6 L267.8,200.6 L268.0,200.6 L268.2,200.6 
		L268.4,200.6 L268.6,200.6 L268.8,200.6 L269.0,200.6 L269.3,200.7 L269.5,200.7 L269.7,200.7 L269.9,200.7 
		L270.1,200.7 L270.3,200.7 L270.5,200.7 L270.8,200.9 L271.0,200.9 L271.2,200.9 L271.4,200.9 L271.6,200.8 
		L271.8,201.1 L272.1,201.4 L272.3,201.4 L272.5,201.4 L272.7,201.5 L272.9,201.5 L273.1,201.5 L273.3,201.5 
		L273.6,201.4 L273.8,201.2 L274.0,201.4 L274.2,201.6 L274.4,201.9 L274.6,201.9 L274.8,201.9 L275.1,201.8 
		L275.3,201.9 L275.5,202.2 L275.7,202.3 L275.9,203.0 L276.1,203.0 L276.3,202.9 L276.6,202.8 L276.8,202.8 
		L277.0,202.8 L277.2,202.8 L277.4,202.9 L277.6,202.9 L277.8,202.8 L278.1,202.8 L278.3,202.8 L278.5,202.8 
		L278.7,202.8 L278.9,202.9 L279.1,202.9 L279.4,202.9 L279.6,202.9 L279.8,202.9 L280.0,202.9 L280.2,202.9 
		L280.4,202.9 L280.6,202.9 L280.9,203.0 L281.1,203.0 L281.3,203.1 L281.5,203.1 L281.7,203.1 L281.9,203.1 
		L282.1,203.1 L282.4,203.1 L282.6,203.1 L282.8,203.1 L283.0,203.1 L283.2,203.2 L283.4,203.2 L283.6,203.2 
		L283.9,203.2 L284.1,203.4 L284.3,203.6 L284.5,203.7 L284.7,203.8 L284.9,204.0 L285.1,204.1 L285.4,204.6 
		L285.6,204.9 L285.8,204.9 L286.0,205.3 L286.2,205.3 L286.4,205.3 L286.7,205.3 L286.9,205.3 L287.1,205.3 
		L287.3,205.6 L287.5,206.1 L287.7,206.2 L287.9,206.5 L288.2,206.8 L288.4,206.8 L288.6,206.6 L288.8,206.6 
		L289.0,206.6 L289.2,206.6 L289.4,206.8 L289.7,207.0 L289.9,207.0 L290.1,206.9 L290.3,207.0 L290.5,207.0 
		L290.7,207.5 L290.9,207.8 L291.2,207.8 L291.4,207.6 L291.6,207.6 L291.8,207.6 L292.0,207.6 L292.2,207.3 
		L292.4,207.4 L292.7,207.4 L292.9,207.4 L293.1,207.2 L293.3,207.2 L293.5,207.2 L293.7,207.5 L293.9,207.6 
		L294.2,207.6 L294.4,207.6 L294.6,207.6 L294.8,207.9 L295.0,207.9 L295.2,207.9 L295.5,207.6 L295.7,207.6 
		L295.9,207.6 L296.1,207.6 L296.3,207.6 L296.5,208.1 L296.7,208.2 L297.0,208.9 L297.2,209.0 L297.4,209.0 
		L297.6,208.9 L297.8,208.9 L298.0,208.8 L298.2,208.6 L298.5,208.9 L298.7,208.9 L298.9,208.8 L299.1,208.8 
		L299.3,209.0 L299.5,209.1 L299.7,209.3 L300.0,209.6 L300.2,209.7 L300.4,209.7 L300.6,209.6 L300.8,209.8 
		L301.0,209.8 L301.2,209.8 L301.5,210.0 L301.7,210.0 L301.9,210.1 L302.1,210.0 L302.3,209.9 L302.5,209.9 
		L302.8,209.5 L303.0,209.5 L303.2,209.5 L303.4,209.1 L303.6,209.0 L303.8,208.8 L304.0,208.9 L304.3,209.0 
		L304.5,209.3 L304.7,209.2 L304.9,209.3 L305.1,209.5 L305.3,209.5 L305.5,209.3 L305.8,209.3 L306.0,209.3 
		L306.2,209.2 L306.4,208.9 L306.6,208.9 L306.8,208.9 L307.0,208.9 L307.3,208.5 L307.5,208.6 L307.7,208.6 
		L307.9,208.6 L308.1,208.2 L308.3,208.3 L308.5,208.4 L308.8,208.4 L309.0,208.2 L309.2,208.3 L309.4,208.3 
		L309.6,208.2 L309.8,208.1 L310.1,208.0 L310.3,208.0 L310.5,208.0 L310.7,208.3 L310.9,208.4 L311.1,208.7 
		L311.3,208.8 L311.6,208.8 L311.8,208.6 L312.0,208.5 L312.2,208.2 L312.4,208.2 L312.6,208.0 L312.8,208.0 
		L313.1,208.3 L313.3,208.3 L313.5,208.3 L313.7,208.8 L313.9,208.8 L314.1,208.7 L314.3,208.7 L314.6,208.2 
		L314.8,208.0 L315.0,208.0 L315.2,208.0 L315.4,207.6 L315.6,208.0 L315.8,208.1 L316.1,208.6 L316.3,208.6 
		L316.5,208.4 L316.7,208.4 L316.9,208.4 L317.1,208.3 L317.3,208.2 L317.6,208.1 L317.8,208.4 L318.0,208.8 
		L318.2,209.3 L318.4,209.9 L318.6,210.1 L318.9,210.5 L319.1,210.8 L319.3,211.4 L319.5,211.9 L319.7,212.0 
		L319.9,212.0 L320.1,211.9 L320.4,211.6 L320.6,211.7 L320.8,211.9 L321.0,211.9 L321.2,211.9 L321.4,211.9 
		L321.6,211.2 L321.9,211.0 L322.1,211.3 L322.3,211.3 L322.5,211.2 L322.7,211.0 L322.9,210.9 L323.1,210.9 
		L323.4,210.9 L323.6,210.7 L323.8,210.2 L324.0,210.2 L324.2,210.1 L324.4,210.0 L324.6,210.0 L324.9,209.4 
		L325.1,209.8 L325.3,209.8 L325.5,209.9 L325.7,210.0 L325.9,210.4 L326.2,210.4 L326.4,210.5 L326.6,210.5 
		L326.8,210.4 L327.0,210.3 L327.2,210.1 L327.4,210.0 L327.7,209.9 L327.9,209.0 L328.1,209.5 L328.3,209.7 
		L328.5,210.2 L328.7,210.3 L328.9,210.2 L329.2,210.2 L329.4,210.1 L329.6,210.1 L329.8,209.5 L330.0,208.8 
		L330.2,209.2 L330.4,209.6 L330.7,209.6 L330.9,209.8 L331.1,209.9 L331.3,209.9 L331.5,209.9 L331.7,209.8 
		L331.9,208.9 L332.2,209.0 L332.4,209.0 L332.6,209.3 L332.8,209.4 L333.0,209.4 L333.2,209.5 L333.5,209.5 
		L333.7,209.3 L333.9,209.4 L334.1,209.3 L334.3,209.3 L334.5,209.3 L334.7,209.1 L335.0,209.0 L335.2,208.8 
		L335.4,208.5 L335.6,208.4 L335.8,208.6 L336.0,208.8 L336.2,208.8 L336.5,208.7 L336.7,208.7 L336.9,208.6 
		L337.1,208.6 L337.3,208.5 L337.5,207.8 L337.7,207.7 L338.0,207.5 L338.2,207.4 L338.4,207.1 L338.6,207.1 
		L338.8,207.0 L339.0,206.9 L339.2,206.6 L339.5,206.5 L339.7,206.5 L339.9,206.3 L340.1,206.1 L340.3,206.1 
		L340.5,206.1 L340.7,205.5 L341.0,205.2 L341.2,205.2 L341.4,205.2 L341.6,204.1 L341.8,203.7 L342.0,203.5 
		L342.3,203.9 L342.5,203.9 L342.7,203.8 L342.9,203.7 L343.1,203.7 L343.3,203.7 L343.5,203.0 L343.8,202.8 
		L344.0,202.5 L344.2,203.2 L344.4,203.4 L344.6,203.4 L344.8,203.4 L345.0,203.4 L345.3,203.0 L345.5,203.0 
		L345.7,202.4 L345.9,202.4 L346.1,202.4 L346.3,202.7 L346.5,202.9 L346.8,202.8 L347.0,202.7 L347.2,203.0 
		L347.4,203.1 L347.6,203.1 L347.8,203.0 L348.0,203.0 L348.3,202.9 L348.5,202.8 L348.7,202.7 L348.9,202.7 
		L349.1,201.9 L349.3,202.0 L349.6,202.2 L349.8,202.2 L350.0,202.2 L350.2,202.3 L350.4,202.3 L350.6,202.3 
		L350.8,202.3 L351.1,202.1 L351.3,202.3 L351.5,202.3 L351.7,202.2 L351.9,202.1 L352.1,202.4 L352.3,202.6 
		L352.6,202.6 L352.8,202.4 L353.0,202.2 L353.2,202.1 L353.4,202.1 L353.6,201.8 L353.8,201.3 L354.1,201.2 
		L354.3,201.2 L354.5,201.2 L354.7,201.3 L354.9,201.3 L355.1,201.0 L355.3,200.8 L355.6,200.6 L355.8,200.5 
		L356.0,200.4 L356.2,200.1 L356.4,200.1 L356.6,200.1 L356.9,200.1 L357.1,199.9 L357.3,199.8 L357.5,199.4 
		L357.7,199.4 L357.9,199.1 L358.1,199.0 L358.4,199.6 L358.6,199.6 L358.8,199.6 L359.0,199.5 L359.2,199.2 
		L359.4,198.9 L359.6,198.9 L359.9,199.0 L360.1,199.0 L360.3,199.0 L360.5,198.9 L360.7,198.9 L360.9,198.9 
		L361.1,197.8 L361.4,197.8 L361.6,197.6 L361.8,197.5 L362.0,197.5 L362.2,197.3 L362.4,197.1 L362.6,197.2 
		L362.9,197.1 L363.1,197.3 L363.3,197.4 L363.5,197.4 L363.7,197.4 L363.9,197.3 L364.2,197.6 L364.4,197.6 
		L364.6,197.6 L364.8,197.3 L365.0,197.0 L365.2,197.0 L365.4,197.0 L365.7,196.7 L365.9,196.8 L366.1,196.7 
		L366.3,196.9 L366.5,197.1 L366.7,197.3 L366.9,197.3 L367.2,197.3 L367.4,197.3 L367.6,197.3 L367.8,197.3 
		L368.0,196.7 L368.2,196.5 L368.4,196.6 L368.7,196.7 L368.9,196.6 L369.1,196.6 L369.3,196.6 L369.5,196.3 
		L369.7,196.2 L369.9,196.1 L370.2,196.0 L370.4,196.0 L370.6,195.9 L370.8,196.2 L371.0,196.3 L371.2,196.1 
		L371.4,196.1 L371.7,196.0 L371.9,195.6 L372.1,195.6 L372.3,195.5 L372.5,195.4 L372.7,195.3 L373.0,195.2 
		L373.2,195.0 L373.4,195.0 L373.6,195.1 L373.8,195.1 L374.0,194.7 L374.2,195.1 L374.5,195.2 L374.7,195.2 
		L374.9,195.1 L375.1,194.7 L375.3,194.8 L375.5,195.0 L375.7,194.9 L376.0,195.0 L376.2,194.9 L376.4,194.9 
		L376.6,194.8 L376.8,194.9 L377.0,194.8 L377.2,194.6 L377.5,194.9 L377.7,194.9 L377.9,194.8 L378.1,194.8 
		L378.3,194.2 L378.5,194.2 L378.7,194.1 L379.0,193.9 L379.2,193.7 L379.4,193.6 L379.6,193.3 L379.8,193.4 
		L380.0,193.4 L380.3,193.1 L380.5,193.1 L380.7,193.0 L380.9,193.2 L381.1,193.2 L381.3,193.2 L381.5,193.2 
		L381.8,193.1 L382.0,193.0 L382.2,192.9 L382.4,192.3 L382.6,192.0 L382.8,192.0 L383.0,191.9 L383.3,192.7 
		L383.5,192.8 L383.7,192.8 L383.9,192.8 L384.1,192.8 L384.3,192.3 L384.5,192.4 L384.8,192.8 L385.0,193.4 
		L385.2,193.7 L385.4,193.7 L385.6,193.6 L385.8,193.8 L386.0,193.8 L386.3,193.6 L386.5,193.5 L386.7,193.4 
		L386.9,193.6 L387.1,193.6 L387.3,193.5 L387.6,193.5 L387.8,193.2 L388.0,193.2 L388.2,193.2 L388.4,193.1 
		L388.6,193.2 L388.8,193.5 L389.1,193.6 L389.3,193.6 L389.5,193.4 L389.7,193.8 L389.9,194.0 L390.1,194.1 
		L390.3,194.2 L390.6,194.1 L390.8,194.2 L391.0,194.1 L391.2,194.1 L391.4,194.5 L391.6,194.5 L391.8,194.6 
		L392.1,194.6 L392.3,194.8 L392.5,194.9 L392.7,195.1 L392.9,195.2 L393.1,195.2 L393.3,195.2 L393.6,195.7 
		L393.8,195.8 L394.0,196.0 L394.2,196.0 L394.4,196.0 L394.6,195.9 L394.8,195.2 L395.1,195.2 L395.3,195.2 
		L395.5,195.0 L395.7,194.9 L395.9,194.8 L396.1,194.8 L396.4,194.5 L396.6,194.2 L396.8,194.2 L397.0,194.3 
		L397.2,194.2 L397.4,194.3 L397.6,194.1 L397.9,194.5 L398.1,194.5 L398.3,194.5 L398.5,194.3 L398.7,194.1 
		L398.9,194.1 L399.1,194.1 L399.4,194.0 L399.6,193.8 L399.8,193.5 L400.0,193.5 L400.2,193.5 L400.4,193.5 
		L400.6,193.5 L400.9,193.3 L401.1,193.3 L401.3,193.7 L401.5,193.9 L401.7,193.8 L401.9,193.8 L402.1,193.7 
		L402.4,193.7 L402.6,193.5 L402.8,193.7 L403.0,193.7 L403.2,193.5 L403.4,193.5 L403.7,193.1 L403.9,193.7 
		L404.1,193.8 L404.3,193.8 L404.5,193.8 L404.7,193.7 L404.9,193.7 L405.2,193.1 L405.4,193.0 L405.6,193.1 
		L405.8,193.1 L406.0,192.9 L406.2,192.8 L406.4,192.7 L406.7,192.7 L406.9,192.5 L407.1,192.1 L407.3,192.3 
		L407.5,192.3 L407.7,192.3 L407.9,192.2 L408.2,192.2 L408.4,192.2 L408.6,191.6 L408.8,191.6 L409.0,191.6 
		L409.2,191.6 L409.4,191.2 L409.7,191.2 L409.9,191.4 L410.1,191.4 L410.3,191.3 L410.5,191.2 L410.7,191.2 
		L411.0,191.2 L411.2,191.2 L411.4,191.1 L411.6,190.8 L411.8,190.9 L412.0,190.9 L412.2,190.8 L412.5,190.7 
		L412.7,190.7 L412.9,190.6 L413.1,190.4 L413.3,190.5 L413.5,190.5 L413.7,190.5 L414.0,190.2 L414.2,190.4 
		L414.4,190.4 L414.6,190.3 L414.8,190.2 L415.0,190.3 L415.2,190.2 L415.5,190.3 L415.7,190.1 L415.9,190.3 
		L416.1,190.3 L416.3,190.3 L416.5,190.1 L416.7,190.3 L417.0,190.3 L417.2,190.3 L417.4,190.4 L417.6,190.3 
		L417.8,190.2 L418.0,190.2 L418.2,190.2 L418.5,190.1 L418.7,189.6 L418.9,189.2 L419.1,189.2 L419.3,189.3 
		L419.5,189.5 L419.8,189.9 L420.0,189.9 L420.2,189.9 L420.4,189.8 L420.6,190.0 L420.8,190.1 L421.0,190.1 
		L421.3,189.9 L421.5,189.7 L421.7,189.7 L421.9,189.6 L422.1,189.4 L422.3,189.0 L422.5,188.8 L422.8,188.9 
		L423.0,188.9 L423.2,188.8 L423.4,188.8 L423.6,188.9 L423.8,189.0 L424.0,189.1 L424.3,189.1 L424.5,189.1 
		L424.7,189.1 L424.9,189.1 L425.1,188.3 L425.3,189.2 L425.5,189.2 L425.8,189.2 L426.0,189.0 L426.2,189.1 
		L426.4,189.1 L426.6,189.1 L426.8,189.1 L427.1,189.1 L427.3,189.1 L427.5,189.1 L427.7,189.1 L427.9,189.1 
		L428.1,189.1 L428.3,189.1 L428.6,189.1 L428.8,189.1 L429.0,189.2 L429.2,189.3 L429.4,189.3 L429.6,189.3 
		L429.8,189.3 L430.1,189.3 L430.3,189.3 L430.5,189.7 L430.7,189.8 L430.9,189.8 L431.1,189.8 L431.3,189.7 
		L431.6,189.9 L431.8,190.1 L432.0,190.3 L432.2,190.7 L432.4,190.9 L432.6,191.1 L432.8,191.1 L433.1,191.1 
		L433.3,191.1 L433.5,190.8 L433.7,190.9 L433.9,190.9 L434.1,190.9 L434.4,190.9 L434.6,191.1 L434.8,191.4 
		L435.0,191.6 L435.2,191.6 L435.4,191.8 L435.6,191.8 L435.9,191.7 L436.1,191.7 L436.3,191.6 L436.5,191.9 
		L436.7,191.9 L436.9,191.9 L437.1,191.7 L437.4,191.8 L437.6,191.9 L437.8,191.9 L438.0,191.9 L438.2,192.1 
		L438.4,192.1 L438.6,192.0 L438.9,192.0 L439.1,191.9 L439.3,191.9 L439.5,192.0 L439.7,192.0 L439.9,192.6 
		L440.1,192.7 L440.4,192.7 L440.6,192.6 L440.8,192.6 L441.0,192.5 L441.2,192.5 L441.4,192.6 L441.6,192.7 
		L441.9,192.8 L442.1,193.0 L442.3,192.9 L442.5,193.0 L442.7,193.0 L442.9,192.9 L443.2,192.7 L443.4,193.0 
		L443.6,193.2 L443.8,193.5 L444.0,193.5 L444.2,193.4 L444.4,193.5 L444.7,193.6 L444.9,193.6 L445.1,193.6 
		L445.3,193.6 L445.5,193.5 L445.7,193.2 L445.9,193.2 L446.2,192.6 L446.4,192.6 L446.6,192.6 L446.8,192.3 
		L447.0,192.3 L447.2,192.3 L447.4,192.3 L447.7,192.3 L447.9,192.2 L448.1,191.8 L448.3,191.9 L448.5,192.0 
		L448.7,192.0 L448.9,192.2 L449.2,192.2 L449.4,192.2 L449.6,192.1 L449.8,192.3 L450.0,192.4 L450.2,192.4 
		L450.5,192.3 L450.7,192.3 L450.9,192.2 L451.1,192.2 L451.3,191.7 L451.5,191.7 L451.7,191.6 L452.0,191.1 
		L452.2,191.3 L452.4,191.3 L452.6,191.3 L452.8,191.1 L453.0,191.1 L453.2,191.1 L453.5,191.2 L453.7,191.6 
		L453.9,191.7 L454.1,191.6 L454.3,191.6 L454.5,191.5 L454.7,191.5 L455.0,191.5 L455.2,191.1 L455.4,190.8 
		L455.6,190.9 L455.8,190.9 L456.0,190.9 L456.2,191.0 L456.5,191.0 L456.7,190.8 L456.9,190.9 L457.1,190.9 
		L457.3,190.8 L457.5,190.9 L457.8,190.9 L458.0,190.9 L458.2,190.8 L458.4,190.8 L458.6,190.5 L458.8,190.5 
		L459.0,189.9 L459.3,190.1 L459.5,190.1 L459.7,190.2 L459.9,190.2 L460.1,190.2 L460.3,190.1 L460.5,189.8 
		L460.8,189.8 L461.0,189.9 L461.2,189.9 L461.4,189.8 L461.6,189.8 L461.8,189.8 L462.0,189.7 L462.3,189.7 
		L462.5,189.5 L462.7,189.5 L462.9,189.5 L463.1,189.3 L463.3,189.7 L463.5,189.9 L463.8,190.1 L464.0,190.1 
		L464.2,190.1 L464.4,190.1 L464.6,190.1 L464.8,190.1 L465.1,189.7 L465.3,189.7 L465.5,189.6 L465.7,189.6 
		L465.9,189.6 L466.1,189.4 L466.3,189.2 L466.6,189.2 L466.8,189.3 L467.0,189.4 L467.2,189.4 L467.4,189.4 
		L467.6,189.2 L467.8,189.2 L468.1,189.5 L468.3,189.5 L468.5,189.5 L468.7,189.4 L468.9,189.4 L469.1,189.4 
		L469.3,189.9 L469.6,190.2 L469.8,190.5 L470.0,190.6 L470.2,190.8 L470.4,190.8 L470.6,190.5 L470.8,190.7 
		L471.1,190.8 L471.3,190.8 L471.5,190.8 L471.7,190.4 L471.9,190.3 L472.1,190.4 L472.3,190.4 L472.6,190.1 
		L472.8,190.3 L473.0,190.4 L473.2,190.6 L473.4,190.8 L473.6,191.1 L473.9,191.0 L474.1,191.0 L474.3,190.8 
		L474.5,190.9 L474.7,190.9 L474.9,190.8 L475.1,190.8 L475.4,190.7 L475.6,190.5 L475.8,190.6 L476.0,190.6 
		L476.2,190.6 L476.4,190.5 L476.6,190.6 L476.9,190.7 L477.1,190.6 L477.3,190.6 L477.5,190.6 L477.7,190.2 
		L477.9,190.1 L478.1,190.1 L478.4,189.9 L478.6,189.9 L478.8,189.9 L479.0,189.7 L479.2,189.8 L479.4,189.8 
		L479.6,189.8 L479.9,189.9 L480.1,189.9 L480.3,189.9 L480.5,189.8 L480.7,189.9 L480.9,189.8 L481.2,189.8 
		L481.4,189.8 L481.6,189.8 L481.8,189.8 L482.0,189.2 L482.2,189.0 L482.4,189.1 L482.7,189.1 L482.9,189.0 
		L483.1,189.0 L483.3,189.0 L483.5,189.0 L483.7,189.0 L483.9,188.9 L484.2,188.9 L484.4,188.9 L484.6,188.9 
		L484.8,188.9 L485.0,188.9 L485.2,188.9 L485.4,188.9 L485.7,188.9 L485.9,188.9 L486.1,188.9 L486.3,189.0 
		L486.5,189.0 L486.7,189.0 L486.9,189.0 L487.2,189.1 L487.4,189.2 L487.6,189.3 L487.8,189.4 L488.0,189.7 
		L488.2,189.7 L488.5,189.7 L488.7,189.6 L488.9,189.6 L489.1,189.4 L489.3,189.4 L489.5,189.4 L489.7,189.4 
		L490.0,189.3 L490.2,189.4 L490.4,189.7 L490.6,189.9 L490.8,190.3 L491.0,190.5 L491.2,190.6 L491.5,190.6 
		L491.7,190.6 L491.9,190.8 L492.1,191.0 L492.3,191.5 L492.5,192.0 L492.7,192.1 L493.0,192.1 L493.2,192.1 
		L493.4,192.2 L493.6,192.4 L493.8,192.4 L494.0,192.3 L494.2,192.3 L494.5,192.3 L494.7,192.3 L494.9,192.3 
		L495.1,191.9 L495.3,191.9 L495.5,191.8 L495.7,191.8 L496.0,191.7 L496.2,191.8 L496.4,191.8 L496.6,191.8 
		L496.8,191.8 L497.0,191.8 L497.3,191.8 L497.5,191.3 L497.7,191.4 L497.9,191.4 L498.1,191.4 L498.3,191.4 
		L498.5,191.3 L498.8,191.5 L499.0,191.5 L499.2,191.6 L499.4,192.1 L499.6,192.4 L499.8,192.7 L500.0,192.8 
		L500.3,192.8 L500.5,192.8 L500.7,192.7 L500.9,192.8 L501.1,192.8 L501.3,192.8 L501.5,192.8 L501.8,192.8 
		L502.0,192.8 L502.2,192.6 L502.4,192.5 L502.6,192.4 L502.8,192.1 L503.0,192.6 L503.3,192.6 L503.5,192.6 
		L503.7,192.6 L503.9,192.7 L504.1,192.7 L504.3,192.7 L504.6,192.4 L504.8,192.8 L505.0,193.0 L505.2,193.0 
		L505.4,192.9 L505.6,192.9 L505.8,192.7 L506.1,192.8 L506.3,192.8 L506.5,192.7 L506.7,192.7 L506.9,192.5 
		L507.1,192.5 L507.3,192.5 L507.6,192.4 L507.8,192.4 L508.0,192.4 L508.2,192.2 L508.4,192.2 L508.6,191.4 
		L508.8,191.4 L509.1,191.4 L509.3,191.4 L509.5,191.4 L509.7,191.3 L509.9,191.3 L510.1,191.6 L510.3,191.6 
		L510.6,191.6 L510.8,191.5 L511.0,191.5 L511.2,191.6 L511.4,191.6 L511.6,191.5 L511.9,191.4 L512.1,191.6 
		L512.3,191.6 L512.5,191.7 L512.7,191.7 L512.9,191.6 L513.1,191.6 L513.4,191.5 L513.6,191.6 L513.8,191.6 
		L514.0,191.6 L514.2,191.3 L514.4,191.3 L514.6,191.2 L514.9,191.2 L515.1,191.1 L515.3,191.1 L515.5,191.1 
		 h0.01'/></g>
	</g>
<g style="fill:none; color:black; stroke:currentColor; stroke-width:1.00; stroke-linecap:butt; stroke-linejoin:miter">
	<path  d='M88.5,54.1 L88.5,422.4 L515.5,422.4 L515.5,54.1 L88.5,54.1 Z  h0.01'/></g>
</g>
</svg>

