<?xml version="1.0" encoding="utf-8"  standalone="no"?>
<!DOCTYPE svg PUBLIC "-//W3C//DTD SVG 1.1//EN" 
 "http://www.w3.org/Graphics/SVG/1.1/DTD/svg11.dtd">
<svg 
 width="600" height="480" 
 viewBox="0 0 600 480"
 xmlns="http://www.w3.org/2000/svg"
 xmlns:xlink="http://www.w3.org/1999/xlink"
>

<title>Gnuplot</title>
<desc>Produced by GNUPLOT 4.6 patchlevel 1 </desc>

<g id="gnuplot_canvas">

<rect x="0" y="0" width="600" height="480" fill="none"/>
<defs>

	<circle id='gpDot' r='0.5' stroke-width='0.5'/>
	<path id='gpPt0' stroke-width='0.222' stroke='currentColor' d='M-1,0 h2 M0,-1 v2'/>
	<path id='gpPt1' stroke-width='0.222' stroke='currentColor' d='M-1,-1 L1,1 M1,-1 L-1,1'/>
	<path id='gpPt2' stroke-width='0.222' stroke='currentColor' d='M-1,0 L1,0 M0,-1 L0,1 M-1,-1 L1,1 M-1,1 L1,-1'/>
	<rect id='gpPt3' stroke-width='0.222' stroke='currentColor' x='-1' y='-1' width='2' height='2'/>
	<rect id='gpPt4' stroke-width='0.222' stroke='currentColor' fill='currentColor' x='-1' y='-1' width='2' height='2'/>
	<circle id='gpPt5' stroke-width='0.222' stroke='currentColor' cx='0' cy='0' r='1'/>
	<use xlink:href='#gpPt5' id='gpPt6' fill='currentColor' stroke='none'/>
	<path id='gpPt7' stroke-width='0.222' stroke='currentColor' d='M0,-1.33 L-1.33,0.67 L1.33,0.67 z'/>
	<use xlink:href='#gpPt7' id='gpPt8' fill='currentColor' stroke='none'/>
	<use xlink:href='#gpPt7' id='gpPt9' stroke='currentColor' transform='rotate(180)'/>
	<use xlink:href='#gpPt9' id='gpPt10' fill='currentColor' stroke='none'/>
	<use xlink:href='#gpPt3' id='gpPt11' stroke='currentColor' transform='rotate(45)'/>
	<use xlink:href='#gpPt11' id='gpPt12' fill='currentColor' stroke='none'/>
</defs>
<g style="fill:none; color:white; stroke:currentColor; stroke-width:1.00; stroke-linecap:butt; stroke-linejoin:miter">
</g>
<g style="fill:none; color:black; stroke:currentColor; stroke-width:1.00; stroke-linecap:butt; stroke-linejoin:miter">
	<path  d='M80.2,422.4 L89.2,422.4 M507.2,422.4 L498.2,422.4  h0.01'/>	<g transform="translate(71.9,426.9)" style="stroke:none; fill:black; font-family:Arial; font-size:12.00pt; text-anchor:end">
		<text> 0</text>
	</g>
	<path  d='M80.2,361.0 L89.2,361.0 M507.2,361.0 L498.2,361.0  h0.01'/>	<g transform="translate(71.9,365.5)" style="stroke:none; fill:black; font-family:Arial; font-size:12.00pt; text-anchor:end">
		<text> 1000</text>
	</g>
	<path  d='M80.2,299.6 L89.2,299.6 M507.2,299.6 L498.2,299.6  h0.01'/>	<g transform="translate(71.9,304.1)" style="stroke:none; fill:black; font-family:Arial; font-size:12.00pt; text-anchor:end">
		<text> 2000</text>
	</g>
	<path  d='M80.2,238.2 L89.2,238.2 M507.2,238.2 L498.2,238.2  h0.01'/>	<g transform="translate(71.9,242.7)" style="stroke:none; fill:black; font-family:Arial; font-size:12.00pt; text-anchor:end">
		<text> 3000</text>
	</g>
	<path  d='M80.2,176.9 L89.2,176.9 M507.2,176.9 L498.2,176.9  h0.01'/>	<g transform="translate(71.9,181.4)" style="stroke:none; fill:black; font-family:Arial; font-size:12.00pt; text-anchor:end">
		<text> 4000</text>
	</g>
	<path  d='M80.2,115.5 L89.2,115.5 M507.2,115.5 L498.2,115.5  h0.01'/>	<g transform="translate(71.9,120.0)" style="stroke:none; fill:black; font-family:Arial; font-size:12.00pt; text-anchor:end">
		<text> 5000</text>
	</g>
	<path  d='M80.2,54.1 L89.2,54.1 M507.2,54.1 L498.2,54.1  h0.01'/>	<g transform="translate(71.9,58.6)" style="stroke:none; fill:black; font-family:Arial; font-size:12.00pt; text-anchor:end">
		<text> 6000</text>
	</g>
	<path  d='M80.2,422.4 L80.2,413.4 M80.2,54.1 L80.2,63.1  h0.01'/>	<g transform="translate(80.2,444.9)" style="stroke:none; fill:black; font-family:Arial; font-size:12.00pt; text-anchor:middle">
		<text> 0</text>
	</g>
	<path  d='M122.9,422.4 L122.9,413.4 M122.9,54.1 L122.9,63.1  h0.01'/>	<g transform="translate(122.9,444.9)" style="stroke:none; fill:black; font-family:Arial; font-size:12.00pt; text-anchor:middle">
		<text> 10</text>
	</g>
	<path  d='M165.6,422.4 L165.6,413.4 M165.6,54.1 L165.6,63.1  h0.01'/>	<g transform="translate(165.6,444.9)" style="stroke:none; fill:black; font-family:Arial; font-size:12.00pt; text-anchor:middle">
		<text> 20</text>
	</g>
	<path  d='M208.3,422.4 L208.3,413.4 M208.3,54.1 L208.3,63.1  h0.01'/>	<g transform="translate(208.3,444.9)" style="stroke:none; fill:black; font-family:Arial; font-size:12.00pt; text-anchor:middle">
		<text> 30</text>
	</g>
	<path  d='M251.0,422.4 L251.0,413.4 M251.0,54.1 L251.0,63.1  h0.01'/>	<g transform="translate(251.0,444.9)" style="stroke:none; fill:black; font-family:Arial; font-size:12.00pt; text-anchor:middle">
		<text> 40</text>
	</g>
	<path  d='M293.7,422.4 L293.7,413.4 M293.7,54.1 L293.7,63.1  h0.01'/>	<g transform="translate(293.7,444.9)" style="stroke:none; fill:black; font-family:Arial; font-size:12.00pt; text-anchor:middle">
		<text> 50</text>
	</g>
	<path  d='M336.4,422.4 L336.4,413.4 M336.4,54.1 L336.4,63.1  h0.01'/>	<g transform="translate(336.4,444.9)" style="stroke:none; fill:black; font-family:Arial; font-size:12.00pt; text-anchor:middle">
		<text> 60</text>
	</g>
	<path  d='M379.1,422.4 L379.1,413.4 M379.1,54.1 L379.1,63.1  h0.01'/>	<g transform="translate(379.1,444.9)" style="stroke:none; fill:black; font-family:Arial; font-size:12.00pt; text-anchor:middle">
		<text> 70</text>
	</g>
	<path  d='M421.8,422.4 L421.8,413.4 M421.8,54.1 L421.8,63.1  h0.01'/>	<g transform="translate(421.8,444.9)" style="stroke:none; fill:black; font-family:Arial; font-size:12.00pt; text-anchor:middle">
		<text> 80</text>
	</g>
	<path  d='M464.5,422.4 L464.5,413.4 M464.5,54.1 L464.5,63.1  h0.01'/>	<g transform="translate(464.5,444.9)" style="stroke:none; fill:black; font-family:Arial; font-size:12.00pt; text-anchor:middle">
		<text> 90</text>
	</g>
	<path  d='M507.2,422.4 L507.2,413.4 M507.2,54.1 L507.2,63.1  h0.01'/>	<g transform="translate(507.2,444.9)" style="stroke:none; fill:black; font-family:Arial; font-size:12.00pt; text-anchor:middle">
		<text> 100</text>
	</g>
	<path  d='M507.2,422.4 L498.2,422.4  h0.01'/>	<g transform="translate(515.5,426.9)" style="stroke:none; fill:blue; font-family:Arial; font-size:12.00pt; text-anchor:start">
		<text> 40</text>
	</g>
	<path  d='M507.2,388.9 L498.2,388.9  h0.01'/>	<g transform="translate(515.5,393.4)" style="stroke:none; fill:blue; font-family:Arial; font-size:12.00pt; text-anchor:start">
		<text> 60</text>
	</g>
	<path  d='M507.2,355.4 L498.2,355.4  h0.01'/>	<g transform="translate(515.5,359.9)" style="stroke:none; fill:blue; font-family:Arial; font-size:12.00pt; text-anchor:start">
		<text> 80</text>
	</g>
	<path  d='M507.2,322.0 L498.2,322.0  h0.01'/>	<g transform="translate(515.5,326.5)" style="stroke:none; fill:blue; font-family:Arial; font-size:12.00pt; text-anchor:start">
		<text> 100</text>
	</g>
	<path  d='M507.2,288.5 L498.2,288.5  h0.01'/>	<g transform="translate(515.5,293.0)" style="stroke:none; fill:blue; font-family:Arial; font-size:12.00pt; text-anchor:start">
		<text> 120</text>
	</g>
	<path  d='M507.2,255.0 L498.2,255.0  h0.01'/>	<g transform="translate(515.5,259.5)" style="stroke:none; fill:blue; font-family:Arial; font-size:12.00pt; text-anchor:start">
		<text> 140</text>
	</g>
	<path  d='M507.2,221.5 L498.2,221.5  h0.01'/>	<g transform="translate(515.5,226.0)" style="stroke:none; fill:blue; font-family:Arial; font-size:12.00pt; text-anchor:start">
		<text> 160</text>
	</g>
	<path  d='M507.2,188.0 L498.2,188.0  h0.01'/>	<g transform="translate(515.5,192.5)" style="stroke:none; fill:blue; font-family:Arial; font-size:12.00pt; text-anchor:start">
		<text> 180</text>
	</g>
	<path  d='M507.2,154.5 L498.2,154.5  h0.01'/>	<g transform="translate(515.5,159.0)" style="stroke:none; fill:blue; font-family:Arial; font-size:12.00pt; text-anchor:start">
		<text> 200</text>
	</g>
	<path  d='M507.2,121.1 L498.2,121.1  h0.01'/>	<g transform="translate(515.5,125.6)" style="stroke:none; fill:blue; font-family:Arial; font-size:12.00pt; text-anchor:start">
		<text> 220</text>
	</g>
	<path  d='M507.2,87.6 L498.2,87.6  h0.01'/>	<g transform="translate(515.5,92.1)" style="stroke:none; fill:blue; font-family:Arial; font-size:12.00pt; text-anchor:start">
		<text> 240</text>
	</g>
	<path  d='M507.2,54.1 L498.2,54.1  h0.01'/>	<g transform="translate(515.5,58.6)" style="stroke:none; fill:blue; font-family:Arial; font-size:12.00pt; text-anchor:start">
		<text> 260</text>
	</g>
	<path  d='M80.2,54.1 L80.2,422.4 L507.2,422.4 L507.2,54.1 L80.2,54.1 Z  h0.01'/>	<g transform="translate(17.6,238.3) rotate(270)" style="stroke:none; fill:black; font-family:Arial; font-size:12.00pt; text-anchor:middle">
		<text>TCP throughput (kbps)</text>
	</g>
	<g transform="translate(570.4,238.3) rotate(270)" style="stroke:none; fill:black; font-family:Arial; font-size:12.00pt; text-anchor:middle">
		<text>TCP UL Delay(ms)</text>
	</g>
	<g transform="translate(293.7,471.9)" style="stroke:none; fill:black; font-family:Arial; font-size:12.00pt; text-anchor:middle">
		<text>Time (s)</text>
	</g>
	<g transform="translate(293.7,31.6)" style="stroke:none; fill:black; font-family:Arial; font-size:12.00pt; text-anchor:middle">
		<text>Distance 900m, 3kmph: TCP throughput vs link capacity Uplink 100RBs PfffScheduler</text>
	</g>
	<path  d='M257.5,413.4 L257.5,359.4 L498.9,359.4 L498.9,413.4 L257.5,413.4 Z  h0.01'/></g>
	<g id="gnuplot_plot_1" ><title>gnuplot_plot_1</title>
<g style="fill:none; color:red; stroke:currentColor; stroke-width:1.00; stroke-linecap:butt; stroke-linejoin:miter">
	<g transform="translate(440.1,372.9)" style="stroke:none; fill:black; font-family:Arial; font-size:12.00pt; text-anchor:end">
		<text>TCP Throughput</text>
	</g>
	<path  d='M448.4,368.4 L490.6,368.4 M83.0,406.7 L83.2,406.7 L83.4,415.3 L83.6,415.3 L83.8,415.3 L84.0,416.5 
		L84.3,416.5 L84.5,416.5 L84.7,416.5 L84.9,416.5 L85.1,416.5 L85.3,416.5 L85.5,416.5 L85.8,416.5 
		L86.0,416.5 L86.2,417.1 L86.4,417.1 L86.6,417.1 L86.8,417.1 L87.0,416.7 L87.2,415.6 L87.5,415.5 
		L87.7,414.0 L87.9,414.0 L88.1,412.7 L88.3,412.7 L88.5,412.6 L88.7,410.5 L89.0,410.5 L89.2,410.5 
		L89.4,410.5 L89.6,410.5 L89.8,410.5 L90.0,410.5 L90.2,410.5 L90.4,410.5 L90.7,410.5 L90.9,413.2 
		L91.1,413.2 L91.3,412.0 L91.5,412.0 L91.7,412.0 L91.9,412.0 L92.2,411.4 L92.4,411.4 L92.6,411.4 
		L92.8,411.4 L93.0,411.4 L93.2,411.4 L93.4,411.4 L93.6,411.4 L93.9,411.4 L94.1,411.4 L94.3,411.4 
		L94.5,411.4 L94.7,411.4 L94.9,412.9 L95.1,412.9 L95.4,412.9 L95.6,412.9 L95.8,413.2 L96.0,412.8 
		L96.2,412.8 L96.4,412.8 L96.6,412.8 L96.8,412.8 L97.1,413.3 L97.3,413.0 L97.5,413.0 L97.7,413.0 
		L97.9,413.0 L98.1,413.0 L98.3,413.0 L98.6,413.0 L98.8,413.4 L99.0,413.3 L99.2,413.3 L99.4,413.3 
		L99.6,413.3 L99.8,412.2 L100.1,412.2 L100.3,412.2 L100.5,412.2 L100.7,412.2 L100.9,412.2 L101.1,412.2 
		L101.3,412.2 L101.5,412.2 L101.8,412.2 L102.0,412.2 L102.2,412.2 L102.4,412.2 L102.6,412.2 L102.8,413.4 
		L103.0,413.4 L103.3,412.6 L103.5,412.6 L103.7,412.6 L103.9,412.6 L104.1,412.6 L104.3,412.6 L104.5,412.6 
		L104.7,412.6 L105.0,412.6 L105.2,412.6 L105.4,412.6 L105.6,412.6 L105.8,412.6 L106.0,412.6 L106.2,413.4 
		L106.5,413.4 L106.7,413.5 L106.9,413.5 L107.1,413.5 L107.3,413.5 L107.5,413.5 L107.7,413.5 L108.0,413.8 
		L108.2,413.8 L108.4,413.8 L108.6,413.9 L108.8,413.9 L109.0,413.9 L109.2,413.9 L109.4,413.9 L109.7,413.8 
		L109.9,413.8 L110.1,413.8 L110.3,413.8 L110.5,413.8 L110.7,413.8 L110.9,413.8 L111.2,413.8 L111.4,413.8 
		L111.6,414.2 L111.8,413.8 L112.0,413.3 L112.2,413.3 L112.4,413.3 L112.6,413.3 L112.9,413.3 L113.1,413.3 
		L113.3,413.3 L113.5,413.3 L113.7,413.3 L113.9,413.1 L114.1,412.9 L114.4,412.9 L114.6,412.9 L114.8,412.9 
		L115.0,412.9 L115.2,412.9 L115.4,412.9 L115.6,412.9 L115.9,412.9 L116.1,412.9 L116.3,413.3 L116.5,413.3 
		L116.7,413.3 L116.9,413.3 L117.1,413.3 L117.3,413.3 L117.6,413.3 L117.8,413.2 L118.0,413.1 L118.2,413.1 
		L118.4,413.1 L118.6,413.1 L118.8,413.1 L119.1,412.4 L119.3,412.4 L119.5,412.4 L119.7,412.4 L119.9,412.4 
		L120.1,412.4 L120.3,412.4 L120.5,411.9 L120.8,411.4 L121.0,411.2 L121.2,411.2 L121.4,411.2 L121.6,411.2 
		L121.8,411.2 L122.0,411.2 L122.3,411.4 L122.5,411.4 L122.7,411.4 L122.9,411.4 L123.1,411.7 L123.3,411.2 
		L123.5,411.2 L123.8,411.2 L124.0,411.2 L124.2,411.2 L124.4,411.2 L124.6,411.4 L124.8,411.0 L125.0,411.0 
		L125.2,411.0 L125.5,411.0 L125.7,411.0 L125.9,411.0 L126.1,411.0 L126.3,411.0 L126.5,411.0 L126.7,411.0 
		L127.0,411.0 L127.2,410.8 L127.4,410.6 L127.6,410.6 L127.8,410.6 L128.0,410.6 L128.2,410.6 L128.5,410.6 
		L128.7,410.6 L128.9,410.6 L129.1,410.6 L129.3,410.6 L129.5,410.6 L129.7,410.4 L129.9,410.4 L130.2,410.4 
		L130.4,410.4 L130.6,410.4 L130.8,410.4 L131.0,410.4 L131.2,410.4 L131.4,410.4 L131.7,410.4 L131.9,410.4 
		L132.1,410.4 L132.3,410.4 L132.5,410.4 L132.7,410.2 L132.9,409.9 L133.1,409.9 L133.4,409.9 L133.6,409.9 
		L133.8,409.9 L134.0,410.0 L134.2,410.0 L134.4,410.0 L134.6,410.0 L134.9,410.0 L135.1,410.0 L135.3,410.0 
		L135.5,410.0 L135.7,410.0 L135.9,410.0 L136.1,410.0 L136.4,410.0 L136.6,410.0 L136.8,410.0 L137.0,410.6 
		L137.2,410.6 L137.4,410.4 L137.6,410.4 L137.8,410.3 L138.1,410.3 L138.3,410.3 L138.5,410.3 L138.7,410.4 
		L138.9,409.8 L139.1,409.6 L139.3,409.6 L139.6,409.6 L139.8,409.6 L140.0,409.6 L140.2,409.6 L140.4,409.6 
		L140.6,409.6 L140.8,409.6 L141.0,409.6 L141.3,409.6 L141.5,409.6 L141.7,409.6 L141.9,409.6 L142.1,409.6 
		L142.3,409.6 L142.5,409.6 L142.8,409.6 L143.0,409.6 L143.2,409.6 L143.4,409.6 L143.6,409.6 L143.8,409.6 
		L144.0,409.6 L144.3,409.6 L144.5,409.6 L144.7,409.6 L144.9,409.6 L145.1,409.6 L145.3,409.6 L145.5,410.7 
		L145.7,410.3 L146.0,410.1 L146.2,410.1 L146.4,410.1 L146.6,410.1 L146.8,410.1 L147.0,410.1 L147.2,410.1 
		L147.5,410.1 L147.7,410.1 L147.9,410.1 L148.1,410.4 L148.3,410.2 L148.5,410.2 L148.7,410.2 L148.9,410.2 
		L149.2,410.3 L149.4,410.2 L149.6,410.2 L149.8,410.1 L150.0,410.1 L150.2,410.1 L150.4,410.1 L150.7,410.1 
		L150.9,410.1 L151.1,410.1 L151.3,410.4 L151.5,410.2 L151.7,410.1 L151.9,409.9 L152.1,409.9 L152.4,409.9 
		L152.6,409.9 L152.8,409.9 L153.0,409.9 L153.2,409.9 L153.4,410.0 L153.6,410.0 L153.9,410.0 L154.1,410.0 
		L154.3,410.0 L154.5,410.0 L154.7,410.2 L154.9,410.0 L155.1,409.9 L155.4,409.6 L155.6,409.6 L155.8,409.6 
		L156.0,409.6 L156.2,409.3 L156.4,409.3 L156.6,409.3 L156.8,409.3 L157.1,409.3 L157.3,409.3 L157.5,409.3 
		L157.7,409.3 L157.9,409.3 L158.1,409.5 L158.3,409.4 L158.6,409.4 L158.8,409.4 L159.0,409.2 L159.2,409.2 
		L159.4,409.2 L159.6,409.2 L159.8,408.9 L160.0,408.9 L160.3,408.9 L160.5,408.6 L160.7,408.5 L160.9,408.5 
		L161.1,408.5 L161.3,408.5 L161.5,408.5 L161.8,408.5 L162.0,408.5 L162.2,408.5 L162.4,408.5 L162.6,408.5 
		L162.8,408.5 L163.0,408.5 L163.3,408.7 L163.5,408.7 L163.7,408.7 L163.9,408.7 L164.1,408.8 L164.3,408.4 
		L164.5,408.4 L164.7,408.4 L165.0,408.4 L165.2,408.4 L165.4,408.4 L165.6,408.4 L165.8,408.4 L166.0,408.4 
		L166.2,408.4 L166.5,408.4 L166.7,408.4 L166.9,408.4 L167.1,408.7 L167.3,408.6 L167.5,408.0 L167.7,407.9 
		L167.9,407.6 L168.2,407.2 L168.4,407.2 L168.6,406.6 L168.8,406.4 L169.0,406.0 L169.2,406.0 L169.4,405.5 
		L169.7,405.5 L169.9,405.5 L170.1,405.5 L170.3,405.5 L170.5,405.5 L170.7,405.5 L170.9,405.8 L171.2,405.5 
		L171.4,405.4 L171.6,405.4 L171.8,405.4 L172.0,405.1 L172.2,405.1 L172.4,405.1 L172.6,405.1 L172.9,405.2 
		L173.1,405.2 L173.3,405.2 L173.5,405.2 L173.7,405.2 L173.9,405.2 L174.1,405.2 L174.4,405.2 L174.6,405.4 
		L174.8,405.4 L175.0,405.4 L175.2,405.4 L175.4,405.4 L175.6,405.4 L175.8,405.4 L176.1,405.4 L176.3,405.4 
		L176.5,405.4 L176.7,405.4 L176.9,405.4 L177.1,405.4 L177.3,405.9 L177.6,405.9 L177.8,405.9 L178.0,405.8 
		L178.2,405.5 L178.4,405.4 L178.6,405.3 L178.8,405.3 L179.1,405.3 L179.3,405.2 L179.5,405.0 L179.7,405.0 
		L179.9,405.0 L180.1,405.0 L180.3,405.0 L180.5,405.0 L180.8,405.1 L181.0,405.1 L181.2,405.1 L181.4,405.1 
		L181.6,405.1 L181.8,405.1 L182.0,405.1 L182.3,405.1 L182.5,405.1 L182.7,405.0 L182.9,405.0 L183.1,405.1 
		L183.3,405.0 L183.5,405.0 L183.7,405.0 L184.0,405.0 L184.2,404.9 L184.4,404.8 L184.6,404.8 L184.8,404.8 
		L185.0,404.8 L185.2,404.8 L185.5,404.8 L185.7,404.8 L185.9,404.8 L186.1,404.8 L186.3,404.8 L186.5,404.9 
		L186.7,404.8 L187.0,404.8 L187.2,404.8 L187.4,404.8 L187.6,404.8 L187.8,404.8 L188.0,404.8 L188.2,404.8 
		L188.4,405.0 L188.7,405.0 L188.9,405.0 L189.1,405.0 L189.3,405.0 L189.5,405.0 L189.7,405.0 L189.9,405.0 
		L190.2,405.1 L190.4,405.1 L190.6,405.1 L190.8,405.1 L191.0,405.1 L191.2,405.2 L191.4,405.2 L191.6,405.1 
		L191.9,405.0 L192.1,405.0 L192.3,404.7 L192.5,404.6 L192.7,404.6 L192.9,404.6 L193.1,404.6 L193.4,404.6 
		L193.6,404.6 L193.8,404.7 L194.0,404.7 L194.2,404.6 L194.4,404.4 L194.6,404.4 L194.8,404.4 L195.1,404.4 
		L195.3,404.4 L195.5,404.4 L195.7,404.3 L195.9,404.3 L196.1,404.4 L196.3,404.3 L196.6,404.3 L196.8,404.3 
		L197.0,404.3 L197.2,404.2 L197.4,404.2 L197.6,404.2 L197.8,404.2 L198.1,404.2 L198.3,404.2 L198.5,404.2 
		L198.7,404.2 L198.9,404.2 L199.1,404.2 L199.3,404.2 L199.5,404.2 L199.8,404.2 L200.0,404.2 L200.2,404.2 
		L200.4,404.2 L200.6,404.2 L200.8,404.6 L201.0,404.6 L201.3,404.6 L201.5,404.6 L201.7,404.6 L201.9,404.6 
		L202.1,404.6 L202.3,404.6 L202.5,404.6 L202.7,404.6 L203.0,404.6 L203.2,404.7 L203.4,404.7 L203.6,404.7 
		L203.8,404.7 L204.0,404.7 L204.2,404.7 L204.5,404.8 L204.7,404.8 L204.9,404.8 L205.1,404.8 L205.3,404.9 
		L205.5,404.9 L205.7,404.9 L206.0,404.9 L206.2,405.0 L206.4,405.0 L206.6,405.0 L206.8,405.0 L207.0,405.0 
		L207.2,405.0 L207.4,404.9 L207.7,404.9 L207.9,405.0 L208.1,405.0 L208.3,404.9 L208.5,404.8 L208.7,404.8 
		L208.9,404.8 L209.2,404.8 L209.4,404.8 L209.6,404.8 L209.8,404.9 L210.0,404.8 L210.2,404.8 L210.4,404.8 
		L210.6,404.8 L210.9,404.8 L211.1,404.9 L211.3,404.9 L211.5,404.9 L211.7,404.9 L211.9,404.9 L212.1,405.0 
		L212.4,404.9 L212.6,404.9 L212.8,404.9 L213.0,404.9 L213.2,404.9 L213.4,404.9 L213.6,404.9 L213.9,404.9 
		L214.1,405.0 L214.3,405.0 L214.5,405.0 L214.7,405.0 L214.9,405.0 L215.1,405.0 L215.3,405.0 L215.6,405.1 
		L215.8,405.0 L216.0,405.0 L216.2,405.0 L216.4,405.0 L216.6,405.0 L216.8,405.0 L217.1,405.0 L217.3,405.0 
		L217.5,405.1 L217.7,405.1 L217.9,405.1 L218.1,405.1 L218.3,405.1 L218.5,405.1 L218.8,405.0 L219.0,405.0 
		L219.2,405.0 L219.4,405.0 L219.6,405.0 L219.8,405.0 L220.0,405.0 L220.3,405.0 L220.5,405.0 L220.7,405.0 
		L220.9,405.2 L221.1,405.2 L221.3,405.2 L221.5,405.2 L221.8,405.2 L222.0,405.2 L222.2,405.2 L222.4,405.3 
		L222.6,405.3 L222.8,405.3 L223.0,405.3 L223.2,405.3 L223.5,405.3 L223.7,405.3 L223.9,405.3 L224.1,405.3 
		L224.3,405.5 L224.5,405.5 L224.7,405.6 L225.0,405.4 L225.2,405.4 L225.4,405.4 L225.6,405.3 L225.8,405.3 
		L226.0,405.3 L226.2,405.3 L226.4,405.3 L226.7,405.3 L226.9,405.3 L227.1,405.3 L227.3,405.4 L227.5,405.3 
		L227.7,405.3 L227.9,405.3 L228.2,405.3 L228.4,405.3 L228.6,405.3 L228.8,405.2 L229.0,405.2 L229.2,405.2 
		L229.4,405.2 L229.7,405.2 L229.9,405.2 L230.1,405.2 L230.3,405.2 L230.5,405.2 L230.7,405.2 L230.9,405.2 
		L231.1,405.5 L231.4,405.5 L231.6,405.5 L231.8,405.5 L232.0,405.5 L232.2,405.5 L232.4,405.5 L232.6,405.5 
		L232.9,405.5 L233.1,405.5 L233.3,405.5 L233.5,405.5 L233.7,405.5 L233.9,405.4 L234.1,405.4 L234.3,405.4 
		L234.6,405.4 L234.8,405.4 L235.0,405.4 L235.2,405.4 L235.4,405.4 L235.6,405.4 L235.8,405.4 L236.1,405.4 
		L236.3,405.4 L236.5,405.4 L236.7,405.3 L236.9,405.3 L237.1,405.3 L237.3,405.3 L237.5,405.3 L237.8,405.3 
		L238.0,405.3 L238.2,405.3 L238.4,405.4 L238.6,405.4 L238.8,405.4 L239.0,405.4 L239.3,405.3 L239.5,405.3 
		L239.7,405.3 L239.9,405.3 L240.1,405.3 L240.3,405.3 L240.5,405.3 L240.8,405.3 L241.0,405.3 L241.2,405.3 
		L241.4,405.3 L241.6,405.3 L241.8,405.3 L242.0,405.3 L242.2,405.3 L242.5,405.2 L242.7,405.2 L242.9,405.1 
		L243.1,405.1 L243.3,405.1 L243.5,405.1 L243.7,405.0 L244.0,405.0 L244.2,404.9 L244.4,404.9 L244.6,404.9 
		L244.8,404.9 L245.0,404.8 L245.2,404.8 L245.4,404.8 L245.7,404.8 L245.9,404.8 L246.1,404.8 L246.3,404.8 
		L246.5,404.9 L246.7,404.8 L246.9,404.8 L247.2,404.8 L247.4,404.8 L247.6,404.8 L247.8,404.8 L248.0,404.5 
		L248.2,404.3 L248.4,404.3 L248.6,404.3 L248.9,404.3 L249.1,404.4 L249.3,404.4 L249.5,404.4 L249.7,404.4 
		L249.9,404.4 L250.1,404.4 L250.4,404.5 L250.6,404.5 L250.8,404.5 L251.0,404.5 L251.2,404.5 L251.4,404.5 
		L251.6,404.5 L251.8,404.5 L252.1,404.5 L252.3,404.5 L252.5,404.4 L252.7,404.4 L252.9,404.4 L253.1,404.4 
		L253.3,404.4 L253.6,404.5 L253.8,404.5 L254.0,404.5 L254.2,404.5 L254.4,404.5 L254.6,404.5 L254.8,404.4 
		L255.1,404.2 L255.3,404.2 L255.5,404.2 L255.7,404.2 L255.9,404.2 L256.1,404.2 L256.3,404.2 L256.5,404.2 
		L256.8,404.2 L257.0,404.2 L257.2,404.2 L257.4,404.2 L257.6,404.1 L257.8,404.0 L258.0,404.0 L258.3,404.0 
		L258.5,404.0 L258.7,404.0 L258.9,404.1 L259.1,404.0 L259.3,404.0 L259.5,404.0 L259.7,404.0 L260.0,404.1 
		L260.2,404.1 L260.4,404.1 L260.6,404.1 L260.8,404.1 L261.0,404.1 L261.2,404.1 L261.5,404.1 L261.7,404.1 
		L261.9,404.1 L262.1,404.1 L262.3,404.3 L262.5,404.3 L262.7,404.2 L263.0,404.2 L263.2,404.2 L263.4,404.2 
		L263.6,404.3 L263.8,404.3 L264.0,404.3 L264.2,404.3 L264.4,404.3 L264.7,404.3 L264.9,404.3 L265.1,404.3 
		L265.3,404.3 L265.5,404.3 L265.7,404.3 L265.9,404.3 L266.2,404.3 L266.4,404.3 L266.6,404.3 L266.8,404.6 
		L267.0,404.6 L267.2,404.6 L267.4,404.6 L267.6,404.6 L267.9,404.6 L268.1,404.6 L268.3,404.6 L268.5,404.7 
		L268.7,404.7 L268.9,404.7 L269.1,404.7 L269.4,404.7 L269.6,404.7 L269.8,404.7 L270.0,404.7 L270.2,404.7 
		L270.4,404.7 L270.6,404.7 L270.9,404.7 L271.1,404.7 L271.3,404.7 L271.5,404.7 L271.7,404.7 L271.9,404.9 
		L272.1,404.9 L272.3,404.9 L272.6,404.9 L272.8,404.9 L273.0,404.9 L273.2,404.9 L273.4,404.9 L273.6,404.9 
		L273.8,404.9 L274.1,405.1 L274.3,405.0 L274.5,405.0 L274.7,405.0 L274.9,405.0 L275.1,405.0 L275.3,405.0 
		L275.5,405.0 L275.8,405.0 L276.0,405.0 L276.2,405.2 L276.4,405.2 L276.6,405.1 L276.8,405.1 L277.0,405.2 
		L277.3,405.2 L277.5,405.2 L277.7,405.2 L277.9,405.2 L278.1,405.2 L278.3,405.2 L278.5,405.2 L278.8,405.2 
		L279.0,405.2 L279.2,405.2 L279.4,405.2 L279.6,405.2 L279.8,405.2 L280.0,405.2 L280.2,405.2 L280.5,405.2 
		L280.7,405.2 L280.9,405.2 L281.1,405.2 L281.3,405.2 L281.5,405.2 L281.7,405.2 L282.0,405.2 L282.2,405.2 
		L282.4,405.2 L282.6,405.2 L282.8,405.2 L283.0,405.2 L283.2,405.2 L283.4,405.2 L283.7,405.4 L283.9,405.4 
		L284.1,405.4 L284.3,405.4 L284.5,405.4 L284.7,405.4 L284.9,405.4 L285.2,405.4 L285.4,405.4 L285.6,405.4 
		L285.8,405.4 L286.0,405.4 L286.2,405.4 L286.4,405.5 L286.7,405.5 L286.9,405.5 L287.1,405.5 L287.3,405.5 
		L287.5,405.5 L287.7,405.5 L287.9,405.5 L288.1,405.5 L288.4,405.5 L288.6,405.5 L288.8,405.5 L289.0,405.5 
		L289.2,405.5 L289.4,405.6 L289.6,405.6 L289.9,405.6 L290.1,405.6 L290.3,405.6 L290.5,405.6 L290.7,405.6 
		L290.9,405.6 L291.1,405.6 L291.3,405.6 L291.6,405.6 L291.8,405.8 L292.0,405.8 L292.2,405.8 L292.4,405.8 
		L292.6,405.8 L292.8,405.8 L293.1,405.8 L293.3,405.8 L293.5,405.9 L293.7,405.8 L293.9,405.8 L294.1,405.8 
		L294.3,405.8 L294.5,405.8 L294.8,405.8 L295.0,405.8 L295.2,405.8 L295.4,405.8 L295.6,405.8 L295.8,405.8 
		L296.0,405.8 L296.3,405.8 L296.5,406.0 L296.7,405.9 L296.9,405.9 L297.1,405.9 L297.3,405.9 L297.5,405.9 
		L297.8,405.9 L298.0,405.9 L298.2,405.9 L298.4,405.9 L298.6,405.9 L298.8,405.9 L299.0,405.9 L299.2,405.9 
		L299.5,405.9 L299.7,405.9 L299.9,405.9 L300.1,405.9 L300.3,405.9 L300.5,405.9 L300.7,405.9 L301.0,406.1 
		L301.2,406.1 L301.4,406.1 L301.6,406.1 L301.8,406.1 L302.0,406.1 L302.2,406.1 L302.4,406.1 L302.7,406.1 
		L302.9,406.1 L303.1,406.1 L303.3,406.2 L303.5,406.1 L303.7,406.1 L303.9,406.1 L304.2,406.1 L304.4,406.1 
		L304.6,406.1 L304.8,406.1 L305.0,406.1 L305.2,406.1 L305.4,406.1 L305.7,406.1 L305.9,406.1 L306.1,406.2 
		L306.3,406.2 L306.5,406.2 L306.7,406.2 L306.9,406.2 L307.1,406.2 L307.4,406.3 L307.6,406.2 L307.8,406.2 
		L308.0,406.2 L308.2,406.2 L308.4,406.2 L308.6,406.1 L308.9,406.0 L309.1,406.0 L309.3,406.0 L309.5,406.0 
		L309.7,406.0 L309.9,406.0 L310.1,406.1 L310.3,406.1 L310.6,406.0 L310.8,405.9 L311.0,405.7 L311.2,405.4 
		L311.4,405.4 L311.6,405.3 L311.8,405.2 L312.1,405.1 L312.3,405.0 L312.5,405.0 L312.7,405.0 L312.9,405.0 
		L313.1,405.0 L313.3,405.0 L313.6,405.0 L313.8,405.0 L314.0,405.0 L314.2,405.0 L314.4,405.0 L314.6,405.0 
		L314.8,405.1 L315.0,405.1 L315.3,405.1 L315.5,405.1 L315.7,405.0 L315.9,405.0 L316.1,405.0 L316.3,405.0 
		L316.5,405.0 L316.8,405.0 L317.0,405.1 L317.2,405.1 L317.4,405.1 L317.6,405.1 L317.8,405.0 L318.0,405.0 
		L318.2,405.1 L318.5,405.0 L318.7,405.0 L318.9,405.0 L319.1,405.0 L319.3,405.0 L319.5,405.0 L319.7,405.0 
		L320.0,405.0 L320.2,405.0 L320.4,405.0 L320.6,405.1 L320.8,405.1 L321.0,405.1 L321.2,405.0 L321.5,405.0 
		L321.7,405.0 L321.9,405.0 L322.1,405.0 L322.3,405.0 L322.5,405.0 L322.7,405.1 L322.9,405.0 L323.2,404.9 
		L323.4,404.9 L323.6,404.8 L323.8,404.8 L324.0,404.8 L324.2,404.8 L324.4,404.8 L324.7,404.8 L324.9,404.8 
		L325.1,404.8 L325.3,404.7 L325.5,404.7 L325.7,404.7 L325.9,404.7 L326.1,404.7 L326.4,404.7 L326.6,404.7 
		L326.8,404.7 L327.0,404.7 L327.2,404.7 L327.4,404.7 L327.6,404.7 L327.9,404.7 L328.1,404.8 L328.3,404.8 
		L328.5,404.8 L328.7,404.8 L328.9,404.9 L329.1,404.8 L329.4,404.8 L329.6,404.8 L329.8,404.8 L330.0,404.8 
		L330.2,404.8 L330.4,404.8 L330.6,404.8 L330.8,404.8 L331.1,404.9 L331.3,404.8 L331.5,404.8 L331.7,404.8 
		L331.9,404.8 L332.1,404.8 L332.3,404.8 L332.6,404.8 L332.8,404.8 L333.0,404.8 L333.2,404.8 L333.4,405.0 
		L333.6,405.0 L333.8,405.0 L334.0,405.0 L334.3,405.0 L334.5,405.0 L334.7,405.0 L334.9,405.0 L335.1,405.0 
		L335.3,405.0 L335.5,405.0 L335.8,405.0 L336.0,405.0 L336.2,405.0 L336.4,405.0 L336.6,405.1 L336.8,404.9 
		L337.0,404.8 L337.2,404.8 L337.5,404.8 L337.7,404.8 L337.9,404.8 L338.1,404.8 L338.3,404.9 L338.5,404.9 
		L338.7,404.9 L339.0,404.8 L339.2,404.7 L339.4,404.7 L339.6,404.7 L339.8,404.6 L340.0,404.6 L340.2,404.6 
		L340.5,404.6 L340.7,404.6 L340.9,404.6 L341.1,404.6 L341.3,404.6 L341.5,404.6 L341.7,404.6 L341.9,404.6 
		L342.2,404.6 L342.4,404.6 L342.6,404.8 L342.8,404.7 L343.0,404.7 L343.2,404.7 L343.4,404.7 L343.7,404.8 
		L343.9,404.6 L344.1,404.6 L344.3,404.6 L344.5,404.6 L344.7,404.5 L344.9,404.5 L345.1,404.5 L345.4,404.5 
		L345.6,404.5 L345.8,404.5 L346.0,404.5 L346.2,404.5 L346.4,404.5 L346.6,404.5 L346.9,404.5 L347.1,404.4 
		L347.3,404.4 L347.5,404.4 L347.7,404.4 L347.9,404.4 L348.1,404.4 L348.4,404.4 L348.6,404.4 L348.8,404.4 
		L349.0,404.4 L349.2,404.4 L349.4,404.4 L349.6,404.4 L349.8,404.4 L350.1,404.4 L350.3,404.6 L350.5,404.6 
		L350.7,404.4 L350.9,404.1 L351.1,404.1 L351.3,404.1 L351.6,404.1 L351.8,404.1 L352.0,404.1 L352.2,404.2 
		L352.4,404.1 L352.6,404.1 L352.8,404.1 L353.0,404.1 L353.3,404.1 L353.5,404.1 L353.7,404.1 L353.9,404.1 
		L354.1,404.1 L354.3,404.1 L354.5,404.1 L354.8,404.1 L355.0,404.0 L355.2,404.0 L355.4,404.0 L355.6,404.0 
		L355.8,404.0 L356.0,404.0 L356.3,404.0 L356.5,403.9 L356.7,403.9 L356.9,403.9 L357.1,403.9 L357.3,403.9 
		L357.5,403.9 L357.7,403.9 L358.0,403.9 L358.2,403.9 L358.4,403.9 L358.6,403.9 L358.8,403.9 L359.0,403.9 
		L359.2,403.9 L359.5,403.9 L359.7,403.9 L359.9,403.9 L360.1,403.9 L360.3,403.9 L360.5,403.9 L360.7,403.9 
		L360.9,404.0 L361.2,404.0 L361.4,404.0 L361.6,404.0 L361.8,404.0 L362.0,404.0 L362.2,404.0 L362.4,404.0 
		L362.7,404.0 L362.9,404.0 L363.1,404.0 L363.3,403.9 L363.5,403.9 L363.7,403.9 L363.9,403.9 L364.2,403.9 
		L364.4,403.9 L364.6,403.9 L364.8,403.9 L365.0,403.9 L365.2,403.9 L365.4,403.9 L365.6,403.9 L365.9,404.0 
		L366.1,404.0 L366.3,404.0 L366.5,404.0 L366.7,403.9 L366.9,403.9 L367.1,403.9 L367.4,403.9 L367.6,403.9 
		L367.8,403.9 L368.0,403.9 L368.2,403.9 L368.4,403.9 L368.6,403.9 L368.8,403.9 L369.1,404.1 L369.3,404.1 
		L369.5,404.1 L369.7,404.0 L369.9,403.9 L370.1,403.9 L370.3,403.9 L370.6,403.9 L370.8,403.9 L371.0,403.9 
		L371.2,403.9 L371.4,403.9 L371.6,403.9 L371.8,403.9 L372.1,404.0 L372.3,403.9 L372.5,403.9 L372.7,403.9 
		L372.9,403.9 L373.1,403.9 L373.3,403.9 L373.5,403.9 L373.8,403.9 L374.0,403.9 L374.2,403.9 L374.4,403.9 
		L374.6,403.9 L374.8,403.9 L375.0,403.9 L375.3,403.9 L375.5,403.9 L375.7,403.7 L375.9,403.6 L376.1,403.6 
		L376.3,403.6 L376.5,403.6 L376.7,403.6 L377.0,403.7 L377.2,403.5 L377.4,403.4 L377.6,403.3 L377.8,403.3 
		L378.0,403.3 L378.2,403.3 L378.5,403.3 L378.7,403.3 L378.9,403.3 L379.1,403.3 L379.3,403.3 L379.5,403.3 
		L379.7,403.3 L379.9,403.3 L380.2,403.4 L380.4,403.4 L380.6,403.4 L380.8,403.4 L381.0,403.4 L381.2,403.4 
		L381.4,403.4 L381.7,403.4 L381.9,403.4 L382.1,403.4 L382.3,403.4 L382.5,403.4 L382.7,403.4 L382.9,403.4 
		L383.2,403.4 L383.4,403.5 L383.6,403.4 L383.8,403.4 L384.0,403.4 L384.2,403.4 L384.4,403.4 L384.6,403.4 
		L384.9,403.4 L385.1,403.3 L385.3,403.3 L385.5,403.3 L385.7,403.3 L385.9,403.3 L386.1,403.3 L386.4,403.3 
		L386.6,403.3 L386.8,403.3 L387.0,403.3 L387.2,403.3 L387.4,403.3 L387.6,403.3 L387.8,403.3 L388.1,403.3 
		L388.3,403.3 L388.5,403.3 L388.7,403.3 L388.9,403.3 L389.1,403.4 L389.3,403.4 L389.6,403.4 L389.8,403.4 
		L390.0,403.4 L390.2,403.2 L390.4,403.2 L390.6,403.2 L390.8,403.3 L391.1,403.3 L391.3,403.3 L391.5,403.3 
		L391.7,403.3 L391.9,403.3 L392.1,403.3 L392.3,403.3 L392.5,403.3 L392.8,403.3 L393.0,403.3 L393.2,403.3 
		L393.4,403.3 L393.6,403.3 L393.8,403.2 L394.0,403.1 L394.3,403.1 L394.5,403.1 L394.7,403.1 L394.9,403.1 
		L395.1,403.1 L395.3,403.1 L395.5,403.1 L395.7,403.1 L396.0,403.0 L396.2,402.8 L396.4,402.8 L396.6,402.8 
		L396.8,402.8 L397.0,402.8 L397.2,402.8 L397.5,402.8 L397.7,402.7 L397.9,402.7 L398.1,402.7 L398.3,402.7 
		L398.5,402.7 L398.7,402.7 L399.0,402.7 L399.2,402.7 L399.4,402.7 L399.6,402.7 L399.8,402.7 L400.0,402.7 
		L400.2,402.7 L400.4,402.7 L400.7,402.7 L400.9,402.7 L401.1,402.7 L401.3,402.7 L401.5,402.7 L401.7,402.7 
		L401.9,402.8 L402.2,402.8 L402.4,402.8 L402.6,402.8 L402.8,402.8 L403.0,402.8 L403.2,402.8 L403.4,402.8 
		L403.6,402.8 L403.9,402.8 L404.1,402.8 L404.3,402.8 L404.5,402.8 L404.7,402.8 L404.9,402.8 L405.1,402.8 
		L405.4,402.9 L405.6,402.9 L405.8,402.9 L406.0,402.9 L406.2,402.9 L406.4,402.9 L406.6,402.9 L406.9,402.9 
		L407.1,402.9 L407.3,402.9 L407.5,402.9 L407.7,402.9 L407.9,402.9 L408.1,403.0 L408.3,403.0 L408.6,403.0 
		L408.8,403.0 L409.0,403.0 L409.2,403.0 L409.4,403.0 L409.6,403.0 L409.8,403.0 L410.1,403.0 L410.3,403.0 
		L410.5,403.0 L410.7,403.0 L410.9,403.0 L411.1,403.0 L411.3,403.0 L411.5,403.0 L411.8,403.0 L412.0,403.2 
		L412.2,403.2 L412.4,403.2 L412.6,403.2 L412.8,403.2 L413.0,403.2 L413.3,403.2 L413.5,403.2 L413.7,403.2 
		L413.9,403.2 L414.1,403.2 L414.3,403.2 L414.5,403.2 L414.8,403.3 L415.0,403.3 L415.2,403.3 L415.4,403.3 
		L415.6,403.3 L415.8,403.3 L416.0,403.3 L416.2,403.3 L416.5,403.3 L416.7,403.3 L416.9,403.3 L417.1,403.3 
		L417.3,403.4 L417.5,403.4 L417.7,403.4 L418.0,403.4 L418.2,403.4 L418.4,403.4 L418.6,403.4 L418.8,403.4 
		L419.0,403.4 L419.2,403.4 L419.4,403.4 L419.7,403.4 L419.9,403.4 L420.1,403.4 L420.3,403.4 L420.5,403.4 
		L420.7,403.4 L420.9,403.4 L421.2,403.4 L421.4,403.4 L421.6,403.4 L421.8,403.4 L422.0,403.4 L422.2,403.4 
		L422.4,403.6 L422.6,403.6 L422.9,403.6 L423.1,403.6 L423.3,403.6 L423.5,403.6 L423.7,403.6 L423.9,403.6 
		L424.1,403.6 L424.4,403.6 L424.6,403.6 L424.8,403.6 L425.0,403.6 L425.2,403.6 L425.4,403.6 L425.6,403.6 
		L425.9,403.6 L426.1,403.6 L426.3,403.6 L426.5,403.7 L426.7,403.7 L426.9,403.7 L427.1,403.7 L427.3,403.7 
		L427.6,403.7 L427.8,403.7 L428.0,403.7 L428.2,403.7 L428.4,403.7 L428.6,403.7 L428.8,403.7 L429.1,403.7 
		L429.3,403.7 L429.5,403.7 L429.7,403.7 L429.9,403.8 L430.1,403.8 L430.3,403.8 L430.5,403.8 L430.8,403.8 
		L431.0,403.8 L431.2,403.8 L431.4,403.8 L431.6,403.9 L431.8,403.9 L432.0,403.8 L432.3,403.8 L432.5,403.8 
		L432.7,403.8 L432.9,403.8 L433.1,403.8 L433.3,403.9 L433.5,403.9 L433.8,403.9 L434.0,403.9 L434.2,403.9 
		L434.4,403.9 L434.6,403.9 L434.8,403.9 L435.0,403.9 L435.2,403.9 L435.5,404.0 L435.7,404.0 L435.9,404.0 
		L436.1,404.0 L436.3,404.0 L436.5,404.0 L436.7,404.0 L437.0,404.0 L437.2,404.0 L437.4,404.0 L437.6,404.0 
		L437.8,404.0 L438.0,404.0 L438.2,404.0 L438.4,404.0 L438.7,404.0 L438.9,404.0 L439.1,404.1 L439.3,404.1 
		L439.5,404.1 L439.7,404.1 L439.9,404.1 L440.2,404.2 L440.4,404.2 L440.6,404.2 L440.8,404.2 L441.0,404.2 
		L441.2,404.2 L441.4,404.2 L441.7,404.2 L441.9,404.2 L442.1,404.2 L442.3,404.2 L442.5,404.2 L442.7,404.2 
		L442.9,404.2 L443.1,404.2 L443.4,404.2 L443.6,404.2 L443.8,404.2 L444.0,404.2 L444.2,404.3 L444.4,404.3 
		L444.6,404.3 L444.9,404.3 L445.1,404.3 L445.3,404.3 L445.5,404.3 L445.7,404.3 L445.9,404.3 L446.1,404.3 
		L446.3,404.3 L446.6,404.3 L446.8,404.3 L447.0,404.3 L447.2,404.3 L447.4,404.3 L447.6,404.3 L447.8,404.3 
		L448.1,404.3 L448.3,404.3 L448.5,404.3 L448.7,404.3 L448.9,404.3 L449.1,404.3 L449.3,404.3 L449.6,404.3 
		L449.8,404.3 L450.0,404.3 L450.2,404.3 L450.4,404.3 L450.6,404.3 L450.8,404.3 L451.0,404.3 L451.3,404.3 
		L451.5,404.3 L451.7,404.3 L451.9,404.3 L452.1,404.3 L452.3,404.3 L452.5,404.3 L452.8,404.3 L453.0,404.4 
		L453.2,404.4 L453.4,404.4 L453.6,404.4 L453.8,404.4 L454.0,404.4 L454.2,404.4 L454.5,404.4 L454.7,404.4 
		L454.9,404.4 L455.1,404.4 L455.3,404.3 L455.5,404.3 L455.7,404.2 L456.0,404.2 L456.2,404.2 L456.4,404.2 
		L456.6,404.2 L456.8,404.2 L457.0,404.2 L457.2,404.2 L457.5,404.2 L457.7,404.2 L457.9,404.2 L458.1,404.2 
		L458.3,404.2 L458.5,404.2 L458.7,404.2 L458.9,404.2 L459.2,404.2 L459.4,404.2 L459.6,404.4 L459.8,404.3 
		L460.0,404.3 L460.2,404.3 L460.4,404.3 L460.7,404.3 L460.9,404.3 L461.1,404.3 L461.3,404.2 L461.5,404.2 
		L461.7,404.2 L461.9,404.1 L462.1,404.1 L462.4,404.1 L462.6,404.1 L462.8,404.1 L463.0,404.1 L463.2,404.1 
		L463.4,404.1 L463.6,404.1 L463.9,404.1 L464.1,404.1 L464.3,404.1 L464.5,404.1 L464.7,404.1 L464.9,404.1 
		L465.1,404.1 L465.3,404.1 L465.6,404.0 L465.8,404.0 L466.0,404.0 L466.2,404.0 L466.4,404.1 L466.6,404.1 
		L466.8,404.1 L467.1,404.1 L467.3,404.1 L467.5,404.1 L467.7,404.1 L467.9,404.1 L468.1,404.1 L468.3,404.1 
		L468.6,404.1 L468.8,404.1 L469.0,404.1 L469.2,404.1 L469.4,404.1 L469.6,404.1 L469.8,404.1 L470.0,404.1 
		L470.3,404.2 L470.5,404.2 L470.7,404.2 L470.9,404.2 L471.1,404.2 L471.3,404.2 L471.5,404.2 L471.8,404.2 
		L472.0,404.2 L472.2,404.2 L472.4,404.2 L472.6,404.2 L472.8,404.2 L473.0,404.2 L473.2,404.2 L473.5,404.2 
		L473.7,404.2 L473.9,404.3 L474.1,404.3 L474.3,404.3 L474.5,404.3 L474.7,404.3 L475.0,404.3 L475.2,404.3 
		L475.4,404.3 L475.6,404.3 L475.8,404.3 L476.0,404.3 L476.2,404.3 L476.5,404.3 L476.7,404.3 L476.9,404.4 
		L477.1,404.4 L477.3,404.4 L477.5,404.4 L477.7,404.4 L477.9,404.4 L478.2,404.4 L478.4,404.4 L478.6,404.4 
		L478.8,404.3 L479.0,404.3 L479.2,404.3 L479.4,404.3 L479.7,404.3 L479.9,404.4 L480.1,404.4 L480.3,404.4 
		L480.5,404.4 L480.7,404.4 L480.9,404.4 L481.1,404.4 L481.4,404.4 L481.6,404.4 L481.8,404.4 L482.0,404.4 
		L482.2,404.3 L482.4,404.3 L482.6,404.3 L482.9,404.2 L483.1,404.2 L483.3,404.2 L483.5,404.2 L483.7,404.2 
		L483.9,404.2 L484.1,404.0 L484.4,403.9 L484.6,403.8 L484.8,403.8 L485.0,403.8 L485.2,403.7 L485.4,403.7 
		L485.6,403.7 L485.8,403.7 L486.1,403.7 L486.3,403.7 L486.5,403.7 L486.7,403.7 L486.9,403.7 L487.1,403.7 
		L487.3,403.7 L487.6,403.7 L487.8,403.7 L488.0,403.7 L488.2,403.7 L488.4,403.7 L488.6,403.7 L488.8,403.7 
		L489.0,403.7 L489.3,403.8 L489.5,403.8 L489.7,403.8 L489.9,403.8 L490.1,403.8 L490.3,403.8 L490.5,403.8 
		L490.8,403.8 L491.0,403.8 L491.2,403.7 L491.4,403.7 L491.6,403.7 L491.8,403.6 L492.0,403.6 L492.3,403.6 
		L492.5,403.6 L492.7,403.6 L492.9,403.6 L493.1,403.6 L493.3,403.6 L493.5,403.6 L493.7,403.6 L494.0,403.6 
		L494.2,403.6 L494.4,403.6 L494.6,403.6 L494.8,403.6 L495.0,403.6 L495.2,403.6 L495.5,403.6 L495.7,403.6 
		L495.9,403.6 L496.1,403.6 L496.3,403.6 L496.5,403.6 L496.7,403.6 L496.9,403.6 L497.2,403.6 L497.4,403.6 
		L497.6,403.6 L497.8,403.6 L498.0,403.6 L498.2,403.6 L498.4,403.6 L498.7,403.6 L498.9,403.6 L499.1,403.6 
		L499.3,403.6 L499.5,403.6 L499.7,403.6 L499.9,403.6 L500.2,403.6 L500.4,403.6 L500.6,403.6 L500.8,403.6 
		L501.0,403.6 L501.2,403.6 L501.4,403.6 L501.6,403.7 L501.9,403.7 L502.1,403.7 L502.3,403.7 L502.5,403.7 
		L502.7,403.7 L502.9,403.7 L503.1,403.7 L503.4,403.7 L503.6,403.7 L503.8,403.7 L504.0,403.7 L504.2,403.7 
		L504.4,403.7 L504.6,403.7 L504.8,403.7 L505.1,403.7 L505.3,403.7 L505.5,403.7 L505.7,403.7 L505.9,403.7 
		L506.1,403.7 L506.3,403.7 L506.6,403.7 L506.8,403.7 L507.0,403.7 L507.2,403.7  h0.01'/></g>
	</g>
	<g id="gnuplot_plot_2" ><title>gnuplot_plot_2</title>
<g style="fill:none; color:green; stroke:currentColor; stroke-width:1.00; stroke-linecap:butt; stroke-linejoin:miter">
	<g transform="translate(440.1,390.9)" style="stroke:none; fill:black; font-family:Arial; font-size:12.00pt; text-anchor:end">
		<text>Radio maximum capacity</text>
	</g>
	<path  d='M448.4,386.4 L490.6,386.4 M83.0,107.2 L83.2,107.2 L83.4,350.6 L83.6,350.6 L83.8,350.6 L84.0,386.5 
		L84.3,386.5 L84.5,386.5 L84.7,386.5 L84.9,386.5 L85.1,386.5 L85.3,386.5 L85.5,386.5 L85.8,386.5 
		L86.0,386.5 L86.2,401.0 L86.4,401.0 L86.6,401.0 L86.8,401.0 L87.0,385.1 L87.2,369.2 L87.5,370.1 
		L87.7,364.4 L87.9,364.4 L88.1,364.2 L88.3,364.2 L88.5,365.6 L88.7,361.1 L89.0,361.1 L89.2,361.1 
		L89.4,361.1 L89.6,361.1 L89.8,361.1 L90.0,361.1 L90.2,361.1 L90.4,361.1 L90.7,361.1 L90.9,377.3 
		L91.1,377.3 L91.3,377.8 L91.5,377.8 L91.7,377.8 L91.9,377.8 L92.2,377.7 L92.4,377.2 L92.6,377.2 
		L92.8,377.2 L93.0,377.2 L93.2,377.2 L93.4,377.2 L93.6,377.2 L93.9,377.2 L94.1,377.2 L94.3,377.2 
		L94.5,377.2 L94.7,377.2 L94.9,382.6 L95.1,382.6 L95.4,382.6 L95.6,382.6 L95.8,380.9 L96.0,379.4 
		L96.2,379.4 L96.4,379.4 L96.6,379.4 L96.8,379.4 L97.1,381.7 L97.3,380.9 L97.5,380.9 L97.7,380.9 
		L97.9,380.9 L98.1,380.9 L98.3,380.9 L98.6,380.9 L98.8,382.2 L99.0,381.4 L99.2,381.4 L99.4,381.4 
		L99.6,381.7 L99.8,378.4 L100.1,378.3 L100.3,378.3 L100.5,378.3 L100.7,378.3 L100.9,378.3 L101.1,378.3 
		L101.3,378.3 L101.5,378.3 L101.8,378.3 L102.0,378.3 L102.2,378.3 L102.4,378.3 L102.6,378.3 L102.8,384.5 
		L103.0,384.5 L103.3,383.6 L103.5,383.6 L103.7,383.6 L103.9,383.6 L104.1,383.6 L104.3,383.6 L104.5,383.6 
		L104.7,383.6 L105.0,383.6 L105.2,383.6 L105.4,383.6 L105.6,383.6 L105.8,383.6 L106.0,388.2 L106.2,387.8 
		L106.5,387.8 L106.7,388.3 L106.9,388.3 L107.1,388.3 L107.3,388.3 L107.5,388.3 L107.7,388.3 L108.0,389.7 
		L108.2,389.7 L108.4,389.7 L108.6,390.0 L108.8,390.0 L109.0,390.0 L109.2,390.0 L109.4,391.1 L109.7,390.5 
		L109.9,390.5 L110.1,390.5 L110.3,390.5 L110.5,390.5 L110.7,390.5 L110.9,390.5 L111.2,390.5 L111.4,390.5 
		L111.6,392.1 L111.8,388.4 L112.0,386.0 L112.2,386.0 L112.4,386.0 L112.6,386.0 L112.9,386.0 L113.1,386.0 
		L113.3,386.0 L113.5,386.0 L113.7,387.2 L113.9,387.1 L114.1,386.8 L114.4,386.8 L114.6,386.8 L114.8,386.8 
		L115.0,386.8 L115.2,386.8 L115.4,386.8 L115.6,386.8 L115.9,386.8 L116.1,386.8 L116.3,389.0 L116.5,389.0 
		L116.7,389.0 L116.9,389.0 L117.1,389.0 L117.3,389.0 L117.6,389.0 L117.8,389.6 L118.0,389.4 L118.2,389.4 
		L118.4,389.4 L118.6,389.4 L118.8,390.3 L119.1,388.9 L119.3,388.9 L119.5,388.9 L119.7,388.9 L119.9,388.9 
		L120.1,388.9 L120.3,388.9 L120.5,388.9 L120.8,388.3 L121.0,388.3 L121.2,388.3 L121.4,388.3 L121.6,388.3 
		L121.8,388.3 L122.0,388.3 L122.3,389.2 L122.5,389.2 L122.7,389.2 L122.9,389.2 L123.1,390.0 L123.3,389.4 
		L123.5,389.4 L123.8,389.4 L124.0,389.4 L124.2,389.4 L124.4,389.4 L124.6,390.4 L124.8,389.9 L125.0,389.9 
		L125.2,389.9 L125.5,389.9 L125.7,389.9 L125.9,389.9 L126.1,389.9 L126.3,389.9 L126.5,389.9 L126.7,389.9 
		L127.0,389.9 L127.2,390.6 L127.4,390.2 L127.6,390.2 L127.8,390.4 L128.0,390.4 L128.2,390.4 L128.5,390.4 
		L128.7,390.4 L128.9,390.9 L129.1,390.9 L129.3,390.9 L129.5,390.9 L129.7,391.0 L129.9,391.0 L130.2,391.0 
		L130.4,391.0 L130.6,391.3 L130.8,391.3 L131.0,391.3 L131.2,391.3 L131.4,391.3 L131.7,391.3 L131.9,391.3 
		L132.1,391.3 L132.3,391.3 L132.5,392.5 L132.7,392.0 L132.9,391.7 L133.1,391.7 L133.4,391.7 L133.6,391.7 
		L133.8,391.7 L134.0,392.2 L134.2,392.2 L134.4,392.2 L134.6,392.2 L134.9,392.2 L135.1,392.2 L135.3,392.2 
		L135.5,392.2 L135.7,392.2 L135.9,392.2 L136.1,392.2 L136.4,392.2 L136.6,392.2 L136.8,392.2 L137.0,393.8 
		L137.2,393.8 L137.4,393.7 L137.6,393.8 L137.8,393.7 L138.1,393.7 L138.3,393.7 L138.5,393.7 L138.7,394.1 
		L138.9,393.6 L139.1,393.4 L139.3,393.5 L139.6,393.5 L139.8,393.5 L140.0,393.5 L140.2,393.5 L140.4,393.5 
		L140.6,393.5 L140.8,393.5 L141.0,393.5 L141.3,393.5 L141.5,393.5 L141.7,393.5 L141.9,393.5 L142.1,393.5 
		L142.3,393.5 L142.5,393.5 L142.8,393.5 L143.0,393.5 L143.2,393.5 L143.4,393.5 L143.6,393.5 L143.8,393.5 
		L144.0,393.5 L144.3,393.5 L144.5,393.5 L144.7,393.5 L144.9,393.5 L145.1,393.5 L145.3,393.5 L145.5,396.2 
		L145.7,395.7 L146.0,395.6 L146.2,395.6 L146.4,395.6 L146.6,395.6 L146.8,395.6 L147.0,395.6 L147.2,395.6 
		L147.5,395.6 L147.7,395.6 L147.9,395.6 L148.1,396.4 L148.3,396.2 L148.5,396.2 L148.7,396.2 L148.9,396.2 
		L149.2,396.5 L149.4,396.4 L149.6,396.4 L149.8,396.5 L150.0,396.5 L150.2,396.5 L150.4,396.5 L150.7,396.5 
		L150.9,396.5 L151.1,396.5 L151.3,397.1 L151.5,396.7 L151.7,396.5 L151.9,396.1 L152.1,396.1 L152.4,396.1 
		L152.6,396.2 L152.8,396.2 L153.0,396.2 L153.2,396.2 L153.4,396.4 L153.6,396.4 L153.9,396.4 L154.1,396.4 
		L154.3,396.4 L154.5,396.4 L154.7,396.4 L154.9,396.6 L155.1,396.3 L155.4,396.1 L155.6,396.1 L155.8,396.1 
		L156.0,396.0 L156.2,395.8 L156.4,395.8 L156.6,395.8 L156.8,395.8 L157.1,395.8 L157.3,395.8 L157.5,395.8 
		L157.7,395.8 L157.9,395.8 L158.1,396.3 L158.3,396.2 L158.6,396.2 L158.8,396.2 L159.0,396.0 L159.2,396.0 
		L159.4,396.0 L159.6,396.0 L159.8,395.7 L160.0,395.7 L160.3,395.7 L160.5,395.4 L160.7,395.3 L160.9,395.3 
		L161.1,395.3 L161.3,395.3 L161.5,395.3 L161.8,395.5 L162.0,395.5 L162.2,395.5 L162.4,395.5 L162.6,395.5 
		L162.8,395.5 L163.0,395.5 L163.3,396.0 L163.5,395.9 L163.7,395.9 L163.9,395.9 L164.1,396.2 L164.3,395.8 
		L164.5,395.8 L164.7,395.8 L165.0,395.8 L165.2,395.8 L165.4,395.8 L165.6,395.8 L165.8,395.8 L166.0,395.8 
		L166.2,395.8 L166.5,395.8 L166.7,395.8 L166.9,395.8 L167.1,396.5 L167.3,396.4 L167.5,395.8 L167.7,395.7 
		L167.9,394.9 L168.2,394.4 L168.4,394.4 L168.6,393.4 L168.8,393.2 L169.0,392.8 L169.2,392.8 L169.4,392.2 
		L169.7,392.2 L169.9,392.2 L170.1,392.2 L170.3,392.2 L170.5,392.2 L170.7,392.2 L170.9,392.7 L171.2,392.4 
		L171.4,392.4 L171.6,392.4 L171.8,392.5 L172.0,392.2 L172.2,392.2 L172.4,392.2 L172.6,392.2 L172.9,392.4 
		L173.1,392.4 L173.3,392.4 L173.5,392.4 L173.7,392.4 L173.9,392.4 L174.1,392.4 L174.4,392.4 L174.6,392.9 
		L174.8,392.9 L175.0,392.9 L175.2,392.9 L175.4,392.9 L175.6,392.9 L175.8,392.9 L176.1,392.9 L176.3,392.9 
		L176.5,392.9 L176.7,392.9 L176.9,392.9 L177.1,392.9 L177.3,393.7 L177.6,393.7 L177.8,393.7 L178.0,393.6 
		L178.2,393.1 L178.4,392.6 L178.6,392.1 L178.8,392.1 L179.1,392.1 L179.3,391.4 L179.5,390.6 L179.7,390.6 
		L179.9,390.6 L180.1,390.6 L180.3,390.6 L180.5,390.6 L180.8,390.8 L181.0,390.8 L181.2,390.8 L181.4,390.8 
		L181.6,390.8 L181.8,390.8 L182.0,391.0 L182.3,391.0 L182.5,390.9 L182.7,390.9 L182.9,390.9 L183.1,390.9 
		L183.3,390.2 L183.5,390.2 L183.7,390.2 L184.0,390.3 L184.2,389.8 L184.4,389.8 L184.6,389.8 L184.8,389.8 
		L185.0,389.8 L185.2,389.8 L185.5,389.8 L185.7,389.5 L185.9,389.5 L186.1,389.5 L186.3,389.5 L186.5,389.6 
		L186.7,389.3 L187.0,389.3 L187.2,389.3 L187.4,389.3 L187.6,389.3 L187.8,389.3 L188.0,389.3 L188.2,389.3 
		L188.4,389.9 L188.7,389.9 L188.9,389.9 L189.1,390.0 L189.3,389.9 L189.5,389.9 L189.7,389.9 L189.9,389.9 
		L190.2,390.1 L190.4,390.1 L190.6,390.1 L190.8,390.1 L191.0,390.1 L191.2,390.4 L191.4,390.4 L191.6,390.4 
		L191.9,390.1 L192.1,390.1 L192.3,389.6 L192.5,389.4 L192.7,389.4 L192.9,389.4 L193.1,389.4 L193.4,389.4 
		L193.6,389.4 L193.8,389.8 L194.0,389.8 L194.2,389.7 L194.4,389.4 L194.6,389.4 L194.8,389.4 L195.1,389.4 
		L195.3,389.4 L195.5,389.2 L195.7,388.2 L195.9,388.1 L196.1,388.1 L196.3,388.0 L196.6,387.5 L196.8,387.5 
		L197.0,387.5 L197.2,387.4 L197.4,387.4 L197.6,387.4 L197.8,387.4 L198.1,387.4 L198.3,387.4 L198.5,387.4 
		L198.7,387.4 L198.9,387.4 L199.1,387.4 L199.3,387.4 L199.5,387.4 L199.8,387.4 L200.0,387.4 L200.2,387.4 
		L200.4,387.4 L200.6,387.4 L200.8,388.0 L201.0,388.0 L201.3,387.9 L201.5,387.9 L201.7,387.7 L201.9,387.7 
		L202.1,387.7 L202.3,387.7 L202.5,387.7 L202.7,387.7 L203.0,387.7 L203.2,387.8 L203.4,387.7 L203.6,387.7 
		L203.8,387.7 L204.0,387.7 L204.2,387.7 L204.5,387.9 L204.7,387.9 L204.9,387.9 L205.1,387.9 L205.3,388.0 
		L205.5,388.0 L205.7,388.0 L206.0,388.0 L206.2,388.2 L206.4,388.1 L206.6,388.1 L206.8,388.1 L207.0,388.2 
		L207.2,388.1 L207.4,388.1 L207.7,388.1 L207.9,388.2 L208.1,388.2 L208.3,388.0 L208.5,387.4 L208.7,387.4 
		L208.9,387.4 L209.2,387.4 L209.4,387.4 L209.6,387.4 L209.8,387.6 L210.0,387.5 L210.2,387.5 L210.4,387.5 
		L210.6,387.5 L210.9,387.5 L211.1,387.8 L211.3,387.8 L211.5,387.8 L211.7,387.8 L211.9,388.0 L212.1,387.3 
		L212.4,387.0 L212.6,386.8 L212.8,386.8 L213.0,386.9 L213.2,386.9 L213.4,386.9 L213.6,386.9 L213.9,386.9 
		L214.1,387.0 L214.3,387.0 L214.5,387.0 L214.7,387.0 L214.9,387.0 L215.1,387.0 L215.3,387.0 L215.6,387.3 
		L215.8,386.8 L216.0,386.8 L216.2,386.8 L216.4,386.8 L216.6,386.8 L216.8,386.8 L217.1,386.8 L217.3,386.8 
		L217.5,387.1 L217.7,387.1 L217.9,387.1 L218.1,387.1 L218.3,387.1 L218.5,387.1 L218.8,386.6 L219.0,386.5 
		L219.2,386.5 L219.4,386.5 L219.6,386.5 L219.8,386.5 L220.0,386.5 L220.3,386.5 L220.5,386.5 L220.7,386.5 
		L220.9,387.0 L221.1,387.0 L221.3,387.0 L221.5,387.0 L221.8,387.0 L222.0,387.0 L222.2,387.0 L222.4,387.3 
		L222.6,387.3 L222.8,387.3 L223.0,387.3 L223.2,387.3 L223.5,387.3 L223.7,387.3 L223.9,387.3 L224.1,387.3 
		L224.3,387.7 L224.5,387.7 L224.7,387.7 L225.0,387.7 L225.2,387.7 L225.4,387.7 L225.6,387.6 L225.8,387.6 
		L226.0,387.6 L226.2,387.6 L226.4,387.7 L226.7,387.7 L226.9,387.7 L227.1,387.7 L227.3,387.7 L227.5,387.8 
		L227.7,387.8 L227.9,387.8 L228.2,387.8 L228.4,387.8 L228.6,387.9 L228.8,387.9 L229.0,387.9 L229.2,387.9 
		L229.4,387.9 L229.7,387.9 L229.9,387.9 L230.1,387.9 L230.3,387.9 L230.5,387.9 L230.7,387.9 L230.9,387.9 
		L231.1,388.4 L231.4,388.4 L231.6,388.4 L231.8,388.4 L232.0,388.4 L232.2,388.4 L232.4,388.6 L232.6,388.6 
		L232.9,388.6 L233.1,388.6 L233.3,388.6 L233.5,388.6 L233.7,388.7 L233.9,388.7 L234.1,388.7 L234.3,388.7 
		L234.6,388.7 L234.8,388.6 L235.0,388.6 L235.2,388.6 L235.4,388.6 L235.6,388.6 L235.8,388.8 L236.1,388.7 
		L236.3,388.7 L236.5,388.3 L236.7,388.1 L236.9,388.1 L237.1,388.1 L237.3,388.1 L237.5,388.1 L237.8,388.1 
		L238.0,388.1 L238.2,388.1 L238.4,388.4 L238.6,388.5 L238.8,388.5 L239.0,388.5 L239.3,388.4 L239.5,388.4 
		L239.7,388.4 L239.9,388.4 L240.1,388.4 L240.3,387.9 L240.5,387.8 L240.8,387.8 L241.0,387.8 L241.2,387.8 
		L241.4,387.8 L241.6,387.8 L241.8,387.9 L242.0,387.8 L242.2,387.7 L242.5,387.3 L242.7,387.1 L242.9,387.1 
		L243.1,387.1 L243.3,387.1 L243.5,387.1 L243.7,386.9 L244.0,386.8 L244.2,386.7 L244.4,386.7 L244.6,386.8 
		L244.8,386.8 L245.0,386.7 L245.2,386.7 L245.4,386.7 L245.7,386.7 L245.9,386.7 L246.1,386.7 L246.3,386.7 
		L246.5,386.8 L246.7,386.7 L246.9,386.7 L247.2,386.8 L247.4,386.8 L247.6,386.8 L247.8,386.9 L248.0,386.2 
		L248.2,385.9 L248.4,385.9 L248.6,385.9 L248.9,385.9 L249.1,386.0 L249.3,386.0 L249.5,386.0 L249.7,386.0 
		L249.9,386.0 L250.1,386.0 L250.4,386.0 L250.6,386.3 L250.8,386.3 L251.0,386.3 L251.2,386.3 L251.4,386.4 
		L251.6,386.4 L251.8,386.4 L252.1,386.4 L252.3,386.5 L252.5,386.5 L252.7,386.5 L252.9,386.5 L253.1,386.5 
		L253.3,386.5 L253.6,386.6 L253.8,386.6 L254.0,386.6 L254.2,386.6 L254.4,386.7 L254.6,386.7 L254.8,386.7 
		L255.1,386.5 L255.3,386.4 L255.5,386.4 L255.7,386.4 L255.9,386.4 L256.1,386.4 L256.3,386.4 L256.5,386.6 
		L256.8,386.6 L257.0,386.6 L257.2,386.6 L257.4,386.7 L257.6,386.6 L257.8,386.5 L258.0,386.5 L258.3,386.5 
		L258.5,386.5 L258.7,386.5 L258.9,386.7 L259.1,386.7 L259.3,386.7 L259.5,386.7 L259.7,386.7 L260.0,386.8 
		L260.2,386.8 L260.4,386.8 L260.6,386.8 L260.8,386.8 L261.0,386.8 L261.2,386.8 L261.5,386.8 L261.7,386.8 
		L261.9,386.8 L262.1,386.8 L262.3,387.2 L262.5,387.1 L262.7,386.9 L263.0,386.9 L263.2,386.9 L263.4,386.9 
		L263.6,387.0 L263.8,387.0 L264.0,387.0 L264.2,387.0 L264.4,387.0 L264.7,387.0 L264.9,387.0 L265.1,387.0 
		L265.3,387.0 L265.5,387.0 L265.7,387.0 L265.9,387.0 L266.2,387.0 L266.4,387.0 L266.6,387.6 L266.8,387.5 
		L267.0,387.5 L267.2,387.5 L267.4,387.5 L267.6,387.5 L267.9,387.5 L268.1,387.5 L268.3,387.5 L268.5,387.5 
		L268.7,387.5 L268.9,387.5 L269.1,387.5 L269.4,387.5 L269.6,387.5 L269.8,387.5 L270.0,387.5 L270.2,386.9 
		L270.4,386.7 L270.6,386.7 L270.9,386.7 L271.1,386.7 L271.3,386.7 L271.5,386.8 L271.7,386.8 L271.9,386.8 
		L272.1,386.7 L272.3,386.7 L272.6,386.7 L272.8,386.7 L273.0,386.7 L273.2,386.7 L273.4,386.7 L273.6,386.7 
		L273.8,386.7 L274.1,386.6 L274.3,386.4 L274.5,386.4 L274.7,386.4 L274.9,386.4 L275.1,386.4 L275.3,386.4 
		L275.5,386.4 L275.8,386.4 L276.0,386.4 L276.2,386.7 L276.4,386.6 L276.6,386.6 L276.8,386.6 L277.0,386.6 
		L277.3,386.6 L277.5,386.6 L277.7,386.6 L277.9,386.8 L278.1,386.8 L278.3,386.6 L278.5,386.6 L278.8,386.6 
		L279.0,386.6 L279.2,386.6 L279.4,386.6 L279.6,386.6 L279.8,386.6 L280.0,386.6 L280.2,386.7 L280.5,386.8 
		L280.7,386.8 L280.9,386.8 L281.1,386.8 L281.3,386.8 L281.5,386.8 L281.7,386.8 L282.0,386.8 L282.2,386.8 
		L282.4,386.8 L282.6,386.8 L282.8,386.8 L283.0,386.8 L283.2,386.8 L283.4,386.8 L283.7,386.8 L283.9,387.2 
		L284.1,387.2 L284.3,387.2 L284.5,387.2 L284.7,387.2 L284.9,387.2 L285.2,387.4 L285.4,387.4 L285.6,387.4 
		L285.8,387.4 L286.0,387.4 L286.2,387.4 L286.4,387.5 L286.7,387.5 L286.9,387.5 L287.1,387.5 L287.3,387.5 
		L287.5,387.5 L287.7,387.4 L287.9,387.4 L288.1,387.4 L288.4,387.4 L288.6,387.4 L288.8,387.4 L289.0,387.4 
		L289.2,387.4 L289.4,387.7 L289.6,387.7 L289.9,387.7 L290.1,387.7 L290.3,387.7 L290.5,387.7 L290.7,387.7 
		L290.9,387.7 L291.1,387.7 L291.3,387.7 L291.6,387.7 L291.8,388.0 L292.0,388.0 L292.2,388.0 L292.4,388.0 
		L292.6,388.0 L292.8,388.0 L293.1,388.0 L293.3,388.0 L293.5,388.2 L293.7,388.2 L293.9,388.2 L294.1,388.2 
		L294.3,388.2 L294.5,388.3 L294.8,388.3 L295.0,388.3 L295.2,388.3 L295.4,388.3 L295.6,388.3 L295.8,388.3 
		L296.0,388.3 L296.3,388.3 L296.5,388.6 L296.7,388.4 L296.9,388.4 L297.1,388.4 L297.3,388.5 L297.5,388.5 
		L297.8,388.5 L298.0,388.5 L298.2,388.5 L298.4,388.6 L298.6,388.6 L298.8,388.6 L299.0,388.6 L299.2,388.6 
		L299.5,388.6 L299.7,388.6 L299.9,388.6 L300.1,388.6 L300.3,388.6 L300.5,388.6 L300.7,388.6 L301.0,389.0 
		L301.2,388.9 L301.4,388.9 L301.6,388.9 L301.8,388.9 L302.0,389.1 L302.2,389.1 L302.4,389.1 L302.7,389.1 
		L302.9,389.1 L303.1,389.1 L303.3,389.3 L303.5,389.0 L303.7,389.0 L303.9,389.0 L304.2,389.1 L304.4,389.1 
		L304.6,389.1 L304.8,389.1 L305.0,389.1 L305.2,389.1 L305.4,389.1 L305.7,389.1 L305.9,389.4 L306.1,389.4 
		L306.3,389.4 L306.5,389.4 L306.7,389.4 L306.9,389.4 L307.1,389.4 L307.4,389.5 L307.6,389.5 L307.8,389.5 
		L308.0,389.5 L308.2,389.4 L308.4,389.4 L308.6,389.4 L308.9,389.2 L309.1,389.2 L309.3,389.3 L309.5,389.3 
		L309.7,389.3 L309.9,389.3 L310.1,389.4 L310.3,389.4 L310.6,389.3 L310.8,389.2 L311.0,388.9 L311.2,388.7 
		L311.4,388.7 L311.6,388.6 L311.8,388.5 L312.1,388.4 L312.3,388.2 L312.5,388.2 L312.7,388.2 L312.9,388.3 
		L313.1,388.3 L313.3,388.3 L313.6,388.3 L313.8,388.3 L314.0,388.3 L314.2,388.3 L314.4,388.3 L314.6,388.3 
		L314.8,388.5 L315.0,388.5 L315.3,388.5 L315.5,388.6 L315.7,388.5 L315.9,388.5 L316.1,388.5 L316.3,388.5 
		L316.5,388.5 L316.8,388.5 L317.0,388.7 L317.2,388.7 L317.4,388.7 L317.6,388.7 L317.8,388.7 L318.0,388.7 
		L318.2,388.7 L318.5,388.7 L318.7,388.6 L318.9,388.6 L319.1,388.6 L319.3,388.6 L319.5,388.6 L319.7,388.6 
		L320.0,388.6 L320.2,388.6 L320.4,388.6 L320.6,388.9 L320.8,388.7 L321.0,388.7 L321.2,388.6 L321.5,388.6 
		L321.7,388.6 L321.9,388.6 L322.1,388.6 L322.3,388.6 L322.5,388.6 L322.7,388.8 L322.9,388.6 L323.2,388.4 
		L323.4,388.4 L323.6,388.3 L323.8,388.3 L324.0,388.3 L324.2,388.3 L324.4,388.3 L324.7,388.3 L324.9,388.3 
		L325.1,388.4 L325.3,388.3 L325.5,388.3 L325.7,388.3 L325.9,388.3 L326.1,388.3 L326.4,388.3 L326.6,388.3 
		L326.8,388.3 L327.0,388.3 L327.2,388.3 L327.4,388.3 L327.6,388.3 L327.9,388.3 L328.1,388.5 L328.3,388.5 
		L328.5,388.5 L328.7,388.5 L328.9,388.7 L329.1,388.6 L329.4,388.6 L329.6,388.6 L329.8,388.6 L330.0,388.6 
		L330.2,388.6 L330.4,388.6 L330.6,388.6 L330.8,388.6 L331.1,388.8 L331.3,388.8 L331.5,388.8 L331.7,388.8 
		L331.9,388.8 L332.1,388.8 L332.3,388.8 L332.6,388.8 L332.8,388.8 L333.0,388.8 L333.2,388.8 L333.4,389.1 
		L333.6,389.1 L333.8,389.1 L334.0,389.1 L334.3,389.1 L334.5,389.1 L334.7,389.1 L334.9,389.1 L335.1,389.1 
		L335.3,389.1 L335.5,389.1 L335.8,389.1 L336.0,389.1 L336.2,389.1 L336.4,389.1 L336.6,389.1 L336.8,389.1 
		L337.0,389.0 L337.2,389.0 L337.5,389.0 L337.7,389.0 L337.9,389.0 L338.1,389.0 L338.3,389.0 L338.5,389.2 
		L338.7,389.2 L339.0,389.1 L339.2,389.1 L339.4,389.1 L339.6,389.1 L339.8,389.0 L340.0,389.0 L340.2,389.0 
		L340.5,389.0 L340.7,389.0 L340.9,389.1 L341.1,389.1 L341.3,389.1 L341.5,389.1 L341.7,389.1 L341.9,389.1 
		L342.2,389.1 L342.4,389.1 L342.6,389.1 L342.8,389.3 L343.0,389.3 L343.2,389.3 L343.4,389.3 L343.7,389.4 
		L343.9,389.2 L344.1,389.2 L344.3,389.2 L344.5,389.2 L344.7,389.2 L344.9,389.1 L345.1,389.1 L345.4,389.1 
		L345.6,389.1 L345.8,389.1 L346.0,389.1 L346.2,389.1 L346.4,389.1 L346.6,389.1 L346.9,389.1 L347.1,389.2 
		L347.3,389.2 L347.5,389.2 L347.7,389.2 L347.9,389.2 L348.1,389.2 L348.4,389.2 L348.6,389.2 L348.8,389.2 
		L349.0,389.2 L349.2,389.2 L349.4,389.2 L349.6,389.2 L349.8,389.2 L350.1,389.2 L350.3,389.5 L350.5,389.5 
		L350.7,389.4 L350.9,389.1 L351.1,389.1 L351.3,389.1 L351.6,389.1 L351.8,389.1 L352.0,389.1 L352.2,389.2 
		L352.4,389.2 L352.6,389.2 L352.8,389.2 L353.0,389.2 L353.3,389.2 L353.5,389.2 L353.7,389.2 L353.9,389.2 
		L354.1,389.2 L354.3,389.2 L354.5,389.2 L354.8,389.2 L355.0,389.2 L355.2,389.2 L355.4,389.2 L355.6,389.2 
		L355.8,389.2 L356.0,389.2 L356.3,389.2 L356.5,389.1 L356.7,389.0 L356.9,389.0 L357.1,389.0 L357.3,389.0 
		L357.5,389.0 L357.7,389.0 L358.0,389.0 L358.2,389.1 L358.4,389.1 L358.6,389.1 L358.8,389.2 L359.0,389.1 
		L359.2,389.1 L359.5,389.1 L359.7,389.1 L359.9,389.1 L360.1,389.1 L360.3,389.1 L360.5,389.1 L360.7,389.1 
		L360.9,389.3 L361.2,389.3 L361.4,389.3 L361.6,389.3 L361.8,389.3 L362.0,389.4 L362.2,389.4 L362.4,389.4 
		L362.7,389.4 L362.9,389.4 L363.1,389.3 L363.3,389.3 L363.5,389.3 L363.7,389.3 L363.9,389.3 L364.2,389.3 
		L364.4,389.4 L364.6,389.4 L364.8,389.4 L365.0,389.4 L365.2,389.4 L365.4,389.4 L365.6,389.4 L365.9,389.5 
		L366.1,389.5 L366.3,389.5 L366.5,389.5 L366.7,389.5 L366.9,389.5 L367.1,389.5 L367.4,389.5 L367.6,389.5 
		L367.8,389.5 L368.0,389.5 L368.2,389.5 L368.4,389.5 L368.6,389.5 L368.8,389.5 L369.1,389.7 L369.3,389.7 
		L369.5,389.7 L369.7,389.6 L369.9,389.6 L370.1,389.6 L370.3,389.6 L370.6,389.6 L370.8,389.6 L371.0,389.6 
		L371.2,389.6 L371.4,389.6 L371.6,389.6 L371.8,389.6 L372.1,389.7 L372.3,389.7 L372.5,389.7 L372.7,389.8 
		L372.9,389.8 L373.1,389.8 L373.3,389.7 L373.5,389.7 L373.8,389.7 L374.0,389.7 L374.2,389.7 L374.4,389.7 
		L374.6,389.7 L374.8,389.7 L375.0,389.7 L375.3,389.7 L375.5,389.8 L375.7,389.5 L375.9,389.4 L376.1,389.4 
		L376.3,389.4 L376.5,389.4 L376.7,389.4 L377.0,389.5 L377.2,389.3 L377.4,389.1 L377.6,389.0 L377.8,389.0 
		L378.0,389.0 L378.2,389.0 L378.5,389.0 L378.7,389.0 L378.9,389.0 L379.1,389.0 L379.3,389.0 L379.5,389.0 
		L379.7,389.0 L379.9,389.0 L380.2,389.2 L380.4,389.2 L380.6,389.2 L380.8,389.2 L381.0,389.2 L381.2,389.1 
		L381.4,389.1 L381.7,389.1 L381.9,389.2 L382.1,389.2 L382.3,389.2 L382.5,389.2 L382.7,389.2 L382.9,389.2 
		L383.2,389.2 L383.4,389.2 L383.6,389.3 L383.8,388.9 L384.0,388.9 L384.2,388.9 L384.4,388.9 L384.6,388.9 
		L384.9,388.9 L385.1,388.9 L385.3,388.9 L385.5,388.9 L385.7,388.9 L385.9,388.8 L386.1,388.8 L386.4,388.8 
		L386.6,388.8 L386.8,388.8 L387.0,388.8 L387.2,388.9 L387.4,388.9 L387.6,388.9 L387.8,388.9 L388.1,388.9 
		L388.3,388.9 L388.5,388.9 L388.7,388.9 L388.9,388.9 L389.1,389.0 L389.3,389.0 L389.6,389.0 L389.8,389.0 
		L390.0,389.0 L390.2,388.8 L390.4,388.8 L390.6,388.8 L390.8,388.9 L391.1,388.9 L391.3,388.9 L391.5,388.9 
		L391.7,388.9 L391.9,388.9 L392.1,388.9 L392.3,388.9 L392.5,388.9 L392.8,388.9 L393.0,388.9 L393.2,388.9 
		L393.4,388.9 L393.6,389.0 L393.8,388.9 L394.0,388.9 L394.3,388.8 L394.5,388.8 L394.7,388.8 L394.9,388.9 
		L395.1,388.8 L395.3,388.8 L395.5,388.8 L395.7,388.8 L396.0,388.8 L396.2,388.5 L396.4,388.5 L396.6,388.5 
		L396.8,388.5 L397.0,388.5 L397.2,388.5 L397.5,388.6 L397.7,388.4 L397.9,388.4 L398.1,388.4 L398.3,388.4 
		L398.5,388.4 L398.7,388.4 L399.0,388.4 L399.2,388.4 L399.4,388.4 L399.6,388.5 L399.8,388.5 L400.0,388.5 
		L400.2,388.5 L400.4,388.5 L400.7,388.5 L400.9,388.5 L401.1,388.5 L401.3,388.5 L401.5,388.5 L401.7,388.5 
		L401.9,388.7 L402.2,388.7 L402.4,388.7 L402.6,388.7 L402.8,388.7 L403.0,388.7 L403.2,388.7 L403.4,388.7 
		L403.6,388.7 L403.9,388.8 L404.1,388.8 L404.3,388.8 L404.5,388.8 L404.7,388.8 L404.9,388.8 L405.1,388.8 
		L405.4,388.9 L405.6,388.9 L405.8,388.9 L406.0,388.9 L406.2,388.9 L406.4,388.8 L406.6,388.8 L406.9,388.8 
		L407.1,388.8 L407.3,388.8 L407.5,388.8 L407.7,388.8 L407.9,388.8 L408.1,389.0 L408.3,389.0 L408.6,389.0 
		L408.8,389.0 L409.0,389.0 L409.2,389.0 L409.4,389.0 L409.6,389.0 L409.8,389.0 L410.1,389.0 L410.3,389.0 
		L410.5,389.0 L410.7,389.0 L410.9,389.0 L411.1,389.0 L411.3,389.0 L411.5,389.0 L411.8,389.3 L412.0,389.2 
		L412.2,389.2 L412.4,389.2 L412.6,389.2 L412.8,389.2 L413.0,389.2 L413.3,389.2 L413.5,389.2 L413.7,389.2 
		L413.9,389.2 L414.1,389.2 L414.3,389.2 L414.5,389.2 L414.8,389.3 L415.0,389.3 L415.2,389.3 L415.4,389.3 
		L415.6,389.3 L415.8,389.3 L416.0,389.3 L416.2,389.3 L416.5,389.3 L416.7,389.3 L416.9,389.3 L417.1,389.3 
		L417.3,389.3 L417.5,388.8 L417.7,388.7 L418.0,388.7 L418.2,388.7 L418.4,388.8 L418.6,388.7 L418.8,388.7 
		L419.0,388.7 L419.2,388.7 L419.4,388.7 L419.7,388.7 L419.9,388.7 L420.1,388.7 L420.3,388.6 L420.5,388.6 
		L420.7,388.6 L420.9,388.6 L421.2,388.6 L421.4,388.6 L421.6,388.6 L421.8,388.6 L422.0,388.6 L422.2,388.6 
		L422.4,388.6 L422.6,388.4 L422.9,388.4 L423.1,388.4 L423.3,388.4 L423.5,388.4 L423.7,388.4 L423.9,388.4 
		L424.1,388.4 L424.4,388.3 L424.6,388.3 L424.8,388.2 L425.0,388.2 L425.2,388.2 L425.4,388.2 L425.6,388.2 
		L425.9,388.2 L426.1,388.2 L426.3,388.2 L426.5,388.4 L426.7,388.4 L426.9,388.4 L427.1,388.4 L427.3,388.4 
		L427.6,388.4 L427.8,388.4 L428.0,388.4 L428.2,388.4 L428.4,388.5 L428.6,388.5 L428.8,388.5 L429.1,388.5 
		L429.3,388.5 L429.5,388.5 L429.7,388.5 L429.9,388.6 L430.1,388.6 L430.3,388.6 L430.5,388.6 L430.8,388.6 
		L431.0,388.6 L431.2,388.6 L431.4,388.6 L431.6,388.7 L431.8,388.6 L432.0,388.3 L432.3,388.3 L432.5,388.3 
		L432.7,388.3 L432.9,388.3 L433.1,388.3 L433.3,388.4 L433.5,388.4 L433.8,388.4 L434.0,388.4 L434.2,388.4 
		L434.4,388.4 L434.6,388.4 L434.8,388.4 L435.0,388.4 L435.2,388.4 L435.5,388.5 L435.7,388.5 L435.9,388.4 
		L436.1,388.4 L436.3,388.4 L436.5,388.5 L436.7,388.5 L437.0,388.5 L437.2,388.5 L437.4,388.5 L437.6,388.5 
		L437.8,388.5 L438.0,388.5 L438.2,388.5 L438.4,388.5 L438.7,388.5 L438.9,388.5 L439.1,388.7 L439.3,388.7 
		L439.5,388.7 L439.7,388.7 L439.9,388.7 L440.2,388.8 L440.4,388.8 L440.6,388.8 L440.8,388.8 L441.0,388.8 
		L441.2,388.8 L441.4,388.8 L441.7,388.8 L441.9,388.9 L442.1,388.9 L442.3,388.9 L442.5,388.9 L442.7,388.9 
		L442.9,388.9 L443.1,388.9 L443.4,388.9 L443.6,388.9 L443.8,388.9 L444.0,388.9 L444.2,389.0 L444.4,389.0 
		L444.6,389.0 L444.9,389.0 L445.1,389.0 L445.3,389.1 L445.5,389.1 L445.7,388.9 L445.9,388.9 L446.1,388.9 
		L446.3,388.9 L446.6,388.9 L446.8,388.9 L447.0,388.9 L447.2,388.9 L447.4,388.9 L447.6,388.9 L447.8,389.1 
		L448.1,389.1 L448.3,389.1 L448.5,389.1 L448.7,389.1 L448.9,389.1 L449.1,389.1 L449.3,389.1 L449.6,389.1 
		L449.8,389.1 L450.0,389.1 L450.2,389.1 L450.4,389.1 L450.6,389.1 L450.8,389.1 L451.0,389.2 L451.3,389.2 
		L451.5,389.2 L451.7,389.2 L451.9,389.2 L452.1,389.2 L452.3,389.2 L452.5,389.2 L452.8,389.2 L453.0,389.3 
		L453.2,389.3 L453.4,389.3 L453.6,389.3 L453.8,389.3 L454.0,389.3 L454.2,389.3 L454.5,389.3 L454.7,389.3 
		L454.9,389.3 L455.1,389.4 L455.3,389.3 L455.5,389.2 L455.7,389.1 L456.0,389.1 L456.2,389.1 L456.4,389.1 
		L456.6,389.1 L456.8,389.1 L457.0,389.1 L457.2,389.1 L457.5,389.1 L457.7,389.1 L457.9,389.1 L458.1,389.1 
		L458.3,389.1 L458.5,389.1 L458.7,389.1 L458.9,389.1 L459.2,389.1 L459.4,389.1 L459.6,389.4 L459.8,389.4 
		L460.0,389.3 L460.2,389.3 L460.4,389.4 L460.7,389.2 L460.9,389.2 L461.1,389.1 L461.3,388.8 L461.5,388.8 
		L461.7,388.7 L461.9,388.6 L462.1,388.6 L462.4,388.6 L462.6,388.5 L462.8,388.5 L463.0,388.5 L463.2,388.5 
		L463.4,388.5 L463.6,388.5 L463.9,388.5 L464.1,388.5 L464.3,388.5 L464.5,388.7 L464.7,388.7 L464.9,388.6 
		L465.1,388.6 L465.3,388.5 L465.6,388.5 L465.8,388.5 L466.0,388.5 L466.2,388.5 L466.4,388.5 L466.6,388.5 
		L466.8,388.5 L467.1,388.5 L467.3,388.5 L467.5,388.5 L467.7,388.5 L467.9,388.5 L468.1,388.5 L468.3,388.7 
		L468.6,388.6 L468.8,388.6 L469.0,388.6 L469.2,388.6 L469.4,388.6 L469.6,388.6 L469.8,388.6 L470.0,388.6 
		L470.3,388.7 L470.5,388.7 L470.7,388.7 L470.9,388.7 L471.1,388.7 L471.3,388.7 L471.5,388.7 L471.8,388.7 
		L472.0,388.7 L472.2,388.7 L472.4,388.6 L472.6,388.6 L472.8,388.6 L473.0,388.6 L473.2,388.6 L473.5,388.6 
		L473.7,388.6 L473.9,388.7 L474.1,388.7 L474.3,388.7 L474.5,388.7 L474.7,388.7 L475.0,388.7 L475.2,388.8 
		L475.4,388.8 L475.6,388.8 L475.8,388.8 L476.0,388.8 L476.2,388.8 L476.5,388.8 L476.7,388.9 L476.9,388.8 
		L477.1,388.8 L477.3,388.8 L477.5,388.8 L477.7,388.8 L477.9,388.8 L478.2,388.8 L478.4,388.8 L478.6,388.8 
		L478.8,388.7 L479.0,388.7 L479.2,388.7 L479.4,388.7 L479.7,388.7 L479.9,388.8 L480.1,388.8 L480.3,388.8 
		L480.5,388.8 L480.7,388.8 L480.9,388.9 L481.1,388.9 L481.4,388.9 L481.6,388.9 L481.8,388.9 L482.0,388.9 
		L482.2,388.8 L482.4,388.8 L482.6,388.6 L482.9,388.6 L483.1,388.6 L483.3,388.6 L483.5,388.6 L483.7,388.6 
		L483.9,388.6 L484.1,388.4 L484.4,388.2 L484.6,388.2 L484.8,388.2 L485.0,388.2 L485.2,388.1 L485.4,388.1 
		L485.6,388.1 L485.8,388.1 L486.1,388.1 L486.3,388.1 L486.5,388.1 L486.7,388.1 L486.9,388.1 L487.1,388.1 
		L487.3,388.1 L487.6,388.1 L487.8,388.2 L488.0,388.2 L488.2,388.2 L488.4,388.2 L488.6,388.2 L488.8,388.2 
		L489.0,388.2 L489.3,388.3 L489.5,388.3 L489.7,388.3 L489.9,388.3 L490.1,388.3 L490.3,388.3 L490.5,388.4 
		L490.8,388.4 L491.0,388.4 L491.2,388.2 L491.4,388.2 L491.6,388.0 L491.8,388.0 L492.0,388.0 L492.3,388.0 
		L492.5,387.9 L492.7,387.9 L492.9,387.9 L493.1,387.9 L493.3,387.9 L493.5,387.9 L493.7,387.9 L494.0,387.9 
		L494.2,387.9 L494.4,387.9 L494.6,387.9 L494.8,387.7 L495.0,387.7 L495.2,387.7 L495.5,387.7 L495.7,387.7 
		L495.9,387.7 L496.1,387.7 L496.3,387.7 L496.5,387.7 L496.7,387.7 L496.9,387.7 L497.2,387.7 L497.4,387.7 
		L497.6,387.7 L497.8,387.7 L498.0,387.7 L498.2,387.7 L498.4,387.7 L498.7,387.7 L498.9,387.7 L499.1,387.7 
		L499.3,387.7 L499.5,387.7 L499.7,387.7 L499.9,387.7 L500.2,387.7 L500.4,387.7 L500.6,387.7 L500.8,387.7 
		L501.0,387.7 L501.2,387.7 L501.4,387.7 L501.6,388.0 L501.9,387.8 L502.1,387.8 L502.3,387.8 L502.5,387.8 
		L502.7,387.9 L502.9,387.9 L503.1,387.9 L503.4,387.9 L503.6,387.9 L503.8,387.8 L504.0,387.8 L504.2,387.8 
		L504.4,387.8 L504.6,387.8 L504.8,387.8 L505.1,387.8 L505.3,387.8 L505.5,387.8 L505.7,387.8 L505.9,387.8 
		L506.1,387.8 L506.3,387.8 L506.6,387.8 L506.8,387.8 L507.0,387.8 L507.2,387.8  h0.01'/></g>
	</g>
	<g id="gnuplot_plot_3" ><title>gnuplot_plot_3</title>
<g style="fill:none; color:blue; stroke:currentColor; stroke-width:1.00; stroke-linecap:butt; stroke-linejoin:miter">
	<g transform="translate(440.1,408.9)" style="stroke:none; fill:black; font-family:Arial; font-size:12.00pt; text-anchor:end">
		<text>TCP UL Delay</text>
	</g>
	<path  d='M448.4,404.4 L490.6,404.4 M80.2,411.9 L80.4,411.9 L80.6,378.6 L80.8,378.6 L81.1,378.6 L81.3,322.3 
		L81.5,322.3 L81.7,322.3 L81.9,322.3 L82.1,322.3 L82.3,322.3 L82.6,322.3 L82.8,322.3 L83.0,322.3 
		L83.2,322.3 L83.4,184.0 L83.6,184.0 L83.9,184.0 L84.1,184.0 L84.3,212.2 L84.5,259.2 L84.7,268.3 
		L84.9,306.0 L85.1,306.0 L85.4,329.0 L85.6,329.0 L85.8,329.0 L86.0,355.8 L86.2,355.8 L86.4,355.8 
		L86.6,355.8 L86.9,355.8 L87.1,355.8 L87.3,355.8 L87.5,355.8 L87.7,355.8 L87.9,355.8 L88.1,311.0 
		L88.4,311.0 L88.6,274.1 L88.8,274.1 L89.0,274.1 L89.2,274.1 L89.4,268.7 L89.7,268.7 L89.9,268.7 
		L90.1,268.7 L90.3,268.7 L90.5,268.7 L90.7,268.7 L90.9,268.7 L91.2,268.7 L91.4,268.7 L91.6,268.7 
		L91.8,268.7 L92.0,268.7 L92.2,255.5 L92.4,255.5 L92.7,255.5 L92.9,255.5 L93.1,258.3 L93.3,267.9 
		L93.5,267.9 L93.7,267.9 L93.9,267.9 L94.2,267.9 L94.4,266.5 L94.6,273.3 L94.8,273.3 L95.0,273.3 
		L95.2,273.3 L95.5,273.3 L95.7,273.3 L95.9,273.3 L96.1,266.5 L96.3,269.6 L96.5,269.6 L96.7,269.6 
		L97.0,267.2 L97.2,290.8 L97.4,290.8 L97.6,290.8 L97.8,290.8 L98.0,290.8 L98.2,290.8 L98.5,290.8 
		L98.7,290.8 L98.9,290.8 L99.1,290.8 L99.3,290.8 L99.5,290.8 L99.8,290.8 L100.0,290.8 L100.2,253.6 
		L100.4,253.6 L100.6,263.3 L100.8,263.3 L101.0,263.3 L101.3,263.3 L101.5,263.3 L101.7,263.3 L101.9,263.3 
		L102.1,263.3 L102.3,263.3 L102.5,263.3 L102.8,263.3 L103.0,263.3 L103.2,263.3 L103.4,263.3 L103.6,251.2 
		L103.8,251.2 L104.0,252.2 L104.3,252.2 L104.5,252.2 L104.7,252.2 L104.9,252.2 L105.1,252.2 L105.3,247.5 
		L105.6,247.5 L105.8,247.5 L106.0,250.3 L106.2,250.3 L106.4,250.3 L106.6,250.3 L106.8,250.3 L107.1,253.8 
		L107.3,253.8 L107.5,253.8 L107.7,253.8 L107.9,253.8 L108.1,253.8 L108.3,253.8 L108.6,253.8 L108.8,253.8 
		L109.0,240.8 L109.2,254.4 L109.4,266.5 L109.6,266.5 L109.9,266.5 L110.1,266.5 L110.3,266.5 L110.5,266.5 
		L110.7,266.5 L110.9,266.5 L111.1,260.9 L111.4,264.6 L111.6,269.4 L111.8,269.4 L112.0,269.4 L112.2,269.4 
		L112.4,269.4 L112.6,269.4 L112.9,269.4 L113.1,269.4 L113.3,269.4 L113.5,269.4 L113.7,257.3 L113.9,257.3 
		L114.1,257.3 L114.4,257.3 L114.6,257.3 L114.8,257.3 L115.0,257.3 L115.2,240.5 L115.4,243.8 L115.7,243.8 
		L115.9,243.8 L116.1,243.8 L116.3,243.8 L116.5,253.9 L116.7,253.9 L116.9,253.9 L117.2,253.9 L117.4,253.9 
		L117.6,253.9 L117.8,253.9 L118.0,254.9 L118.2,265.9 L118.5,268.3 L118.7,268.3 L118.9,268.3 L119.1,268.3 
		L119.3,268.3 L119.5,268.3 L119.7,264.6 L120.0,264.6 L120.2,264.6 L120.4,264.6 L120.6,262.6 L120.8,249.2 
		L121.0,249.2 L121.2,249.2 L121.5,249.2 L121.7,249.2 L121.9,249.2 L122.1,245.5 L122.3,242.3 L122.5,242.3 
		L122.8,242.3 L123.0,242.3 L123.2,242.3 L123.4,242.3 L123.6,242.3 L123.8,242.3 L124.0,242.3 L124.3,242.3 
		L124.5,242.3 L124.7,226.2 L124.9,230.2 L125.1,230.2 L125.3,230.6 L125.5,230.6 L125.8,230.6 L126.0,230.6 
		L126.2,230.6 L126.4,222.9 L126.6,222.9 L126.8,222.9 L127.0,222.9 L127.3,216.3 L127.5,216.3 L127.7,216.3 
		L127.9,216.3 L128.1,215.3 L128.3,215.3 L128.6,215.3 L128.8,215.3 L129.0,215.3 L129.2,215.3 L129.4,215.3 
		L129.6,215.3 L129.8,215.3 L130.1,215.3 L130.3,199.2 L130.5,206.3 L130.7,206.3 L130.9,206.3 L131.1,206.3 
		L131.3,206.3 L131.6,205.0 L131.8,205.0 L132.0,205.0 L132.2,205.0 L132.4,205.0 L132.6,205.0 L132.9,205.0 
		L133.1,205.0 L133.3,205.0 L133.5,205.0 L133.7,205.0 L133.9,205.0 L134.1,205.0 L134.4,205.0 L134.6,190.0 
		L134.8,190.0 L135.0,159.9 L135.2,159.9 L135.4,161.0 L135.6,161.0 L135.9,161.0 L136.1,161.0 L136.3,158.5 
		L136.5,164.0 L136.7,169.4 L136.9,169.7 L137.1,170.6 L137.4,170.6 L137.6,170.6 L137.8,170.6 L138.0,170.6 
		L138.2,170.6 L138.4,170.6 L138.7,170.6 L138.9,170.6 L139.1,170.6 L139.3,170.6 L139.5,170.6 L139.7,170.6 
		L139.9,170.6 L140.2,170.6 L140.4,170.6 L140.6,170.6 L140.8,170.6 L141.0,170.6 L141.2,170.6 L141.4,170.6 
		L141.7,170.6 L141.9,170.6 L142.1,170.6 L142.3,170.6 L142.5,170.6 L142.7,170.6 L143.0,170.6 L143.2,145.3 
		L143.4,100.8 L143.6,104.1 L143.8,104.1 L144.0,104.1 L144.2,104.1 L144.5,104.1 L144.7,104.1 L144.9,104.1 
		L145.1,104.1 L145.3,104.1 L145.5,104.1 L145.7,97.6 L146.0,87.1 L146.2,87.1 L146.4,87.1 L146.6,87.1 
		L146.8,81.9 L147.0,81.2 L147.2,81.2 L147.5,81.7 L147.7,81.7 L147.9,81.7 L148.1,81.7 L148.3,81.7 
		L148.5,81.7 L148.8,81.7 L149.0,81.2 L149.2,82.8 L149.4,87.1 L149.6,95.0 L149.8,95.0 L150.0,95.0 
		L150.3,95.9 L150.5,95.9 L150.7,95.9 L150.9,95.9 L151.1,95.0 L151.3,95.0 L151.5,95.0 L151.8,95.0 
		L152.0,95.0 L152.2,95.0 L152.4,94.3 L152.6,94.3 L152.8,98.5 L153.1,105.5 L153.3,105.5 L153.5,105.5 
		L153.7,107.1 L153.9,114.6 L154.1,114.6 L154.3,116.1 L154.6,116.1 L154.8,116.1 L155.0,116.1 L155.2,116.1 
		L155.4,116.1 L155.6,116.1 L155.8,115.6 L156.1,112.0 L156.3,112.0 L156.5,112.0 L156.7,117.5 L156.9,117.5 
		L157.1,117.5 L157.3,117.5 L157.6,124.4 L157.8,124.4 L158.0,124.4 L158.2,131.7 L158.4,133.6 L158.6,133.6 
		L158.9,133.6 L159.1,133.6 L159.3,133.6 L159.5,131.5 L159.7,131.5 L159.9,131.5 L160.1,131.5 L160.4,131.5 
		L160.6,131.5 L160.8,131.5 L161.0,130.7 L161.2,129.9 L161.4,129.9 L161.6,129.9 L161.9,129.3 L162.1,126.9 
		L162.3,126.9 L162.5,126.9 L162.7,126.9 L162.9,126.9 L163.2,126.9 L163.4,126.9 L163.6,126.9 L163.8,126.9 
		L164.0,126.9 L164.2,126.9 L164.4,126.9 L164.7,126.9 L164.9,113.9 L165.1,115.6 L165.3,130.2 L165.5,132.5 
		L165.7,138.6 L165.9,147.3 L166.2,147.8 L166.4,158.6 L166.6,162.6 L166.8,170.6 L167.0,170.7 L167.2,178.9 
		L167.4,178.9 L167.7,178.9 L167.9,178.9 L168.1,178.9 L168.3,178.9 L168.5,178.9 L168.7,178.7 L169.0,173.2 
		L169.2,174.0 L169.4,174.0 L169.6,174.0 L169.8,174.3 L170.0,174.3 L170.2,174.3 L170.5,174.3 L170.7,173.8 
		L170.9,173.8 L171.1,173.8 L171.3,173.8 L171.5,173.8 L171.7,173.8 L172.0,173.8 L172.2,173.8 L172.4,168.2 
		L172.6,168.2 L172.8,168.2 L173.0,168.2 L173.3,168.2 L173.5,168.2 L173.7,168.2 L173.9,168.2 L174.1,168.2 
		L174.3,168.2 L174.5,168.2 L174.8,168.2 L175.0,168.2 L175.2,162.8 L175.4,162.8 L175.6,154.3 L175.8,144.7 
		L176.0,150.2 L176.3,152.2 L176.5,154.9 L176.7,155.5 L176.9,155.5 L177.1,157.9 L177.3,161.8 L177.5,162.7 
		L177.8,162.7 L178.0,162.7 L178.2,162.7 L178.4,162.7 L178.6,162.2 L178.8,162.2 L179.1,162.2 L179.3,162.2 
		L179.5,162.2 L179.7,162.2 L179.9,161.9 L180.1,161.9 L180.3,162.7 L180.6,163.5 L180.8,163.5 L181.0,163.8 
		L181.2,165.6 L181.4,166.4 L181.6,166.4 L181.8,166.7 L182.1,169.3 L182.3,170.5 L182.5,170.5 L182.7,170.5 
		L182.9,170.5 L183.1,170.5 L183.4,170.5 L183.6,172.8 L183.8,172.8 L184.0,172.8 L184.2,172.8 L184.4,172.7 
		L184.6,174.8 L184.9,174.8 L185.1,174.8 L185.3,174.8 L185.5,174.8 L185.7,174.8 L185.9,174.8 L186.1,174.8 
		L186.4,173.8 L186.6,173.8 L186.8,173.8 L187.0,171.5 L187.2,172.3 L187.4,172.3 L187.6,172.3 L187.9,172.3 
		L188.1,172.0 L188.3,172.0 L188.5,172.0 L188.7,172.0 L188.9,172.0 L189.2,170.7 L189.4,170.7 L189.6,170.7 
		L189.8,173.5 L190.0,173.5 L190.2,178.3 L190.4,181.1 L190.7,181.1 L190.9,181.1 L191.1,181.1 L191.3,181.1 
		L191.5,181.1 L191.7,180.1 L191.9,180.1 L192.2,179.3 L192.4,183.3 L192.6,183.3 L192.8,183.3 L193.0,183.3 
		L193.2,183.3 L193.5,184.4 L193.7,186.2 L193.9,186.2 L194.1,186.4 L194.3,187.1 L194.5,188.4 L194.7,189.0 
		L195.0,189.0 L195.2,190.2 L195.4,190.2 L195.6,190.2 L195.8,190.2 L196.0,190.2 L196.2,190.2 L196.5,190.2 
		L196.7,190.2 L196.9,190.2 L197.1,190.2 L197.3,190.2 L197.5,190.2 L197.7,190.2 L198.0,190.2 L198.2,190.2 
		L198.4,190.2 L198.6,190.2 L198.8,187.0 L199.0,187.0 L199.3,187.6 L199.5,188.0 L199.7,188.7 L199.9,189.3 
		L200.1,189.3 L200.3,189.3 L200.5,189.3 L200.8,189.3 L201.0,189.3 L201.2,189.5 L201.4,189.9 L201.6,190.2 
		L201.8,190.2 L202.0,190.2 L202.3,190.2 L202.5,190.2 L202.7,190.2 L202.9,190.2 L203.1,190.2 L203.3,190.2 
		L203.6,190.5 L203.8,190.5 L204.0,190.5 L204.2,190.5 L204.4,190.7 L204.6,191.0 L204.8,191.0 L205.1,191.8 
		L205.3,192.3 L205.5,193.0 L205.7,193.0 L205.9,193.2 L206.1,193.2 L206.3,194.5 L206.6,196.8 L206.8,197.3 
		L207.0,197.3 L207.2,197.3 L207.4,197.3 L207.6,197.3 L207.9,196.9 L208.1,198.3 L208.3,198.3 L208.5,198.3 
		L208.7,198.3 L208.9,198.3 L209.1,198.0 L209.4,198.0 L209.6,198.0 L209.8,198.0 L210.0,198.0 L210.2,197.7 
		L210.4,198.6 L210.6,199.9 L210.9,199.9 L211.1,200.1 L211.3,200.1 L211.5,200.1 L211.7,200.1 L211.9,200.1 
		L212.1,199.9 L212.4,200.7 L212.6,200.7 L212.8,200.7 L213.0,200.7 L213.2,200.7 L213.4,200.7 L213.7,199.8 
		L213.9,201.4 L214.1,202.2 L214.3,202.2 L214.5,202.2 L214.7,202.2 L214.9,202.2 L215.2,202.2 L215.4,202.2 
		L215.6,200.9 L215.8,201.7 L216.0,201.7 L216.2,201.7 L216.4,201.7 L216.7,201.7 L216.9,202.8 L217.1,203.8 
		L217.3,203.8 L217.5,203.8 L217.7,203.8 L218.0,203.8 L218.2,203.8 L218.4,203.8 L218.6,203.8 L218.8,203.8 
		L219.0,202.8 L219.2,202.8 L219.5,202.8 L219.7,202.8 L219.9,202.8 L220.1,202.8 L220.3,202.8 L220.5,200.8 
		L220.7,200.8 L221.0,200.8 L221.2,200.8 L221.4,200.8 L221.6,200.8 L221.8,200.8 L222.0,200.8 L222.2,200.8 
		L222.5,196.4 L222.7,196.4 L222.9,196.1 L223.1,196.1 L223.3,196.1 L223.5,197.5 L223.8,198.5 L224.0,198.5 
		L224.2,198.5 L224.4,198.5 L224.6,198.5 L224.8,198.5 L225.0,198.5 L225.3,198.5 L225.5,198.5 L225.7,198.1 
		L225.9,198.3 L226.1,198.3 L226.3,198.3 L226.5,198.3 L226.8,197.7 L227.0,198.6 L227.2,198.6 L227.4,198.6 
		L227.6,198.6 L227.8,198.6 L228.1,198.6 L228.3,198.6 L228.5,198.6 L228.7,198.6 L228.9,198.6 L229.1,198.6 
		L229.3,197.3 L229.6,197.3 L229.8,197.3 L230.0,197.3 L230.2,197.3 L230.4,197.3 L230.6,190.9 L230.8,190.9 
		L231.1,190.9 L231.3,190.9 L231.5,190.9 L231.7,190.9 L231.9,189.0 L232.1,190.7 L232.3,190.7 L232.6,191.0 
		L232.8,191.5 L233.0,192.7 L233.2,192.7 L233.4,192.7 L233.6,192.7 L233.9,192.7 L234.1,192.7 L234.3,192.7 
		L234.5,192.7 L234.7,193.9 L234.9,195.6 L235.1,195.6 L235.4,195.6 L235.6,195.6 L235.8,195.6 L236.0,195.6 
		L236.2,195.6 L236.4,195.6 L236.6,194.8 L236.9,194.0 L237.1,194.0 L237.3,194.0 L237.5,195.3 L237.7,195.3 
		L237.9,195.3 L238.2,195.3 L238.4,195.3 L238.6,196.2 L238.8,196.8 L239.0,196.8 L239.2,197.5 L239.4,197.9 
		L239.7,197.9 L239.9,197.9 L240.1,197.9 L240.3,198.4 L240.5,199.0 L240.7,201.4 L240.9,201.8 L241.2,202.0 
		L241.4,202.0 L241.6,202.0 L241.8,202.4 L242.0,204.5 L242.2,205.3 L242.4,206.4 L242.7,206.4 L242.9,206.5 
		L243.1,206.5 L243.3,207.4 L243.5,207.4 L243.7,207.4 L243.9,207.4 L244.2,207.4 L244.4,207.4 L244.6,207.4 
		L244.8,206.2 L245.0,208.1 L245.2,208.1 L245.5,208.3 L245.7,208.3 L245.9,208.3 L246.1,208.2 L246.3,211.7 
		L246.5,215.0 L246.7,215.0 L247.0,215.0 L247.2,215.0 L247.4,214.8 L247.6,214.8 L247.8,214.8 L248.0,214.8 
		L248.2,214.8 L248.5,214.8 L248.7,214.5 L248.9,213.8 L249.1,213.8 L249.3,211.2 L249.5,211.2 L249.8,210.9 
		L250.0,210.9 L250.2,210.9 L250.4,210.9 L250.6,210.2 L250.8,210.0 L251.0,210.0 L251.3,210.0 L251.5,210.0 
		L251.7,210.0 L251.9,209.1 L252.1,209.1 L252.3,209.1 L252.5,209.1 L252.8,208.1 L253.0,208.1 L253.2,208.2 
		L253.4,210.5 L253.6,211.5 L253.8,211.5 L254.0,211.5 L254.3,211.5 L254.5,211.5 L254.7,211.5 L254.9,210.5 
		L255.1,210.2 L255.3,210.2 L255.6,210.2 L255.8,208.6 L256.0,209.2 L256.2,210.4 L256.4,210.4 L256.6,210.4 
		L256.8,210.4 L257.1,210.4 L257.3,210.3 L257.5,210.0 L257.7,210.0 L257.9,210.0 L258.1,210.0 L258.3,209.6 
		L258.6,209.6 L258.8,209.6 L259.0,209.6 L259.2,209.6 L259.4,209.6 L259.6,209.6 L259.9,209.6 L260.1,209.6 
		L260.3,209.6 L260.5,209.6 L260.7,209.1 L260.9,209.2 L261.1,209.7 L261.4,209.7 L261.6,209.7 L261.8,209.7 
		L262.0,209.6 L262.2,209.9 L262.4,209.9 L262.6,209.9 L262.9,209.9 L263.1,209.9 L263.3,209.9 L263.5,209.9 
		L263.7,209.9 L263.9,209.9 L264.1,209.9 L264.4,209.9 L264.6,209.9 L264.8,209.9 L265.0,209.9 L265.2,208.9 
		L265.4,209.1 L265.7,209.1 L265.9,209.1 L266.1,209.1 L266.3,209.1 L266.5,209.1 L266.7,209.1 L266.9,209.2 
		L267.2,209.2 L267.4,209.5 L267.6,209.5 L267.8,209.5 L268.0,209.5 L268.2,209.5 L268.4,209.5 L268.7,210.2 
		L268.9,210.2 L269.1,210.2 L269.3,210.2 L269.5,210.2 L269.7,210.2 L270.0,210.2 L270.2,210.2 L270.4,210.2 
		L270.6,210.2 L270.8,210.2 L271.0,210.2 L271.2,210.2 L271.5,210.2 L271.7,210.2 L271.9,210.2 L272.1,210.2 
		L272.3,210.2 L272.5,210.4 L272.7,210.8 L273.0,210.8 L273.2,210.8 L273.4,210.8 L273.6,210.8 L273.8,210.8 
		L274.0,210.8 L274.2,210.8 L274.5,210.8 L274.7,210.4 L274.9,211.2 L275.1,211.5 L275.3,211.5 L275.5,211.7 
		L275.8,211.7 L276.0,211.7 L276.2,211.7 L276.4,211.5 L276.6,211.5 L276.8,212.3 L277.0,212.7 L277.3,212.7 
		L277.5,212.9 L277.7,213.2 L277.9,213.2 L278.1,213.2 L278.3,213.2 L278.5,213.2 L278.8,213.2 L279.0,213.4 
		L279.2,213.4 L279.4,213.4 L279.6,213.4 L279.8,213.4 L280.1,213.4 L280.3,213.4 L280.5,213.4 L280.7,213.4 
		L280.9,213.4 L281.1,213.4 L281.3,213.4 L281.6,213.4 L281.8,213.4 L282.0,213.4 L282.2,213.0 L282.4,210.9 
		L282.6,210.9 L282.8,210.9 L283.1,210.9 L283.3,210.9 L283.5,210.9 L283.7,210.4 L283.9,210.4 L284.1,210.4 
		L284.3,210.4 L284.6,210.4 L284.8,210.4 L285.0,210.2 L285.2,210.5 L285.4,210.5 L285.6,210.5 L285.9,210.5 
		L286.1,210.4 L286.3,210.8 L286.5,210.8 L286.7,210.8 L286.9,210.8 L287.1,210.8 L287.4,210.8 L287.6,210.8 
		L287.8,210.8 L288.0,210.3 L288.2,210.3 L288.4,210.3 L288.6,210.3 L288.9,210.3 L289.1,210.3 L289.3,210.3 
		L289.5,210.3 L289.7,210.3 L289.9,210.3 L290.2,210.3 L290.4,209.7 L290.6,209.7 L290.8,209.7 L291.0,209.7 
		L291.2,209.7 L291.4,209.7 L291.7,209.7 L291.9,209.7 L292.1,208.4 L292.3,209.0 L292.5,209.0 L292.7,209.0 
		L292.9,209.0 L293.2,209.3 L293.4,209.3 L293.6,209.3 L293.8,209.3 L294.0,209.3 L294.2,209.3 L294.4,209.3 
		L294.7,209.3 L294.9,209.3 L295.1,209.1 L295.3,208.7 L295.5,208.7 L295.7,208.7 L296.0,208.7 L296.2,208.8 
		L296.4,208.8 L296.6,208.8 L296.8,208.8 L297.0,208.9 L297.2,208.9 L297.5,208.9 L297.7,208.9 L297.9,208.9 
		L298.1,208.9 L298.3,208.9 L298.5,208.9 L298.7,208.9 L299.0,208.9 L299.2,208.9 L299.4,208.9 L299.6,206.4 
		L299.8,206.2 L300.0,206.2 L300.3,206.2 L300.5,206.2 L300.7,206.1 L300.9,206.1 L301.1,206.1 L301.3,206.1 
		L301.5,206.1 L301.8,206.1 L302.0,205.9 L302.2,205.9 L302.4,205.9 L302.6,205.9 L302.8,206.0 L303.0,206.0 
		L303.3,206.0 L303.5,206.0 L303.7,206.0 L303.9,206.0 L304.1,206.0 L304.3,206.0 L304.6,206.0 L304.8,205.1 
		L305.0,205.1 L305.2,203.4 L305.4,203.4 L305.6,203.4 L305.8,203.4 L306.1,203.4 L306.3,203.2 L306.5,203.2 
		L306.7,203.2 L306.9,204.1 L307.1,204.1 L307.3,204.8 L307.6,206.6 L307.8,206.6 L308.0,206.8 L308.2,206.8 
		L308.4,206.8 L308.6,206.8 L308.8,206.7 L309.1,206.4 L309.3,205.9 L309.5,207.7 L309.7,211.1 L309.9,214.9 
		L310.1,215.3 L310.4,217.0 L310.6,218.6 L310.8,219.4 L311.0,221.5 L311.2,221.5 L311.4,221.5 L311.6,221.5 
		L311.9,221.5 L312.1,221.5 L312.3,221.5 L312.5,221.5 L312.7,221.5 L312.9,221.5 L313.1,221.5 L313.4,221.5 
		L313.6,220.6 L313.8,220.6 L314.0,220.6 L314.2,217.7 L314.4,216.0 L314.7,216.0 L314.9,216.0 L315.1,216.0 
		L315.3,216.0 L315.5,216.0 L315.7,215.9 L315.9,215.5 L316.2,215.5 L316.4,215.5 L316.6,211.8 L316.8,211.8 
		L317.0,211.7 L317.2,211.7 L317.4,212.0 L317.7,212.0 L317.9,212.0 L318.1,212.0 L318.3,212.0 L318.5,212.0 
		L318.7,212.0 L318.9,212.0 L319.2,212.0 L319.4,211.1 L319.6,211.8 L319.8,211.8 L320.0,212.8 L320.2,212.8 
		L320.5,212.8 L320.7,212.8 L320.9,212.8 L321.1,212.8 L321.3,212.8 L321.5,212.4 L321.7,213.6 L322.0,215.0 
		L322.2,215.0 L322.4,216.2 L322.6,216.4 L322.8,216.4 L323.0,216.4 L323.2,216.4 L323.5,216.4 L323.7,216.4 
		L323.9,215.5 L324.1,217.0 L324.3,217.0 L324.5,217.0 L324.8,217.0 L325.0,217.0 L325.2,217.3 L325.4,217.3 
		L325.6,217.3 L325.8,217.3 L326.0,217.3 L326.3,217.3 L326.5,217.3 L326.7,217.3 L326.9,216.9 L327.1,216.9 
		L327.3,216.9 L327.5,216.9 L327.8,216.7 L328.0,214.8 L328.2,214.8 L328.4,214.8 L328.6,214.8 L328.8,214.8 
		L329.0,214.8 L329.3,214.8 L329.5,214.8 L329.7,214.8 L329.9,212.7 L330.1,212.6 L330.3,212.6 L330.6,212.6 
		L330.8,212.6 L331.0,212.6 L331.2,212.6 L331.4,212.6 L331.6,212.6 L331.8,212.6 L332.1,212.6 L332.3,211.9 
		L332.5,211.9 L332.7,211.9 L332.9,211.9 L333.1,211.9 L333.3,211.9 L333.6,211.9 L333.8,208.9 L334.0,208.9 
		L334.2,208.9 L334.4,208.9 L334.6,208.9 L334.9,208.9 L335.1,208.9 L335.3,208.9 L335.5,208.8 L335.7,209.3 
		L335.9,209.8 L336.1,209.8 L336.4,209.8 L336.6,209.8 L336.8,209.8 L337.0,209.8 L337.2,209.7 L337.4,208.8 
		L337.6,208.8 L337.9,209.2 L338.1,209.5 L338.3,209.5 L338.5,209.8 L338.7,211.3 L338.9,211.3 L339.1,211.3 
		L339.4,211.3 L339.6,211.3 L339.8,211.1 L340.0,211.1 L340.2,211.1 L340.4,211.1 L340.7,211.1 L340.9,211.1 
		L341.1,211.1 L341.3,211.1 L341.5,210.9 L341.7,209.4 L341.9,209.4 L342.2,209.4 L342.4,209.4 L342.6,206.1 
		L342.8,207.3 L343.0,207.3 L343.2,207.3 L343.4,207.3 L343.7,207.2 L343.9,208.4 L344.1,208.4 L344.3,208.4 
		L344.5,208.4 L344.7,208.4 L345.0,208.4 L345.2,208.4 L345.4,208.4 L345.6,208.4 L345.8,208.4 L346.0,207.3 
		L346.2,207.4 L346.5,207.4 L346.7,207.4 L346.9,207.4 L347.1,207.4 L347.3,207.4 L347.5,207.4 L347.7,207.4 
		L348.0,207.4 L348.2,207.4 L348.4,207.4 L348.6,207.4 L348.8,207.4 L349.0,207.4 L349.2,207.1 L349.5,204.9 
		L349.7,201.9 L349.9,207.1 L350.1,207.1 L350.3,207.1 L350.5,207.1 L350.8,207.1 L351.0,207.1 L351.2,206.6 
		L351.4,206.3 L351.6,206.3 L351.8,206.3 L352.0,206.3 L352.3,206.3 L352.5,206.3 L352.7,202.6 L352.9,202.6 
		L353.1,202.6 L353.3,202.6 L353.5,202.6 L353.8,202.6 L354.0,201.1 L354.2,200.8 L354.4,200.8 L354.6,200.8 
		L354.8,201.0 L355.1,201.0 L355.3,201.0 L355.5,202.3 L355.7,203.1 L355.9,203.1 L356.1,203.1 L356.3,203.1 
		L356.6,203.1 L356.8,203.1 L357.0,203.1 L357.2,202.4 L357.4,202.6 L357.6,202.6 L357.8,202.6 L358.1,202.8 
		L358.3,203.0 L358.5,203.0 L358.7,203.0 L358.9,203.0 L359.1,203.0 L359.3,203.0 L359.6,203.0 L359.8,203.0 
		L360.0,202.0 L360.2,202.0 L360.4,202.0 L360.6,202.0 L360.9,202.0 L361.1,201.9 L361.3,201.9 L361.5,201.9 
		L361.7,201.9 L361.9,201.9 L362.1,202.1 L362.4,203.2 L362.6,203.2 L362.8,203.2 L363.0,203.2 L363.2,203.2 
		L363.4,202.9 L363.6,202.7 L363.9,202.7 L364.1,202.7 L364.3,202.7 L364.5,202.7 L364.7,202.7 L364.9,201.9 
		L365.2,201.9 L365.4,201.9 L365.6,201.8 L365.8,201.9 L366.0,201.9 L366.2,201.9 L366.4,201.9 L366.7,201.9 
		L366.9,201.9 L367.1,201.9 L367.3,201.9 L367.5,201.9 L367.7,201.9 L367.9,201.9 L368.2,201.7 L368.4,200.8 
		L368.6,200.8 L368.8,200.2 L369.0,201.4 L369.2,201.4 L369.4,201.4 L369.7,201.4 L369.9,201.4 L370.1,201.4 
		L370.3,201.4 L370.5,201.4 L370.7,201.4 L371.0,201.4 L371.2,199.2 L371.4,199.7 L371.6,199.7 L371.8,199.7 
		L372.0,199.7 L372.2,199.7 L372.5,199.5 L372.7,199.5 L372.9,199.5 L373.1,199.5 L373.3,199.5 L373.5,199.5 
		L373.7,199.5 L374.0,199.5 L374.2,199.5 L374.4,199.5 L374.6,197.4 L374.8,201.6 L375.0,202.0 L375.3,202.0 
		L375.5,202.0 L375.7,202.0 L375.9,202.0 L376.1,201.3 L376.3,203.1 L376.5,205.0 L376.8,205.9 L377.0,205.9 
		L377.2,205.9 L377.4,205.9 L377.6,205.9 L377.8,205.9 L378.0,205.9 L378.3,205.9 L378.5,205.9 L378.7,205.9 
		L378.9,205.9 L379.1,205.9 L379.3,204.8 L379.5,204.8 L379.8,204.8 L380.0,204.8 L380.2,205.0 L380.4,205.2 
		L380.6,205.4 L380.8,205.4 L381.1,205.5 L381.3,205.6 L381.5,205.6 L381.7,205.6 L381.9,205.6 L382.1,205.6 
		L382.3,205.6 L382.6,205.7 L382.8,206.0 L383.0,206.9 L383.2,206.9 L383.4,207.4 L383.6,207.4 L383.8,207.6 
		L384.1,207.6 L384.3,208.2 L384.5,208.2 L384.7,208.2 L384.9,208.2 L385.1,208.7 L385.4,208.8 L385.6,209.1 
		L385.8,209.1 L386.0,209.1 L386.2,209.1 L386.4,208.9 L386.6,208.9 L386.9,208.9 L387.1,208.9 L387.3,208.9 
		L387.5,208.9 L387.7,208.9 L387.9,208.9 L388.1,208.9 L388.4,207.5 L388.6,207.5 L388.8,207.9 L389.0,207.9 
		L389.2,208.2 L389.4,210.1 L389.7,210.1 L389.9,210.1 L390.1,210.1 L390.3,210.1 L390.5,210.1 L390.7,210.1 
		L390.9,210.1 L391.2,210.1 L391.4,209.6 L391.6,209.6 L391.8,209.6 L392.0,209.6 L392.2,209.6 L392.4,209.6 
		L392.7,209.6 L392.9,209.4 L393.1,210.4 L393.3,210.8 L393.5,211.3 L393.7,211.3 L393.9,211.3 L394.2,211.3 
		L394.4,211.6 L394.6,211.6 L394.8,211.6 L395.0,211.6 L395.2,211.8 L395.5,215.2 L395.7,215.3 L395.9,215.3 
		L396.1,215.3 L396.3,215.3 L396.5,215.3 L396.7,214.7 L397.0,216.2 L397.2,216.2 L397.4,216.2 L397.6,216.2 
		L397.8,216.2 L398.0,216.2 L398.2,216.2 L398.5,216.2 L398.7,216.2 L398.9,215.1 L399.1,215.1 L399.3,215.1 
		L399.5,215.1 L399.8,215.1 L400.0,215.1 L400.2,215.1 L400.4,215.1 L400.6,215.1 L400.8,215.1 L401.0,215.1 
		L401.3,213.2 L401.5,213.5 L401.7,213.5 L401.9,213.8 L402.1,213.8 L402.3,213.8 L402.5,213.8 L402.8,213.8 
		L403.0,213.8 L403.2,213.8 L403.4,213.8 L403.6,213.8 L403.8,213.8 L404.0,213.8 L404.3,213.8 L404.5,213.8 
		L404.7,213.4 L404.9,213.5 L405.1,213.5 L405.3,213.5 L405.6,213.5 L405.8,213.8 L406.0,213.8 L406.2,213.8 
		L406.4,213.8 L406.6,213.8 L406.8,213.8 L407.1,213.8 L407.3,213.8 L407.5,213.7 L407.7,213.7 L407.9,213.7 
		L408.1,213.7 L408.3,213.7 L408.6,213.7 L408.8,213.7 L409.0,213.7 L409.2,213.7 L409.4,213.7 L409.6,213.7 
		L409.9,213.7 L410.1,213.7 L410.3,213.7 L410.5,213.7 L410.7,213.7 L410.9,213.7 L411.1,213.7 L411.4,213.2 
		L411.6,213.2 L411.8,213.2 L412.0,213.2 L412.2,213.3 L412.4,213.3 L412.6,213.3 L412.9,213.3 L413.1,213.3 
		L413.3,213.3 L413.5,213.3 L413.7,213.3 L413.9,213.3 L414.1,213.0 L414.4,213.2 L414.6,213.2 L414.8,213.2 
		L415.0,213.2 L415.2,213.3 L415.4,213.3 L415.7,213.5 L415.9,213.5 L416.1,213.5 L416.3,213.5 L416.5,213.5 
		L416.7,213.4 L416.9,214.0 L417.2,214.0 L417.4,214.0 L417.6,214.0 L417.8,214.0 L418.0,214.1 L418.2,214.1 
		L418.4,214.1 L418.7,214.1 L418.9,214.1 L419.1,214.1 L419.3,214.1 L419.5,214.1 L419.7,214.1 L420.0,214.1 
		L420.2,214.1 L420.4,214.1 L420.6,214.1 L420.8,214.1 L421.0,214.1 L421.2,214.1 L421.5,214.1 L421.7,214.1 
		L421.9,214.1 L422.1,214.4 L422.3,214.5 L422.5,214.6 L422.7,214.6 L423.0,214.6 L423.2,214.6 L423.4,214.5 
		L423.6,214.7 L423.8,215.0 L424.0,215.3 L424.2,215.7 L424.5,215.7 L424.7,215.7 L424.9,215.7 L425.1,215.7 
		L425.3,215.7 L425.5,215.7 L425.8,215.7 L426.0,215.2 L426.2,215.1 L426.4,215.1 L426.6,215.1 L426.8,215.1 
		L427.0,215.1 L427.3,215.1 L427.5,215.1 L427.7,215.1 L427.9,214.4 L428.1,214.7 L428.3,214.7 L428.5,214.7 
		L428.8,214.7 L429.0,214.7 L429.2,214.7 L429.4,214.6 L429.6,214.6 L429.8,214.6 L430.1,214.6 L430.3,214.6 
		L430.5,214.6 L430.7,214.6 L430.9,214.6 L431.1,214.5 L431.3,214.6 L431.6,214.9 L431.8,215.1 L432.0,215.1 
		L432.2,215.1 L432.4,215.1 L432.6,215.1 L432.8,215.0 L433.1,215.0 L433.3,215.0 L433.5,215.0 L433.7,215.0 
		L433.9,215.0 L434.1,215.0 L434.3,215.0 L434.6,215.0 L434.8,215.0 L435.0,214.7 L435.2,214.7 L435.4,214.9 
		L435.6,214.9 L435.9,215.0 L436.1,215.0 L436.3,215.0 L436.5,215.0 L436.7,215.0 L436.9,215.0 L437.1,215.0 
		L437.4,215.0 L437.6,215.0 L437.8,215.0 L438.0,215.0 L438.2,215.0 L438.4,215.0 L438.6,214.6 L438.9,214.6 
		L439.1,214.6 L439.3,214.6 L439.5,214.6 L439.7,214.5 L439.9,214.5 L440.2,214.5 L440.4,214.5 L440.6,214.4 
		L440.8,214.4 L441.0,214.4 L441.2,214.4 L441.4,214.3 L441.7,214.5 L441.9,214.5 L442.1,214.5 L442.3,214.5 
		L442.5,214.5 L442.7,214.5 L442.9,214.5 L443.2,214.5 L443.4,214.5 L443.6,214.5 L443.8,214.0 L444.0,214.0 
		L444.2,214.0 L444.4,214.0 L444.7,214.0 L444.9,213.8 L445.1,214.4 L445.3,215.1 L445.5,215.1 L445.7,215.1 
		L446.0,215.1 L446.2,215.1 L446.4,215.1 L446.6,215.1 L446.8,215.1 L447.0,215.1 L447.2,215.1 L447.5,214.7 
		L447.7,214.3 L447.9,214.3 L448.1,214.3 L448.3,214.3 L448.5,214.3 L448.7,214.3 L449.0,214.4 L449.2,214.4 
		L449.4,214.4 L449.6,214.4 L449.8,214.4 L450.0,214.4 L450.3,214.4 L450.5,214.4 L450.7,214.5 L450.9,214.8 
		L451.1,214.8 L451.3,214.8 L451.5,214.8 L451.8,214.8 L452.0,214.8 L452.2,214.8 L452.4,214.8 L452.6,214.3 
		L452.8,214.3 L453.0,214.3 L453.3,214.3 L453.5,214.3 L453.7,214.3 L453.9,214.3 L454.1,214.3 L454.3,214.3 
		L454.5,214.3 L454.8,212.9 L455.0,214.7 L455.2,215.3 L455.4,215.9 L455.6,215.9 L455.8,215.9 L456.1,215.9 
		L456.3,215.9 L456.5,215.9 L456.7,215.9 L456.9,215.9 L457.1,215.9 L457.3,215.9 L457.6,215.9 L457.8,215.9 
		L458.0,215.9 L458.2,215.9 L458.4,215.9 L458.6,215.9 L458.8,215.9 L459.1,215.9 L459.3,212.8 L459.5,212.7 
		L459.7,213.7 L459.9,213.7 L460.1,213.7 L460.4,214.0 L460.6,214.0 L460.8,214.4 L461.0,215.0 L461.2,215.2 
		L461.4,215.9 L461.6,216.6 L461.9,216.9 L462.1,216.9 L462.3,217.0 L462.5,217.2 L462.7,217.2 L462.9,217.2 
		L463.1,217.2 L463.4,217.2 L463.6,217.2 L463.8,217.2 L464.0,217.2 L464.2,216.7 L464.4,216.7 L464.6,217.0 
		L464.9,217.3 L465.1,217.6 L465.3,217.9 L465.5,217.9 L465.7,217.9 L465.9,217.9 L466.2,217.9 L466.4,217.9 
		L466.6,217.9 L466.8,217.9 L467.0,217.9 L467.2,217.9 L467.4,217.9 L467.7,217.9 L467.9,217.9 L468.1,217.4 
		L468.3,218.0 L468.5,218.0 L468.7,218.0 L468.9,218.0 L469.2,218.0 L469.4,218.0 L469.6,218.0 L469.8,218.0 
		L470.0,217.8 L470.2,217.9 L470.5,217.9 L470.7,217.9 L470.9,218.1 L471.1,218.1 L471.3,218.1 L471.5,218.1 
		L471.7,218.1 L472.0,218.1 L472.2,218.2 L472.4,218.2 L472.6,218.2 L472.8,218.2 L473.0,218.2 L473.2,218.2 
		L473.5,218.2 L473.7,218.0 L473.9,218.0 L474.1,218.0 L474.3,218.0 L474.5,218.0 L474.8,218.0 L475.0,217.8 
		L475.2,218.0 L475.4,218.0 L475.6,218.0 L475.8,218.0 L476.0,218.0 L476.3,218.0 L476.5,218.0 L476.7,218.1 
		L476.9,218.1 L477.1,218.1 L477.3,218.1 L477.5,218.3 L477.8,218.6 L478.0,218.6 L478.2,218.6 L478.4,218.6 
		L478.6,218.9 L478.8,218.9 L479.0,218.9 L479.3,218.9 L479.5,218.9 L479.7,218.8 L479.9,218.8 L480.1,218.8 
		L480.3,218.8 L480.6,218.8 L480.8,218.4 L481.0,218.4 L481.2,218.4 L481.4,218.4 L481.6,218.5 L481.8,218.8 
		L482.1,219.8 L482.3,219.8 L482.5,220.7 L482.7,221.1 L482.9,221.1 L483.1,221.1 L483.3,221.1 L483.6,221.6 
		L483.8,222.0 L484.0,224.3 L484.2,226.3 L484.4,226.8 L484.6,226.8 L484.9,226.8 L485.1,227.9 L485.3,228.8 
		L485.5,228.8 L485.7,228.8 L485.9,228.8 L486.1,228.8 L486.4,228.8 L486.6,228.8 L486.8,228.8 L487.0,228.8 
		L487.2,228.8 L487.4,228.8 L487.6,227.8 L487.9,227.8 L488.1,227.8 L488.3,227.8 L488.5,227.8 L488.7,227.8 
		L488.9,227.8 L489.1,226.2 L489.4,226.2 L489.6,226.2 L489.8,226.2 L490.0,226.2 L490.2,226.2 L490.4,224.7 
		L490.7,224.4 L490.9,224.4 L491.1,223.4 L491.3,223.8 L491.5,224.3 L491.7,224.5 L491.9,225.0 L492.2,225.0 
		L492.4,225.2 L492.6,225.4 L492.8,225.4 L493.0,225.4 L493.2,225.4 L493.4,225.4 L493.7,225.4 L493.9,225.4 
		L494.1,225.4 L494.3,225.4 L494.5,225.2 L494.7,225.8 L495.0,225.8 L495.2,225.8 L495.4,225.8 L495.6,225.9 
		L495.8,225.9 L496.0,225.9 L496.2,225.9 L496.5,226.3 L496.7,226.5 L496.9,226.5 L497.1,226.5 L497.3,226.5 
		L497.5,226.4 L497.7,226.6 L498.0,226.6 L498.2,226.7 L498.4,226.7 L498.6,226.7 L498.8,226.7 L499.0,226.7 
		L499.2,226.7 L499.5,226.7 L499.7,226.7 L499.9,226.7 L500.1,226.7 L500.3,226.7 L500.5,226.7 L500.8,226.7 
		L501.0,226.7 L501.2,226.7 L501.4,226.7 L501.6,225.3 L501.8,225.9 L502.0,226.0 L502.3,226.0 L502.5,226.0 
		L502.7,226.0 L502.9,226.0 L503.1,226.0 L503.3,226.0 L503.5,226.0 L503.8,226.3 L504.0,226.3 L504.2,226.4 
		L504.4,226.4 L504.6,226.4 L504.8,226.4 L505.1,226.7 L505.3,226.9 L505.5,226.9 L505.7,226.9 L505.9,226.9 
		L506.1,226.9 L506.3,226.9 L506.6,226.9 L506.8,226.9 L507.0,226.9 L507.2,226.9  h0.01'/></g>
	</g>
<g style="fill:none; color:black; stroke:currentColor; stroke-width:1.00; stroke-linecap:butt; stroke-linejoin:miter">
	<path  d='M80.2,54.1 L80.2,422.4 L507.2,422.4 L507.2,54.1 L80.2,54.1 Z  h0.01'/></g>
</g>
</svg>

