<?xml version="1.0" encoding="utf-8"  standalone="no"?>
<!DOCTYPE svg PUBLIC "-//W3C//DTD SVG 1.1//EN" 
 "http://www.w3.org/Graphics/SVG/1.1/DTD/svg11.dtd">
<svg 
 width="600" height="480" 
 viewBox="0 0 600 480"
 xmlns="http://www.w3.org/2000/svg"
 xmlns:xlink="http://www.w3.org/1999/xlink"
>

<title>Gnuplot</title>
<desc>Produced by GNUPLOT 4.6 patchlevel 1 </desc>

<g id="gnuplot_canvas">

<rect x="0" y="0" width="600" height="480" fill="none"/>
<defs>

	<circle id='gpDot' r='0.5' stroke-width='0.5'/>
	<path id='gpPt0' stroke-width='0.222' stroke='currentColor' d='M-1,0 h2 M0,-1 v2'/>
	<path id='gpPt1' stroke-width='0.222' stroke='currentColor' d='M-1,-1 L1,1 M1,-1 L-1,1'/>
	<path id='gpPt2' stroke-width='0.222' stroke='currentColor' d='M-1,0 L1,0 M0,-1 L0,1 M-1,-1 L1,1 M-1,1 L1,-1'/>
	<rect id='gpPt3' stroke-width='0.222' stroke='currentColor' x='-1' y='-1' width='2' height='2'/>
	<rect id='gpPt4' stroke-width='0.222' stroke='currentColor' fill='currentColor' x='-1' y='-1' width='2' height='2'/>
	<circle id='gpPt5' stroke-width='0.222' stroke='currentColor' cx='0' cy='0' r='1'/>
	<use xlink:href='#gpPt5' id='gpPt6' fill='currentColor' stroke='none'/>
	<path id='gpPt7' stroke-width='0.222' stroke='currentColor' d='M0,-1.33 L-1.33,0.67 L1.33,0.67 z'/>
	<use xlink:href='#gpPt7' id='gpPt8' fill='currentColor' stroke='none'/>
	<use xlink:href='#gpPt7' id='gpPt9' stroke='currentColor' transform='rotate(180)'/>
	<use xlink:href='#gpPt9' id='gpPt10' fill='currentColor' stroke='none'/>
	<use xlink:href='#gpPt3' id='gpPt11' stroke='currentColor' transform='rotate(45)'/>
	<use xlink:href='#gpPt11' id='gpPt12' fill='currentColor' stroke='none'/>
</defs>
<g style="fill:none; color:white; stroke:currentColor; stroke-width:1.00; stroke-linecap:butt; stroke-linejoin:miter">
</g>
<g style="fill:none; color:black; stroke:currentColor; stroke-width:1.00; stroke-linecap:butt; stroke-linejoin:miter">
	<path  d='M88.5,422.4 L97.5,422.4 M507.2,422.4 L498.2,422.4  h0.01'/>	<g transform="translate(80.2,426.9)" style="stroke:none; fill:black; font-family:Arial; font-size:12.00pt; text-anchor:end">
		<text> 0</text>
	</g>
	<path  d='M88.5,385.6 L97.5,385.6 M507.2,385.6 L498.2,385.6  h0.01'/>	<g transform="translate(80.2,390.1)" style="stroke:none; fill:black; font-family:Arial; font-size:12.00pt; text-anchor:end">
		<text> 1000</text>
	</g>
	<path  d='M88.5,348.7 L97.5,348.7 M507.2,348.7 L498.2,348.7  h0.01'/>	<g transform="translate(80.2,353.2)" style="stroke:none; fill:black; font-family:Arial; font-size:12.00pt; text-anchor:end">
		<text> 2000</text>
	</g>
	<path  d='M88.5,311.9 L97.5,311.9 M507.2,311.9 L498.2,311.9  h0.01'/>	<g transform="translate(80.2,316.4)" style="stroke:none; fill:black; font-family:Arial; font-size:12.00pt; text-anchor:end">
		<text> 3000</text>
	</g>
	<path  d='M88.5,275.1 L97.5,275.1 M507.2,275.1 L498.2,275.1  h0.01'/>	<g transform="translate(80.2,279.6)" style="stroke:none; fill:black; font-family:Arial; font-size:12.00pt; text-anchor:end">
		<text> 4000</text>
	</g>
	<path  d='M88.5,238.2 L97.5,238.2 M507.2,238.2 L498.2,238.2  h0.01'/>	<g transform="translate(80.2,242.7)" style="stroke:none; fill:black; font-family:Arial; font-size:12.00pt; text-anchor:end">
		<text> 5000</text>
	</g>
	<path  d='M88.5,201.4 L97.5,201.4 M507.2,201.4 L498.2,201.4  h0.01'/>	<g transform="translate(80.2,205.9)" style="stroke:none; fill:black; font-family:Arial; font-size:12.00pt; text-anchor:end">
		<text> 6000</text>
	</g>
	<path  d='M88.5,164.6 L97.5,164.6 M507.2,164.6 L498.2,164.6  h0.01'/>	<g transform="translate(80.2,169.1)" style="stroke:none; fill:black; font-family:Arial; font-size:12.00pt; text-anchor:end">
		<text> 7000</text>
	</g>
	<path  d='M88.5,127.8 L97.5,127.8 M507.2,127.8 L498.2,127.8  h0.01'/>	<g transform="translate(80.2,132.3)" style="stroke:none; fill:black; font-family:Arial; font-size:12.00pt; text-anchor:end">
		<text> 8000</text>
	</g>
	<path  d='M88.5,90.9 L97.5,90.9 M507.2,90.9 L498.2,90.9  h0.01'/>	<g transform="translate(80.2,95.4)" style="stroke:none; fill:black; font-family:Arial; font-size:12.00pt; text-anchor:end">
		<text> 9000</text>
	</g>
	<path  d='M88.5,54.1 L97.5,54.1 M507.2,54.1 L498.2,54.1  h0.01'/>	<g transform="translate(80.2,58.6)" style="stroke:none; fill:black; font-family:Arial; font-size:12.00pt; text-anchor:end">
		<text> 10000</text>
	</g>
	<path  d='M88.5,422.4 L88.5,413.4 M88.5,54.1 L88.5,63.1  h0.01'/>	<g transform="translate(88.5,444.9)" style="stroke:none; fill:black; font-family:Arial; font-size:12.00pt; text-anchor:middle">
		<text> 0</text>
	</g>
	<path  d='M130.4,422.4 L130.4,413.4 M130.4,54.1 L130.4,63.1  h0.01'/>	<g transform="translate(130.4,444.9)" style="stroke:none; fill:black; font-family:Arial; font-size:12.00pt; text-anchor:middle">
		<text> 10</text>
	</g>
	<path  d='M172.2,422.4 L172.2,413.4 M172.2,54.1 L172.2,63.1  h0.01'/>	<g transform="translate(172.2,444.9)" style="stroke:none; fill:black; font-family:Arial; font-size:12.00pt; text-anchor:middle">
		<text> 20</text>
	</g>
	<path  d='M214.1,422.4 L214.1,413.4 M214.1,54.1 L214.1,63.1  h0.01'/>	<g transform="translate(214.1,444.9)" style="stroke:none; fill:black; font-family:Arial; font-size:12.00pt; text-anchor:middle">
		<text> 30</text>
	</g>
	<path  d='M256.0,422.4 L256.0,413.4 M256.0,54.1 L256.0,63.1  h0.01'/>	<g transform="translate(256.0,444.9)" style="stroke:none; fill:black; font-family:Arial; font-size:12.00pt; text-anchor:middle">
		<text> 40</text>
	</g>
	<path  d='M297.9,422.4 L297.9,413.4 M297.9,54.1 L297.9,63.1  h0.01'/>	<g transform="translate(297.9,444.9)" style="stroke:none; fill:black; font-family:Arial; font-size:12.00pt; text-anchor:middle">
		<text> 50</text>
	</g>
	<path  d='M339.7,422.4 L339.7,413.4 M339.7,54.1 L339.7,63.1  h0.01'/>	<g transform="translate(339.7,444.9)" style="stroke:none; fill:black; font-family:Arial; font-size:12.00pt; text-anchor:middle">
		<text> 60</text>
	</g>
	<path  d='M381.6,422.4 L381.6,413.4 M381.6,54.1 L381.6,63.1  h0.01'/>	<g transform="translate(381.6,444.9)" style="stroke:none; fill:black; font-family:Arial; font-size:12.00pt; text-anchor:middle">
		<text> 70</text>
	</g>
	<path  d='M423.5,422.4 L423.5,413.4 M423.5,54.1 L423.5,63.1  h0.01'/>	<g transform="translate(423.5,444.9)" style="stroke:none; fill:black; font-family:Arial; font-size:12.00pt; text-anchor:middle">
		<text> 80</text>
	</g>
	<path  d='M465.3,422.4 L465.3,413.4 M465.3,54.1 L465.3,63.1  h0.01'/>	<g transform="translate(465.3,444.9)" style="stroke:none; fill:black; font-family:Arial; font-size:12.00pt; text-anchor:middle">
		<text> 90</text>
	</g>
	<path  d='M507.2,422.4 L507.2,413.4 M507.2,54.1 L507.2,63.1  h0.01'/>	<g transform="translate(507.2,444.9)" style="stroke:none; fill:black; font-family:Arial; font-size:12.00pt; text-anchor:middle">
		<text> 100</text>
	</g>
	<path  d='M507.2,422.4 L498.2,422.4  h0.01'/>	<g transform="translate(515.5,426.9)" style="stroke:none; fill:blue; font-family:Arial; font-size:12.00pt; text-anchor:start">
		<text> 0</text>
	</g>
	<path  d='M507.2,361.0 L498.2,361.0  h0.01'/>	<g transform="translate(515.5,365.5)" style="stroke:none; fill:blue; font-family:Arial; font-size:12.00pt; text-anchor:start">
		<text> 20</text>
	</g>
	<path  d='M507.2,299.6 L498.2,299.6  h0.01'/>	<g transform="translate(515.5,304.1)" style="stroke:none; fill:blue; font-family:Arial; font-size:12.00pt; text-anchor:start">
		<text> 40</text>
	</g>
	<path  d='M507.2,238.2 L498.2,238.2  h0.01'/>	<g transform="translate(515.5,242.7)" style="stroke:none; fill:blue; font-family:Arial; font-size:12.00pt; text-anchor:start">
		<text> 60</text>
	</g>
	<path  d='M507.2,176.9 L498.2,176.9  h0.01'/>	<g transform="translate(515.5,181.4)" style="stroke:none; fill:blue; font-family:Arial; font-size:12.00pt; text-anchor:start">
		<text> 80</text>
	</g>
	<path  d='M507.2,115.5 L498.2,115.5  h0.01'/>	<g transform="translate(515.5,120.0)" style="stroke:none; fill:blue; font-family:Arial; font-size:12.00pt; text-anchor:start">
		<text> 100</text>
	</g>
	<path  d='M507.2,54.1 L498.2,54.1  h0.01'/>	<g transform="translate(515.5,58.6)" style="stroke:none; fill:blue; font-family:Arial; font-size:12.00pt; text-anchor:start">
		<text> 120</text>
	</g>
	<path  d='M88.5,54.1 L88.5,422.4 L507.2,422.4 L507.2,54.1 L88.5,54.1 Z  h0.01'/>	<g transform="translate(17.6,238.3) rotate(270)" style="stroke:none; fill:black; font-family:Arial; font-size:12.00pt; text-anchor:middle">
		<text>TCP throughput (kbps)</text>
	</g>
	<g transform="translate(570.4,238.3) rotate(270)" style="stroke:none; fill:black; font-family:Arial; font-size:12.00pt; text-anchor:middle">
		<text>TCP Uplink Delay(ms)</text>
	</g>
	<g transform="translate(297.8,471.9)" style="stroke:none; fill:black; font-family:Arial; font-size:12.00pt; text-anchor:middle">
		<text>Time (s)</text>
	</g>
	<g transform="translate(297.8,31.6)" style="stroke:none; fill:black; font-family:Arial; font-size:12.00pt; text-anchor:middle">
		<text>Distance 300m, 3kmph: TCP throughput vs link capacity Uplink 100RBs PfffScheduler</text>
	</g>
	<path  d='M257.5,413.4 L257.5,359.4 L498.9,359.4 L498.9,413.4 L257.5,413.4 Z  h0.01'/></g>
	<g id="gnuplot_plot_1" ><title>gnuplot_plot_1</title>
<g style="fill:none; color:red; stroke:currentColor; stroke-width:1.00; stroke-linecap:butt; stroke-linejoin:miter">
	<g transform="translate(440.1,372.9)" style="stroke:none; fill:black; font-family:Arial; font-size:12.00pt; text-anchor:end">
		<text>TCP Throughput</text>
	</g>
	<path  d='M448.4,368.4 L490.6,368.4 M91.0,413.9 L91.2,401.3 L91.4,388.9 L91.6,383.1 L91.8,363.3 L92.1,362.1 
		L92.3,361.0 L92.5,364.8 L92.7,356.8 L92.9,356.8 L93.1,356.8 L93.3,356.8 L93.5,360.3 L93.7,336.7 
		L93.9,330.4 L94.2,330.4 L94.4,323.9 L94.6,316.3 L94.8,316.3 L95.0,316.3 L95.2,300.8 L95.4,274.4 
		L95.6,276.9 L95.8,263.1 L96.0,263.1 L96.2,261.7 L96.5,261.2 L96.7,260.5 L96.9,249.0 L97.1,249.0 
		L97.3,249.0 L97.5,249.0 L97.7,266.9 L97.9,264.2 L98.1,264.2 L98.3,264.2 L98.5,264.2 L98.8,279.2 
		L99.0,270.9 L99.2,270.7 L99.4,268.6 L99.6,268.6 L99.8,272.7 L100.0,272.7 L100.2,271.6 L100.4,270.0 
		L100.6,273.7 L100.8,271.8 L101.1,274.3 L101.3,274.3 L101.5,280.9 L101.7,280.9 L101.9,280.9 L102.1,288.9 
		L102.3,287.2 L102.5,288.0 L102.7,282.0 L102.9,270.6 L103.2,272.9 L103.4,272.6 L103.6,272.6 L103.8,267.4 
		L104.0,263.1 L104.2,261.0 L104.4,262.6 L104.6,262.2 L104.8,263.9 L105.0,259.7 L105.2,257.6 L105.5,259.5 
		L105.7,259.5 L105.9,259.5 L106.1,266.3 L106.3,268.2 L106.5,267.8 L106.7,257.0 L106.9,255.3 L107.1,257.2 
		L107.3,257.2 L107.5,258.8 L107.8,252.0 L108.0,251.6 L108.2,251.6 L108.4,255.9 L108.6,255.9 L108.8,259.2 
		L109.0,260.2 L109.2,260.9 L109.4,261.4 L109.6,263.2 L109.8,262.6 L110.1,260.9 L110.3,259.0 L110.5,259.8 
		L110.7,254.1 L110.9,254.1 L111.1,253.4 L111.3,253.6 L111.5,252.4 L111.7,252.4 L111.9,252.4 L112.2,256.1 
		L112.4,256.1 L112.6,258.6 L112.8,259.4 L113.0,260.1 L113.2,259.6 L113.4,259.6 L113.6,259.6 L113.8,259.8 
		L114.0,259.3 L114.2,259.5 L114.5,260.6 L114.7,262.2 L114.9,262.8 L115.1,262.9 L115.3,262.9 L115.5,265.3 
		L115.7,266.0 L115.9,265.1 L116.1,265.1 L116.3,265.4 L116.5,266.2 L116.8,266.3 L117.0,267.0 L117.2,268.7 
		L117.4,266.9 L117.6,267.9 L117.8,268.6 L118.0,268.2 L118.2,269.7 L118.4,270.3 L118.6,270.8 L118.9,271.2 
		L119.1,269.5 L119.3,268.9 L119.5,262.6 L119.7,258.1 L119.9,259.1 L120.1,259.1 L120.3,259.1 L120.5,261.0 
		L120.7,261.8 L120.9,262.1 L121.2,261.6 L121.4,259.6 L121.6,256.7 L121.8,255.2 L122.0,255.1 L122.2,257.1 
		L122.4,256.2 L122.6,256.2 L122.8,256.2 L123.0,259.6 L123.2,259.3 L123.5,260.4 L123.7,260.9 L123.9,259.8 
		L124.1,259.8 L124.3,261.5 L124.5,261.5 L124.7,262.6 L124.9,263.2 L125.1,263.1 L125.3,262.3 L125.6,262.4 
		L125.8,261.0 L126.0,260.9 L126.2,261.8 L126.4,262.4 L126.6,259.2 L126.8,259.6 L127.0,259.0 L127.2,259.9 
		L127.4,259.9 L127.6,259.9 L127.9,261.2 L128.1,258.2 L128.3,257.0 L128.5,257.3 L128.7,257.3 L128.9,258.9 
		L129.1,257.8 L129.3,258.1 L129.5,257.6 L129.7,257.0 L130.0,257.0 L130.2,257.0 L130.4,259.5 L130.6,258.0 
		L130.8,256.7 L131.0,256.1 L131.2,256.8 L131.4,257.3 L131.6,257.3 L131.8,259.1 L132.0,259.6 L132.3,258.1 
		L132.5,258.1 L132.7,259.6 L132.9,259.7 L133.1,260.2 L133.3,260.2 L133.5,260.2 L133.7,262.2 L133.9,262.1 
		L134.1,262.9 L134.3,263.1 L134.6,260.7 L134.8,259.8 L135.0,259.8 L135.2,258.8 L135.4,259.2 L135.6,259.2 
		L135.8,260.5 L136.0,260.1 L136.2,260.0 L136.4,259.2 L136.7,259.5 L136.9,259.5 L137.1,259.5 L137.3,260.2 
		L137.5,260.5 L137.7,259.9 L137.9,258.4 L138.1,257.5 L138.3,258.1 L138.5,258.1 L138.7,258.1 L139.0,260.1 
		L139.2,258.7 L139.4,258.7 L139.6,258.7 L139.8,258.9 L140.0,257.3 L140.2,256.3 L140.4,256.1 L140.6,256.0 
		L140.8,256.6 L141.0,255.8 L141.3,254.6 L141.5,254.6 L141.7,256.0 L141.9,256.0 L142.1,256.0 L142.3,258.1 
		L142.5,257.6 L142.7,257.6 L142.9,257.6 L143.1,259.2 L143.3,259.8 L143.6,259.8 L143.8,260.6 L144.0,261.1 
		L144.2,260.1 L144.4,259.9 L144.6,259.9 L144.8,260.5 L145.0,260.6 L145.2,260.4 L145.4,260.7 L145.7,260.7 
		L145.9,261.7 L146.1,260.4 L146.3,259.8 L146.5,259.4 L146.7,258.9 L146.9,259.3 L147.1,259.1 L147.3,259.0 
		L147.5,259.0 L147.7,259.6 L148.0,259.6 L148.2,259.6 L148.4,259.6 L148.6,259.6 L148.8,259.6 L149.0,259.6 
		L149.2,259.6 L149.4,259.6 L149.6,264.9 L149.8,265.0 L150.0,265.5 L150.3,265.6 L150.5,265.6 L150.7,265.6 
		L150.9,267.3 L151.1,267.7 L151.3,267.9 L151.5,268.0 L151.7,268.4 L151.9,268.4 L152.1,269.7 L152.4,269.7 
		L152.6,270.4 L152.8,270.6 L153.0,270.8 L153.2,271.1 L153.4,271.1 L153.6,271.1 L153.8,271.1 L154.0,271.1 
		L154.2,271.1 L154.4,273.9 L154.7,273.8 L154.9,274.4 L155.1,275.0 L155.3,275.4 L155.5,275.4 L155.7,275.4 
		L155.9,276.6 L156.1,276.9 L156.3,277.2 L156.5,277.6 L156.7,277.8 L157.0,277.9 L157.2,278.4 L157.4,278.4 
		L157.6,278.4 L157.8,278.4 L158.0,280.0 L158.2,280.1 L158.4,280.2 L158.6,280.3 L158.8,280.5 L159.1,280.9 
		L159.3,281.0 L159.5,280.8 L159.7,280.9 L159.9,280.9 L160.1,281.5 L160.3,281.3 L160.5,281.0 L160.7,281.5 
		L160.9,281.7 L161.1,281.9 L161.4,281.7 L161.6,281.7 L161.8,281.4 L162.0,281.6 L162.2,281.1 L162.4,281.1 
		L162.6,281.6 L162.8,281.1 L163.0,280.8 L163.2,281.2 L163.4,280.6 L163.7,280.5 L163.9,280.5 L164.1,280.7 
		L164.3,280.7 L164.5,280.7 L164.7,280.7 L164.9,281.7 L165.1,281.4 L165.3,280.9 L165.5,280.9 L165.8,280.8 
		L166.0,280.8 L166.2,280.8 L166.4,280.8 L166.6,281.4 L166.8,281.8 L167.0,281.8 L167.2,281.8 L167.4,281.8 
		L167.6,281.8 L167.8,281.4 L168.1,281.8 L168.3,281.9 L168.5,282.2 L168.7,282.0 L168.9,281.9 L169.1,282.2 
		L169.3,282.2 L169.5,282.2 L169.7,283.1 L169.9,283.6 L170.1,283.5 L170.4,283.7 L170.6,284.0 L170.8,283.3 
		L171.0,282.4 L171.2,282.4 L171.4,283.0 L171.6,283.2 L171.8,283.2 L172.0,283.2 L172.2,283.2 L172.4,284.7 
		L172.7,284.2 L172.9,283.8 L173.1,283.6 L173.3,283.6 L173.5,283.3 L173.7,283.3 L173.9,283.0 L174.1,282.3 
		L174.3,282.1 L174.5,281.0 L174.8,280.2 L175.0,279.3 L175.2,278.1 L175.4,277.9 L175.6,276.9 L175.8,277.1 
		L176.0,276.2 L176.2,276.1 L176.4,276.1 L176.6,276.1 L176.8,277.0 L177.1,276.5 L177.3,276.5 L177.5,276.3 
		L177.7,275.7 L177.9,275.0 L178.1,275.0 L178.3,275.5 L178.5,274.6 L178.7,274.8 L178.9,274.8 L179.1,274.8 
		L179.4,275.6 L179.6,275.5 L179.8,275.5 L180.0,275.5 L180.2,276.4 L180.4,276.4 L180.6,276.6 L180.8,277.0 
		L181.0,276.0 L181.2,275.9 L181.5,275.9 L181.7,275.9 L181.9,276.7 L182.1,276.7 L182.3,276.7 L182.5,277.7 
		L182.7,277.6 L182.9,277.7 L183.1,277.9 L183.3,278.1 L183.5,278.0 L183.8,277.2 L184.0,277.2 L184.2,277.1 
		L184.4,277.1 L184.6,276.0 L184.8,275.1 L185.0,274.0 L185.2,273.4 L185.4,273.7 L185.6,271.8 L185.8,270.2 
		L186.1,270.2 L186.3,270.2 L186.5,270.2 L186.7,271.1 L186.9,270.5 L187.1,270.4 L187.3,270.0 L187.5,270.0 
		L187.7,270.5 L187.9,270.3 L188.2,269.9 L188.4,269.3 L188.6,269.1 L188.8,269.1 L189.0,268.6 L189.2,268.5 
		L189.4,268.5 L189.6,269.3 L189.8,268.9 L190.0,268.9 L190.2,269.5 L190.5,269.7 L190.7,270.1 L190.9,270.0 
		L191.1,270.1 L191.3,270.1 L191.5,270.8 L191.7,270.7 L191.9,269.8 L192.1,269.7 L192.3,269.7 L192.5,270.3 
		L192.8,269.6 L193.0,269.1 L193.2,269.3 L193.4,269.4 L193.6,269.4 L193.8,269.9 L194.0,269.6 L194.2,269.9 
		L194.4,270.0 L194.6,269.3 L194.8,269.3 L195.1,269.9 L195.3,269.2 L195.5,269.0 L195.7,269.3 L195.9,269.3 
		L196.1,269.0 L196.3,269.0 L196.5,269.0 L196.7,269.6 L196.9,269.6 L197.2,269.6 L197.4,269.1 L197.6,269.1 
		L197.8,269.5 L198.0,269.1 L198.2,269.1 L198.4,268.7 L198.6,268.3 L198.8,267.6 L199.0,267.7 L199.2,267.6 
		L199.5,267.5 L199.7,267.5 L199.9,267.8 L200.1,267.8 L200.3,267.9 L200.5,267.4 L200.7,267.4 L200.9,268.0 
		L201.1,268.0 L201.3,268.3 L201.5,267.4 L201.8,266.0 L202.0,266.0 L202.2,265.0 L202.4,264.9 L202.6,264.1 
		L202.8,264.0 L203.0,264.0 L203.2,263.9 L203.4,263.9 L203.6,263.9 L203.9,263.9 L204.1,264.3 L204.3,264.1 
		L204.5,264.0 L204.7,264.3 L204.9,264.4 L205.1,264.4 L205.3,264.4 L205.5,264.4 L205.7,264.4 L205.9,264.4 
		L206.2,264.4 L206.4,264.4 L206.6,264.4 L206.8,266.1 L207.0,266.1 L207.2,266.2 L207.4,266.1 L207.6,266.1 
		L207.8,266.1 L208.0,266.0 L208.2,266.2 L208.5,266.2 L208.7,266.2 L208.9,266.2 L209.1,267.1 L209.3,267.2 
		L209.5,267.2 L209.7,267.2 L209.9,267.7 L210.1,267.6 L210.3,267.5 L210.6,267.7 L210.8,267.8 L211.0,268.0 
		L211.2,268.2 L211.4,268.2 L211.6,268.0 L211.8,268.4 L212.0,268.0 L212.2,267.5 L212.4,267.5 L212.6,267.5 
		L212.9,267.5 L213.1,267.2 L213.3,267.2 L213.5,267.6 L213.7,267.1 L213.9,267.1 L214.1,266.5 L214.3,265.8 
		L214.5,265.9 L214.7,265.9 L214.9,266.2 L215.2,266.5 L215.4,266.4 L215.6,266.5 L215.8,266.2 L216.0,266.1 
		L216.2,266.1 L216.4,266.1 L216.6,266.1 L216.8,266.5 L217.0,266.4 L217.3,266.5 L217.5,266.5 L217.7,267.1 
		L217.9,266.4 L218.1,265.9 L218.3,265.3 L218.5,265.3 L218.7,265.3 L218.9,265.4 L219.1,265.4 L219.3,265.5 
		L219.6,265.7 L219.8,265.6 L220.0,265.4 L220.2,265.8 L220.4,265.7 L220.6,265.7 L220.8,266.1 L221.0,266.1 
		L221.2,265.3 L221.4,264.4 L221.6,264.4 L221.9,264.4 L222.1,264.9 L222.3,265.0 L222.5,265.0 L222.7,265.0 
		L222.9,265.3 L223.1,264.6 L223.3,264.5 L223.5,264.5 L223.7,264.5 L223.9,265.0 L224.2,265.0 L224.4,264.5 
		L224.6,264.3 L224.8,263.9 L225.0,263.7 L225.2,263.8 L225.4,263.8 L225.6,263.8 L225.8,264.4 L226.0,264.4 
		L226.3,263.9 L226.5,264.0 L226.7,264.0 L226.9,264.6 L227.1,264.2 L227.3,264.1 L227.5,264.1 L227.7,263.9 
		L227.9,263.8 L228.1,263.5 L228.3,263.5 L228.6,264.0 L228.8,264.0 L229.0,264.1 L229.2,264.1 L229.4,264.1 
		L229.6,264.0 L229.8,263.5 L230.0,263.5 L230.2,263.8 L230.4,263.5 L230.6,263.5 L230.9,262.8 L231.1,262.7 
		L231.3,263.0 L231.5,263.1 L231.7,263.1 L231.9,263.0 L232.1,263.0 L232.3,263.2 L232.5,263.0 L232.7,263.4 
		L233.0,263.3 L233.2,263.0 L233.4,263.0 L233.6,263.0 L233.8,263.2 L234.0,263.0 L234.2,262.8 L234.4,262.8 
		L234.6,263.2 L234.8,263.4 L235.0,263.4 L235.3,263.5 L235.5,263.5 L235.7,263.5 L235.9,263.5 L236.1,264.4 
		L236.3,264.4 L236.5,264.6 L236.7,264.7 L236.9,265.0 L237.1,265.0 L237.3,265.3 L237.6,265.3 L237.8,265.1 
		L238.0,265.1 L238.2,265.4 L238.4,265.4 L238.6,265.4 L238.8,265.8 L239.0,265.1 L239.2,264.7 L239.4,264.7 
		L239.7,265.0 L239.9,264.7 L240.1,264.2 L240.3,264.2 L240.5,264.2 L240.7,264.5 L240.9,264.5 L241.1,265.0 
		L241.3,264.7 L241.5,264.6 L241.7,264.1 L242.0,263.6 L242.2,263.4 L242.4,263.4 L242.6,263.4 L242.8,263.4 
		L243.0,263.9 L243.2,263.9 L243.4,263.9 L243.6,264.1 L243.8,264.3 L244.0,264.3 L244.3,264.3 L244.5,264.0 
		L244.7,264.0 L244.9,264.2 L245.1,264.2 L245.3,264.6 L245.5,263.5 L245.7,263.3 L245.9,263.3 L246.1,263.5 
		L246.3,263.5 L246.6,263.7 L246.8,264.0 L247.0,264.2 L247.2,264.3 L247.4,264.5 L247.6,264.5 L247.8,264.5 
		L248.0,264.6 L248.2,264.8 L248.4,264.6 L248.6,264.3 L248.9,264.0 L249.1,264.0 L249.3,263.8 L249.5,263.9 
		L249.7,264.0 L249.9,264.0 L250.1,263.9 L250.3,263.9 L250.5,264.2 L250.7,264.2 L251.0,264.2 L251.2,264.7 
		L251.4,264.9 L251.6,264.3 L251.8,264.0 L252.0,264.0 L252.2,264.0 L252.4,263.8 L252.6,263.8 L252.8,264.2 
		L253.0,263.5 L253.3,263.0 L253.5,263.1 L253.7,263.4 L253.9,263.3 L254.1,263.4 L254.3,263.4 L254.5,263.8 
		L254.7,263.8 L254.9,263.9 L255.1,263.7 L255.3,263.4 L255.6,263.3 L255.8,263.3 L256.0,263.3 L256.2,263.6 
		L256.4,262.9 L256.6,262.8 L256.8,262.8 L257.0,263.1 L257.2,262.8 L257.4,262.5 L257.7,262.4 L257.9,262.4 
		L258.1,262.7 L258.3,262.6 L258.5,262.5 L258.7,262.5 L258.9,262.5 L259.1,262.8 L259.3,262.3 L259.5,262.5 
		L259.7,261.9 L260.0,261.4 L260.2,261.2 L260.4,261.3 L260.6,261.5 L260.8,261.4 L261.0,261.4 L261.2,261.9 
		L261.4,261.8 L261.6,261.7 L261.8,261.8 L262.0,261.8 L262.3,262.1 L262.5,261.9 L262.7,261.7 L262.9,261.7 
		L263.1,262.1 L263.3,262.1 L263.5,262.0 L263.7,262.2 L263.9,262.0 L264.1,262.1 L264.3,261.9 L264.6,261.6 
		L264.8,261.6 L265.0,261.6 L265.2,261.7 L265.4,261.7 L265.6,261.9 L265.8,261.8 L266.0,261.8 L266.2,261.7 
		L266.4,261.7 L266.7,261.7 L266.9,261.8 L267.1,261.8 L267.3,261.8 L267.5,261.3 L267.7,261.3 L267.9,261.3 
		L268.1,261.3 L268.3,261.7 L268.5,261.5 L268.7,261.7 L269.0,261.7 L269.2,261.7 L269.4,261.9 L269.6,261.8 
		L269.8,261.8 L270.0,261.8 L270.2,261.9 L270.4,262.0 L270.6,262.1 L270.8,262.1 L271.0,262.1 L271.3,262.6 
		L271.5,262.5 L271.7,262.3 L271.9,262.3 L272.1,262.4 L272.3,262.5 L272.5,262.5 L272.7,262.8 L272.9,262.8 
		L273.1,262.3 L273.4,262.3 L273.6,261.8 L273.8,261.8 L274.0,262.1 L274.2,262.1 L274.4,262.1 L274.6,262.6 
		L274.8,261.5 L275.0,261.3 L275.2,261.3 L275.4,261.8 L275.7,261.8 L275.9,261.7 L276.1,261.6 L276.3,261.6 
		L276.5,261.9 L276.7,261.4 L276.9,261.2 L277.1,261.2 L277.3,261.2 L277.5,261.3 L277.7,260.8 L278.0,260.9 
		L278.2,260.9 L278.4,261.0 L278.6,260.6 L278.8,260.3 L279.0,260.3 L279.2,260.5 L279.4,260.5 L279.6,260.5 
		L279.8,261.0 L280.1,261.0 L280.3,261.0 L280.5,261.4 L280.7,261.1 L280.9,260.7 L281.1,260.6 L281.3,260.8 
		L281.5,260.9 L281.7,260.8 L281.9,261.0 L282.1,261.1 L282.4,261.2 L282.6,261.2 L282.8,260.5 L283.0,260.4 
		L283.2,260.5 L283.4,260.0 L283.6,260.0 L283.8,260.2 L284.0,260.3 L284.2,260.3 L284.4,260.3 L284.7,260.0 
		L284.9,259.4 L285.1,259.4 L285.3,259.2 L285.5,259.2 L285.7,259.2 L285.9,259.6 L286.1,259.6 L286.3,259.9 
		L286.5,259.9 L286.8,259.7 L287.0,259.7 L287.2,260.0 L287.4,260.0 L287.6,260.0 L287.8,260.1 L288.0,259.8 
		L288.2,259.6 L288.4,259.6 L288.6,259.8 L288.8,259.8 L289.1,260.1 L289.3,260.1 L289.5,260.1 L289.7,260.1 
		L289.9,260.1 L290.1,260.1 L290.3,260.7 L290.5,260.8 L290.7,260.8 L290.9,260.6 L291.1,260.6 L291.4,260.8 
		L291.6,260.6 L291.8,260.5 L292.0,260.3 L292.2,260.3 L292.4,260.3 L292.6,260.3 L292.8,260.9 L293.0,261.0 
		L293.2,261.2 L293.4,261.0 L293.7,260.7 L293.9,260.8 L294.1,260.4 L294.3,260.3 L294.5,260.3 L294.7,260.5 
		L294.9,260.5 L295.1,260.8 L295.3,260.9 L295.5,260.8 L295.8,260.9 L296.0,260.9 L296.2,260.9 L296.4,260.7 
		L296.6,260.8 L296.8,260.6 L297.0,260.4 L297.2,260.6 L297.4,260.5 L297.6,260.5 L297.8,260.4 L298.1,260.4 
		L298.3,260.4 L298.5,260.3 L298.7,260.2 L298.9,260.2 L299.1,260.4 L299.3,260.4 L299.5,260.4 L299.7,260.8 
		L299.9,260.8 L300.1,260.8 L300.4,261.2 L300.6,261.4 L300.8,261.1 L301.0,261.0 L301.2,260.9 L301.4,260.8 
		L301.6,260.8 L301.8,260.7 L302.0,260.6 L302.2,260.8 L302.5,260.7 L302.7,260.7 L302.9,260.7 L303.1,261.2 
		L303.3,261.0 L303.5,261.2 L303.7,261.2 L303.9,261.5 L304.1,261.3 L304.3,261.3 L304.5,261.3 L304.8,261.3 
		L305.0,261.6 L305.2,261.4 L305.4,261.4 L305.6,261.4 L305.8,261.6 L306.0,261.3 L306.2,261.3 L306.4,261.5 
		L306.6,261.5 L306.8,261.6 L307.1,261.5 L307.3,261.6 L307.5,261.2 L307.7,261.1 L307.9,260.9 L308.1,260.8 
		L308.3,260.8 L308.5,260.8 L308.7,260.8 L308.9,261.3 L309.2,261.4 L309.4,261.5 L309.6,261.4 L309.8,261.2 
		L310.0,261.2 L310.2,261.1 L310.4,260.8 L310.6,260.8 L310.8,260.8 L311.0,260.8 L311.2,261.3 L311.5,261.4 
		L311.7,261.3 L311.9,261.3 L312.1,261.4 L312.3,261.1 L312.5,261.0 L312.7,260.7 L312.9,260.7 L313.1,260.9 
		L313.3,260.9 L313.5,261.0 L313.8,261.1 L314.0,261.1 L314.2,261.1 L314.4,260.9 L314.6,260.7 L314.8,260.2 
		L315.0,259.7 L315.2,259.6 L315.4,259.2 L315.6,259.1 L315.8,258.4 L316.1,257.9 L316.3,257.9 L316.5,257.8 
		L316.7,258.0 L316.9,258.0 L317.1,257.8 L317.3,257.7 L317.5,257.7 L317.7,257.7 L317.9,257.7 L318.2,258.1 
		L318.4,258.1 L318.6,258.1 L318.8,258.1 L319.0,258.1 L319.2,257.9 L319.4,257.9 L319.6,257.9 L319.8,257.9 
		L320.0,258.3 L320.2,258.3 L320.5,258.4 L320.7,258.6 L320.9,258.6 L321.1,258.6 L321.3,258.6 L321.5,258.3 
		L321.7,258.4 L321.9,258.1 L322.1,258.1 L322.3,257.8 L322.5,257.8 L322.8,257.7 L323.0,257.8 L323.2,257.8 
		L323.4,258.1 L323.6,258.2 L323.8,258.2 L324.0,258.5 L324.2,258.4 L324.4,258.1 L324.6,257.9 L324.9,257.5 
		L325.1,257.5 L325.3,257.5 L325.5,257.5 L325.7,257.8 L325.9,257.8 L326.1,258.1 L326.3,258.0 L326.5,257.6 
		L326.7,257.4 L326.9,257.5 L327.2,257.2 L327.4,257.1 L327.6,257.1 L327.8,257.1 L328.0,257.6 L328.2,257.5 
		L328.4,257.6 L328.6,257.3 L328.8,257.1 L329.0,257.1 L329.2,257.1 L329.5,257.5 L329.7,257.5 L329.9,257.4 
		L330.1,257.4 L330.3,257.4 L330.5,257.6 L330.7,257.6 L330.9,257.8 L331.1,257.8 L331.3,257.8 L331.6,258.1 
		L331.8,257.8 L332.0,257.5 L332.2,257.4 L332.4,257.5 L332.6,257.3 L332.8,257.3 L333.0,257.5 L333.2,257.5 
		L333.4,257.8 L333.6,257.8 L333.9,257.8 L334.1,257.9 L334.3,257.9 L334.5,258.0 L334.7,257.9 L334.9,258.1 
		L335.1,258.2 L335.3,258.3 L335.5,258.3 L335.7,258.4 L335.9,258.6 L336.2,258.6 L336.4,258.6 L336.6,258.6 
		L336.8,259.1 L337.0,259.1 L337.2,259.1 L337.4,259.1 L337.6,259.5 L337.8,259.5 L338.0,259.7 L338.3,259.4 
		L338.5,259.4 L338.7,259.6 L338.9,259.6 L339.1,259.6 L339.3,259.6 L339.5,260.0 L339.7,260.0 L339.9,259.9 
		L340.1,259.4 L340.3,259.2 L340.6,259.1 L340.8,259.1 L341.0,259.1 L341.2,259.6 L341.4,259.6 L341.6,259.9 
		L341.8,259.7 L342.0,259.7 L342.2,259.3 L342.4,259.2 L342.6,259.2 L342.9,259.4 L343.1,259.2 L343.3,259.1 
		L343.5,259.2 L343.7,259.1 L343.9,259.2 L344.1,259.2 L344.3,259.4 L344.5,259.5 L344.7,259.5 L344.9,259.5 
		L345.2,259.5 L345.4,259.3 L345.6,259.3 L345.8,259.4 L346.0,259.4 L346.2,259.5 L346.4,259.5 L346.6,259.5 
		L346.8,259.7 L347.0,259.4 L347.3,259.3 L347.5,259.5 L347.7,259.6 L347.9,259.1 L348.1,258.9 L348.3,259.1 
		L348.5,259.1 L348.7,259.2 L348.9,259.2 L349.1,259.4 L349.3,259.5 L349.6,259.4 L349.8,259.5 L350.0,259.6 
		L350.2,259.2 L350.4,259.2 L350.6,259.2 L350.8,259.4 L351.0,259.5 L351.2,259.5 L351.4,259.6 L351.6,259.7 
		L351.9,259.8 L352.1,259.6 L352.3,259.6 L352.5,259.9 L352.7,259.8 L352.9,260.0 L353.1,260.0 L353.3,260.2 
		L353.5,260.1 L353.7,259.9 L354.0,259.4 L354.2,259.4 L354.4,259.6 L354.6,259.6 L354.8,259.7 L355.0,259.9 
		L355.2,259.7 L355.4,259.6 L355.6,259.6 L355.8,259.9 L356.0,259.9 L356.3,259.9 L356.5,259.9 L356.7,260.0 
		L356.9,260.0 L357.1,260.2 L357.3,260.1 L357.5,260.3 L357.7,260.3 L357.9,260.2 L358.1,260.1 L358.3,260.3 
		L358.6,260.0 L358.8,259.9 L359.0,259.9 L359.2,260.2 L359.4,259.8 L359.6,259.6 L359.8,259.6 L360.0,259.6 
		L360.2,260.0 L360.4,259.9 L360.7,259.9 L360.9,260.3 L361.1,259.8 L361.3,259.8 L361.5,259.7 L361.7,259.7 
		L361.9,259.5 L362.1,259.4 L362.3,259.3 L362.5,259.4 L362.7,259.4 L363.0,259.4 L363.2,259.7 L363.4,259.7 
		L363.6,259.8 L363.8,259.5 L364.0,259.5 L364.2,259.6 L364.4,259.6 L364.6,259.7 L364.8,259.8 L365.0,259.8 
		L365.3,259.9 L365.5,259.8 L365.7,259.8 L365.9,259.6 L366.1,259.5 L366.3,259.5 L366.5,259.6 L366.7,259.6 
		L366.9,259.8 L367.1,259.8 L367.4,259.9 L367.6,259.9 L367.8,260.1 L368.0,260.2 L368.2,260.2 L368.4,260.4 
		L368.6,260.2 L368.8,260.2 L369.0,260.2 L369.2,260.2 L369.4,260.0 L369.7,259.9 L369.9,259.9 L370.1,260.2 
		L370.3,260.1 L370.5,260.1 L370.7,260.0 L370.9,260.0 L371.1,260.1 L371.3,260.2 L371.5,260.2 L371.7,260.0 
		L372.0,260.0 L372.2,260.2 L372.4,260.0 L372.6,259.8 L372.8,259.8 L373.0,260.0 L373.2,260.0 L373.4,260.1 
		L373.6,260.1 L373.8,260.3 L374.0,260.4 L374.3,260.4 L374.5,260.6 L374.7,260.6 L374.9,260.5 L375.1,260.7 
		L375.3,260.6 L375.5,260.7 L375.7,260.7 L375.9,260.7 L376.1,260.7 L376.4,260.7 L376.6,260.7 L376.8,261.0 
		L377.0,261.1 L377.2,261.1 L377.4,261.3 L377.6,261.2 L377.8,261.1 L378.0,261.0 L378.2,260.4 L378.4,260.4 
		L378.7,260.4 L378.9,260.4 L379.1,260.4 L379.3,260.5 L379.5,260.4 L379.7,260.2 L379.9,259.8 L380.1,259.5 
		L380.3,259.6 L380.5,259.5 L380.7,259.4 L381.0,259.6 L381.2,259.5 L381.4,259.5 L381.6,259.6 L381.8,259.4 
		L382.0,259.4 L382.2,259.6 L382.4,259.7 L382.6,259.6 L382.8,259.7 L383.1,259.7 L383.3,259.9 L383.5,259.6 
		L383.7,259.6 L383.9,259.5 L384.1,259.5 L384.3,259.7 L384.5,259.2 L384.7,259.1 L384.9,259.0 L385.1,258.9 
		L385.4,259.0 L385.6,258.9 L385.8,258.9 L386.0,258.9 L386.2,258.4 L386.4,258.5 L386.6,258.3 L386.8,258.4 
		L387.0,258.1 L387.2,258.1 L387.4,258.0 L387.7,258.0 L387.9,257.9 L388.1,257.8 L388.3,257.4 L388.5,257.5 
		L388.7,257.4 L388.9,257.4 L389.1,257.4 L389.3,257.8 L389.5,257.8 L389.8,257.7 L390.0,257.7 L390.2,257.9 
		L390.4,258.0 L390.6,258.0 L390.8,258.0 L391.0,258.2 L391.2,258.3 L391.4,258.1 L391.6,258.0 L391.8,258.0 
		L392.1,258.0 L392.3,258.0 L392.5,257.7 L392.7,257.7 L392.9,257.8 L393.1,257.8 L393.3,257.9 L393.5,257.9 
		L393.7,258.0 L393.9,258.1 L394.1,258.1 L394.4,258.1 L394.6,258.1 L394.8,258.1 L395.0,258.1 L395.2,258.3 
		L395.4,258.3 L395.6,258.1 L395.8,257.8 L396.0,257.7 L396.2,257.7 L396.4,257.6 L396.7,257.7 L396.9,257.7 
		L397.1,257.8 L397.3,257.7 L397.5,257.7 L397.7,257.8 L397.9,257.9 L398.1,257.8 L398.3,257.3 L398.5,257.3 
		L398.8,257.3 L399.0,257.3 L399.2,257.3 L399.4,257.3 L399.6,257.8 L399.8,257.4 L400.0,257.4 L400.2,257.6 
		L400.4,257.5 L400.6,257.6 L400.8,257.6 L401.1,257.6 L401.3,257.9 L401.5,257.9 L401.7,257.9 L401.9,258.0 
		L402.1,258.0 L402.3,258.0 L402.5,258.0 L402.7,258.0 L402.9,258.4 L403.1,258.4 L403.4,258.4 L403.6,258.7 
		L403.8,258.6 L404.0,258.7 L404.2,258.6 L404.4,258.7 L404.6,258.6 L404.8,258.7 L405.0,258.7 L405.2,258.8 
		L405.5,258.8 L405.7,258.8 L405.9,259.0 L406.1,259.0 L406.3,259.0 L406.5,259.0 L406.7,259.0 L406.9,259.2 
		L407.1,259.3 L407.3,259.3 L407.5,259.2 L407.8,259.3 L408.0,259.3 L408.2,259.4 L408.4,259.3 L408.6,259.4 
		L408.8,259.4 L409.0,259.5 L409.2,259.4 L409.4,259.4 L409.6,259.4 L409.8,259.4 L410.1,259.5 L410.3,259.6 
		L410.5,259.7 L410.7,259.5 L410.9,259.4 L411.1,259.4 L411.3,259.5 L411.5,259.5 L411.7,259.6 L411.9,259.6 
		L412.2,259.6 L412.4,259.6 L412.6,259.6 L412.8,259.6 L413.0,260.0 L413.2,259.9 L413.4,259.9 L413.6,259.9 
		L413.8,259.8 L414.0,259.9 L414.2,259.9 L414.5,260.0 L414.7,259.9 L414.9,259.9 L415.1,259.9 L415.3,259.9 
		L415.5,259.9 L415.7,259.9 L415.9,260.5 L416.1,260.5 L416.3,260.6 L416.5,260.7 L416.8,260.7 L417.0,260.8 
		L417.2,260.9 L417.4,260.9 L417.6,261.0 L417.8,261.1 L418.0,261.1 L418.2,261.1 L418.4,261.3 L418.6,261.3 
		L418.9,261.3 L419.1,261.6 L419.3,261.6 L419.5,261.6 L419.7,261.6 L419.9,261.6 L420.1,261.6 L420.3,261.6 
		L420.5,261.6 L420.7,262.2 L420.9,262.2 L421.2,262.5 L421.4,262.5 L421.6,262.7 L421.8,262.7 L422.0,262.8 
		L422.2,262.8 L422.4,263.0 L422.6,263.0 L422.8,263.1 L423.0,263.1 L423.2,263.1 L423.5,263.3 L423.7,263.4 
		L423.9,263.4 L424.1,263.6 L424.3,263.6 L424.5,263.6 L424.7,263.6 L424.9,263.8 L425.1,263.8 L425.3,264.0 
		L425.5,264.1 L425.8,264.2 L426.0,264.3 L426.2,264.3 L426.4,264.4 L426.6,264.4 L426.8,264.4 L427.0,264.4 
		L427.2,264.7 L427.4,264.7 L427.6,264.7 L427.9,265.0 L428.1,265.0 L428.3,265.0 L428.5,265.0 L428.7,265.0 
		L428.9,265.0 L429.1,265.1 L429.3,265.1 L429.5,265.2 L429.7,265.3 L429.9,265.3 L430.2,265.3 L430.4,265.3 
		L430.6,265.4 L430.8,265.5 L431.0,265.5 L431.2,265.5 L431.4,265.5 L431.6,265.5 L431.8,265.6 L432.0,265.8 
		L432.2,265.8 L432.5,265.8 L432.7,265.8 L432.9,266.0 L433.1,266.0 L433.3,266.0 L433.5,265.9 L433.7,265.8 
		L433.9,265.8 L434.1,266.0 L434.3,266.0 L434.6,266.2 L434.8,266.0 L435.0,266.0 L435.2,265.9 L435.4,266.0 
		L435.6,265.9 L435.8,266.0 L436.0,265.9 L436.2,266.0 L436.4,266.1 L436.6,266.1 L436.9,265.9 L437.1,266.0 
		L437.3,265.8 L437.5,265.8 L437.7,265.9 L437.9,266.0 L438.1,266.0 L438.3,266.0 L438.5,266.0 L438.7,266.0 
		L438.9,266.4 L439.2,266.4 L439.4,266.4 L439.6,266.5 L439.8,266.5 L440.0,266.5 L440.2,266.7 L440.4,266.7 
		L440.6,266.7 L440.8,266.9 L441.0,266.9 L441.3,267.1 L441.5,267.1 L441.7,267.1 L441.9,267.2 L442.1,267.3 
		L442.3,267.3 L442.5,267.3 L442.7,267.3 L442.9,267.4 L443.1,267.3 L443.3,267.3 L443.6,267.3 L443.8,267.5 
		L444.0,267.5 L444.2,267.7 L444.4,267.7 L444.6,267.8 L444.8,267.8 L445.0,267.8 L445.2,268.0 L445.4,267.9 
		L445.6,267.9 L445.9,267.9 L446.1,268.0 L446.3,268.0 L446.5,268.1 L446.7,268.0 L446.9,267.8 L447.1,267.9 
		L447.3,267.9 L447.5,267.9 L447.7,267.9 L447.9,267.9 L448.2,267.9 L448.4,268.3 L448.6,268.2 L448.8,268.2 
		L449.0,268.3 L449.2,268.4 L449.4,268.4 L449.6,268.5 L449.8,268.5 L450.0,268.5 L450.3,268.5 L450.5,268.7 
		L450.7,268.7 L450.9,268.7 L451.1,268.7 L451.3,269.0 L451.5,269.0 L451.7,269.1 L451.9,269.1 L452.1,269.2 
		L452.3,269.2 L452.6,269.3 L452.8,269.3 L453.0,269.3 L453.2,269.3 L453.4,269.5 L453.6,269.6 L453.8,269.5 
		L454.0,269.5 L454.2,269.5 L454.4,269.6 L454.6,269.6 L454.9,269.7 L455.1,269.7 L455.3,269.7 L455.5,269.7 
		L455.7,269.7 L455.9,269.7 L456.1,269.9 L456.3,269.8 L456.5,269.7 L456.7,269.7 L457.0,269.7 L457.2,269.8 
		L457.4,269.8 L457.6,269.9 L457.8,270.0 L458.0,270.0 L458.2,270.0 L458.4,270.0 L458.6,270.0 L458.8,270.0 
		L459.0,270.2 L459.3,270.1 L459.5,270.1 L459.7,270.3 L459.9,270.3 L460.1,270.4 L460.3,270.4 L460.5,270.5 
		L460.7,270.5 L460.9,270.5 L461.1,270.5 L461.3,270.7 L461.6,270.7 L461.8,270.7 L462.0,270.7 L462.2,270.7 
		L462.4,270.7 L462.6,270.6 L462.8,270.6 L463.0,270.6 L463.2,270.6 L463.4,270.7 L463.7,270.6 L463.9,270.6 
		L464.1,270.6 L464.3,270.6 L464.5,270.9 L464.7,270.8 L464.9,270.7 L465.1,270.7 L465.3,270.8 L465.5,270.7 
		L465.7,270.7 L466.0,270.6 L466.2,270.4 L466.4,270.3 L466.6,270.3 L466.8,270.3 L467.0,270.3 L467.2,270.4 
		L467.4,270.5 L467.6,270.5 L467.8,270.5 L468.0,270.6 L468.3,270.7 L468.5,270.6 L468.7,270.5 L468.9,270.5 
		L469.1,270.6 L469.3,270.5 L469.5,270.4 L469.7,270.4 L469.9,270.4 L470.1,270.4 L470.4,270.7 L470.6,270.8 
		L470.8,270.8 L471.0,270.8 L471.2,270.8 L471.4,270.9 L471.6,270.9 L471.8,270.9 L472.0,270.9 L472.2,271.0 
		L472.4,271.0 L472.7,271.0 L472.9,271.0 L473.1,271.1 L473.3,271.2 L473.5,271.2 L473.7,271.2 L473.9,271.2 
		L474.1,271.5 L474.3,271.5 L474.5,271.6 L474.7,271.5 L475.0,271.4 L475.2,271.5 L475.4,271.5 L475.6,271.4 
		L475.8,271.5 L476.0,271.5 L476.2,271.5 L476.4,271.5 L476.6,271.7 L476.8,271.8 L477.0,271.8 L477.3,271.8 
		L477.5,271.6 L477.7,271.7 L477.9,271.6 L478.1,271.6 L478.3,271.4 L478.5,271.2 L478.7,271.3 L478.9,271.3 
		L479.1,271.4 L479.4,271.4 L479.6,271.3 L479.8,271.3 L480.0,271.2 L480.2,271.2 L480.4,271.3 L480.6,271.3 
		L480.8,271.3 L481.0,271.5 L481.2,271.5 L481.4,271.6 L481.7,271.6 L481.9,271.6 L482.1,271.6 L482.3,271.7 
		L482.5,271.7 L482.7,271.6 L482.9,271.5 L483.1,271.2 L483.3,271.2 L483.5,271.2 L483.7,271.2 L484.0,271.3 
		L484.2,271.2 L484.4,271.0 L484.6,270.7 L484.8,270.4 L485.0,270.3 L485.2,270.3 L485.4,270.3 L485.6,270.3 
		L485.8,270.1 L486.1,270.2 L486.3,270.2 L486.5,270.2 L486.7,270.3 L486.9,270.3 L487.1,270.4 L487.3,270.4 
		L487.5,270.6 L487.7,270.6 L487.9,270.6 L488.1,270.7 L488.4,270.7 L488.6,270.7 L488.8,270.7 L489.0,270.9 
		L489.2,270.9 L489.4,270.9 L489.6,271.0 L489.8,270.9 L490.0,271.0 L490.2,271.0 L490.4,271.0 L490.7,271.2 
		L490.9,270.9 L491.1,270.9 L491.3,270.8 L491.5,270.5 L491.7,270.3 L491.9,270.0 L492.1,270.0 L492.3,270.0 
		L492.5,270.0 L492.8,270.0 L493.0,269.9 L493.2,269.9 L493.4,269.9 L493.6,269.9 L493.8,270.3 L494.0,270.4 
		L494.2,270.4 L494.4,270.4 L494.6,270.5 L494.8,270.3 L495.1,270.2 L495.3,270.2 L495.5,270.2 L495.7,270.5 
		L495.9,270.4 L496.1,270.4 L496.3,270.4 L496.5,270.7 L496.7,270.7 L496.9,270.7 L497.1,270.7 L497.4,270.8 
		L497.6,270.9 L497.8,270.9 L498.0,270.9 L498.2,271.0 L498.4,271.0 L498.6,271.0 L498.8,271.1 L499.0,271.1 
		L499.2,271.1 L499.4,271.3 L499.7,271.3 L499.9,271.5 L500.1,271.5 L500.3,271.5 L500.5,271.6 L500.7,271.6 
		L500.9,271.5 L501.1,271.6 L501.3,271.5 L501.5,271.6 L501.8,271.6 L502.0,271.5 L502.2,271.5 L502.4,271.5 
		L502.6,271.7 L502.8,271.5 L503.0,271.5 L503.2,271.6 L503.4,271.5 L503.6,271.6 L503.8,271.4 L504.1,271.4 
		L504.3,271.4 L504.5,271.4 L504.7,271.4 L504.9,271.6 L505.1,271.4 L505.3,271.3 L505.5,271.3 L505.7,271.5 
		L505.9,271.4 L506.1,271.4 L506.4,271.4 L506.6,271.5 L506.8,271.6 L507.0,271.5 L507.2,271.6  h0.01'/></g>
	</g>
	<g id="gnuplot_plot_2" ><title>gnuplot_plot_2</title>
<g style="fill:none; color:green; stroke:currentColor; stroke-width:1.00; stroke-linecap:butt; stroke-linejoin:miter">
	<g transform="translate(440.1,390.9)" style="stroke:none; fill:black; font-family:Arial; font-size:12.00pt; text-anchor:end">
		<text>Radio maximum capacity</text>
	</g>
	<path  d='M448.4,386.4 L490.6,386.4 M90.8,208.8 L91.0,287.0 L91.2,85.8 L91.4,163.5 L91.6,144.1 L91.8,173.7 
		L92.1,204.5 L92.3,233.0 L92.5,248.3 L92.7,253.9 L92.9,253.9 L93.1,253.9 L93.3,253.9 L93.5,289.9 
		L93.7,270.9 L93.9,267.0 L94.2,267.0 L94.4,269.4 L94.6,264.1 L94.8,264.1 L95.0,264.1 L95.2,256.5 
		L95.4,231.5 L95.6,236.2 L95.8,223.7 L96.0,223.7 L96.2,225.5 L96.5,225.5 L96.7,226.9 L96.9,216.3 
		L97.1,216.3 L97.3,216.3 L97.5,216.3 L97.7,238.3 L97.9,236.3 L98.1,236.5 L98.3,236.5 L98.5,236.5 
		L98.8,254.3 L99.0,246.6 L99.2,247.0 L99.4,245.4 L99.6,249.9 L99.8,250.3 L100.0,250.3 L100.2,250.5 
		L100.4,248.9 L100.6,253.6 L100.8,251.8 L101.1,254.7 L101.3,254.7 L101.5,262.2 L101.7,262.2 L101.9,262.2 
		L102.1,271.3 L102.3,269.8 L102.5,271.0 L102.7,265.3 L102.9,254.1 L103.2,256.6 L103.4,256.7 L103.6,256.7 
		L103.8,252.0 L104.0,247.9 L104.2,245.8 L104.4,247.7 L104.6,247.6 L104.8,249.6 L105.0,245.5 L105.2,243.5 
		L105.5,245.6 L105.7,245.6 L105.9,245.6 L106.1,253.0 L106.3,255.1 L106.5,254.9 L106.7,244.2 L106.9,242.6 
		L107.1,244.7 L107.3,244.7 L107.5,246.7 L107.8,240.0 L108.0,239.6 L108.2,239.6 L108.4,244.3 L108.6,244.3 
		L108.8,247.9 L109.0,249.1 L109.2,249.8 L109.4,250.4 L109.6,252.4 L109.8,251.9 L110.1,250.4 L110.3,248.5 
		L110.5,249.4 L110.7,243.8 L110.9,243.9 L111.1,243.3 L111.3,243.6 L111.5,242.5 L111.7,242.5 L111.9,242.5 
		L112.2,246.4 L112.4,246.4 L112.6,249.2 L112.8,250.1 L113.0,250.9 L113.2,250.4 L113.4,250.4 L113.6,250.4 
		L113.8,250.9 L114.0,250.5 L114.2,250.7 L114.5,251.9 L114.7,251.9 L114.9,254.3 L115.1,254.3 L115.3,254.3 
		L115.5,257.0 L115.7,257.7 L115.9,256.9 L116.1,256.9 L116.3,257.3 L116.5,258.2 L116.8,258.4 L117.0,259.1 
		L117.2,260.9 L117.4,259.2 L117.6,260.2 L117.8,260.9 L118.0,260.6 L118.2,262.1 L118.4,262.8 L118.6,263.3 
		L118.9,263.9 L119.1,262.2 L119.3,261.7 L119.5,255.4 L119.7,250.9 L119.9,251.9 L120.1,251.9 L120.3,251.9 
		L120.5,253.9 L120.7,254.9 L120.9,255.3 L121.2,254.7 L121.4,252.5 L121.6,249.9 L121.8,248.4 L122.0,248.4 
		L122.2,250.4 L122.4,249.5 L122.6,249.5 L122.8,249.5 L123.0,253.1 L123.2,252.8 L123.5,253.9 L123.7,254.6 
		L123.9,253.5 L124.1,253.5 L124.3,255.2 L124.5,255.2 L124.7,256.4 L124.9,257.1 L125.1,257.0 L125.3,256.3 
		L125.6,255.8 L125.8,255.0 L126.0,254.9 L126.2,255.9 L126.4,256.5 L126.6,253.4 L126.8,253.8 L127.0,253.2 
		L127.2,254.1 L127.4,254.1 L127.6,254.1 L127.9,255.5 L128.1,252.5 L128.3,251.3 L128.5,251.6 L128.7,251.7 
		L128.9,253.3 L129.1,252.3 L129.3,252.6 L129.5,252.1 L129.7,251.5 L130.0,251.5 L130.2,251.5 L130.4,254.1 
		L130.6,252.7 L130.8,251.4 L131.0,250.8 L131.2,251.5 L131.4,252.1 L131.6,252.1 L131.8,253.9 L132.0,254.5 
		L132.3,252.9 L132.5,252.9 L132.7,254.5 L132.9,254.6 L133.1,255.2 L133.3,255.2 L133.5,255.2 L133.7,257.3 
		L133.9,257.2 L134.1,258.0 L134.3,258.2 L134.6,255.8 L134.8,254.9 L135.0,255.0 L135.2,254.0 L135.4,254.4 
		L135.6,254.4 L135.8,255.7 L136.0,255.3 L136.2,255.3 L136.4,254.5 L136.7,254.8 L136.9,254.8 L137.1,254.8 
		L137.3,255.5 L137.5,255.9 L137.7,255.3 L137.9,253.8 L138.1,253.0 L138.3,253.5 L138.5,253.5 L138.7,253.5 
		L139.0,255.7 L139.2,254.3 L139.4,254.3 L139.6,254.3 L139.8,254.5 L140.0,252.9 L140.2,251.9 L140.4,251.7 
		L140.6,251.6 L140.8,252.2 L141.0,251.4 L141.3,250.3 L141.5,250.3 L141.7,251.8 L141.9,251.8 L142.1,251.8 
		L142.3,253.9 L142.5,253.4 L142.7,253.4 L142.9,253.4 L143.1,255.1 L143.3,255.7 L143.6,255.7 L143.8,256.5 
		L144.0,257.0 L144.2,256.0 L144.4,255.8 L144.6,255.8 L144.8,256.5 L145.0,256.6 L145.2,256.4 L145.4,256.7 
		L145.7,256.7 L145.9,257.8 L146.1,256.5 L146.3,255.8 L146.5,255.4 L146.7,254.9 L146.9,255.4 L147.1,255.2 
		L147.3,255.0 L147.5,255.4 L147.7,255.4 L148.0,255.4 L148.2,255.4 L148.4,255.4 L148.6,255.4 L148.8,255.4 
		L149.0,255.4 L149.2,255.4 L149.4,255.4 L149.6,261.0 L149.8,260.9 L150.0,260.0 L150.3,259.8 L150.5,259.8 
		L150.7,259.8 L150.9,261.4 L151.1,261.3 L151.3,260.6 L151.5,260.7 L151.7,260.7 L151.9,260.7 L152.1,261.5 
		L152.4,261.3 L152.6,261.8 L152.8,261.0 L153.0,260.8 L153.2,261.1 L153.4,261.1 L153.6,261.1 L153.8,261.1 
		L154.0,261.1 L154.2,261.1 L154.4,263.6 L154.7,263.5 L154.9,264.1 L155.1,264.5 L155.3,263.9 L155.5,263.9 
		L155.7,265.0 L155.9,265.3 L156.1,265.1 L156.3,265.0 L156.5,265.2 L156.7,264.9 L157.0,264.8 L157.2,265.1 
		L157.4,265.1 L157.6,265.1 L157.8,265.1 L158.0,266.8 L158.2,265.5 L158.4,265.0 L158.6,264.4 L158.8,262.6 
		L159.1,262.6 L159.3,263.1 L159.5,262.4 L159.7,262.2 L159.9,262.0 L160.1,262.4 L160.3,261.6 L160.5,261.3 
		L160.7,261.5 L160.9,262.1 L161.1,262.2 L161.4,261.9 L161.6,261.9 L161.8,261.1 L162.0,260.8 L162.2,259.7 
		L162.4,259.7 L162.6,260.3 L162.8,259.1 L163.0,258.4 L163.2,258.9 L163.4,257.5 L163.7,257.4 L163.9,257.4 
		L164.1,257.7 L164.3,257.7 L164.5,257.7 L164.7,257.7 L164.9,258.9 L165.1,258.5 L165.3,258.1 L165.5,258.1 
		L165.8,257.7 L166.0,257.7 L166.2,257.7 L166.4,257.7 L166.6,257.9 L166.8,258.3 L167.0,258.3 L167.2,257.9 
		L167.4,257.9 L167.6,258.0 L167.8,257.6 L168.1,258.1 L168.3,258.3 L168.5,258.5 L168.7,258.4 L168.9,258.3 
		L169.1,258.7 L169.3,258.7 L169.5,258.7 L169.7,259.8 L169.9,260.4 L170.1,260.3 L170.4,260.6 L170.6,260.9 
		L170.8,260.3 L171.0,259.4 L171.2,259.4 L171.4,260.1 L171.6,260.4 L171.8,260.4 L172.0,260.4 L172.2,260.4 
		L172.4,262.1 L172.7,261.7 L172.9,261.3 L173.1,261.2 L173.3,261.2 L173.5,261.0 L173.7,261.0 L173.9,260.7 
		L174.1,259.6 L174.3,259.5 L174.5,257.4 L174.8,256.3 L175.0,255.2 L175.2,253.5 L175.4,253.3 L175.6,252.4 
		L175.8,252.6 L176.0,251.3 L176.2,251.3 L176.4,251.3 L176.6,251.3 L176.8,252.4 L177.1,251.9 L177.3,251.9 
		L177.5,251.9 L177.7,251.3 L177.9,250.7 L178.1,250.7 L178.3,251.3 L178.5,250.5 L178.7,250.7 L178.9,250.7 
		L179.1,250.7 L179.4,251.7 L179.6,251.6 L179.8,251.6 L180.0,251.6 L180.2,252.7 L180.4,252.7 L180.6,253.0 
		L180.8,253.0 L181.0,252.5 L181.2,252.5 L181.5,252.5 L181.7,252.5 L181.9,253.4 L182.1,253.4 L182.3,253.4 
		L182.5,254.6 L182.7,254.5 L182.9,254.7 L183.1,254.9 L183.3,255.2 L183.5,255.1 L183.8,254.4 L184.0,254.4 
		L184.2,254.4 L184.4,254.4 L184.6,253.3 L184.8,252.5 L185.0,251.3 L185.2,250.9 L185.4,251.1 L185.6,249.2 
		L185.8,247.7 L186.1,247.7 L186.3,247.7 L186.5,247.7 L186.7,248.7 L186.9,248.2 L187.1,248.2 L187.3,247.8 
		L187.5,247.8 L187.7,248.4 L187.9,248.2 L188.2,247.9 L188.4,247.3 L188.6,247.2 L188.8,247.3 L189.0,246.8 
		L189.2,246.9 L189.4,245.6 L189.6,244.1 L189.8,244.0 L190.0,244.0 L190.2,244.6 L190.5,243.6 L190.7,243.2 
		L190.9,242.7 L191.1,242.7 L191.3,242.7 L191.5,243.5 L191.7,243.5 L191.9,242.1 L192.1,242.0 L192.3,242.0 
		L192.5,242.7 L192.8,242.1 L193.0,241.5 L193.2,241.8 L193.4,241.9 L193.6,241.9 L193.8,242.6 L194.0,242.3 
		L194.2,242.6 L194.4,242.8 L194.6,242.2 L194.8,242.2 L195.1,242.9 L195.3,242.2 L195.5,242.1 L195.7,242.4 
		L195.9,242.5 L196.1,242.2 L196.3,242.3 L196.5,242.3 L196.7,243.1 L196.9,243.0 L197.2,243.1 L197.4,242.6 
		L197.6,242.6 L197.8,243.1 L198.0,242.6 L198.2,242.6 L198.4,242.0 L198.6,241.6 L198.8,240.9 L199.0,241.0 
		L199.2,240.9 L199.5,240.9 L199.7,240.9 L199.9,241.3 L200.1,241.3 L200.3,241.6 L200.5,240.8 L200.7,240.8 
		L200.9,241.5 L201.1,241.5 L201.3,241.9 L201.5,241.0 L201.8,239.4 L202.0,239.4 L202.2,238.5 L202.4,238.4 
		L202.6,237.5 L202.8,237.4 L203.0,237.4 L203.2,237.4 L203.4,237.5 L203.6,237.6 L203.9,237.6 L204.1,238.0 
		L204.3,237.9 L204.5,237.8 L204.7,238.2 L204.9,238.4 L205.1,238.4 L205.3,238.4 L205.5,238.4 L205.7,238.4 
		L205.9,238.4 L206.2,238.4 L206.4,238.4 L206.6,238.4 L206.8,240.3 L207.0,240.3 L207.2,240.4 L207.4,240.2 
		L207.6,239.6 L207.8,239.6 L208.0,239.5 L208.2,239.8 L208.5,239.8 L208.7,239.8 L208.9,239.8 L209.1,240.3 
		L209.3,240.3 L209.5,240.2 L209.7,240.2 L209.9,240.8 L210.1,240.6 L210.3,240.4 L210.6,240.6 L210.8,240.7 
		L211.0,241.0 L211.2,241.2 L211.4,241.1 L211.6,240.9 L211.8,241.3 L212.0,240.7 L212.2,240.1 L212.4,240.1 
		L212.6,240.2 L212.9,240.2 L213.1,239.9 L213.3,239.9 L213.5,240.4 L213.7,239.8 L213.9,239.8 L214.1,238.7 
		L214.3,237.6 L214.5,237.7 L214.7,237.7 L214.9,238.1 L215.2,238.4 L215.4,238.3 L215.6,238.3 L215.8,238.1 
		L216.0,238.0 L216.2,238.0 L216.4,238.0 L216.6,238.0 L216.8,238.6 L217.0,238.5 L217.3,238.7 L217.5,238.7 
		L217.7,239.4 L217.9,238.0 L218.1,237.6 L218.3,237.1 L218.5,237.1 L218.7,237.2 L218.9,237.3 L219.1,237.3 
		L219.3,237.5 L219.6,237.8 L219.8,237.7 L220.0,237.5 L220.2,238.0 L220.4,237.9 L220.6,237.9 L220.8,238.4 
		L221.0,238.4 L221.2,237.7 L221.4,236.8 L221.6,236.8 L221.9,236.8 L222.1,237.5 L222.3,237.5 L222.5,237.5 
		L222.7,237.7 L222.9,238.0 L223.1,237.3 L223.3,237.3 L223.5,237.3 L223.7,237.3 L223.9,237.9 L224.2,237.9 
		L224.4,236.9 L224.6,236.9 L224.8,236.5 L225.0,236.3 L225.2,236.4 L225.4,236.4 L225.6,236.4 L225.8,237.2 
		L226.0,237.3 L226.3,236.8 L226.5,236.9 L226.7,236.9 L226.9,237.5 L227.1,237.2 L227.3,237.2 L227.5,237.2 
		L227.7,237.0 L227.9,237.0 L228.1,236.7 L228.3,236.7 L228.6,237.3 L228.8,237.4 L229.0,237.5 L229.2,237.5 
		L229.4,237.5 L229.6,237.5 L229.8,237.1 L230.0,237.0 L230.2,237.4 L230.4,237.1 L230.6,237.2 L230.9,236.5 
		L231.1,236.5 L231.3,236.8 L231.5,237.0 L231.7,237.0 L231.9,236.9 L232.1,236.9 L232.3,237.2 L232.5,237.1 
		L232.7,237.5 L233.0,237.4 L233.2,237.2 L233.4,237.2 L233.6,237.2 L233.8,237.4 L234.0,237.3 L234.2,237.1 
		L234.4,237.1 L234.6,237.7 L234.8,237.9 L235.0,237.8 L235.3,238.0 L235.5,238.0 L235.7,238.0 L235.9,238.0 
		L236.1,239.1 L236.3,239.1 L236.5,239.4 L236.7,239.4 L236.9,239.8 L237.1,239.8 L237.3,240.1 L237.6,240.1 
		L237.8,240.1 L238.0,240.1 L238.2,240.4 L238.4,240.4 L238.6,240.4 L238.8,240.9 L239.0,240.3 L239.2,239.9 
		L239.4,239.9 L239.7,240.3 L239.9,240.0 L240.1,239.6 L240.3,239.5 L240.5,239.5 L240.7,239.9 L240.9,239.9 
		L241.1,240.5 L241.3,240.2 L241.5,240.2 L241.7,239.6 L242.0,239.2 L242.2,239.0 L242.4,239.1 L242.6,239.1 
		L242.8,239.1 L243.0,239.7 L243.2,239.7 L243.4,239.7 L243.6,240.0 L243.8,240.2 L244.0,240.2 L244.3,240.2 
		L244.5,240.0 L244.7,239.9 L244.9,240.3 L245.1,240.3 L245.3,240.7 L245.5,239.6 L245.7,239.5 L245.9,239.5 
		L246.1,239.5 L246.3,239.6 L246.6,239.7 L246.8,239.9 L247.0,240.1 L247.2,239.9 L247.4,239.6 L247.6,238.8 
		L247.8,238.6 L248.0,238.8 L248.2,238.9 L248.4,238.7 L248.6,238.4 L248.9,238.0 L249.1,237.8 L249.3,237.6 
		L249.5,237.8 L249.7,238.0 L249.9,237.9 L250.1,237.8 L250.3,237.8 L250.5,238.2 L250.7,238.2 L251.0,238.2 
		L251.2,238.7 L251.4,239.0 L251.6,238.3 L251.8,238.1 L252.0,238.1 L252.2,238.2 L252.4,238.0 L252.6,238.0 
		L252.8,238.5 L253.0,237.3 L253.3,236.6 L253.5,236.7 L253.7,237.1 L253.9,237.0 L254.1,237.2 L254.3,237.2 
		L254.5,237.4 L254.7,237.6 L254.9,237.8 L255.1,237.7 L255.3,237.4 L255.6,237.3 L255.8,237.3 L256.0,237.4 
		L256.2,237.6 L256.4,237.0 L256.6,236.9 L256.8,236.9 L257.0,237.3 L257.2,237.1 L257.4,236.7 L257.7,236.7 
		L257.9,236.7 L258.1,237.1 L258.3,237.0 L258.5,237.0 L258.7,237.0 L258.9,237.0 L259.1,237.3 L259.3,236.8 
		L259.5,236.8 L259.7,236.5 L260.0,236.0 L260.2,235.9 L260.4,236.0 L260.6,236.2 L260.8,236.2 L261.0,236.2 
		L261.2,236.7 L261.4,236.7 L261.6,236.6 L261.8,236.7 L262.0,236.7 L262.3,237.1 L262.5,236.9 L262.7,236.7 
		L262.9,236.7 L263.1,237.2 L263.3,237.2 L263.5,237.2 L263.7,237.4 L263.9,237.2 L264.1,237.4 L264.3,237.2 
		L264.6,236.9 L264.8,236.9 L265.0,236.9 L265.2,237.1 L265.4,237.1 L265.6,237.3 L265.8,237.2 L266.0,237.3 
		L266.2,237.2 L266.4,237.2 L266.7,237.3 L266.9,237.5 L267.1,237.4 L267.3,237.5 L267.5,237.0 L267.7,237.0 
		L267.9,237.0 L268.1,237.0 L268.3,237.5 L268.5,237.3 L268.7,237.6 L269.0,237.6 L269.2,237.6 L269.4,237.9 
		L269.6,237.8 L269.8,237.8 L270.0,237.8 L270.2,238.0 L270.4,238.1 L270.6,238.2 L270.8,238.2 L271.0,238.2 
		L271.3,238.8 L271.5,238.7 L271.7,238.6 L271.9,238.6 L272.1,238.7 L272.3,238.8 L272.5,238.8 L272.7,239.1 
		L272.9,239.2 L273.1,238.7 L273.4,238.7 L273.6,238.3 L273.8,238.3 L274.0,238.7 L274.2,238.7 L274.4,238.7 
		L274.6,239.3 L274.8,238.1 L275.0,237.9 L275.2,237.9 L275.4,238.4 L275.7,238.5 L275.9,238.4 L276.1,238.3 
		L276.3,238.3 L276.5,238.7 L276.7,238.2 L276.9,238.0 L277.1,238.0 L277.3,238.0 L277.5,238.2 L277.7,237.7 
		L278.0,237.8 L278.2,237.8 L278.4,238.0 L278.6,237.5 L278.8,237.3 L279.0,237.3 L279.2,237.6 L279.4,237.6 
		L279.6,237.6 L279.8,238.1 L280.1,238.1 L280.3,238.1 L280.5,238.6 L280.7,238.3 L280.9,237.9 L281.1,237.8 
		L281.3,238.1 L281.5,238.2 L281.7,238.2 L281.9,238.4 L282.1,238.5 L282.4,238.6 L282.6,238.6 L282.8,238.0 
		L283.0,237.8 L283.2,238.0 L283.4,237.6 L283.6,237.6 L283.8,237.8 L284.0,237.9 L284.2,237.9 L284.4,237.9 
		L284.7,237.7 L284.9,237.1 L285.1,237.1 L285.3,236.9 L285.5,237.0 L285.7,237.0 L285.9,237.4 L286.1,237.4 
		L286.3,237.8 L286.5,237.8 L286.8,237.6 L287.0,237.7 L287.2,237.9 L287.4,238.0 L287.6,238.0 L287.8,238.2 
		L288.0,237.8 L288.2,237.6 L288.4,237.6 L288.6,237.9 L288.8,237.9 L289.1,238.3 L289.3,238.3 L289.5,238.4 
		L289.7,238.3 L289.9,238.3 L290.1,238.3 L290.3,239.0 L290.5,239.1 L290.7,239.1 L290.9,238.9 L291.1,239.0 
		L291.4,239.2 L291.6,239.1 L291.8,239.0 L292.0,238.8 L292.2,238.8 L292.4,238.8 L292.6,238.8 L292.8,239.5 
		L293.0,239.6 L293.2,239.9 L293.4,239.6 L293.7,239.4 L293.9,239.5 L294.1,239.1 L294.3,239.0 L294.5,239.0 
		L294.7,239.3 L294.9,239.3 L295.1,239.6 L295.3,239.8 L295.5,239.6 L295.8,239.8 L296.0,239.7 L296.2,239.7 
		L296.4,239.6 L296.6,239.8 L296.8,239.6 L297.0,239.4 L297.2,239.6 L297.4,239.5 L297.6,239.5 L297.8,239.5 
		L298.1,239.4 L298.3,239.6 L298.5,239.4 L298.7,239.4 L298.9,239.4 L299.1,239.6 L299.3,239.6 L299.5,239.6 
		L299.7,240.0 L299.9,240.0 L300.1,240.0 L300.4,240.5 L300.6,240.7 L300.8,240.5 L301.0,240.3 L301.2,240.3 
		L301.4,240.2 L301.6,240.3 L301.8,240.1 L302.0,240.0 L302.2,240.3 L302.5,240.2 L302.7,240.2 L302.9,240.2 
		L303.1,240.8 L303.3,240.6 L303.5,240.8 L303.7,240.8 L303.9,241.1 L304.1,241.0 L304.3,241.0 L304.5,241.0 
		L304.8,241.0 L305.0,241.4 L305.2,241.2 L305.4,241.2 L305.6,241.2 L305.8,241.5 L306.0,241.2 L306.2,241.2 
		L306.4,241.3 L306.6,241.4 L306.8,241.5 L307.1,241.4 L307.3,241.6 L307.5,241.2 L307.7,241.1 L307.9,240.9 
		L308.1,240.8 L308.3,240.8 L308.5,240.8 L308.7,240.8 L308.9,241.4 L309.2,241.6 L309.4,241.6 L309.6,241.6 
		L309.8,241.4 L310.0,241.4 L310.2,241.4 L310.4,241.0 L310.6,241.0 L310.8,241.0 L311.0,241.0 L311.2,241.6 
		L311.5,241.7 L311.7,241.7 L311.9,241.7 L312.1,241.8 L312.3,241.5 L312.5,241.5 L312.7,241.2 L312.9,241.2 
		L313.1,241.4 L313.3,241.4 L313.5,241.5 L313.8,241.6 L314.0,241.7 L314.2,241.6 L314.4,241.5 L314.6,241.3 
		L314.8,240.8 L315.0,240.3 L315.2,240.3 L315.4,239.9 L315.6,239.7 L315.8,239.1 L316.1,238.7 L316.3,238.6 
		L316.5,238.6 L316.7,238.8 L316.9,238.8 L317.1,238.6 L317.3,238.5 L317.5,238.5 L317.7,238.5 L317.9,238.5 
		L318.2,239.0 L318.4,239.0 L318.6,239.0 L318.8,239.0 L319.0,239.0 L319.2,238.9 L319.4,238.9 L319.6,238.9 
		L319.8,238.9 L320.0,239.4 L320.2,239.3 L320.5,239.5 L320.7,239.7 L320.9,239.7 L321.1,239.7 L321.3,239.8 
		L321.5,239.4 L321.7,239.6 L321.9,239.3 L322.1,239.3 L322.3,239.0 L322.5,239.1 L322.8,239.0 L323.0,239.1 
		L323.2,239.1 L323.4,239.4 L323.6,239.5 L323.8,239.5 L324.0,239.9 L324.2,239.8 L324.4,239.5 L324.6,239.3 
		L324.9,238.9 L325.1,238.9 L325.3,238.9 L325.5,238.9 L325.7,239.3 L325.9,239.3 L326.1,239.6 L326.3,239.6 
		L326.5,239.2 L326.7,239.0 L326.9,239.1 L327.2,238.8 L327.4,238.8 L327.6,238.8 L327.8,238.8 L328.0,239.3 
		L328.2,239.2 L328.4,239.3 L328.6,239.1 L328.8,238.8 L329.0,238.8 L329.2,238.8 L329.5,239.2 L329.7,239.2 
		L329.9,239.2 L330.1,239.2 L330.3,239.2 L330.5,239.4 L330.7,239.5 L330.9,239.7 L331.1,239.7 L331.3,239.7 
		L331.6,240.0 L331.8,239.7 L332.0,239.5 L332.2,239.4 L332.4,239.5 L332.6,239.3 L332.8,239.3 L333.0,239.5 
		L333.2,239.5 L333.4,239.9 L333.6,239.8 L333.9,239.9 L334.1,240.0 L334.3,240.0 L334.5,240.1 L334.7,240.1 
		L334.9,240.2 L335.1,240.4 L335.3,240.5 L335.5,240.5 L335.7,240.7 L335.9,240.9 L336.2,240.9 L336.4,240.9 
		L336.6,240.9 L336.8,241.4 L337.0,241.4 L337.2,241.4 L337.4,241.4 L337.6,241.8 L337.8,241.8 L338.0,242.1 
		L338.3,241.9 L338.5,241.9 L338.7,242.0 L338.9,242.0 L339.1,242.0 L339.3,242.0 L339.5,242.5 L339.7,242.5 
		L339.9,242.5 L340.1,241.9 L340.3,241.7 L340.6,241.7 L340.8,241.7 L341.0,241.7 L341.2,242.2 L341.4,242.2 
		L341.6,242.5 L341.8,242.4 L342.0,242.4 L342.2,242.0 L342.4,241.9 L342.6,241.9 L342.9,242.1 L343.1,241.9 
		L343.3,241.9 L343.5,242.0 L343.7,241.9 L343.9,242.0 L344.1,242.0 L344.3,242.2 L344.5,242.3 L344.7,242.3 
		L344.9,242.4 L345.2,242.4 L345.4,242.2 L345.6,242.2 L345.8,242.4 L346.0,242.4 L346.2,242.5 L346.4,242.5 
		L346.6,242.5 L346.8,242.7 L347.0,242.4 L347.3,242.4 L347.5,242.6 L347.7,242.6 L347.9,242.1 L348.1,242.0 
		L348.3,242.2 L348.5,242.2 L348.7,242.3 L348.9,242.3 L349.1,242.3 L349.3,242.7 L349.6,242.6 L349.8,242.7 
		L350.0,242.9 L350.2,242.5 L350.4,242.4 L350.6,242.4 L350.8,242.7 L351.0,242.8 L351.2,242.8 L351.4,242.9 
		L351.6,243.0 L351.9,243.1 L352.1,242.9 L352.3,242.9 L352.5,243.2 L352.7,243.2 L352.9,243.4 L353.1,243.4 
		L353.3,243.6 L353.5,243.5 L353.7,243.4 L354.0,242.8 L354.2,242.8 L354.4,243.0 L354.6,243.0 L354.8,243.2 
		L355.0,243.2 L355.2,243.2 L355.4,243.1 L355.6,243.1 L355.8,243.5 L356.0,243.5 L356.3,243.5 L356.5,243.5 
		L356.7,243.7 L356.9,243.6 L357.1,243.8 L357.3,243.8 L357.5,243.9 L357.7,243.9 L357.9,243.9 L358.1,243.8 
		L358.3,244.0 L358.6,243.7 L358.8,243.7 L359.0,243.7 L359.2,244.0 L359.4,243.6 L359.6,243.4 L359.8,243.4 
		L360.0,243.4 L360.2,243.8 L360.4,243.8 L360.7,243.8 L360.9,244.1 L361.1,243.6 L361.3,243.7 L361.5,243.6 
		L361.7,243.6 L361.9,243.4 L362.1,243.3 L362.3,243.3 L362.5,243.3 L362.7,243.3 L363.0,243.3 L363.2,243.7 
		L363.4,243.7 L363.6,243.8 L363.8,243.5 L364.0,243.5 L364.2,243.7 L364.4,243.7 L364.6,243.7 L364.8,243.8 
		L365.0,243.8 L365.3,244.0 L365.5,243.9 L365.7,243.9 L365.9,243.8 L366.1,243.6 L366.3,243.6 L366.5,243.8 
		L366.7,243.8 L366.9,244.0 L367.1,244.1 L367.4,244.1 L367.6,244.1 L367.8,244.4 L368.0,244.4 L368.2,244.5 
		L368.4,244.5 L368.6,244.5 L368.8,244.5 L369.0,244.5 L369.2,244.6 L369.4,244.3 L369.7,244.3 L369.9,244.3 
		L370.1,244.6 L370.3,244.4 L370.5,244.5 L370.7,244.4 L370.9,244.4 L371.1,244.6 L371.3,244.6 L371.5,244.6 
		L371.7,244.5 L372.0,244.5 L372.2,244.6 L372.4,244.5 L372.6,244.3 L372.8,244.3 L373.0,244.6 L373.2,244.6 
		L373.4,244.7 L373.6,244.7 L373.8,244.9 L374.0,245.0 L374.3,245.0 L374.5,245.2 L374.7,245.2 L374.9,245.1 
		L375.1,245.3 L375.3,245.3 L375.5,245.4 L375.7,245.4 L375.9,245.4 L376.1,245.4 L376.4,245.4 L376.6,245.4 
		L376.8,245.7 L377.0,245.9 L377.2,245.9 L377.4,246.0 L377.6,245.9 L377.8,245.9 L378.0,245.8 L378.2,245.2 
		L378.4,245.2 L378.7,245.2 L378.9,245.2 L379.1,245.2 L379.3,245.4 L379.5,245.3 L379.7,245.1 L379.9,244.6 
		L380.1,244.4 L380.3,244.5 L380.5,244.5 L380.7,244.3 L381.0,244.5 L381.2,244.5 L381.4,244.5 L381.6,244.5 
		L381.8,244.4 L382.0,244.4 L382.2,244.6 L382.4,244.7 L382.6,244.6 L382.8,244.8 L383.1,244.8 L383.3,244.9 
		L383.5,244.7 L383.7,244.7 L383.9,244.6 L384.1,244.6 L384.3,244.8 L384.5,244.3 L384.7,244.2 L384.9,244.1 
		L385.1,244.0 L385.4,244.1 L385.6,244.1 L385.8,244.1 L386.0,244.1 L386.2,243.6 L386.4,243.7 L386.6,243.6 
		L386.8,243.7 L387.0,243.3 L387.2,243.3 L387.4,243.2 L387.7,243.3 L387.9,243.2 L388.1,243.1 L388.3,242.7 
		L388.5,242.8 L388.7,242.7 L388.9,242.7 L389.1,242.7 L389.3,243.2 L389.5,243.1 L389.8,243.1 L390.0,243.1 
		L390.2,243.2 L390.4,243.4 L390.6,243.4 L390.8,243.4 L391.0,243.7 L391.2,243.7 L391.4,243.5 L391.6,243.5 
		L391.8,243.5 L392.1,243.5 L392.3,243.5 L392.5,243.2 L392.7,243.2 L392.9,243.3 L393.1,243.4 L393.3,243.4 
		L393.5,243.4 L393.7,243.5 L393.9,243.7 L394.1,243.7 L394.4,243.7 L394.6,243.7 L394.8,243.7 L395.0,243.7 
		L395.2,243.7 L395.4,243.9 L395.6,243.8 L395.8,243.5 L396.0,243.3 L396.2,243.4 L396.4,243.3 L396.7,243.4 
		L396.9,243.4 L397.1,243.5 L397.3,243.4 L397.5,243.4 L397.7,243.5 L397.9,243.7 L398.1,243.6 L398.3,243.0 
		L398.5,243.0 L398.8,243.0 L399.0,243.0 L399.2,243.0 L399.4,243.0 L399.6,243.6 L399.8,243.3 L400.0,243.3 
		L400.2,243.3 L400.4,243.4 L400.6,243.5 L400.8,243.5 L401.1,243.5 L401.3,243.8 L401.5,243.8 L401.7,243.9 
		L401.9,243.9 L402.1,244.0 L402.3,244.0 L402.5,244.0 L402.7,244.0 L402.9,244.4 L403.1,244.4 L403.4,244.4 
		L403.6,244.7 L403.8,244.7 L404.0,244.7 L404.2,244.6 L404.4,244.7 L404.6,244.6 L404.8,244.6 L405.0,244.6 
		L405.2,244.7 L405.5,244.7 L405.7,244.7 L405.9,245.0 L406.1,244.9 L406.3,244.9 L406.5,245.0 L406.7,244.9 
		L406.9,244.9 L407.1,245.2 L407.3,245.2 L407.5,245.2 L407.8,245.2 L408.0,245.2 L408.2,245.3 L408.4,245.2 
		L408.6,245.4 L408.8,245.4 L409.0,245.5 L409.2,245.4 L409.4,245.3 L409.6,245.3 L409.8,245.3 L410.1,245.4 
		L410.3,245.5 L410.5,245.6 L410.7,245.5 L410.9,245.4 L411.1,245.4 L411.3,245.4 L411.5,245.4 L411.7,245.6 
		L411.9,245.6 L412.2,245.6 L412.4,245.6 L412.6,245.6 L412.8,246.1 L413.0,246.1 L413.2,246.0 L413.4,245.9 
		L413.6,245.7 L413.8,245.5 L414.0,245.5 L414.2,245.6 L414.5,245.4 L414.7,245.3 L414.9,245.3 L415.1,245.3 
		L415.3,245.3 L415.5,245.3 L415.7,245.3 L415.9,245.9 L416.1,245.9 L416.3,246.0 L416.5,246.0 L416.8,246.0 
		L417.0,246.0 L417.2,246.1 L417.4,245.9 L417.6,245.8 L417.8,245.8 L418.0,245.7 L418.2,245.7 L418.4,245.9 
		L418.6,245.9 L418.9,245.9 L419.1,246.0 L419.3,245.2 L419.5,245.2 L419.7,245.2 L419.9,245.4 L420.1,245.5 
		L420.3,245.3 L420.5,245.3 L420.7,245.3 L420.9,245.3 L421.2,245.7 L421.4,245.7 L421.6,245.7 L421.8,245.7 
		L422.0,245.5 L422.2,245.5 L422.4,245.6 L422.6,245.6 L422.8,245.7 L423.0,245.7 L423.2,245.7 L423.5,245.9 
		L423.7,245.9 L423.9,245.9 L424.1,245.8 L424.3,245.4 L424.5,245.5 L424.7,245.4 L424.9,245.4 L425.1,245.4 
		L425.3,245.6 L425.5,245.6 L425.8,245.6 L426.0,245.2 L426.2,245.2 L426.4,245.1 L426.6,245.1 L426.8,245.1 
		L427.0,245.5 L427.2,245.5 L427.4,245.4 L427.6,245.4 L427.9,245.4 L428.1,245.5 L428.3,245.4 L428.5,245.3 
		L428.7,245.2 L428.9,245.2 L429.1,245.2 L429.3,245.2 L429.5,245.3 L429.7,245.4 L429.9,245.3 L430.2,245.2 
		L430.4,245.2 L430.6,245.4 L430.8,245.4 L431.0,245.3 L431.2,245.3 L431.4,245.3 L431.6,245.3 L431.8,245.5 
		L432.0,245.6 L432.2,245.6 L432.5,245.7 L432.7,245.7 L432.9,245.9 L433.1,245.7 L433.3,245.7 L433.5,245.2 
		L433.7,245.1 L433.9,245.1 L434.1,245.3 L434.3,245.3 L434.6,245.3 L434.8,245.2 L435.0,245.2 L435.2,245.1 
		L435.4,245.2 L435.6,245.1 L435.8,245.1 L436.0,245.1 L436.2,245.3 L436.4,245.3 L436.6,245.3 L436.9,245.1 
		L437.1,245.2 L437.3,245.0 L437.5,245.0 L437.7,245.1 L437.9,245.3 L438.1,245.2 L438.3,245.2 L438.5,245.2 
		L438.7,245.2 L438.9,245.7 L439.2,245.7 L439.4,245.7 L439.6,245.8 L439.8,245.8 L440.0,245.8 L440.2,246.1 
		L440.4,246.1 L440.6,246.1 L440.8,246.3 L441.0,246.3 L441.3,246.6 L441.5,246.5 L441.7,246.5 L441.9,246.5 
		L442.1,246.6 L442.3,246.4 L442.5,246.5 L442.7,246.5 L442.9,246.6 L443.1,246.4 L443.3,246.3 L443.6,246.3 
		L443.8,246.5 L444.0,246.5 L444.2,246.7 L444.4,246.7 L444.6,246.8 L444.8,246.8 L445.0,246.8 L445.2,247.0 
		L445.4,246.9 L445.6,246.9 L445.9,246.9 L446.1,247.0 L446.3,247.0 L446.5,247.0 L446.7,246.9 L446.9,246.5 
		L447.1,246.5 L447.3,246.6 L447.5,246.6 L447.7,246.6 L447.9,246.6 L448.2,246.6 L448.4,247.0 L448.6,246.9 
		L448.8,246.9 L449.0,247.0 L449.2,247.0 L449.4,246.9 L449.6,247.1 L449.8,247.1 L450.0,247.0 L450.3,247.0 
		L450.5,246.9 L450.7,247.0 L450.9,247.0 L451.1,247.0 L451.3,247.3 L451.5,247.3 L451.7,247.4 L451.9,247.4 
		L452.1,247.4 L452.3,247.3 L452.6,247.4 L452.8,247.4 L453.0,247.4 L453.2,247.4 L453.4,247.7 L453.6,247.7 
		L453.8,247.7 L454.0,247.7 L454.2,247.7 L454.4,247.8 L454.6,247.8 L454.9,247.8 L455.1,247.8 L455.3,247.9 
		L455.5,247.8 L455.7,247.8 L455.9,247.8 L456.1,247.9 L456.3,247.6 L456.5,247.6 L456.7,247.4 L457.0,247.4 
		L457.2,247.5 L457.4,247.5 L457.6,247.6 L457.8,247.7 L458.0,247.7 L458.2,247.7 L458.4,247.7 L458.6,247.7 
		L458.8,247.7 L459.0,247.9 L459.3,247.9 L459.5,247.9 L459.7,247.8 L459.9,247.7 L460.1,247.7 L460.3,247.7 
		L460.5,247.8 L460.7,247.8 L460.9,247.6 L461.1,247.6 L461.3,247.8 L461.6,247.5 L461.8,247.5 L462.0,247.4 
		L462.2,247.0 L462.4,246.8 L462.6,246.6 L462.8,246.4 L463.0,246.3 L463.2,246.3 L463.4,246.4 L463.7,246.3 
		L463.9,246.3 L464.1,246.3 L464.3,246.3 L464.5,246.5 L464.7,246.4 L464.9,246.4 L465.1,246.4 L465.3,246.5 
		L465.5,246.3 L465.7,246.3 L466.0,246.2 L466.2,246.0 L466.4,245.8 L466.6,245.9 L466.8,245.9 L467.0,245.9 
		L467.2,246.0 L467.4,246.1 L467.6,246.1 L467.8,246.1 L468.0,246.2 L468.3,246.3 L468.5,246.2 L468.7,246.2 
		L468.9,246.2 L469.1,246.3 L469.3,246.1 L469.5,246.1 L469.7,246.1 L469.9,246.1 L470.1,246.1 L470.4,246.4 
		L470.6,246.4 L470.8,246.6 L471.0,246.6 L471.2,246.6 L471.4,246.7 L471.6,246.7 L471.8,246.5 L472.0,246.5 
		L472.2,246.5 L472.4,246.5 L472.7,246.4 L472.9,246.4 L473.1,246.4 L473.3,246.4 L473.5,246.4 L473.7,246.4 
		L473.9,246.4 L474.1,246.7 L474.3,246.7 L474.5,246.8 L474.7,246.8 L475.0,246.7 L475.2,246.8 L475.4,246.7 
		L475.6,246.7 L475.8,246.8 L476.0,246.7 L476.2,246.7 L476.4,246.7 L476.6,246.9 L476.8,246.9 L477.0,247.0 
		L477.3,247.0 L477.5,246.7 L477.7,246.8 L477.9,246.7 L478.1,246.7 L478.3,246.4 L478.5,246.3 L478.7,246.3 
		L478.9,246.4 L479.1,246.5 L479.4,246.4 L479.6,246.4 L479.8,246.3 L480.0,246.3 L480.2,246.3 L480.4,246.4 
		L480.6,246.4 L480.8,246.4 L481.0,246.7 L481.2,246.7 L481.4,246.7 L481.7,246.7 L481.9,246.7 L482.1,246.7 
		L482.3,246.9 L482.5,246.9 L482.7,246.7 L482.9,246.6 L483.1,246.2 L483.3,246.2 L483.5,246.3 L483.7,246.3 
		L484.0,246.3 L484.2,246.2 L484.4,246.1 L484.6,245.7 L484.8,245.4 L485.0,245.3 L485.2,245.3 L485.4,245.3 
		L485.6,245.3 L485.8,245.1 L486.1,245.2 L486.3,245.2 L486.5,245.2 L486.7,245.4 L486.9,245.4 L487.1,245.5 
		L487.3,245.5 L487.5,245.8 L487.7,245.8 L487.9,245.8 L488.1,245.9 L488.4,245.9 L488.6,245.9 L488.8,245.9 
		L489.0,246.2 L489.2,246.2 L489.4,246.2 L489.6,246.3 L489.8,246.2 L490.0,246.3 L490.2,246.3 L490.4,246.3 
		L490.7,246.5 L490.9,246.2 L491.1,246.2 L491.3,246.2 L491.5,245.7 L491.7,245.6 L491.9,245.3 L492.1,245.3 
		L492.3,245.3 L492.5,245.3 L492.8,245.2 L493.0,245.2 L493.2,245.2 L493.4,245.2 L493.6,245.2 L493.8,245.6 
		L494.0,245.7 L494.2,245.7 L494.4,245.7 L494.6,245.9 L494.8,245.7 L495.1,245.3 L495.3,245.3 L495.5,245.3 
		L495.7,245.6 L495.9,245.5 L496.1,245.5 L496.3,245.5 L496.5,245.8 L496.7,245.5 L496.9,245.5 L497.1,245.5 
		L497.4,245.6 L497.6,245.7 L497.8,245.6 L498.0,245.6 L498.2,245.7 L498.4,245.7 L498.6,245.7 L498.8,245.8 
		L499.0,245.8 L499.2,245.8 L499.4,246.1 L499.7,246.1 L499.9,246.3 L500.1,246.3 L500.3,246.3 L500.5,246.4 
		L500.7,246.4 L500.9,246.4 L501.1,246.4 L501.3,246.4 L501.5,246.4 L501.8,246.5 L502.0,246.2 L502.2,246.2 
		L502.4,246.2 L502.6,246.4 L502.8,246.2 L503.0,246.2 L503.2,246.3 L503.4,246.2 L503.6,246.2 L503.8,246.1 
		L504.1,246.1 L504.3,246.0 L504.5,246.1 L504.7,246.1 L504.9,246.3 L505.1,246.0 L505.3,246.0 L505.5,246.0 
		L505.7,246.2 L505.9,246.1 L506.1,246.1 L506.4,246.1 L506.6,246.3 L506.8,246.4 L507.0,246.3 L507.2,246.3 
		 h0.01'/></g>
	</g>
	<g id="gnuplot_plot_3" ><title>gnuplot_plot_3</title>
<g style="fill:none; color:blue; stroke:currentColor; stroke-width:1.00; stroke-linecap:butt; stroke-linejoin:miter">
	<g transform="translate(440.1,408.9)" style="stroke:none; fill:black; font-family:Arial; font-size:12.00pt; text-anchor:end">
		<text>TCP UL Delay</text>
	</g>
	<path  d='M448.4,404.4 L490.6,404.4 M88.5,342.2 L88.7,368.1 L88.9,370.4 L89.1,347.3 L89.3,350.0 L89.6,334.7 
		L89.8,282.7 L90.0,276.9 L90.2,225.5 L90.4,225.5 L90.6,225.5 L90.8,225.5 L91.0,80.8 L91.2,117.7 
		L91.5,134.5 L91.7,134.5 L91.9,106.7 L92.1,118.3 L92.3,118.3 L92.5,118.3 L92.7,112.8 L92.9,168.5 
		L93.1,169.3 L93.3,177.1 L93.6,177.1 L93.8,171.8 L94.0,173.6 L94.2,167.9 L94.4,179.2 L94.6,179.2 
		L94.8,179.2 L95.0,179.2 L95.2,170.8 L95.5,148.0 L95.7,146.4 L95.9,146.4 L96.1,146.4 L96.3,139.6 
		L96.5,112.4 L96.7,116.0 L96.9,117.1 L97.1,117.1 L97.3,116.1 L97.6,116.1 L97.8,98.6 L98.0,103.0 
		L98.2,102.9 L98.4,102.2 L98.6,101.5 L98.8,101.5 L99.0,100.5 L99.2,100.5 L99.5,100.5 L99.7,100.0 
		L99.9,70.4 L100.1,59.8 L100.3,57.4 L100.5,86.1 L100.7,86.3 L100.9,86.2 L101.1,86.1 L101.3,88.9 
		L101.6,100.0 L101.8,104.1 L102.0,104.1 L102.2,102.6 L102.4,101.8 L102.6,102.2 L102.8,106.4 L103.0,106.6 
		L103.2,106.6 L103.5,106.6 L103.7,105.8 L103.9,101.6 L104.1,91.2 L104.3,102.3 L104.5,106.2 L104.7,106.3 
		L104.9,106.3 L105.1,100.1 L105.3,110.3 L105.6,111.8 L105.8,111.8 L106.0,110.7 L106.2,110.6 L106.4,109.5 
		L106.6,107.2 L106.8,102.3 L107.0,96.5 L107.2,95.3 L107.5,89.4 L107.7,88.6 L107.9,92.2 L108.1,93.3 
		L108.3,101.0 L108.5,101.1 L108.7,101.8 L108.9,103.8 L109.1,105.1 L109.4,105.1 L109.6,105.1 L109.8,102.2 
		L110.0,102.2 L110.2,100.1 L110.4,98.6 L110.6,92.6 L110.8,89.4 L111.0,89.4 L111.2,89.4 L111.5,84.7 
		L111.7,87.6 L111.9,87.7 L112.1,87.2 L112.3,87.2 L112.5,85.4 L112.7,84.9 L112.9,84.9 L113.1,79.9 
		L113.4,75.9 L113.6,72.4 L113.8,72.4 L114.0,71.4 L114.2,70.9 L114.4,70.9 L114.6,70.8 L114.8,70.6 
		L115.0,66.4 L115.2,65.7 L115.5,65.4 L115.7,64.8 L115.9,64.5 L116.1,63.5 L116.3,61.5 L116.5,59.1 
		L116.7,57.9 L116.9,59.4 L117.1,72.8 L117.4,83.3 L117.6,83.5 L117.8,83.5 L118.0,83.5 L118.2,81.3 
		L118.4,79.8 L118.6,77.3 L118.8,75.9 L119.0,79.6 L119.2,84.9 L119.5,88.6 L119.7,88.8 L119.9,88.8 
		L120.1,87.7 L120.3,87.7 L120.5,87.7 L120.7,87.6 L120.9,85.0 L121.1,83.8 L121.4,81.0 L121.6,77.7 
		L121.8,77.7 L122.0,77.6 L122.2,77.6 L122.4,75.7 L122.6,73.7 L122.8,72.8 L123.0,70.3 L123.3,71.7 
		L123.5,73.4 L123.7,74.0 L123.9,74.0 L124.1,73.7 L124.3,76.6 L124.5,77.2 L124.7,77.9 L124.9,77.9 
		L125.1,77.7 L125.4,77.7 L125.6,75.3 L125.8,78.1 L126.0,81.0 L126.2,81.6 L126.4,81.6 L126.6,81.5 
		L126.8,79.4 L127.0,79.6 L127.3,80.1 L127.5,80.7 L127.7,80.7 L127.9,80.7 L128.1,79.5 L128.3,77.5 
		L128.5,80.9 L128.7,82.1 L128.9,82.1 L129.2,81.9 L129.4,81.9 L129.6,81.7 L129.8,80.1 L130.0,77.0 
		L130.2,77.0 L130.4,77.0 L130.6,76.9 L130.8,75.5 L131.0,75.5 L131.3,75.5 L131.5,73.9 L131.7,70.6 
		L131.9,69.9 L132.1,67.7 L132.3,70.0 L132.5,72.8 L132.7,73.5 L132.9,74.4 L133.2,74.7 L133.4,74.7 
		L133.6,74.6 L133.8,73.3 L134.0,72.1 L134.2,73.2 L134.4,73.5 L134.6,73.5 L134.8,72.8 L135.0,72.8 
		L135.3,72.6 L135.5,71.7 L135.7,74.6 L135.9,76.6 L136.1,76.6 L136.3,76.6 L136.5,76.6 L136.7,76.4 
		L136.9,73.5 L137.2,73.7 L137.4,73.7 L137.6,72.8 L137.8,76.2 L138.0,78.7 L138.2,79.4 L138.4,79.7 
		L138.6,79.4 L138.8,79.4 L139.1,81.9 L139.3,81.9 L139.5,81.8 L139.7,81.8 L139.9,81.8 L140.1,81.8 
		L140.3,78.0 L140.5,78.0 L140.7,78.0 L140.9,76.0 L141.2,74.6 L141.4,74.3 L141.6,73.7 L141.8,71.8 
		L142.0,69.0 L142.2,69.7 L142.4,70.2 L142.6,70.1 L142.8,69.7 L143.1,69.4 L143.3,69.1 L143.5,69.1 
		L143.7,68.1 L143.9,67.9 L144.1,69.5 L144.3,70.5 L144.5,71.6 L144.7,71.7 L144.9,71.4 L145.2,71.4 
		L145.4,71.4 L145.6,70.9 L145.8,70.9 L146.0,70.9 L146.2,70.9 L146.4,70.9 L146.6,70.9 L146.8,70.9 
		L147.1,70.9 L147.3,70.9 L147.5,69.9 L147.7,64.6 L147.9,65.0 L148.1,65.4 L148.3,65.4 L148.5,65.4 
		L148.7,65.3 L149.0,65.6 L149.2,66.1 L149.4,66.3 L149.6,66.4 L149.8,66.4 L150.0,66.7 L150.2,66.9 
		L150.4,67.0 L150.6,67.8 L150.8,68.1 L151.1,68.7 L151.3,68.7 L151.5,68.7 L151.7,68.7 L151.9,68.7 
		L152.1,68.7 L152.3,68.3 L152.5,68.6 L152.7,68.7 L153.0,68.6 L153.2,68.9 L153.4,69.0 L153.6,69.0 
		L153.8,69.1 L154.0,69.4 L154.2,69.7 L154.4,69.9 L154.6,70.4 L154.8,70.6 L155.1,71.0 L155.3,71.0 
		L155.5,71.0 L155.7,71.0 L155.9,71.0 L156.1,71.8 L156.3,72.4 L156.5,73.0 L156.7,73.6 L157.0,73.8 
		L157.2,74.4 L157.4,75.7 L157.6,76.4 L157.8,76.6 L158.0,76.7 L158.2,78.1 L158.4,79.2 L158.6,79.5 
		L158.8,79.6 L159.1,79.8 L159.3,80.8 L159.5,81.9 L159.7,83.3 L159.9,83.7 L160.1,85.7 L160.3,86.0 
		L160.5,86.0 L160.7,87.8 L161.0,89.0 L161.2,89.3 L161.4,91.1 L161.6,92.1 L161.8,92.1 L162.0,92.6 
		L162.2,92.6 L162.4,92.6 L162.6,92.6 L162.9,92.8 L163.1,94.3 L163.3,95.9 L163.5,95.9 L163.7,97.3 
		L163.9,97.4 L164.1,97.4 L164.3,97.4 L164.5,98.0 L164.7,98.0 L165.0,98.0 L165.2,98.7 L165.4,99.5 
		L165.6,99.8 L165.8,100.9 L166.0,100.9 L166.2,101.0 L166.4,100.7 L166.6,101.7 L166.9,102.0 L167.1,102.2 
		L167.3,102.2 L167.5,102.2 L167.7,102.1 L167.9,102.0 L168.1,101.2 L168.3,101.4 L168.5,101.4 L168.7,103.0 
		L169.0,105.5 L169.2,105.5 L169.4,105.5 L169.6,105.4 L169.8,105.4 L170.0,105.4 L170.2,105.4 L170.4,104.5 
		L170.6,104.6 L170.9,105.6 L171.1,106.7 L171.3,107.4 L171.5,108.0 L171.7,108.5 L171.9,109.5 L172.1,111.5 
		L172.3,112.4 L172.5,115.2 L172.7,117.2 L173.0,119.5 L173.2,122.5 L173.4,123.2 L173.6,125.6 L173.8,125.8 
		L174.0,127.7 L174.2,128.0 L174.4,128.0 L174.6,128.0 L174.9,127.5 L175.1,128.1 L175.3,128.1 L175.5,128.7 
		L175.7,130.4 L175.9,131.9 L176.1,131.9 L176.3,132.0 L176.5,133.2 L176.8,133.4 L177.0,133.4 L177.2,133.4 
		L177.4,133.0 L177.6,132.3 L177.8,132.4 L178.0,132.4 L178.2,132.2 L178.4,132.0 L178.6,131.2 L178.9,131.1 
		L179.1,132.3 L179.3,132.7 L179.5,132.9 L179.7,132.9 L179.9,132.8 L180.1,132.8 L180.3,132.8 L180.5,132.7 
		L180.8,131.1 L181.0,130.1 L181.2,130.1 L181.4,130.0 L181.6,129.9 L181.8,131.5 L182.0,131.6 L182.2,131.9 
		L182.4,132.1 L182.6,134.3 L182.9,136.0 L183.1,138.7 L183.3,139.8 L183.5,139.8 L183.7,143.1 L183.9,146.3 
		L184.1,146.5 L184.3,146.6 L184.5,146.6 L184.8,146.6 L185.0,145.9 L185.2,146.2 L185.4,146.9 L185.6,146.9 
		L185.8,146.8 L186.0,146.6 L186.2,147.2 L186.4,148.5 L186.7,148.8 L186.9,148.9 L187.1,149.7 L187.3,149.9 
		L187.5,149.9 L187.7,149.8 L187.9,149.4 L188.1,149.4 L188.3,149.2 L188.5,149.3 L188.8,149.3 L189.0,149.8 
		L189.2,149.9 L189.4,149.9 L189.6,149.9 L189.8,149.8 L190.0,151.8 L190.2,152.1 L190.4,152.1 L190.7,152.0 
		L190.9,153.2 L191.1,154.4 L191.3,154.4 L191.5,154.4 L191.7,154.4 L191.9,154.0 L192.1,154.5 L192.3,154.7 
		L192.5,154.7 L192.8,155.9 L193.0,156.0 L193.2,156.0 L193.4,156.8 L193.6,157.2 L193.8,157.2 L194.0,157.4 
		L194.2,158.0 L194.4,158.2 L194.7,158.2 L194.9,158.2 L195.1,157.8 L195.3,157.8 L195.5,158.8 L195.7,158.8 
		L195.9,158.6 L196.1,159.3 L196.3,159.3 L196.5,160.3 L196.8,161.4 L197.0,162.7 L197.2,162.7 L197.4,163.1 
		L197.6,163.3 L197.8,163.3 L198.0,163.1 L198.2,163.1 L198.4,163.0 L198.7,164.1 L198.9,164.1 L199.1,164.1 
		L199.3,164.0 L199.5,163.7 L199.7,164.7 L199.9,167.2 L200.1,167.5 L200.3,169.1 L200.6,169.5 L200.8,170.8 
		L201.0,171.2 L201.2,171.2 L201.4,171.4 L201.6,171.8 L201.8,171.7 L202.0,171.7 L202.2,171.7 L202.4,171.2 
		L202.7,171.5 L202.9,171.5 L203.1,171.5 L203.3,171.5 L203.5,171.5 L203.7,171.5 L203.9,171.5 L204.1,171.5 
		L204.3,171.5 L204.6,171.5 L204.8,171.5 L205.0,168.4 L205.2,168.4 L205.4,168.2 L205.6,168.5 L205.8,168.9 
		L206.0,169.3 L206.2,169.6 L206.4,169.6 L206.7,169.6 L206.9,169.6 L207.1,169.6 L207.3,169.5 L207.5,169.8 
		L207.7,169.9 L207.9,169.9 L208.1,169.9 L208.3,170.2 L208.6,170.6 L208.8,170.7 L209.0,170.8 L209.2,170.8 
		L209.4,170.7 L209.6,171.1 L209.8,171.5 L210.0,171.5 L210.2,172.2 L210.4,173.3 L210.7,173.7 L210.9,173.9 
		L211.1,174.1 L211.3,174.8 L211.5,175.0 L211.7,175.0 L211.9,175.6 L212.1,175.9 L212.3,177.2 L212.6,178.5 
		L212.8,178.7 L213.0,178.7 L213.2,178.5 L213.4,178.5 L213.6,178.5 L213.8,178.5 L214.0,179.1 L214.2,179.6 
		L214.5,179.9 L214.7,179.9 L214.9,179.9 L215.1,179.6 L215.3,180.0 L215.5,180.0 L215.7,180.0 L215.9,180.0 
		L216.1,180.6 L216.3,181.5 L216.6,182.7 L216.8,182.9 L217.0,183.0 L217.2,183.1 L217.4,183.1 L217.6,183.0 
		L217.8,183.0 L218.0,183.0 L218.2,183.4 L218.5,183.4 L218.7,183.3 L218.9,183.3 L219.1,182.9 L219.3,183.1 
		L219.5,184.2 L219.7,185.8 L219.9,186.0 L220.1,186.0 L220.3,185.9 L220.6,185.5 L220.8,185.5 L221.0,185.4 
		L221.2,185.4 L221.4,186.2 L221.6,186.5 L221.8,186.6 L222.0,186.6 L222.2,186.5 L222.5,186.4 L222.7,186.8 
		L222.9,187.3 L223.1,187.9 L223.3,188.3 L223.5,188.3 L223.7,188.3 L223.9,188.3 L224.1,188.0 L224.4,187.5 
		L224.6,188.2 L224.8,188.3 L225.0,188.3 L225.2,188.2 L225.4,187.9 L225.6,188.1 L225.8,188.1 L226.0,188.5 
		L226.2,188.8 L226.5,189.3 L226.7,189.3 L226.9,189.3 L227.1,188.9 L227.3,188.6 L227.5,188.6 L227.7,188.5 
		L227.9,188.7 L228.1,189.3 L228.4,189.5 L228.6,189.5 L228.8,189.5 L229.0,189.5 L229.2,190.5 L229.4,190.7 
		L229.6,190.7 L229.8,190.6 L230.0,190.5 L230.2,190.3 L230.5,190.4 L230.7,190.3 L230.9,190.2 L231.1,190.2 
		L231.3,189.8 L231.5,190.2 L231.7,190.2 L231.9,190.2 L232.1,190.2 L232.4,190.2 L232.6,190.5 L232.8,190.5 
		L233.0,190.5 L233.2,190.3 L233.4,190.1 L233.6,189.5 L233.8,189.5 L234.0,189.5 L234.2,189.5 L234.5,189.5 
		L234.7,189.3 L234.9,188.3 L235.1,188.0 L235.3,187.9 L235.5,187.7 L235.7,187.0 L235.9,186.9 L236.1,186.4 
		L236.4,186.4 L236.6,186.4 L236.8,186.0 L237.0,186.0 L237.2,185.9 L237.4,186.3 L237.6,186.9 L237.8,186.9 
		L238.0,186.8 L238.3,186.8 L238.5,187.5 L238.7,187.7 L238.9,187.8 L239.1,187.7 L239.3,187.7 L239.5,187.7 
		L239.7,186.6 L239.9,186.7 L240.1,187.3 L240.4,188.1 L240.6,188.4 L240.8,188.5 L241.0,188.5 L241.2,188.5 
		L241.4,188.4 L241.6,187.9 L241.8,187.9 L242.0,187.3 L242.3,186.9 L242.5,186.6 L242.7,186.6 L242.9,186.8 
		L243.1,186.9 L243.3,186.8 L243.5,186.8 L243.7,186.8 L243.9,187.3 L244.1,187.5 L244.4,187.5 L244.6,187.2 
		L244.8,187.4 L245.0,187.4 L245.2,187.4 L245.4,187.4 L245.6,187.4 L245.8,187.5 L246.0,187.7 L246.2,188.0 
		L246.5,188.0 L246.7,188.0 L246.9,188.2 L247.1,188.8 L247.3,189.4 L247.5,189.5 L247.7,189.9 L247.9,189.9 
		L248.1,189.8 L248.4,189.9 L248.6,190.2 L248.8,190.2 L249.0,190.1 L249.2,190.1 L249.4,190.1 L249.6,190.1 
		L249.8,189.6 L250.0,190.3 L250.3,190.7 L250.5,190.9 L250.7,191.0 L250.9,191.4 L251.1,191.4 L251.3,191.4 
		L251.5,192.0 L251.7,192.9 L251.9,192.9 L252.1,192.9 L252.4,192.7 L252.6,192.6 L252.8,192.6 L253.0,192.5 
		L253.2,192.4 L253.4,192.1 L253.6,192.3 L253.8,192.8 L254.0,193.1 L254.3,193.2 L254.5,193.1 L254.7,193.1 
		L254.9,193.9 L255.1,194.1 L255.3,194.1 L255.5,194.1 L255.7,194.1 L255.9,194.7 L256.1,194.9 L256.4,194.9 
		L256.6,194.8 L256.8,194.7 L257.0,194.8 L257.2,194.8 L257.4,194.8 L257.6,194.4 L257.8,195.2 L258.0,195.2 
		L258.3,195.8 L258.5,196.6 L258.7,196.9 L258.9,196.9 L259.1,196.9 L259.3,196.8 L259.5,196.8 L259.7,196.7 
		L259.9,196.2 L260.2,196.2 L260.4,196.2 L260.6,196.2 L260.8,195.9 L261.0,195.9 L261.2,196.2 L261.4,196.2 
		L261.6,196.2 L261.8,195.8 L262.0,195.7 L262.3,195.7 L262.5,195.8 L262.7,195.8 L262.9,195.8 L263.1,196.3 
		L263.3,196.4 L263.5,196.4 L263.7,196.2 L263.9,196.2 L264.2,196.1 L264.4,196.0 L264.6,196.0 L264.8,196.1 
		L265.0,196.2 L265.2,196.2 L265.4,196.1 L265.6,195.8 L265.8,195.8 L266.0,196.4 L266.3,196.5 L266.5,196.5 
		L266.7,196.5 L266.9,195.9 L267.1,196.0 L267.3,196.0 L267.5,196.0 L267.7,196.0 L267.9,195.6 L268.2,195.4 
		L268.4,195.5 L268.6,195.5 L268.8,195.3 L269.0,195.2 L269.2,195.0 L269.4,194.9 L269.6,194.9 L269.8,194.9 
		L270.0,194.1 L270.3,194.2 L270.5,194.2 L270.7,194.0 L270.9,194.0 L271.1,194.0 L271.3,193.8 L271.5,193.6 
		L271.7,193.9 L271.9,194.0 L272.2,194.5 L272.4,194.5 L272.6,194.5 L272.8,194.5 L273.0,194.5 L273.2,194.4 
		L273.4,194.6 L273.6,194.9 L273.8,194.9 L274.1,194.9 L274.3,194.6 L274.5,194.2 L274.7,194.1 L274.9,194.1 
		L275.1,194.1 L275.3,194.3 L275.5,194.6 L275.7,194.6 L275.9,194.6 L276.2,194.4 L276.4,194.8 L276.6,194.9 
		L276.8,194.9 L277.0,194.8 L277.2,194.9 L277.4,195.4 L277.6,195.4 L277.8,195.4 L278.1,195.4 L278.3,195.4 
		L278.5,195.1 L278.7,194.5 L278.9,194.5 L279.1,194.5 L279.3,193.5 L279.5,194.0 L279.7,194.1 L279.9,194.1 
		L280.2,193.9 L280.4,193.8 L280.6,193.8 L280.8,193.4 L281.0,193.1 L281.2,192.9 L281.4,193.5 L281.6,193.8 
		L281.8,193.7 L282.1,194.0 L282.3,194.0 L282.5,194.0 L282.7,193.9 L282.9,193.9 L283.1,193.1 L283.3,193.6 
		L283.5,194.2 L283.7,194.3 L283.9,194.5 L284.2,194.5 L284.4,194.5 L284.6,194.3 L284.8,194.3 L285.0,194.2 
		L285.2,193.4 L285.4,193.0 L285.6,193.0 L285.8,193.0 L286.1,192.9 L286.3,192.7 L286.5,192.4 L286.7,192.2 
		L286.9,192.6 L287.1,192.6 L287.3,192.4 L287.5,192.4 L287.7,192.4 L288.0,192.4 L288.2,191.0 L288.4,191.0 
		L288.6,191.0 L288.8,191.0 L289.0,190.8 L289.2,190.5 L289.4,189.8 L289.6,189.8 L289.8,189.8 L290.1,189.8 
		L290.3,189.5 L290.5,189.3 L290.7,189.6 L290.9,189.6 L291.1,189.6 L291.3,189.6 L291.5,189.4 L291.7,189.3 
		L292.0,189.1 L292.2,187.7 L292.4,188.1 L292.6,188.1 L292.8,188.4 L293.0,188.5 L293.2,188.5 L293.4,188.3 
		L293.6,188.3 L293.8,188.2 L294.1,187.9 L294.3,187.1 L294.5,187.1 L294.7,187.0 L294.9,187.0 L295.1,186.7 
		L295.3,186.7 L295.5,186.6 L295.7,186.8 L296.0,186.8 L296.2,186.8 L296.4,186.5 L296.6,186.5 L296.8,186.4 
		L297.0,186.3 L297.2,186.3 L297.4,186.3 L297.6,186.2 L297.9,186.2 L298.1,186.2 L298.3,186.2 L298.5,186.0 
		L298.7,186.0 L298.9,186.0 L299.1,185.5 L299.3,185.4 L299.5,183.7 L299.7,183.8 L300.0,183.8 L300.2,183.9 
		L300.4,183.8 L300.6,183.7 L300.8,183.8 L301.0,183.8 L301.2,183.7 L301.4,183.7 L301.6,183.7 L301.9,183.6 
		L302.1,182.7 L302.3,182.5 L302.5,182.5 L302.7,182.5 L302.9,181.6 L303.1,181.4 L303.3,181.4 L303.5,181.4 
		L303.7,181.1 L304.0,180.6 L304.2,180.7 L304.4,180.7 L304.6,180.6 L304.8,180.2 L305.0,180.3 L305.2,180.2 
		L305.4,180.2 L305.6,179.9 L305.9,179.4 L306.1,179.4 L306.3,179.6 L306.5,179.7 L306.7,179.9 L306.9,180.0 
		L307.1,180.0 L307.3,180.0 L307.5,180.0 L307.7,179.4 L308.0,179.4 L308.2,178.7 L308.4,178.3 L308.6,178.3 
		L308.8,178.4 L309.0,178.3 L309.2,178.6 L309.4,178.6 L309.6,178.6 L309.9,178.6 L310.1,178.3 L310.3,177.9 
		L310.5,177.7 L310.7,177.7 L310.9,176.7 L311.1,177.1 L311.3,177.2 L311.5,177.4 L311.8,177.4 L312.0,177.4 
		L312.2,177.2 L312.4,177.2 L312.6,176.8 L312.8,176.7 L313.0,176.4 L313.2,176.1 L313.4,176.5 L313.6,177.1 
		L313.9,177.8 L314.1,178.0 L314.3,178.3 L314.5,178.6 L314.7,179.4 L314.9,180.0 L315.1,180.1 L315.3,180.1 
		L315.5,180.0 L315.8,179.8 L316.0,179.8 L316.2,179.9 L316.4,179.9 L316.6,179.9 L316.8,179.9 L317.0,179.5 
		L317.2,178.9 L317.4,178.8 L317.6,178.6 L317.9,178.5 L318.1,178.5 L318.3,178.5 L318.5,178.5 L318.7,178.5 
		L318.9,178.3 L319.1,178.1 L319.3,177.9 L319.5,177.9 L319.8,177.6 L320.0,177.6 L320.2,176.2 L320.4,176.8 
		L320.6,176.8 L320.8,176.8 L321.0,176.8 L321.2,177.1 L321.4,177.2 L321.6,177.1 L321.9,177.1 L322.1,177.1 
		L322.3,177.0 L322.5,176.9 L322.7,176.9 L322.9,176.8 L323.1,175.7 L323.3,175.6 L323.5,175.8 L323.8,176.4 
		L324.0,176.5 L324.2,176.5 L324.4,176.5 L324.6,176.5 L324.8,176.5 L325.0,176.0 L325.2,175.1 L325.4,175.2 
		L325.7,175.6 L325.9,175.6 L326.1,175.6 L326.3,175.7 L326.5,175.7 L326.7,175.7 L326.9,175.7 L327.1,174.8 
		L327.3,174.7 L327.5,174.8 L327.8,175.1 L328.0,175.1 L328.2,175.1 L328.4,175.0 L328.6,175.0 L328.8,174.1 
		L329.0,174.2 L329.2,174.2 L329.4,174.1 L329.7,174.1 L329.9,173.9 L330.1,173.7 L330.3,173.7 L330.5,173.2 
		L330.7,172.6 L330.9,172.9 L331.1,173.1 L331.3,173.1 L331.5,173.1 L331.8,173.1 L332.0,173.1 L332.2,173.1 
		L332.4,172.9 L332.6,172.5 L332.8,172.3 L333.0,171.8 L333.2,171.7 L333.4,171.3 L333.7,171.3 L333.9,171.3 
		L334.1,171.1 L334.3,170.9 L334.5,170.8 L334.7,170.8 L334.9,170.6 L335.1,170.4 L335.3,170.4 L335.5,170.4 
		L335.8,169.8 L336.0,169.6 L336.2,169.6 L336.4,169.6 L336.6,168.6 L336.8,168.6 L337.0,168.0 L337.2,167.0 
		L337.4,167.0 L337.7,167.0 L337.9,167.0 L338.1,167.0 L338.3,167.0 L338.5,166.4 L338.7,166.2 L338.9,165.5 
		L339.1,166.3 L339.3,166.5 L339.6,166.6 L339.8,166.6 L340.0,166.6 L340.2,166.6 L340.4,166.6 L340.6,166.5 
		L340.8,165.1 L341.0,165.1 L341.2,165.4 L341.4,165.6 L341.7,165.6 L341.9,165.3 L342.1,165.4 L342.3,165.5 
		L342.5,165.5 L342.7,165.4 L342.9,165.4 L343.1,165.3 L343.3,165.2 L343.6,165.1 L343.8,165.1 L344.0,164.3 
		L344.2,164.1 L344.4,164.3 L344.6,164.3 L344.8,164.3 L345.0,164.2 L345.2,164.1 L345.4,163.7 L345.7,163.7 
		L345.9,163.4 L346.1,163.4 L346.3,163.5 L346.5,163.4 L346.7,163.4 L346.9,163.5 L347.1,163.8 L347.3,163.8 
		L347.6,163.7 L347.8,163.6 L348.0,163.6 L348.2,163.6 L348.4,163.3 L348.6,162.7 L348.8,162.3 L349.0,162.3 
		L349.2,162.3 L349.5,162.4 L349.7,162.4 L349.9,162.2 L350.1,162.1 L350.3,161.9 L350.5,161.7 L350.7,161.6 
		L350.9,161.3 L351.1,161.0 L351.3,161.0 L351.6,161.0 L351.8,160.9 L352.0,160.9 L352.2,160.5 L352.4,160.4 
		L352.6,159.9 L352.8,159.7 L353.0,160.6 L353.2,160.7 L353.5,160.7 L353.7,160.7 L353.9,160.5 L354.1,160.5 
		L354.3,159.6 L354.5,159.7 L354.7,159.7 L354.9,159.7 L355.1,159.7 L355.3,159.7 L355.6,159.7 L355.8,158.4 
		L356.0,158.4 L356.2,158.4 L356.4,158.3 L356.6,158.3 L356.8,158.0 L357.0,157.7 L357.2,157.8 L357.5,157.8 
		L357.7,157.8 L357.9,157.9 L358.1,157.9 L358.3,157.9 L358.5,157.8 L358.7,158.1 L358.9,158.1 L359.1,158.1 
		L359.3,158.0 L359.6,157.8 L359.8,157.8 L360.0,157.8 L360.2,157.2 L360.4,157.3 L360.6,157.3 L360.8,157.4 
		L361.0,157.5 L361.2,157.7 L361.5,157.7 L361.7,157.7 L361.9,157.7 L362.1,157.7 L362.3,157.7 L362.5,157.2 
		L362.7,157.0 L362.9,156.7 L363.1,156.8 L363.4,156.8 L363.6,156.8 L363.8,156.7 L364.0,156.4 L364.2,156.2 
		L364.4,156.1 L364.6,155.9 L364.8,155.9 L365.0,155.7 L365.2,156.1 L365.5,156.1 L365.7,156.0 L365.9,156.0 
		L366.1,156.0 L366.3,155.7 L366.5,155.3 L366.7,155.3 L366.9,155.3 L367.1,154.9 L367.4,154.8 L367.6,154.8 
		L367.8,153.8 L368.0,153.9 L368.2,153.9 L368.4,153.6 L368.6,154.0 L368.8,154.1 L369.0,154.1 L369.2,154.1 
		L369.5,153.7 L369.7,153.6 L369.9,153.6 L370.1,153.6 L370.3,153.6 L370.5,153.5 L370.7,153.5 L370.9,153.0 
		L371.1,153.1 L371.4,153.1 L371.6,152.9 L371.8,153.2 L372.0,153.2 L372.2,153.1 L372.4,153.1 L372.6,152.8 
		L372.8,152.8 L373.0,152.7 L373.2,152.4 L373.5,152.4 L373.7,152.3 L373.9,151.3 L374.1,151.2 L374.3,151.2 
		L374.5,151.1 L374.7,151.1 L374.9,151.1 L375.1,150.5 L375.4,150.5 L375.6,150.5 L375.8,150.5 L376.0,150.5 
		L376.2,150.4 L376.4,150.4 L376.6,149.9 L376.8,149.2 L377.0,149.2 L377.3,149.1 L377.5,150.2 L377.7,150.3 
		L377.9,150.4 L378.1,150.4 L378.3,150.4 L378.5,149.8 L378.7,149.8 L378.9,150.1 L379.1,150.8 L379.4,151.2 
		L379.6,151.2 L379.8,151.2 L380.0,151.2 L380.2,151.2 L380.4,151.2 L380.6,151.2 L380.8,150.7 L381.0,150.9 
		L381.3,150.9 L381.5,150.8 L381.7,150.8 L381.9,150.4 L382.1,150.3 L382.3,150.2 L382.5,150.2 L382.7,149.9 
		L382.9,150.0 L383.1,150.0 L383.4,150.0 L383.6,150.0 L383.8,150.4 L384.0,150.6 L384.2,150.7 L384.4,150.8 
		L384.6,150.8 L384.8,150.7 L385.0,150.6 L385.3,150.6 L385.5,151.2 L385.7,151.2 L385.9,151.2 L386.1,151.3 
		L386.3,151.5 L386.5,151.6 L386.7,151.6 L386.9,151.7 L387.2,151.7 L387.4,151.7 L387.6,152.3 L387.8,152.4 
		L388.0,152.4 L388.2,152.4 L388.4,152.4 L388.6,152.4 L388.8,151.9 L389.0,151.6 L389.3,151.6 L389.5,151.3 
		L389.7,151.3 L389.9,151.2 L390.1,151.2 L390.3,151.0 L390.5,150.7 L390.7,150.3 L390.9,150.3 L391.2,150.4 
		L391.4,150.4 L391.6,150.2 L391.8,150.7 L392.0,150.7 L392.2,150.7 L392.4,150.6 L392.6,150.4 L392.8,150.4 
		L393.0,150.4 L393.3,150.2 L393.5,150.2 L393.7,149.4 L393.9,149.4 L394.1,149.5 L394.3,149.4 L394.5,149.4 
		L394.7,149.3 L394.9,149.0 L395.2,149.4 L395.4,149.7 L395.6,149.7 L395.8,149.7 L396.0,149.7 L396.2,149.7 
		L396.4,149.5 L396.6,149.3 L396.8,149.3 L397.0,149.3 L397.3,149.3 L397.5,148.8 L397.7,149.6 L397.9,149.7 
		L398.1,149.7 L398.3,149.7 L398.5,149.7 L398.7,149.7 L398.9,149.2 L399.2,149.0 L399.4,149.0 L399.6,149.0 
		L399.8,148.9 L400.0,148.8 L400.2,148.7 L400.4,148.7 L400.6,148.6 L400.8,148.6 L401.1,148.1 L401.3,148.2 
		L401.5,148.3 L401.7,148.3 L401.9,148.3 L402.1,148.3 L402.3,148.2 L402.5,148.2 L402.7,148.2 L402.9,148.2 
		L403.2,148.1 L403.4,148.2 L403.6,148.4 L403.8,148.4 L404.0,148.6 L404.2,148.7 L404.4,148.7 L404.6,148.8 
		L404.8,148.8 L405.1,148.8 L405.3,148.7 L405.5,148.9 L405.7,148.9 L405.9,148.9 L406.1,149.0 L406.3,149.0 
		L406.5,149.0 L406.7,149.0 L406.9,149.1 L407.2,149.1 L407.4,149.1 L407.6,149.1 L407.8,149.4 L408.0,149.4 
		L408.2,149.4 L408.4,149.3 L408.6,149.6 L408.8,149.8 L409.1,149.8 L409.3,149.8 L409.5,149.8 L409.7,149.9 
		L409.9,149.9 L410.1,150.1 L410.3,150.4 L410.5,150.5 L410.7,150.5 L410.9,150.5 L411.2,150.5 L411.4,150.5 
		L411.6,150.5 L411.8,150.5 L412.0,150.5 L412.2,150.5 L412.4,150.1 L412.6,150.3 L412.8,150.5 L413.1,150.8 
		L413.3,151.0 L413.5,151.0 L413.7,151.0 L413.9,151.2 L414.1,151.4 L414.3,151.4 L414.5,151.4 L414.7,151.4 
		L415.0,151.4 L415.2,151.4 L415.4,151.4 L415.6,151.3 L415.8,151.3 L416.0,151.3 L416.2,151.4 L416.4,151.4 
		L416.6,151.4 L416.8,151.5 L417.1,151.5 L417.3,151.6 L417.5,151.6 L417.7,151.6 L417.9,151.6 L418.1,151.6 
		L418.3,151.6 L418.5,151.6 L418.7,151.7 L419.0,151.7 L419.2,151.7 L419.4,151.7 L419.6,151.7 L419.8,151.7 
		L420.0,151.7 L420.2,151.7 L420.4,151.7 L420.6,151.7 L420.8,151.7 L421.1,151.8 L421.3,151.8 L421.5,151.9 
		L421.7,151.9 L421.9,151.9 L422.1,151.9 L422.3,151.9 L422.5,151.9 L422.7,151.9 L423.0,151.9 L423.2,152.0 
		L423.4,152.0 L423.6,152.1 L423.8,152.2 L424.0,152.2 L424.2,152.2 L424.4,152.2 L424.6,152.2 L424.9,152.2 
		L425.1,152.2 L425.3,152.2 L425.5,152.3 L425.7,152.3 L425.9,152.4 L426.1,152.4 L426.3,152.4 L426.5,152.4 
		L426.7,152.4 L427.0,152.5 L427.2,152.5 L427.4,152.5 L427.6,152.5 L427.8,152.6 L428.0,152.8 L428.2,152.9 
		L428.4,153.0 L428.6,153.0 L428.9,153.1 L429.1,153.2 L429.3,153.2 L429.5,153.2 L429.7,153.4 L429.9,153.4 
		L430.1,153.4 L430.3,153.4 L430.5,153.5 L430.7,153.7 L431.0,153.8 L431.2,153.8 L431.4,153.8 L431.6,153.8 
		L431.8,153.8 L432.0,153.8 L432.2,153.8 L432.4,153.8 L432.6,153.9 L432.9,154.0 L433.1,154.3 L433.3,154.5 
		L433.5,154.5 L433.7,154.4 L433.9,154.4 L434.1,154.4 L434.3,154.7 L434.5,154.9 L434.7,155.1 L435.0,155.1 
		L435.2,155.3 L435.4,155.4 L435.6,155.5 L435.8,155.5 L436.0,155.5 L436.2,155.6 L436.4,156.0 L436.6,156.0 
		L436.9,156.2 L437.1,156.2 L437.3,156.2 L437.5,156.2 L437.7,156.3 L437.9,156.3 L438.1,156.3 L438.3,156.3 
		L438.5,156.2 L438.8,156.1 L439.0,156.1 L439.2,155.9 L439.4,155.9 L439.6,155.9 L439.8,155.8 L440.0,155.8 
		L440.2,155.8 L440.4,155.7 L440.6,155.7 L440.9,155.7 L441.1,155.8 L441.3,155.9 L441.5,155.9 L441.7,155.9 
		L441.9,156.1 L442.1,156.2 L442.3,156.2 L442.5,156.3 L442.8,156.5 L443.0,156.6 L443.2,156.6 L443.4,156.6 
		L443.6,156.6 L443.8,156.6 L444.0,156.6 L444.2,156.6 L444.4,156.6 L444.6,156.6 L444.9,156.6 L445.1,156.8 
		L445.3,156.9 L445.5,156.9 L445.7,157.0 L445.9,157.1 L446.1,157.1 L446.3,157.4 L446.5,157.7 L446.8,157.8 
		L447.0,157.9 L447.2,157.9 L447.4,157.9 L447.6,157.9 L447.8,157.9 L448.0,157.7 L448.2,157.9 L448.4,157.9 
		L448.6,157.9 L448.9,158.0 L449.1,158.0 L449.3,158.0 L449.5,158.1 L449.7,158.2 L449.9,158.2 L450.1,158.3 
		L450.3,158.3 L450.5,158.3 L450.8,158.3 L451.0,158.3 L451.2,158.2 L451.4,158.2 L451.6,158.2 L451.8,158.3 
		L452.0,158.4 L452.2,158.4 L452.4,158.5 L452.7,158.5 L452.9,158.5 L453.1,158.5 L453.3,158.6 L453.5,158.8 
		L453.7,158.8 L453.9,158.8 L454.1,158.9 L454.3,159.0 L454.5,159.0 L454.8,159.1 L455.0,159.1 L455.2,159.3 
		L455.4,159.3 L455.6,159.3 L455.8,159.3 L456.0,159.7 L456.2,159.8 L456.4,159.9 L456.7,159.9 L456.9,160.0 
		L457.1,160.0 L457.3,160.0 L457.5,160.0 L457.7,160.1 L457.9,160.1 L458.1,160.2 L458.3,160.3 L458.5,160.3 
		L458.8,160.2 L459.0,160.2 L459.2,160.2 L459.4,160.2 L459.6,160.3 L459.8,160.3 L460.0,160.4 L460.2,160.4 
		L460.4,160.5 L460.7,160.6 L460.9,160.6 L461.1,160.6 L461.3,160.7 L461.5,160.7 L461.7,160.7 L461.9,160.9 
		L462.1,161.1 L462.3,161.3 L462.5,161.5 L462.8,161.6 L463.0,161.6 L463.2,161.6 L463.4,161.8 L463.6,161.8 
		L463.8,161.8 L464.0,161.8 L464.2,161.8 L464.4,162.1 L464.7,162.1 L464.9,162.1 L465.1,162.2 L465.3,162.5 
		L465.5,162.6 L465.7,162.9 L465.9,163.3 L466.1,163.7 L466.3,163.7 L466.6,163.7 L466.8,163.7 L467.0,163.7 
		L467.2,163.6 L467.4,163.7 L467.6,163.7 L467.8,163.7 L468.0,163.7 L468.2,163.9 L468.4,164.0 L468.7,164.0 
		L468.9,164.0 L469.1,164.3 L469.3,164.4 L469.5,164.4 L469.7,164.4 L469.9,164.4 L470.1,164.2 L470.3,164.2 
		L470.6,164.2 L470.8,164.1 L471.0,164.2 L471.2,164.2 L471.4,164.3 L471.6,164.5 L471.8,164.5 L472.0,164.5 
		L472.2,164.6 L472.4,164.7 L472.7,164.7 L472.9,164.8 L473.1,164.8 L473.3,164.8 L473.5,164.8 L473.7,164.8 
		L473.9,164.8 L474.1,164.8 L474.3,164.7 L474.6,165.0 L474.8,165.2 L475.0,165.2 L475.2,165.3 L475.4,165.4 
		L475.6,165.4 L475.8,165.5 L476.0,165.5 L476.2,165.5 L476.5,165.4 L476.7,165.4 L476.9,165.4 L477.1,165.6 
		L477.3,166.0 L477.5,166.0 L477.7,166.2 L477.9,166.3 L478.1,166.7 L478.3,167.1 L478.6,167.1 L478.8,167.1 
		L479.0,167.0 L479.2,167.2 L479.4,167.3 L479.6,167.5 L479.8,167.7 L480.0,167.7 L480.2,167.7 L480.5,167.7 
		L480.7,167.7 L480.9,167.6 L481.1,167.6 L481.3,167.5 L481.5,167.5 L481.7,167.5 L481.9,167.5 L482.1,167.5 
		L482.3,167.5 L482.6,167.8 L482.8,168.1 L483.0,168.6 L483.2,168.8 L483.4,168.8 L483.6,168.8 L483.8,168.8 
		L484.0,169.0 L484.2,169.3 L484.5,169.9 L484.7,170.5 L484.9,170.7 L485.1,170.7 L485.3,170.7 L485.5,170.9 
		L485.7,171.2 L485.9,171.2 L486.1,171.2 L486.3,171.2 L486.6,171.2 L486.8,171.2 L487.0,171.1 L487.2,171.1 
		L487.4,171.1 L487.6,171.1 L487.8,171.1 L488.0,170.5 L488.2,170.6 L488.5,170.6 L488.7,170.6 L488.9,170.6 
		L489.1,170.6 L489.3,170.6 L489.5,170.2 L489.7,170.4 L489.9,170.4 L490.1,170.4 L490.4,170.4 L490.6,170.4 
		L490.8,170.6 L491.0,170.7 L491.2,170.8 L491.4,171.5 L491.6,171.8 L491.8,172.3 L492.0,172.3 L492.2,172.4 
		L492.5,172.4 L492.7,172.4 L492.9,172.5 L493.1,172.5 L493.3,172.5 L493.5,172.5 L493.7,172.4 L493.9,172.4 
		L494.1,172.3 L494.4,172.3 L494.6,172.2 L494.8,171.9 L495.0,172.1 L495.2,172.1 L495.4,172.1 L495.6,172.1 
		L495.8,172.1 L496.0,172.1 L496.2,172.1 L496.5,172.1 L496.7,172.1 L496.9,172.2 L497.1,172.2 L497.3,172.2 
		L497.5,172.2 L497.7,172.2 L497.9,172.2 L498.1,172.2 L498.4,172.3 L498.6,172.3 L498.8,172.3 L499.0,172.3 
		L499.2,172.3 L499.4,172.3 L499.6,172.3 L499.8,172.3 L500.0,172.2 L500.2,172.2 L500.5,172.1 L500.7,172.2 
		L500.9,172.4 L501.1,172.5 L501.3,172.5 L501.5,172.6 L501.7,172.7 L501.9,172.9 L502.1,173.0 L502.4,173.0 
		L502.6,172.9 L502.8,173.1 L503.0,173.3 L503.2,173.3 L503.4,173.4 L503.6,173.4 L503.8,173.7 L504.0,173.8 
		L504.3,173.9 L504.5,174.0 L504.7,174.0 L504.9,173.9 L505.1,174.2 L505.3,174.3 L505.5,174.3 L505.7,174.3 
		L505.9,174.4 L506.1,174.4 L506.4,174.4 L506.6,174.4 L506.8,174.3 L507.0,174.4 L507.2,174.4  h0.01'/></g>
	</g>
<g style="fill:none; color:black; stroke:currentColor; stroke-width:1.00; stroke-linecap:butt; stroke-linejoin:miter">
	<path  d='M88.5,54.1 L88.5,422.4 L507.2,422.4 L507.2,54.1 L88.5,54.1 Z  h0.01'/></g>
</g>
</svg>

