<?xml version="1.0" encoding="utf-8"  standalone="no"?>
<!DOCTYPE svg PUBLIC "-//W3C//DTD SVG 1.1//EN" 
 "http://www.w3.org/Graphics/SVG/1.1/DTD/svg11.dtd">
<svg 
 width="600" height="480" 
 viewBox="0 0 600 480"
 xmlns="http://www.w3.org/2000/svg"
 xmlns:xlink="http://www.w3.org/1999/xlink"
>

<title>Gnuplot</title>
<desc>Produced by GNUPLOT 4.6 patchlevel 1 </desc>

<g id="gnuplot_canvas">

<rect x="0" y="0" width="600" height="480" fill="none"/>
<defs>

	<circle id='gpDot' r='0.5' stroke-width='0.5'/>
	<path id='gpPt0' stroke-width='0.222' stroke='currentColor' d='M-1,0 h2 M0,-1 v2'/>
	<path id='gpPt1' stroke-width='0.222' stroke='currentColor' d='M-1,-1 L1,1 M1,-1 L-1,1'/>
	<path id='gpPt2' stroke-width='0.222' stroke='currentColor' d='M-1,0 L1,0 M0,-1 L0,1 M-1,-1 L1,1 M-1,1 L1,-1'/>
	<rect id='gpPt3' stroke-width='0.222' stroke='currentColor' x='-1' y='-1' width='2' height='2'/>
	<rect id='gpPt4' stroke-width='0.222' stroke='currentColor' fill='currentColor' x='-1' y='-1' width='2' height='2'/>
	<circle id='gpPt5' stroke-width='0.222' stroke='currentColor' cx='0' cy='0' r='1'/>
	<use xlink:href='#gpPt5' id='gpPt6' fill='currentColor' stroke='none'/>
	<path id='gpPt7' stroke-width='0.222' stroke='currentColor' d='M0,-1.33 L-1.33,0.67 L1.33,0.67 z'/>
	<use xlink:href='#gpPt7' id='gpPt8' fill='currentColor' stroke='none'/>
	<use xlink:href='#gpPt7' id='gpPt9' stroke='currentColor' transform='rotate(180)'/>
	<use xlink:href='#gpPt9' id='gpPt10' fill='currentColor' stroke='none'/>
	<use xlink:href='#gpPt3' id='gpPt11' stroke='currentColor' transform='rotate(45)'/>
	<use xlink:href='#gpPt11' id='gpPt12' fill='currentColor' stroke='none'/>
</defs>
<g style="fill:none; color:white; stroke:currentColor; stroke-width:1.00; stroke-linecap:butt; stroke-linejoin:miter">
</g>
<g style="fill:none; color:black; stroke:currentColor; stroke-width:1.00; stroke-linecap:butt; stroke-linejoin:miter">
	<path  d='M88.5,422.4 L97.5,422.4 M507.2,422.4 L498.2,422.4  h0.01'/>	<g transform="translate(80.2,426.9)" style="stroke:none; fill:black; font-family:Arial; font-size:12.00pt; text-anchor:end">
		<text> 0</text>
	</g>
	<path  d='M88.5,361.0 L97.5,361.0 M507.2,361.0 L498.2,361.0  h0.01'/>	<g transform="translate(80.2,365.5)" style="stroke:none; fill:black; font-family:Arial; font-size:12.00pt; text-anchor:end">
		<text> 2000</text>
	</g>
	<path  d='M88.5,299.6 L97.5,299.6 M507.2,299.6 L498.2,299.6  h0.01'/>	<g transform="translate(80.2,304.1)" style="stroke:none; fill:black; font-family:Arial; font-size:12.00pt; text-anchor:end">
		<text> 4000</text>
	</g>
	<path  d='M88.5,238.2 L97.5,238.2 M507.2,238.2 L498.2,238.2  h0.01'/>	<g transform="translate(80.2,242.7)" style="stroke:none; fill:black; font-family:Arial; font-size:12.00pt; text-anchor:end">
		<text> 6000</text>
	</g>
	<path  d='M88.5,176.9 L97.5,176.9 M507.2,176.9 L498.2,176.9  h0.01'/>	<g transform="translate(80.2,181.4)" style="stroke:none; fill:black; font-family:Arial; font-size:12.00pt; text-anchor:end">
		<text> 8000</text>
	</g>
	<path  d='M88.5,115.5 L97.5,115.5 M507.2,115.5 L498.2,115.5  h0.01'/>	<g transform="translate(80.2,120.0)" style="stroke:none; fill:black; font-family:Arial; font-size:12.00pt; text-anchor:end">
		<text> 10000</text>
	</g>
	<path  d='M88.5,54.1 L97.5,54.1 M507.2,54.1 L498.2,54.1  h0.01'/>	<g transform="translate(80.2,58.6)" style="stroke:none; fill:black; font-family:Arial; font-size:12.00pt; text-anchor:end">
		<text> 12000</text>
	</g>
	<path  d='M88.5,422.4 L88.5,413.4 M88.5,54.1 L88.5,63.1  h0.01'/>	<g transform="translate(88.5,444.9)" style="stroke:none; fill:black; font-family:Arial; font-size:12.00pt; text-anchor:middle">
		<text> 0</text>
	</g>
	<path  d='M130.4,422.4 L130.4,413.4 M130.4,54.1 L130.4,63.1  h0.01'/>	<g transform="translate(130.4,444.9)" style="stroke:none; fill:black; font-family:Arial; font-size:12.00pt; text-anchor:middle">
		<text> 10</text>
	</g>
	<path  d='M172.2,422.4 L172.2,413.4 M172.2,54.1 L172.2,63.1  h0.01'/>	<g transform="translate(172.2,444.9)" style="stroke:none; fill:black; font-family:Arial; font-size:12.00pt; text-anchor:middle">
		<text> 20</text>
	</g>
	<path  d='M214.1,422.4 L214.1,413.4 M214.1,54.1 L214.1,63.1  h0.01'/>	<g transform="translate(214.1,444.9)" style="stroke:none; fill:black; font-family:Arial; font-size:12.00pt; text-anchor:middle">
		<text> 30</text>
	</g>
	<path  d='M256.0,422.4 L256.0,413.4 M256.0,54.1 L256.0,63.1  h0.01'/>	<g transform="translate(256.0,444.9)" style="stroke:none; fill:black; font-family:Arial; font-size:12.00pt; text-anchor:middle">
		<text> 40</text>
	</g>
	<path  d='M297.9,422.4 L297.9,413.4 M297.9,54.1 L297.9,63.1  h0.01'/>	<g transform="translate(297.9,444.9)" style="stroke:none; fill:black; font-family:Arial; font-size:12.00pt; text-anchor:middle">
		<text> 50</text>
	</g>
	<path  d='M339.7,422.4 L339.7,413.4 M339.7,54.1 L339.7,63.1  h0.01'/>	<g transform="translate(339.7,444.9)" style="stroke:none; fill:black; font-family:Arial; font-size:12.00pt; text-anchor:middle">
		<text> 60</text>
	</g>
	<path  d='M381.6,422.4 L381.6,413.4 M381.6,54.1 L381.6,63.1  h0.01'/>	<g transform="translate(381.6,444.9)" style="stroke:none; fill:black; font-family:Arial; font-size:12.00pt; text-anchor:middle">
		<text> 70</text>
	</g>
	<path  d='M423.5,422.4 L423.5,413.4 M423.5,54.1 L423.5,63.1  h0.01'/>	<g transform="translate(423.5,444.9)" style="stroke:none; fill:black; font-family:Arial; font-size:12.00pt; text-anchor:middle">
		<text> 80</text>
	</g>
	<path  d='M465.3,422.4 L465.3,413.4 M465.3,54.1 L465.3,63.1  h0.01'/>	<g transform="translate(465.3,444.9)" style="stroke:none; fill:black; font-family:Arial; font-size:12.00pt; text-anchor:middle">
		<text> 90</text>
	</g>
	<path  d='M507.2,422.4 L507.2,413.4 M507.2,54.1 L507.2,63.1  h0.01'/>	<g transform="translate(507.2,444.9)" style="stroke:none; fill:black; font-family:Arial; font-size:12.00pt; text-anchor:middle">
		<text> 100</text>
	</g>
	<path  d='M507.2,422.4 L498.2,422.4  h0.01'/>	<g transform="translate(515.5,426.9)" style="stroke:none; fill:blue; font-family:Arial; font-size:12.00pt; text-anchor:start">
		<text> 0</text>
	</g>
	<path  d='M507.2,385.6 L498.2,385.6  h0.01'/>	<g transform="translate(515.5,390.1)" style="stroke:none; fill:blue; font-family:Arial; font-size:12.00pt; text-anchor:start">
		<text> 50</text>
	</g>
	<path  d='M507.2,348.7 L498.2,348.7  h0.01'/>	<g transform="translate(515.5,353.2)" style="stroke:none; fill:blue; font-family:Arial; font-size:12.00pt; text-anchor:start">
		<text> 100</text>
	</g>
	<path  d='M507.2,311.9 L498.2,311.9  h0.01'/>	<g transform="translate(515.5,316.4)" style="stroke:none; fill:blue; font-family:Arial; font-size:12.00pt; text-anchor:start">
		<text> 150</text>
	</g>
	<path  d='M507.2,275.1 L498.2,275.1  h0.01'/>	<g transform="translate(515.5,279.6)" style="stroke:none; fill:blue; font-family:Arial; font-size:12.00pt; text-anchor:start">
		<text> 200</text>
	</g>
	<path  d='M507.2,238.2 L498.2,238.2  h0.01'/>	<g transform="translate(515.5,242.7)" style="stroke:none; fill:blue; font-family:Arial; font-size:12.00pt; text-anchor:start">
		<text> 250</text>
	</g>
	<path  d='M507.2,201.4 L498.2,201.4  h0.01'/>	<g transform="translate(515.5,205.9)" style="stroke:none; fill:blue; font-family:Arial; font-size:12.00pt; text-anchor:start">
		<text> 300</text>
	</g>
	<path  d='M507.2,164.6 L498.2,164.6  h0.01'/>	<g transform="translate(515.5,169.1)" style="stroke:none; fill:blue; font-family:Arial; font-size:12.00pt; text-anchor:start">
		<text> 350</text>
	</g>
	<path  d='M507.2,127.8 L498.2,127.8  h0.01'/>	<g transform="translate(515.5,132.3)" style="stroke:none; fill:blue; font-family:Arial; font-size:12.00pt; text-anchor:start">
		<text> 400</text>
	</g>
	<path  d='M507.2,90.9 L498.2,90.9  h0.01'/>	<g transform="translate(515.5,95.4)" style="stroke:none; fill:blue; font-family:Arial; font-size:12.00pt; text-anchor:start">
		<text> 450</text>
	</g>
	<path  d='M507.2,54.1 L498.2,54.1  h0.01'/>	<g transform="translate(515.5,58.6)" style="stroke:none; fill:blue; font-family:Arial; font-size:12.00pt; text-anchor:start">
		<text> 500</text>
	</g>
	<path  d='M88.5,54.1 L88.5,422.4 L507.2,422.4 L507.2,54.1 L88.5,54.1 Z  h0.01'/>	<g transform="translate(17.6,238.3) rotate(270)" style="stroke:none; fill:black; font-family:Arial; font-size:12.00pt; text-anchor:middle">
		<text>TCP throughput (Kbps)</text>
	</g>
	<g transform="translate(570.4,238.3) rotate(270)" style="stroke:none; fill:black; font-family:Arial; font-size:12.00pt; text-anchor:middle">
		<text>TCP UL Delay (ms)</text>
	</g>
	<g transform="translate(297.8,471.9)" style="stroke:none; fill:black; font-family:Arial; font-size:12.00pt; text-anchor:middle">
		<text>Time (s)</text>
	</g>
	<g transform="translate(297.8,31.6)" style="stroke:none; fill:black; font-family:Arial; font-size:12.00pt; text-anchor:middle">
		<text>Distance 800m, 4kmph: TCP throughput vs link capacity Uplink 100RBs PfffScheduler</text>
	</g>
	<path  d='M257.5,413.4 L257.5,359.4 L498.9,359.4 L498.9,413.4 L257.5,413.4 Z  h0.01'/></g>
	<g id="gnuplot_plot_1" ><title>gnuplot_plot_1</title>
<g style="fill:none; color:red; stroke:currentColor; stroke-width:1.00; stroke-linecap:butt; stroke-linejoin:miter">
	<g transform="translate(440.1,372.9)" style="stroke:none; fill:black; font-family:Arial; font-size:12.00pt; text-anchor:end">
		<text>TCP Throughput</text>
	</g>
	<path  d='M448.4,368.4 L490.6,368.4 M91.0,416.8 L91.2,414.1 L91.4,415.3 L91.6,407.2 L91.8,399.7 L92.1,403.0 
		L92.3,397.8 L92.5,397.8 L92.7,390.8 L92.9,389.9 L93.1,392.1 L93.3,390.8 L93.5,391.7 L93.7,391.7 
		L93.9,391.7 L94.2,391.7 L94.4,391.7 L94.6,391.7 L94.8,391.7 L95.0,402.0 L95.2,402.0 L95.4,402.0 
		L95.6,403.9 L95.8,403.9 L96.0,403.9 L96.2,403.9 L96.5,403.9 L96.7,403.9 L96.9,403.9 L97.1,408.1 
		L97.3,406.0 L97.5,406.0 L97.7,406.4 L97.9,406.4 L98.1,406.8 L98.3,406.2 L98.5,406.2 L98.8,406.2 
		L99.0,406.2 L99.2,406.2 L99.4,406.2 L99.6,408.5 L99.8,404.2 L100.0,404.3 L100.2,404.3 L100.4,404.3 
		L100.6,404.3 L100.8,405.5 L101.1,405.5 L101.3,406.2 L101.5,403.1 L101.7,403.1 L101.9,403.1 L102.1,403.1 
		L102.3,403.1 L102.5,403.5 L102.7,401.6 L102.9,401.6 L103.2,401.6 L103.4,402.3 L103.6,402.3 L103.8,402.3 
		L104.0,402.3 L104.2,402.3 L104.4,403.6 L104.6,403.6 L104.8,403.9 L105.0,403.1 L105.2,403.0 L105.5,403.0 
		L105.7,403.0 L105.9,403.0 L106.1,403.0 L106.3,404.5 L106.5,402.5 L106.7,402.2 L106.9,402.2 L107.1,402.2 
		L107.3,402.2 L107.5,402.2 L107.8,402.2 L108.0,403.4 L108.2,403.4 L108.4,403.4 L108.6,403.4 L108.8,404.4 
		L109.0,403.5 L109.2,403.4 L109.4,403.1 L109.6,403.1 L109.8,403.1 L110.1,403.1 L110.3,403.3 L110.5,403.2 
		L110.7,403.2 L110.9,403.1 L111.1,403.1 L111.3,403.1 L111.5,403.1 L111.7,403.1 L111.9,403.1 L112.2,404.4 
		L112.4,404.3 L112.6,404.0 L112.8,403.6 L113.0,403.6 L113.2,403.6 L113.4,403.6 L113.6,403.6 L113.8,403.6 
		L114.0,403.6 L114.2,403.6 L114.5,403.6 L114.7,403.6 L114.9,403.6 L115.1,403.6 L115.3,404.7 L115.5,404.8 
		L115.7,404.6 L115.9,404.6 L116.1,404.6 L116.3,404.6 L116.5,404.6 L116.8,405.2 L117.0,405.2 L117.2,405.2 
		L117.4,405.2 L117.6,405.2 L117.8,405.2 L118.0,405.2 L118.2,405.2 L118.4,405.2 L118.6,405.2 L118.9,405.2 
		L119.1,405.2 L119.3,405.2 L119.5,405.2 L119.7,406.7 L119.9,406.7 L120.1,406.7 L120.3,406.7 L120.5,406.7 
		L120.7,407.2 L120.9,407.2 L121.2,407.2 L121.4,407.2 L121.6,407.2 L121.8,407.2 L122.0,407.5 L122.2,407.4 
		L122.4,407.4 L122.6,407.2 L122.8,407.2 L123.0,407.5 L123.2,407.2 L123.5,407.2 L123.7,407.2 L123.9,407.2 
		L124.1,407.2 L124.3,407.2 L124.5,407.2 L124.7,407.2 L124.9,407.2 L125.1,407.2 L125.3,407.2 L125.6,408.2 
		L125.8,408.1 L126.0,408.1 L126.2,408.1 L126.4,408.1 L126.6,408.3 L126.8,408.3 L127.0,408.1 L127.2,408.1 
		L127.4,408.1 L127.6,408.1 L127.9,408.1 L128.1,408.1 L128.3,408.1 L128.5,408.6 L128.7,408.6 L128.9,408.7 
		L129.1,408.6 L129.3,408.6 L129.5,408.6 L129.7,408.6 L130.0,408.8 L130.2,408.7 L130.4,408.7 L130.6,408.7 
		L130.8,408.9 L131.0,408.9 L131.2,408.9 L131.4,408.9 L131.6,409.1 L131.8,409.1 L132.0,409.1 L132.3,409.1 
		L132.5,409.2 L132.7,409.1 L132.9,409.1 L133.1,409.1 L133.3,409.1 L133.5,409.1 L133.7,409.3 L133.9,409.3 
		L134.1,409.3 L134.3,409.3 L134.6,409.3 L134.8,409.3 L135.0,409.3 L135.2,409.3 L135.4,409.3 L135.6,409.3 
		L135.8,409.3 L136.0,409.3 L136.2,409.3 L136.4,409.3 L136.7,409.3 L136.9,409.3 L137.1,409.3 L137.3,409.3 
		L137.5,409.3 L137.7,409.3 L137.9,409.3 L138.1,409.3 L138.3,409.3 L138.5,409.3 L138.7,409.3 L139.0,410.4 
		L139.2,410.3 L139.4,410.3 L139.6,410.3 L139.8,410.5 L140.0,410.3 L140.2,410.3 L140.4,410.4 L140.6,410.4 
		L140.8,410.4 L141.0,410.4 L141.3,410.4 L141.5,410.7 L141.7,410.6 L141.9,410.6 L142.1,410.6 L142.3,410.6 
		L142.5,410.6 L142.7,410.6 L142.9,410.6 L143.1,410.6 L143.3,410.6 L143.6,410.6 L143.8,410.6 L144.0,411.0 
		L144.2,411.0 L144.4,411.0 L144.6,411.0 L144.8,411.0 L145.0,411.2 L145.2,411.2 L145.4,411.2 L145.7,411.2 
		L145.9,411.2 L146.1,411.3 L146.3,411.2 L146.5,411.2 L146.7,411.2 L146.9,411.2 L147.1,411.2 L147.3,411.2 
		L147.5,411.2 L147.7,411.3 L148.0,411.3 L148.2,411.3 L148.4,411.3 L148.6,411.3 L148.8,411.3 L149.0,411.3 
		L149.2,411.3 L149.4,411.3 L149.6,411.3 L149.8,411.3 L150.0,411.5 L150.3,411.4 L150.5,411.4 L150.7,411.4 
		L150.9,411.4 L151.1,411.4 L151.3,411.4 L151.5,411.4 L151.7,411.4 L151.9,411.5 L152.1,411.5 L152.4,411.5 
		L152.6,411.5 L152.8,411.5 L153.0,411.5 L153.2,411.5 L153.4,411.6 L153.6,411.4 L153.8,411.3 L154.0,411.1 
		L154.2,411.1 L154.4,411.1 L154.7,411.2 L154.9,411.1 L155.1,411.1 L155.3,410.9 L155.5,410.9 L155.7,410.9 
		L155.9,410.9 L156.1,411.0 L156.3,411.0 L156.5,411.0 L156.7,411.0 L157.0,411.0 L157.2,411.0 L157.4,411.0 
		L157.6,411.0 L157.8,411.0 L158.0,411.0 L158.2,411.2 L158.4,411.0 L158.6,411.0 L158.8,411.0 L159.1,410.8 
		L159.3,410.8 L159.5,410.8 L159.7,410.8 L159.9,410.9 L160.1,410.9 L160.3,410.9 L160.5,410.9 L160.7,410.9 
		L160.9,410.9 L161.1,410.9 L161.4,410.9 L161.6,410.9 L161.8,411.0 L162.0,411.0 L162.2,411.0 L162.4,410.9 
		L162.6,410.9 L162.8,410.8 L163.0,410.7 L163.2,410.3 L163.4,410.3 L163.7,410.3 L163.9,410.3 L164.1,410.3 
		L164.3,410.4 L164.5,410.4 L164.7,410.4 L164.9,410.4 L165.1,410.4 L165.3,410.4 L165.5,410.4 L165.8,410.5 
		L166.0,410.5 L166.2,410.5 L166.4,410.5 L166.6,410.5 L166.8,410.5 L167.0,410.6 L167.2,410.6 L167.4,410.6 
		L167.6,410.6 L167.8,410.5 L168.1,410.3 L168.3,410.3 L168.5,410.3 L168.7,410.3 L168.9,410.3 L169.1,410.4 
		L169.3,410.4 L169.5,410.4 L169.7,410.4 L169.9,410.4 L170.1,410.5 L170.4,410.5 L170.6,410.4 L170.8,410.4 
		L171.0,410.4 L171.2,410.4 L171.4,410.4 L171.6,410.4 L171.8,410.6 L172.0,410.6 L172.2,410.6 L172.4,410.7 
		L172.7,410.7 L172.9,410.7 L173.1,410.7 L173.3,410.7 L173.5,410.7 L173.7,410.7 L173.9,410.7 L174.1,410.7 
		L174.3,410.7 L174.5,410.7 L174.8,410.9 L175.0,410.9 L175.2,410.9 L175.4,410.9 L175.6,410.9 L175.8,410.9 
		L176.0,410.9 L176.2,410.9 L176.4,410.9 L176.6,411.1 L176.8,411.1 L177.1,411.1 L177.3,411.1 L177.5,411.1 
		L177.7,411.1 L177.9,411.2 L178.1,411.2 L178.3,411.2 L178.5,411.3 L178.7,411.2 L178.9,411.2 L179.1,411.2 
		L179.4,411.2 L179.6,411.2 L179.8,411.2 L180.0,411.2 L180.2,411.4 L180.4,411.4 L180.6,411.4 L180.8,411.4 
		L181.0,411.4 L181.2,411.4 L181.5,411.4 L181.7,411.4 L181.9,411.4 L182.1,411.4 L182.3,411.4 L182.5,411.5 
		L182.7,411.5 L182.9,411.5 L183.1,411.5 L183.3,411.6 L183.5,411.6 L183.8,411.6 L184.0,411.6 L184.2,411.6 
		L184.4,411.5 L184.6,411.5 L184.8,411.5 L185.0,411.5 L185.2,411.5 L185.4,411.5 L185.6,411.5 L185.8,411.6 
		L186.1,411.6 L186.3,411.6 L186.5,411.6 L186.7,411.6 L186.9,411.7 L187.1,411.7 L187.3,411.7 L187.5,411.7 
		L187.7,411.7 L187.9,411.7 L188.2,411.8 L188.4,411.8 L188.6,411.8 L188.8,411.8 L189.0,411.8 L189.2,411.8 
		L189.4,411.8 L189.6,411.8 L189.8,411.8 L190.0,411.9 L190.2,411.9 L190.5,411.9 L190.7,411.9 L190.9,411.9 
		L191.1,411.9 L191.3,411.9 L191.5,411.9 L191.7,411.9 L191.9,411.9 L192.1,411.9 L192.3,411.9 L192.5,411.9 
		L192.8,412.1 L193.0,412.1 L193.2,412.1 L193.4,412.1 L193.6,412.1 L193.8,412.1 L194.0,412.1 L194.2,412.1 
		L194.4,412.1 L194.6,412.1 L194.8,412.1 L195.1,412.1 L195.3,412.2 L195.5,412.2 L195.7,412.2 L195.9,412.2 
		L196.1,412.2 L196.3,412.2 L196.5,412.2 L196.7,412.2 L196.9,412.2 L197.2,412.2 L197.4,412.2 L197.6,412.3 
		L197.8,412.3 L198.0,412.3 L198.2,412.3 L198.4,412.3 L198.6,412.3 L198.8,412.3 L199.0,412.3 L199.2,412.5 
		L199.5,412.5 L199.7,412.5 L199.9,412.5 L200.1,412.5 L200.3,412.5 L200.5,412.5 L200.7,412.5 L200.9,412.5 
		L201.1,412.5 L201.3,412.6 L201.5,412.6 L201.8,412.6 L202.0,412.6 L202.2,412.6 L202.4,412.6 L202.6,412.6 
		L202.8,412.6 L203.0,412.6 L203.2,412.6 L203.4,412.6 L203.6,412.7 L203.9,412.7 L204.1,412.7 L204.3,412.7 
		L204.5,412.7 L204.7,412.7 L204.9,412.7 L205.1,412.7 L205.3,412.7 L205.5,412.8 L205.7,412.8 L205.9,412.8 
		L206.2,412.8 L206.4,412.8 L206.6,412.8 L206.8,412.8 L207.0,412.8 L207.2,412.8 L207.4,412.8 L207.6,412.8 
		L207.8,412.8 L208.0,412.8 L208.2,412.7 L208.5,412.7 L208.7,412.7 L208.9,412.7 L209.1,412.7 L209.3,412.7 
		L209.5,412.6 L209.7,412.6 L209.9,412.6 L210.1,412.6 L210.3,412.6 L210.6,412.7 L210.8,412.6 L211.0,412.5 
		L211.2,412.5 L211.4,412.5 L211.6,412.5 L211.8,412.5 L212.0,412.5 L212.2,412.4 L212.4,412.4 L212.6,412.4 
		L212.9,412.4 L213.1,412.4 L213.3,412.4 L213.5,412.4 L213.7,412.4 L213.9,412.4 L214.1,412.4 L214.3,412.4 
		L214.5,412.4 L214.7,412.4 L214.9,412.4 L215.2,412.4 L215.4,412.4 L215.6,412.4 L215.8,412.4 L216.0,412.5 
		L216.2,412.5 L216.4,412.5 L216.6,412.5 L216.8,412.5 L217.0,412.6 L217.3,412.6 L217.5,412.6 L217.7,412.7 
		L217.9,412.6 L218.1,412.6 L218.3,412.6 L218.5,412.6 L218.7,412.6 L218.9,412.6 L219.1,412.6 L219.3,412.6 
		L219.6,412.6 L219.8,412.6 L220.0,412.6 L220.2,412.6 L220.4,412.6 L220.6,412.6 L220.8,412.6 L221.0,412.6 
		L221.2,412.6 L221.4,412.6 L221.6,412.6 L221.9,412.6 L222.1,412.6 L222.3,412.6 L222.5,412.6 L222.7,412.6 
		L222.9,412.6 L223.1,412.6 L223.3,412.6 L223.5,412.6 L223.7,412.6 L223.9,412.6 L224.2,412.6 L224.4,412.6 
		L224.6,412.6 L224.8,412.6 L225.0,412.7 L225.2,412.7 L225.4,412.7 L225.6,412.7 L225.8,412.7 L226.0,412.7 
		L226.3,412.7 L226.5,412.7 L226.7,412.7 L226.9,412.7 L227.1,412.7 L227.3,412.7 L227.5,412.7 L227.7,412.7 
		L227.9,412.7 L228.1,412.7 L228.3,412.7 L228.6,412.7 L228.8,412.7 L229.0,412.7 L229.2,412.7 L229.4,413.0 
		L229.6,413.0 L229.8,413.0 L230.0,413.0 L230.2,413.0 L230.4,413.0 L230.6,413.0 L230.9,413.0 L231.1,413.0 
		L231.3,413.0 L231.5,413.0 L231.7,413.1 L231.9,413.1 L232.1,413.1 L232.3,413.1 L232.5,413.1 L232.7,413.1 
		L233.0,413.1 L233.2,413.1 L233.4,413.1 L233.6,413.1 L233.8,413.1 L234.0,413.1 L234.2,413.1 L234.4,413.1 
		L234.6,413.1 L234.8,413.1 L235.0,413.1 L235.3,413.1 L235.5,413.1 L235.7,413.1 L235.9,413.1 L236.1,413.1 
		L236.3,413.1 L236.5,413.1 L236.7,413.2 L236.9,413.2 L237.1,413.2 L237.3,413.2 L237.6,413.1 L237.8,413.1 
		L238.0,413.1 L238.2,413.1 L238.4,413.1 L238.6,413.1 L238.8,413.1 L239.0,413.1 L239.2,413.1 L239.4,413.2 
		L239.7,413.2 L239.9,413.2 L240.1,413.2 L240.3,413.2 L240.5,413.2 L240.7,413.2 L240.9,413.2 L241.1,413.2 
		L241.3,413.2 L241.5,413.2 L241.7,413.1 L242.0,413.1 L242.2,413.1 L242.4,413.1 L242.6,413.1 L242.8,413.1 
		L243.0,413.1 L243.2,413.1 L243.4,413.2 L243.6,413.1 L243.8,413.1 L244.0,413.1 L244.3,413.1 L244.5,413.2 
		L244.7,413.1 L244.9,413.1 L245.1,413.1 L245.3,413.1 L245.5,413.0 L245.7,413.0 L245.9,413.0 L246.1,413.0 
		L246.3,412.9 L246.6,412.9 L246.8,412.9 L247.0,412.8 L247.2,412.7 L247.4,412.7 L247.6,412.7 L247.8,412.7 
		L248.0,412.7 L248.2,412.7 L248.4,412.7 L248.6,412.7 L248.9,412.7 L249.1,412.7 L249.3,412.6 L249.5,412.5 
		L249.7,412.5 L249.9,412.5 L250.1,412.5 L250.3,412.5 L250.5,412.4 L250.7,412.4 L251.0,412.4 L251.2,412.4 
		L251.4,412.4 L251.6,412.4 L251.8,412.4 L252.0,412.4 L252.2,412.4 L252.4,412.4 L252.6,412.4 L252.8,412.4 
		L253.0,412.4 L253.3,412.4 L253.5,412.4 L253.7,412.4 L253.9,412.4 L254.1,412.4 L254.3,412.4 L254.5,412.4 
		L254.7,412.4 L254.9,412.5 L255.1,412.5 L255.3,412.5 L255.6,412.5 L255.8,412.5 L256.0,412.5 L256.2,412.5 
		L256.4,412.5 L256.6,412.5 L256.8,412.5 L257.0,412.5 L257.2,412.5 L257.4,412.5 L257.7,412.5 L257.9,412.5 
		L258.1,412.5 L258.3,412.5 L258.5,412.7 L258.7,412.7 L258.9,412.6 L259.1,412.6 L259.3,412.6 L259.5,412.6 
		L259.7,412.6 L260.0,412.6 L260.2,412.6 L260.4,412.6 L260.6,412.6 L260.8,412.6 L261.0,412.6 L261.2,412.6 
		L261.4,412.5 L261.6,412.5 L261.8,412.5 L262.0,412.5 L262.3,412.6 L262.5,412.5 L262.7,412.5 L262.9,412.5 
		L263.1,412.5 L263.3,412.5 L263.5,412.5 L263.7,412.5 L263.9,412.5 L264.1,412.5 L264.3,412.4 L264.6,412.5 
		L264.8,412.3 L265.0,412.3 L265.2,412.3 L265.4,412.3 L265.6,412.3 L265.8,412.3 L266.0,412.3 L266.2,412.3 
		L266.4,412.3 L266.7,412.4 L266.9,412.4 L267.1,412.4 L267.3,412.4 L267.5,412.4 L267.7,412.4 L267.9,412.4 
		L268.1,412.4 L268.3,412.4 L268.5,412.4 L268.7,412.4 L269.0,412.3 L269.2,412.3 L269.4,412.3 L269.6,412.2 
		L269.8,412.2 L270.0,412.2 L270.2,412.2 L270.4,412.2 L270.6,412.2 L270.8,412.2 L271.0,412.2 L271.3,412.2 
		L271.5,412.2 L271.7,412.2 L271.9,412.2 L272.1,412.2 L272.3,412.2 L272.5,412.2 L272.7,412.2 L272.9,412.2 
		L273.1,412.2 L273.4,412.1 L273.6,412.1 L273.8,412.2 L274.0,412.1 L274.2,412.1 L274.4,412.1 L274.6,412.1 
		L274.8,412.1 L275.0,412.1 L275.2,412.1 L275.4,412.1 L275.7,412.1 L275.9,412.1 L276.1,412.1 L276.3,412.2 
		L276.5,412.2 L276.7,412.2 L276.9,412.1 L277.1,412.1 L277.3,412.1 L277.5,412.1 L277.7,412.1 L278.0,412.1 
		L278.2,412.1 L278.4,412.1 L278.6,412.1 L278.8,412.1 L279.0,412.1 L279.2,412.1 L279.4,412.0 L279.6,412.0 
		L279.8,412.0 L280.1,412.0 L280.3,412.0 L280.5,412.0 L280.7,412.0 L280.9,412.1 L281.1,412.0 L281.3,412.0 
		L281.5,412.0 L281.7,411.9 L281.9,411.9 L282.1,411.9 L282.4,411.9 L282.6,412.0 L282.8,412.0 L283.0,411.8 
		L283.2,411.8 L283.4,411.8 L283.6,411.8 L283.8,411.8 L284.0,411.8 L284.2,411.8 L284.4,411.8 L284.7,411.8 
		L284.9,411.8 L285.1,411.8 L285.3,411.8 L285.5,411.8 L285.7,411.8 L285.9,411.8 L286.1,411.8 L286.3,411.8 
		L286.5,411.7 L286.8,411.6 L287.0,411.6 L287.2,411.6 L287.4,411.6 L287.6,411.6 L287.8,411.6 L288.0,411.6 
		L288.2,411.6 L288.4,411.5 L288.6,411.5 L288.8,411.5 L289.1,411.5 L289.3,411.5 L289.5,411.5 L289.7,411.5 
		L289.9,411.5 L290.1,411.5 L290.3,411.5 L290.5,411.5 L290.7,411.5 L290.9,411.5 L291.1,411.5 L291.4,411.6 
		L291.6,411.6 L291.8,411.6 L292.0,411.6 L292.2,411.6 L292.4,411.6 L292.6,411.6 L292.8,411.6 L293.0,411.6 
		L293.2,411.6 L293.4,411.6 L293.7,411.6 L293.9,411.6 L294.1,411.6 L294.3,411.6 L294.5,411.6 L294.7,411.6 
		L294.9,411.6 L295.1,411.6 L295.3,411.6 L295.5,411.6 L295.8,411.6 L296.0,411.6 L296.2,411.6 L296.4,411.6 
		L296.6,411.6 L296.8,411.6 L297.0,411.6 L297.2,411.6 L297.4,411.6 L297.6,411.6 L297.8,411.6 L298.1,411.6 
		L298.3,411.6 L298.5,411.7 L298.7,411.7 L298.9,411.7 L299.1,411.7 L299.3,411.7 L299.5,411.7 L299.7,411.7 
		L299.9,411.7 L300.1,411.7 L300.4,411.7 L300.6,411.7 L300.8,411.7 L301.0,411.7 L301.2,411.7 L301.4,411.7 
		L301.6,411.7 L301.8,411.7 L302.0,411.7 L302.2,411.7 L302.5,411.7 L302.7,411.7 L302.9,411.7 L303.1,411.7 
		L303.3,411.7 L303.5,411.7 L303.7,411.7 L303.9,411.7 L304.1,411.7 L304.3,411.7 L304.5,411.7 L304.8,411.7 
		L305.0,411.7 L305.2,411.7 L305.4,411.7 L305.6,411.7 L305.8,411.7 L306.0,411.7 L306.2,411.7 L306.4,411.7 
		L306.6,411.8 L306.8,411.8 L307.1,411.8 L307.3,411.8 L307.5,411.8 L307.7,411.8 L307.9,411.8 L308.1,411.8 
		L308.3,411.7 L308.5,411.8 L308.7,411.7 L308.9,411.7 L309.2,411.7 L309.4,411.7 L309.6,411.7 L309.8,411.7 
		L310.0,411.7 L310.2,411.7 L310.4,411.7 L310.6,411.7 L310.8,411.7 L311.0,411.7 L311.2,411.7 L311.5,411.7 
		L311.7,411.7 L311.9,411.7 L312.1,411.7 L312.3,411.7 L312.5,411.7 L312.7,411.7 L312.9,411.7 L313.1,411.8 
		L313.3,411.7 L313.5,411.7 L313.8,411.7 L314.0,411.7 L314.2,411.7 L314.4,411.7 L314.6,411.7 L314.8,411.7 
		L315.0,411.7 L315.2,411.7 L315.4,411.7 L315.6,411.7 L315.8,411.7 L316.1,411.7 L316.3,411.7 L316.5,411.7 
		L316.7,411.7 L316.9,411.7 L317.1,411.7 L317.3,411.8 L317.5,411.8 L317.7,411.8 L317.9,411.8 L318.2,411.8 
		L318.4,411.8 L318.6,411.8 L318.8,411.8 L319.0,411.8 L319.2,411.8 L319.4,411.8 L319.6,411.8 L319.8,411.8 
		L320.0,411.8 L320.2,411.8 L320.5,411.8 L320.7,411.8 L320.9,411.9 L321.1,411.9 L321.3,411.9 L321.5,411.9 
		L321.7,411.9 L321.9,411.9 L322.1,411.9 L322.3,411.9 L322.5,411.9 L322.8,411.9 L323.0,411.9 L323.2,411.9 
		L323.4,411.9 L323.6,411.9 L323.8,411.9 L324.0,411.9 L324.2,411.9 L324.4,411.9 L324.6,411.9 L324.9,411.8 
		L325.1,411.7 L325.3,411.7 L325.5,411.7 L325.7,411.7 L325.9,411.7 L326.1,411.7 L326.3,411.7 L326.5,411.7 
		L326.7,411.7 L326.9,411.7 L327.2,411.7 L327.4,411.7 L327.6,411.7 L327.8,411.7 L328.0,411.7 L328.2,411.7 
		L328.4,411.7 L328.6,411.7 L328.8,411.7 L329.0,411.7 L329.2,411.8 L329.5,411.8 L329.7,411.8 L329.9,411.8 
		L330.1,411.8 L330.3,411.8 L330.5,411.8 L330.7,411.8 L330.9,411.8 L331.1,411.8 L331.3,411.8 L331.6,411.8 
		L331.8,411.8 L332.0,411.8 L332.2,411.8 L332.4,411.8 L332.6,411.8 L332.8,411.8 L333.0,411.8 L333.2,411.8 
		L333.4,411.8 L333.6,411.8 L333.9,411.8 L334.1,411.8 L334.3,411.8 L334.5,411.8 L334.7,411.8 L334.9,411.8 
		L335.1,411.8 L335.3,411.8 L335.5,411.8 L335.7,411.8 L335.9,411.7 L336.2,411.7 L336.4,411.8 L336.6,411.8 
		L336.8,411.8 L337.0,411.8 L337.2,411.8 L337.4,411.8 L337.6,411.8 L337.8,411.8 L338.0,411.8 L338.3,411.8 
		L338.5,411.8 L338.7,411.8 L338.9,411.8 L339.1,411.8 L339.3,411.8 L339.5,411.8 L339.7,411.8 L339.9,411.8 
		L340.1,411.8 L340.3,411.8 L340.6,411.8 L340.8,411.8 L341.0,411.8 L341.2,411.8 L341.4,411.8 L341.6,411.9 
		L341.8,411.9 L342.0,411.9 L342.2,411.9 L342.4,411.9 L342.6,411.9 L342.9,411.9 L343.1,411.9 L343.3,411.9 
		L343.5,411.9 L343.7,411.9 L343.9,411.9 L344.1,411.9 L344.3,411.9 L344.5,411.9 L344.7,411.9 L344.9,412.0 
		L345.2,412.0 L345.4,412.0 L345.6,412.0 L345.8,412.0 L346.0,412.0 L346.2,412.0 L346.4,412.0 L346.6,412.0 
		L346.8,412.0 L347.0,412.0 L347.3,412.0 L347.5,412.0 L347.7,412.0 L347.9,412.0 L348.1,412.0 L348.3,412.0 
		L348.5,412.0 L348.7,411.9 L348.9,411.9 L349.1,411.9 L349.3,411.9 L349.6,411.9 L349.8,411.9 L350.0,411.9 
		L350.2,411.9 L350.4,411.9 L350.6,411.9 L350.8,412.0 L351.0,412.0 L351.2,411.9 L351.4,411.9 L351.6,411.9 
		L351.9,411.9 L352.1,411.9 L352.3,411.8 L352.5,411.8 L352.7,411.8 L352.9,411.8 L353.1,411.8 L353.3,411.8 
		L353.5,411.8 L353.7,411.8 L354.0,411.8 L354.2,411.8 L354.4,411.8 L354.6,411.8 L354.8,411.8 L355.0,411.8 
		L355.2,411.8 L355.4,411.8 L355.6,411.8 L355.8,411.9 L356.0,411.9 L356.3,411.8 L356.5,411.8 L356.7,411.8 
		L356.9,411.8 L357.1,411.8 L357.3,411.8 L357.5,411.8 L357.7,411.8 L357.9,411.8 L358.1,411.9 L358.3,411.9 
		L358.6,411.9 L358.8,411.9 L359.0,411.9 L359.2,411.9 L359.4,411.9 L359.6,411.9 L359.8,411.9 L360.0,411.9 
		L360.2,411.9 L360.4,411.9 L360.7,411.9 L360.9,411.9 L361.1,411.9 L361.3,411.9 L361.5,411.9 L361.7,411.9 
		L361.9,411.9 L362.1,411.9 L362.3,411.9 L362.5,411.9 L362.7,412.0 L363.0,411.9 L363.2,411.9 L363.4,411.9 
		L363.6,412.0 L363.8,412.0 L364.0,412.0 L364.2,412.0 L364.4,412.0 L364.6,412.0 L364.8,412.0 L365.0,412.0 
		L365.3,412.0 L365.5,412.0 L365.7,412.0 L365.9,412.0 L366.1,412.0 L366.3,412.0 L366.5,412.0 L366.7,412.0 
		L366.9,412.0 L367.1,412.0 L367.4,412.1 L367.6,412.1 L367.8,412.1 L368.0,412.1 L368.2,412.1 L368.4,412.1 
		L368.6,412.1 L368.8,412.1 L369.0,412.1 L369.2,412.0 L369.4,412.0 L369.7,412.0 L369.9,412.0 L370.1,412.0 
		L370.3,412.0 L370.5,412.0 L370.7,412.0 L370.9,412.0 L371.1,412.0 L371.3,412.0 L371.5,412.0 L371.7,412.0 
		L372.0,412.0 L372.2,412.1 L372.4,412.1 L372.6,412.1 L372.8,412.1 L373.0,412.1 L373.2,412.1 L373.4,412.1 
		L373.6,412.1 L373.8,412.1 L374.0,412.1 L374.3,412.1 L374.5,412.1 L374.7,412.1 L374.9,412.1 L375.1,412.1 
		L375.3,412.1 L375.5,412.1 L375.7,412.1 L375.9,412.1 L376.1,412.1 L376.4,412.1 L376.6,412.1 L376.8,412.1 
		L377.0,412.1 L377.2,412.2 L377.4,412.2 L377.6,412.2 L377.8,412.2 L378.0,412.2 L378.2,412.2 L378.4,412.2 
		L378.7,412.2 L378.9,412.2 L379.1,412.2 L379.3,412.2 L379.5,412.2 L379.7,412.2 L379.9,412.2 L380.1,412.2 
		L380.3,412.2 L380.5,412.2 L380.7,412.2 L381.0,412.2 L381.2,412.2 L381.4,412.2 L381.6,412.2 L381.8,412.2 
		L382.0,412.2 L382.2,412.2 L382.4,412.2 L382.6,412.2 L382.8,412.2 L383.1,412.2 L383.3,412.2 L383.5,412.2 
		L383.7,412.2 L383.9,412.2 L384.1,412.2 L384.3,412.2 L384.5,412.2 L384.7,412.2 L384.9,412.2 L385.1,412.2 
		L385.4,412.2 L385.6,412.2 L385.8,412.2 L386.0,412.2 L386.2,412.2 L386.4,412.2 L386.6,412.2 L386.8,412.2 
		L387.0,412.2 L387.2,412.2 L387.4,412.2 L387.7,412.2 L387.9,412.2 L388.1,412.2 L388.3,412.2 L388.5,412.2 
		L388.7,412.2 L388.9,412.2 L389.1,412.2 L389.3,412.2 L389.5,412.2 L389.8,412.2 L390.0,412.2 L390.2,412.2 
		L390.4,412.2 L390.6,412.2 L390.8,412.3 L391.0,412.3 L391.2,412.3 L391.4,412.3 L391.6,412.3 L391.8,412.3 
		L392.1,412.3 L392.3,412.3 L392.5,412.3 L392.7,412.3 L392.9,412.3 L393.1,412.3 L393.3,412.3 L393.5,412.3 
		L393.7,412.3 L393.9,412.3 L394.1,412.3 L394.4,412.3 L394.6,412.3 L394.8,412.3 L395.0,412.3 L395.2,412.3 
		L395.4,412.3 L395.6,412.3 L395.8,412.3 L396.0,412.3 L396.2,412.3 L396.4,412.3 L396.7,412.3 L396.9,412.3 
		L397.1,412.3 L397.3,412.3 L397.5,412.3 L397.7,412.2 L397.9,412.2 L398.1,412.2 L398.3,412.2 L398.5,412.2 
		L398.8,412.2 L399.0,412.2 L399.2,412.2 L399.4,412.2 L399.6,412.2 L399.8,412.2 L400.0,412.2 L400.2,412.2 
		L400.4,412.2 L400.6,412.2 L400.8,412.2 L401.1,412.2 L401.3,412.2 L401.5,412.2 L401.7,412.2 L401.9,412.2 
		L402.1,412.2 L402.3,412.2 L402.5,412.2 L402.7,412.2 L402.9,412.2 L403.1,412.2 L403.4,412.2 L403.6,412.2 
		L403.8,412.2 L404.0,412.2 L404.2,412.2 L404.4,412.2 L404.6,412.2 L404.8,412.2 L405.0,412.2 L405.2,412.2 
		L405.5,412.2 L405.7,412.2 L405.9,412.2 L406.1,412.1 L406.3,412.1 L406.5,412.1 L406.7,412.1 L406.9,412.1 
		L407.1,412.1 L407.3,412.1 L407.5,412.1 L407.8,412.1 L408.0,412.1 L408.2,412.1 L408.4,412.1 L408.6,412.1 
		L408.8,412.1 L409.0,412.1 L409.2,412.1 L409.4,412.2 L409.6,412.2 L409.8,412.2 L410.1,412.2 L410.3,412.2 
		L410.5,412.2 L410.7,412.2 L410.9,412.2 L411.1,412.2 L411.3,412.2 L411.5,412.2 L411.7,412.1 L411.9,412.1 
		L412.2,412.1 L412.4,412.1 L412.6,412.1 L412.8,412.1 L413.0,412.1 L413.2,412.1 L413.4,412.1 L413.6,412.2 
		L413.8,412.1 L414.0,412.1 L414.2,412.1 L414.5,412.1 L414.7,412.2 L414.9,412.2 L415.1,412.2 L415.3,412.2 
		L415.5,412.2 L415.7,412.2 L415.9,412.2 L416.1,412.2 L416.3,412.2 L416.5,412.2 L416.8,412.2 L417.0,412.2 
		L417.2,412.2 L417.4,412.2 L417.6,412.2 L417.8,412.2 L418.0,412.2 L418.2,412.2 L418.4,412.2 L418.6,412.2 
		L418.9,412.2 L419.1,412.2 L419.3,412.2 L419.5,412.2 L419.7,412.2 L419.9,412.2 L420.1,412.2 L420.3,412.2 
		L420.5,412.2 L420.7,412.2 L420.9,412.2 L421.2,412.1 L421.4,412.1 L421.6,412.1 L421.8,412.1 L422.0,412.0 
		L422.2,412.0 L422.4,412.0 L422.6,412.0 L422.8,412.0 L423.0,412.0 L423.2,412.0 L423.5,412.0 L423.7,412.0 
		L423.9,412.0 L424.1,412.0 L424.3,412.0 L424.5,412.0 L424.7,412.0 L424.9,412.0 L425.1,412.0 L425.3,411.9 
		L425.5,411.9 L425.8,411.9 L426.0,411.9 L426.2,411.8 L426.4,411.8 L426.6,411.8 L426.8,411.7 L427.0,411.7 
		L427.2,411.7 L427.4,411.7 L427.6,411.7 L427.9,411.7 L428.1,411.7 L428.3,411.7 L428.5,411.7 L428.7,411.7 
		L428.9,411.7 L429.1,411.7 L429.3,411.7 L429.5,411.7 L429.7,411.7 L429.9,411.7 L430.2,411.7 L430.4,411.7 
		L430.6,411.7 L430.8,411.7 L431.0,411.7 L431.2,411.7 L431.4,411.7 L431.6,411.7 L431.8,411.7 L432.0,411.7 
		L432.2,411.7 L432.5,411.7 L432.7,411.7 L432.9,411.7 L433.1,411.7 L433.3,411.7 L433.5,411.7 L433.7,411.7 
		L433.9,411.7 L434.1,411.7 L434.3,411.9 L434.6,411.7 L434.8,411.7 L435.0,411.6 L435.2,411.6 L435.4,411.6 
		L435.6,411.6 L435.8,411.6 L436.0,411.6 L436.2,411.6 L436.4,411.6 L436.6,411.6 L436.9,411.6 L437.1,411.6 
		L437.3,411.6 L437.5,411.6 L437.7,411.7 L437.9,411.6 L438.1,411.6 L438.3,411.6 L438.5,411.6 L438.7,411.6 
		L438.9,411.6 L439.2,411.6 L439.4,411.6 L439.6,411.6 L439.8,411.6 L440.0,411.5 L440.2,411.5 L440.4,411.5 
		L440.6,411.5 L440.8,411.5 L441.0,411.5 L441.3,411.5 L441.5,411.5 L441.7,411.5 L441.9,411.5 L442.1,411.5 
		L442.3,411.5 L442.5,411.5 L442.7,411.5 L442.9,411.5 L443.1,411.5 L443.3,411.5 L443.6,411.5 L443.8,411.5 
		L444.0,411.5 L444.2,411.5 L444.4,411.5 L444.6,411.5 L444.8,411.5 L445.0,411.5 L445.2,411.5 L445.4,411.5 
		L445.6,411.5 L445.9,411.5 L446.1,411.5 L446.3,411.4 L446.5,411.4 L446.7,411.4 L446.9,411.4 L447.1,411.4 
		L447.3,411.4 L447.5,411.4 L447.7,411.4 L447.9,411.4 L448.2,411.4 L448.4,411.4 L448.6,411.4 L448.8,411.4 
		L449.0,411.3 L449.2,411.3 L449.4,411.3 L449.6,411.3 L449.8,411.3 L450.0,411.3 L450.3,411.3 L450.5,411.3 
		L450.7,411.3 L450.9,411.3 L451.1,411.3 L451.3,411.3 L451.5,411.3 L451.7,411.3 L451.9,411.3 L452.1,411.3 
		L452.3,411.3 L452.6,411.3 L452.8,411.3 L453.0,411.3 L453.2,411.3 L453.4,411.3 L453.6,411.3 L453.8,411.3 
		L454.0,411.3 L454.2,411.3 L454.4,411.3 L454.6,411.3 L454.9,411.3 L455.1,411.3 L455.3,411.3 L455.5,411.3 
		L455.7,411.3 L455.9,411.3 L456.1,411.3 L456.3,411.3 L456.5,411.3 L456.7,411.3 L457.0,411.3 L457.2,411.3 
		L457.4,411.3 L457.6,411.3 L457.8,411.3 L458.0,411.3 L458.2,411.3 L458.4,411.3 L458.6,411.3 L458.8,411.3 
		L459.0,411.3 L459.3,411.3 L459.5,411.3 L459.7,411.3 L459.9,411.3 L460.1,411.3 L460.3,411.3 L460.5,411.3 
		L460.7,411.3 L460.9,411.3 L461.1,411.3 L461.3,411.3 L461.6,411.3 L461.8,411.3 L462.0,411.3 L462.2,411.4 
		L462.4,411.4 L462.6,411.4 L462.8,411.4 L463.0,411.4 L463.2,411.4 L463.4,411.4 L463.7,411.4 L463.9,411.4 
		L464.1,411.4 L464.3,411.4 L464.5,411.4 L464.7,411.4 L464.9,411.4 L465.1,411.4 L465.3,411.4 L465.5,411.4 
		L465.7,411.4 L466.0,411.4 L466.2,411.4 L466.4,411.4 L466.6,411.4 L466.8,411.5 L467.0,411.5 L467.2,411.5 
		L467.4,411.5 L467.6,411.5 L467.8,411.5 L468.0,411.5 L468.3,411.5 L468.5,411.5 L468.7,411.5 L468.9,411.5 
		L469.1,411.5 L469.3,411.5 L469.5,411.5 L469.7,411.5 L469.9,411.5 L470.1,411.5 L470.4,411.5 L470.6,411.5 
		L470.8,411.5 L471.0,411.5 L471.2,411.5 L471.4,411.5 L471.6,411.5 L471.8,411.5 L472.0,411.5 L472.2,411.5 
		L472.4,411.5 L472.7,411.5 L472.9,411.5 L473.1,411.5 L473.3,411.5 L473.5,411.5 L473.7,411.5 L473.9,411.5 
		L474.1,411.5 L474.3,411.5 L474.5,411.5 L474.7,411.5 L475.0,411.5 L475.2,411.5 L475.4,411.5 L475.6,411.5 
		L475.8,411.5 L476.0,411.5 L476.2,411.5 L476.4,411.5 L476.6,411.5 L476.8,411.5 L477.0,411.5 L477.3,411.5 
		L477.5,411.5 L477.7,411.5 L477.9,411.5 L478.1,411.5 L478.3,411.5 L478.5,411.5 L478.7,411.5 L478.9,411.5 
		L479.1,411.5 L479.4,411.5 L479.6,411.5 L479.8,411.5 L480.0,411.5 L480.2,411.5 L480.4,411.5 L480.6,411.5 
		L480.8,411.5 L481.0,411.5 L481.2,411.5 L481.4,411.5 L481.7,411.5 L481.9,411.5 L482.1,411.5 L482.3,411.6 
		L482.5,411.6 L482.7,411.6 L482.9,411.6 L483.1,411.6 L483.3,411.6 L483.5,411.6 L483.7,411.6 L484.0,411.6 
		L484.2,411.6 L484.4,411.6 L484.6,411.6 L484.8,411.6 L485.0,411.6 L485.2,411.6 L485.4,411.6 L485.6,411.6 
		L485.8,411.6 L486.1,411.6 L486.3,411.6 L486.5,411.6 L486.7,411.5 L486.9,411.5 L487.1,411.5 L487.3,411.5 
		L487.5,411.5 L487.7,411.5 L487.9,411.5 L488.1,411.5 L488.4,411.5 L488.6,411.5 L488.8,411.5 L489.0,411.5 
		L489.2,411.5 L489.4,411.5 L489.6,411.5 L489.8,411.5 L490.0,411.5 L490.2,411.5 L490.4,411.5 L490.7,411.4 
		L490.9,411.4 L491.1,411.4 L491.3,411.4 L491.5,411.5 L491.7,411.5 L491.9,411.5 L492.1,411.5 L492.3,411.5 
		L492.5,411.5 L492.8,411.4 L493.0,411.4 L493.2,411.4 L493.4,411.4 L493.6,411.4 L493.8,411.4 L494.0,411.4 
		L494.2,411.4 L494.4,411.4 L494.6,411.4 L494.8,411.4 L495.1,411.4 L495.3,411.4 L495.5,411.4 L495.7,411.4 
		L495.9,411.4 L496.1,411.4 L496.3,411.4 L496.5,411.4 L496.7,411.4 L496.9,411.4 L497.1,411.4 L497.4,411.4 
		L497.6,411.4 L497.8,411.4 L498.0,411.4 L498.2,411.4 L498.4,411.4 L498.6,411.4 L498.8,411.4 L499.0,411.4 
		L499.2,411.4 L499.4,411.4 L499.7,411.4 L499.9,411.4 L500.1,411.4 L500.3,411.4 L500.5,411.4 L500.7,411.4 
		L500.9,411.4 L501.1,411.4 L501.3,411.4 L501.5,411.4 L501.8,411.3 L502.0,411.3 L502.2,411.3 L502.4,411.3 
		L502.6,411.3 L502.8,411.3 L503.0,411.3 L503.2,411.3 L503.4,411.3 L503.6,411.3 L503.8,411.3 L504.1,411.3 
		L504.3,411.3 L504.5,411.3 L504.7,411.3 L504.9,411.3 L505.1,411.3 L505.3,411.3 L505.5,411.3 L505.7,411.3 
		L505.9,411.3 L506.1,411.3 L506.4,411.3 L506.6,411.3 L506.8,411.3 L507.0,411.3 L507.2,411.3  h0.01'/></g>
	</g>
	<g id="gnuplot_plot_2" ><title>gnuplot_plot_2</title>
<g style="fill:none; color:green; stroke:currentColor; stroke-width:1.00; stroke-linecap:butt; stroke-linejoin:miter">
	<g transform="translate(440.1,390.9)" style="stroke:none; fill:black; font-family:Arial; font-size:12.00pt; text-anchor:end">
		<text>Radio maximum capacity</text>
	</g>
	<path  d='M448.4,386.4 L490.6,386.4 M90.8,88.6 L91.0,353.5 L91.2,348.2 L91.4,369.5 L91.6,343.8 L91.8,339.9 
		L92.1,354.0 L92.3,351.2 L92.5,351.2 L92.7,355.6 L92.9,355.3 L93.1,362.8 L93.3,363.6 L93.5,365.8 
		L93.7,365.8 L93.9,365.8 L94.2,365.8 L94.4,365.8 L94.6,365.8 L94.8,365.8 L95.0,385.1 L95.2,385.1 
		L95.4,385.1 L95.6,389.4 L95.8,389.4 L96.0,389.4 L96.2,389.4 L96.5,389.4 L96.7,389.4 L96.9,389.4 
		L97.1,389.4 L97.3,395.1 L97.5,395.1 L97.7,396.2 L97.9,396.2 L98.1,397.2 L98.3,396.9 L98.5,396.9 
		L98.8,396.9 L99.0,396.9 L99.2,396.9 L99.4,396.9 L99.6,400.5 L99.8,396.4 L100.0,396.6 L100.2,396.6 
		L100.4,396.6 L100.6,396.6 L100.8,398.5 L101.1,398.5 L101.3,399.4 L101.5,396.4 L101.7,396.4 L101.9,396.4 
		L102.1,396.4 L102.3,396.4 L102.5,397.5 L102.7,395.6 L102.9,395.6 L103.2,395.6 L103.4,396.6 L103.6,396.6 
		L103.8,396.6 L104.0,396.6 L104.2,396.6 L104.4,398.4 L104.6,398.4 L104.8,398.9 L105.0,397.9 L105.2,397.9 
		L105.5,397.9 L105.7,397.9 L105.9,397.9 L106.1,397.9 L106.3,397.9 L106.5,397.9 L106.7,397.5 L106.9,397.5 
		L107.1,397.5 L107.3,397.5 L107.5,397.5 L107.8,397.5 L108.0,399.1 L108.2,399.1 L108.4,399.1 L108.6,399.1 
		L108.8,400.3 L109.0,399.4 L109.2,399.4 L109.4,399.1 L109.6,399.1 L109.8,399.1 L110.1,399.1 L110.3,399.4 
		L110.5,399.4 L110.7,399.5 L110.9,399.4 L111.1,399.4 L111.3,399.4 L111.5,399.4 L111.7,399.4 L111.9,399.4 
		L112.2,400.9 L112.4,400.8 L112.6,400.5 L112.8,400.1 L113.0,400.1 L113.2,400.1 L113.4,400.1 L113.6,400.1 
		L113.8,400.1 L114.0,400.1 L114.2,400.1 L114.5,400.1 L114.7,400.1 L114.9,400.1 L115.1,400.1 L115.3,401.7 
		L115.5,401.8 L115.7,401.5 L115.9,401.5 L116.1,401.5 L116.3,401.5 L116.5,401.5 L116.8,402.1 L117.0,402.1 
		L117.2,402.1 L117.4,402.1 L117.6,402.1 L117.8,402.1 L118.0,402.1 L118.2,402.1 L118.4,402.1 L118.6,402.1 
		L118.9,402.1 L119.1,402.1 L119.3,402.1 L119.5,402.1 L119.7,403.9 L119.9,403.9 L120.1,403.9 L120.3,403.9 
		L120.5,403.9 L120.7,404.5 L120.9,404.5 L121.2,404.5 L121.4,404.5 L121.6,404.5 L121.8,404.5 L122.0,404.7 
		L122.2,404.7 L122.4,404.7 L122.6,404.3 L122.8,404.3 L123.0,404.6 L123.2,404.0 L123.5,404.0 L123.7,404.0 
		L123.9,404.0 L124.1,404.0 L124.3,404.0 L124.5,404.0 L124.7,404.0 L124.9,404.0 L125.1,404.0 L125.3,404.0 
		L125.6,405.3 L125.8,405.2 L126.0,405.2 L126.2,405.2 L126.4,405.2 L126.6,405.5 L126.8,405.4 L127.0,405.2 
		L127.2,405.2 L127.4,405.2 L127.6,405.2 L127.9,405.2 L128.1,405.2 L128.3,405.2 L128.5,405.6 L128.7,405.6 
		L128.9,405.7 L129.1,405.3 L129.3,405.3 L129.5,405.3 L129.7,405.6 L130.0,405.3 L130.2,405.2 L130.4,405.2 
		L130.6,405.4 L130.8,405.4 L131.0,405.4 L131.2,405.4 L131.4,405.4 L131.6,405.7 L131.8,405.6 L132.0,405.6 
		L132.3,405.6 L132.5,405.7 L132.7,405.6 L132.9,405.6 L133.1,405.6 L133.3,405.6 L133.5,405.6 L133.7,405.5 
		L133.9,405.5 L134.1,405.5 L134.3,405.5 L134.6,405.5 L134.8,405.4 L135.0,405.4 L135.2,405.4 L135.4,405.4 
		L135.6,405.4 L135.8,405.4 L136.0,405.4 L136.2,405.4 L136.4,405.4 L136.7,405.4 L136.9,405.4 L137.1,405.4 
		L137.3,405.4 L137.5,405.4 L137.7,405.4 L137.9,405.4 L138.1,405.4 L138.3,405.4 L138.5,405.4 L138.7,405.4 
		L139.0,406.9 L139.2,406.6 L139.4,406.6 L139.6,406.6 L139.8,406.6 L140.0,406.7 L140.2,406.7 L140.4,406.8 
		L140.6,406.8 L140.8,406.8 L141.0,406.8 L141.3,406.8 L141.5,407.1 L141.7,406.9 L141.9,406.9 L142.1,406.9 
		L142.3,406.9 L142.5,406.9 L142.7,406.9 L142.9,406.9 L143.1,406.9 L143.3,406.9 L143.6,406.9 L143.8,406.9 
		L144.0,407.0 L144.2,407.0 L144.4,407.0 L144.6,407.0 L144.8,407.0 L145.0,407.2 L145.2,407.2 L145.4,407.2 
		L145.7,407.2 L145.9,407.2 L146.1,407.2 L146.3,407.2 L146.5,407.2 L146.7,407.1 L146.9,407.0 L147.1,407.0 
		L147.3,407.0 L147.5,407.0 L147.7,407.1 L148.0,407.1 L148.2,407.2 L148.4,407.2 L148.6,407.2 L148.8,407.2 
		L149.0,407.3 L149.2,407.3 L149.4,407.3 L149.6,407.3 L149.8,407.3 L150.0,407.5 L150.3,407.3 L150.5,407.3 
		L150.7,407.3 L150.9,407.3 L151.1,407.3 L151.3,407.3 L151.5,407.4 L151.7,407.4 L151.9,407.5 L152.1,407.5 
		L152.4,407.5 L152.6,407.5 L152.8,407.5 L153.0,407.5 L153.2,407.5 L153.4,407.7 L153.6,407.5 L153.8,407.4 
		L154.0,407.2 L154.2,407.2 L154.4,407.2 L154.7,407.3 L154.9,407.2 L155.1,407.1 L155.3,407.0 L155.5,407.0 
		L155.7,407.0 L155.9,407.0 L156.1,407.1 L156.3,407.1 L156.5,407.1 L156.7,407.2 L157.0,407.2 L157.2,407.2 
		L157.4,407.2 L157.6,407.2 L157.8,407.2 L158.0,407.2 L158.2,407.2 L158.4,407.3 L158.6,407.3 L158.8,407.3 
		L159.1,406.9 L159.3,406.9 L159.5,406.9 L159.7,406.9 L159.9,407.1 L160.1,407.1 L160.3,407.1 L160.5,407.1 
		L160.7,407.1 L160.9,407.1 L161.1,407.1 L161.4,407.1 L161.6,407.3 L161.8,407.3 L162.0,407.3 L162.2,407.3 
		L162.4,407.2 L162.6,407.2 L162.8,407.0 L163.0,406.8 L163.2,406.5 L163.4,406.5 L163.7,406.5 L163.9,406.5 
		L164.1,406.5 L164.3,406.6 L164.5,406.6 L164.7,406.6 L164.9,406.6 L165.1,406.6 L165.3,406.6 L165.5,406.6 
		L165.8,406.8 L166.0,406.8 L166.2,406.8 L166.4,406.8 L166.6,406.8 L166.8,406.8 L167.0,407.0 L167.2,407.0 
		L167.4,407.0 L167.6,407.0 L167.8,406.8 L168.1,406.6 L168.3,406.6 L168.5,406.6 L168.7,406.6 L168.9,406.6 
		L169.1,406.8 L169.3,406.8 L169.5,406.8 L169.7,406.8 L169.9,406.8 L170.1,406.9 L170.4,406.5 L170.6,406.5 
		L170.8,406.5 L171.0,406.5 L171.2,406.5 L171.4,406.5 L171.6,406.7 L171.8,406.7 L172.0,406.7 L172.2,406.7 
		L172.4,406.8 L172.7,406.3 L172.9,406.3 L173.1,406.3 L173.3,406.3 L173.5,406.4 L173.7,406.4 L173.9,406.4 
		L174.1,406.4 L174.3,406.4 L174.5,406.4 L174.8,406.5 L175.0,406.5 L175.2,406.5 L175.4,406.5 L175.6,406.5 
		L175.8,406.5 L176.0,406.5 L176.2,406.5 L176.4,406.5 L176.6,406.8 L176.8,406.5 L177.1,406.5 L177.3,406.5 
		L177.5,406.5 L177.7,406.5 L177.9,406.6 L178.1,406.4 L178.3,406.4 L178.5,406.5 L178.7,406.4 L178.9,406.4 
		L179.1,406.4 L179.4,406.4 L179.6,406.4 L179.8,406.4 L180.0,406.4 L180.2,406.5 L180.4,406.2 L180.6,405.9 
		L180.8,405.8 L181.0,405.8 L181.2,405.8 L181.5,405.8 L181.7,405.8 L181.9,405.8 L182.1,405.8 L182.3,405.8 
		L182.5,405.9 L182.7,405.9 L182.9,405.9 L183.1,405.9 L183.3,406.1 L183.5,405.9 L183.8,405.9 L184.0,405.9 
		L184.2,405.9 L184.4,405.9 L184.6,405.9 L184.8,405.9 L185.0,405.9 L185.2,405.9 L185.4,405.9 L185.6,405.9 
		L185.8,406.1 L186.1,406.1 L186.3,406.1 L186.5,406.1 L186.7,406.1 L186.9,406.2 L187.1,406.2 L187.3,406.2 
		L187.5,406.2 L187.7,406.2 L187.9,406.2 L188.2,406.1 L188.4,406.0 L188.6,406.0 L188.8,406.0 L189.0,406.0 
		L189.2,406.0 L189.4,406.0 L189.6,406.0 L189.8,406.0 L190.0,406.1 L190.2,406.1 L190.5,406.1 L190.7,406.1 
		L190.9,406.1 L191.1,406.1 L191.3,406.2 L191.5,406.2 L191.7,406.2 L191.9,406.2 L192.1,406.2 L192.3,406.2 
		L192.5,406.2 L192.8,406.4 L193.0,406.4 L193.2,406.4 L193.4,406.5 L193.6,406.4 L193.8,406.4 L194.0,406.4 
		L194.2,406.4 L194.4,406.4 L194.6,406.3 L194.8,406.3 L195.1,406.3 L195.3,406.4 L195.5,406.3 L195.7,406.3 
		L195.9,406.4 L196.1,406.4 L196.3,406.4 L196.5,406.4 L196.7,406.4 L196.9,406.4 L197.2,406.4 L197.4,406.4 
		L197.6,406.6 L197.8,406.6 L198.0,406.6 L198.2,406.6 L198.4,406.6 L198.6,406.6 L198.8,406.6 L199.0,406.6 
		L199.2,406.8 L199.5,406.8 L199.7,406.7 L199.9,406.7 L200.1,406.6 L200.3,406.6 L200.5,406.6 L200.7,406.6 
		L200.9,406.6 L201.1,406.6 L201.3,406.8 L201.5,406.8 L201.8,406.8 L202.0,406.8 L202.2,406.8 L202.4,406.8 
		L202.6,406.8 L202.8,406.8 L203.0,406.8 L203.2,406.8 L203.4,406.8 L203.6,407.0 L203.9,407.0 L204.1,407.0 
		L204.3,407.0 L204.5,407.0 L204.7,407.0 L204.9,407.0 L205.1,407.0 L205.3,407.0 L205.5,407.2 L205.7,407.2 
		L205.9,407.2 L206.2,407.2 L206.4,407.2 L206.6,407.2 L206.8,407.2 L207.0,407.2 L207.2,407.2 L207.4,407.2 
		L207.6,407.2 L207.8,407.2 L208.0,407.1 L208.2,407.1 L208.5,407.1 L208.7,407.1 L208.9,407.0 L209.1,407.0 
		L209.3,407.0 L209.5,407.0 L209.7,407.0 L209.9,407.0 L210.1,407.0 L210.3,407.0 L210.6,407.0 L210.8,406.8 
		L211.0,406.7 L211.2,406.7 L211.4,406.7 L211.6,406.7 L211.8,406.7 L212.0,406.8 L212.2,406.7 L212.4,406.7 
		L212.6,406.7 L212.9,406.8 L213.1,406.7 L213.3,406.7 L213.5,406.7 L213.7,406.7 L213.9,406.7 L214.1,406.8 
		L214.3,406.8 L214.5,406.8 L214.7,406.8 L214.9,406.8 L215.2,406.8 L215.4,406.8 L215.6,406.8 L215.8,406.8 
		L216.0,407.0 L216.2,407.0 L216.4,407.0 L216.6,407.0 L216.8,407.0 L217.0,407.1 L217.3,407.1 L217.5,407.1 
		L217.7,407.1 L217.9,407.1 L218.1,407.1 L218.3,407.1 L218.5,407.1 L218.7,407.1 L218.9,407.1 L219.1,407.1 
		L219.3,407.2 L219.6,407.2 L219.8,407.2 L220.0,407.2 L220.2,407.0 L220.4,407.0 L220.6,407.0 L220.8,406.8 
		L221.0,406.8 L221.2,406.8 L221.4,406.8 L221.6,406.8 L221.9,406.8 L222.1,406.8 L222.3,406.8 L222.5,406.8 
		L222.7,406.9 L222.9,406.9 L223.1,406.9 L223.3,406.9 L223.5,406.9 L223.7,406.9 L223.9,406.9 L224.2,406.9 
		L224.4,406.9 L224.6,406.9 L224.8,406.9 L225.0,407.0 L225.2,407.0 L225.4,407.0 L225.6,407.0 L225.8,407.0 
		L226.0,407.0 L226.3,407.0 L226.5,407.0 L226.7,407.0 L226.9,407.0 L227.1,407.0 L227.3,407.0 L227.5,407.0 
		L227.7,407.0 L227.9,407.0 L228.1,407.0 L228.3,407.0 L228.6,407.0 L228.8,407.0 L229.0,407.0 L229.2,407.0 
		L229.4,407.4 L229.6,407.4 L229.8,407.4 L230.0,407.4 L230.2,407.4 L230.4,407.4 L230.6,407.5 L230.9,407.4 
		L231.1,407.4 L231.3,407.4 L231.5,407.4 L231.7,407.4 L231.9,407.4 L232.1,407.4 L232.3,407.4 L232.5,407.4 
		L232.7,407.4 L233.0,407.4 L233.2,407.4 L233.4,407.4 L233.6,407.3 L233.8,407.3 L234.0,407.3 L234.2,407.3 
		L234.4,407.3 L234.6,407.3 L234.8,407.3 L235.0,407.3 L235.3,407.4 L235.5,407.4 L235.7,407.4 L235.9,407.4 
		L236.1,407.4 L236.3,407.4 L236.5,407.4 L236.7,407.4 L236.9,407.4 L237.1,407.4 L237.3,407.4 L237.6,407.4 
		L237.8,407.4 L238.0,407.4 L238.2,407.4 L238.4,407.4 L238.6,407.4 L238.8,407.4 L239.0,407.4 L239.2,407.4 
		L239.4,407.4 L239.7,407.5 L239.9,407.5 L240.1,407.5 L240.3,407.5 L240.5,407.5 L240.7,407.5 L240.9,407.5 
		L241.1,407.6 L241.3,407.4 L241.5,407.3 L241.7,407.3 L242.0,407.3 L242.2,407.3 L242.4,407.3 L242.6,407.3 
		L242.8,407.3 L243.0,407.3 L243.2,407.3 L243.4,407.4 L243.6,407.4 L243.8,407.4 L244.0,407.4 L244.3,407.4 
		L244.5,407.4 L244.7,407.4 L244.9,407.4 L245.1,407.4 L245.3,407.3 L245.5,407.3 L245.7,407.3 L245.9,407.3 
		L246.1,407.2 L246.3,407.2 L246.6,407.2 L246.8,407.2 L247.0,407.1 L247.2,407.0 L247.4,407.0 L247.6,407.0 
		L247.8,407.0 L248.0,407.0 L248.2,407.0 L248.4,407.0 L248.6,407.0 L248.9,407.0 L249.1,407.0 L249.3,406.9 
		L249.5,406.8 L249.7,406.8 L249.9,406.8 L250.1,406.8 L250.3,406.9 L250.5,406.7 L250.7,406.7 L251.0,406.7 
		L251.2,406.7 L251.4,406.7 L251.6,406.7 L251.8,406.7 L252.0,406.7 L252.2,406.7 L252.4,406.7 L252.6,406.7 
		L252.8,406.7 L253.0,406.8 L253.3,406.7 L253.5,406.7 L253.7,406.7 L253.9,406.7 L254.1,406.7 L254.3,406.7 
		L254.5,406.7 L254.7,406.7 L254.9,406.9 L255.1,406.9 L255.3,406.9 L255.6,406.9 L255.8,406.9 L256.0,406.9 
		L256.2,406.9 L256.4,406.9 L256.6,406.9 L256.8,406.9 L257.0,406.9 L257.2,406.9 L257.4,406.9 L257.7,406.9 
		L257.9,406.9 L258.1,406.9 L258.3,406.9 L258.5,407.2 L258.7,407.2 L258.9,407.1 L259.1,407.1 L259.3,407.1 
		L259.5,407.1 L259.7,407.1 L260.0,407.1 L260.2,407.1 L260.4,407.1 L260.6,407.1 L260.8,407.2 L261.0,407.2 
		L261.2,407.2 L261.4,407.2 L261.6,407.2 L261.8,407.2 L262.0,407.2 L262.3,407.2 L262.5,407.1 L262.7,407.1 
		L262.9,407.1 L263.1,407.1 L263.3,407.1 L263.5,407.1 L263.7,407.1 L263.9,407.1 L264.1,407.2 L264.3,407.2 
		L264.6,407.2 L264.8,407.1 L265.0,407.1 L265.2,407.1 L265.4,407.1 L265.6,407.1 L265.8,407.1 L266.0,407.1 
		L266.2,407.1 L266.4,407.1 L266.7,407.1 L266.9,407.1 L267.1,407.1 L267.3,407.1 L267.5,407.1 L267.7,407.2 
		L267.9,407.2 L268.1,407.2 L268.3,407.2 L268.5,407.2 L268.7,407.2 L269.0,407.1 L269.2,407.1 L269.4,407.1 
		L269.6,406.9 L269.8,406.9 L270.0,406.9 L270.2,406.9 L270.4,406.9 L270.6,406.9 L270.8,406.9 L271.0,406.9 
		L271.3,406.9 L271.5,406.9 L271.7,406.9 L271.9,406.9 L272.1,406.9 L272.3,406.9 L272.5,406.9 L272.7,406.9 
		L272.9,406.9 L273.1,406.9 L273.4,406.8 L273.6,406.8 L273.8,406.8 L274.0,406.8 L274.2,406.8 L274.4,406.8 
		L274.6,406.8 L274.8,406.8 L275.0,406.8 L275.2,406.8 L275.4,406.8 L275.7,406.8 L275.9,406.8 L276.1,406.8 
		L276.3,407.0 L276.5,406.8 L276.7,406.8 L276.9,406.8 L277.1,406.8 L277.3,406.8 L277.5,406.8 L277.7,406.8 
		L278.0,406.8 L278.2,406.8 L278.4,406.8 L278.6,406.8 L278.8,406.8 L279.0,406.8 L279.2,406.8 L279.4,406.8 
		L279.6,406.8 L279.8,406.8 L280.1,406.8 L280.3,406.8 L280.5,406.8 L280.7,406.8 L280.9,406.8 L281.1,406.8 
		L281.3,406.8 L281.5,406.7 L281.7,406.7 L281.9,406.7 L282.1,406.7 L282.4,406.7 L282.6,406.7 L282.8,406.7 
		L283.0,406.6 L283.2,406.6 L283.4,406.6 L283.6,406.6 L283.8,406.6 L284.0,406.6 L284.2,406.6 L284.4,406.6 
		L284.7,406.6 L284.9,406.6 L285.1,406.6 L285.3,406.6 L285.5,406.6 L285.7,406.6 L285.9,406.6 L286.1,406.6 
		L286.3,406.6 L286.5,406.6 L286.8,406.4 L287.0,406.4 L287.2,406.4 L287.4,406.4 L287.6,406.4 L287.8,406.4 
		L288.0,406.4 L288.2,406.4 L288.4,406.3 L288.6,406.3 L288.8,406.3 L289.1,406.3 L289.3,406.3 L289.5,406.3 
		L289.7,406.3 L289.9,406.3 L290.1,406.3 L290.3,406.3 L290.5,406.3 L290.7,406.3 L290.9,406.3 L291.1,406.3 
		L291.4,406.5 L291.6,406.5 L291.8,406.5 L292.0,406.5 L292.2,406.5 L292.4,406.5 L292.6,406.5 L292.8,406.5 
		L293.0,406.5 L293.2,406.5 L293.4,406.5 L293.7,406.5 L293.9,406.5 L294.1,406.5 L294.3,406.5 L294.5,406.5 
		L294.7,406.5 L294.9,406.5 L295.1,406.4 L295.3,406.4 L295.5,406.4 L295.8,406.4 L296.0,406.4 L296.2,406.4 
		L296.4,406.4 L296.6,406.4 L296.8,406.4 L297.0,406.4 L297.2,406.4 L297.4,406.4 L297.6,406.5 L297.8,406.5 
		L298.1,406.5 L298.3,406.5 L298.5,406.5 L298.7,406.5 L298.9,406.5 L299.1,406.5 L299.3,406.5 L299.5,406.5 
		L299.7,406.5 L299.9,406.5 L300.1,406.5 L300.4,406.5 L300.6,406.5 L300.8,406.5 L301.0,406.6 L301.2,406.6 
		L301.4,406.6 L301.6,406.6 L301.8,406.6 L302.0,406.5 L302.2,406.5 L302.5,406.5 L302.7,406.5 L302.9,406.5 
		L303.1,406.5 L303.3,406.5 L303.5,406.6 L303.7,406.6 L303.9,406.6 L304.1,406.6 L304.3,406.6 L304.5,406.6 
		L304.8,406.6 L305.0,406.7 L305.2,406.6 L305.4,406.6 L305.6,406.6 L305.8,406.6 L306.0,406.6 L306.2,406.6 
		L306.4,406.6 L306.6,406.8 L306.8,406.8 L307.1,406.8 L307.3,406.8 L307.5,406.8 L307.7,406.8 L307.9,406.8 
		L308.1,406.7 L308.3,406.7 L308.5,406.7 L308.7,406.6 L308.9,406.6 L309.2,406.6 L309.4,406.6 L309.6,406.6 
		L309.8,406.6 L310.0,406.6 L310.2,406.6 L310.4,406.6 L310.6,406.6 L310.8,406.6 L311.0,406.6 L311.2,406.6 
		L311.5,406.6 L311.7,406.7 L311.9,406.7 L312.1,406.7 L312.3,406.7 L312.5,406.7 L312.7,406.7 L312.9,406.7 
		L313.1,406.8 L313.3,406.7 L313.5,406.7 L313.8,406.7 L314.0,406.7 L314.2,406.7 L314.4,406.7 L314.6,406.7 
		L314.8,406.7 L315.0,406.7 L315.2,406.7 L315.4,406.7 L315.6,406.7 L315.8,406.7 L316.1,406.7 L316.3,406.7 
		L316.5,406.7 L316.7,406.7 L316.9,406.7 L317.1,406.7 L317.3,406.7 L317.5,406.7 L317.7,406.7 L317.9,406.7 
		L318.2,406.7 L318.4,406.7 L318.6,406.7 L318.8,406.7 L319.0,406.7 L319.2,406.7 L319.4,406.7 L319.6,406.7 
		L319.8,406.7 L320.0,406.7 L320.2,406.7 L320.5,406.7 L320.7,406.7 L320.9,407.0 L321.1,406.9 L321.3,406.9 
		L321.5,406.9 L321.7,406.9 L321.9,406.9 L322.1,407.0 L322.3,407.0 L322.5,407.0 L322.8,407.0 L323.0,407.0 
		L323.2,407.0 L323.4,407.0 L323.6,407.0 L323.8,407.0 L324.0,407.0 L324.2,407.0 L324.4,407.0 L324.6,406.9 
		L324.9,406.7 L325.1,406.7 L325.3,406.7 L325.5,406.7 L325.7,406.7 L325.9,406.7 L326.1,406.7 L326.3,406.7 
		L326.5,406.7 L326.7,406.7 L326.9,406.7 L327.2,406.7 L327.4,406.7 L327.6,406.7 L327.8,406.7 L328.0,406.7 
		L328.2,406.7 L328.4,406.7 L328.6,406.7 L328.8,406.7 L329.0,406.7 L329.2,406.9 L329.5,406.9 L329.7,406.9 
		L329.9,406.9 L330.1,406.9 L330.3,406.9 L330.5,406.8 L330.7,406.8 L330.9,406.8 L331.1,406.8 L331.3,406.8 
		L331.6,406.8 L331.8,406.8 L332.0,406.8 L332.2,406.8 L332.4,406.8 L332.6,406.8 L332.8,406.9 L333.0,406.8 
		L333.2,406.8 L333.4,406.8 L333.6,406.8 L333.9,406.8 L334.1,406.8 L334.3,406.8 L334.5,406.8 L334.7,406.8 
		L334.9,406.8 L335.1,406.8 L335.3,406.8 L335.5,406.8 L335.7,406.8 L335.9,406.8 L336.2,406.8 L336.4,406.8 
		L336.6,406.8 L336.8,406.8 L337.0,406.8 L337.2,406.8 L337.4,406.8 L337.6,406.8 L337.8,406.8 L338.0,406.8 
		L338.3,406.8 L338.5,406.8 L338.7,406.8 L338.9,406.8 L339.1,406.8 L339.3,406.8 L339.5,406.8 L339.7,406.8 
		L339.9,406.8 L340.1,406.8 L340.3,406.8 L340.6,406.8 L340.8,406.8 L341.0,406.8 L341.2,406.8 L341.4,406.8 
		L341.6,406.8 L341.8,407.0 L342.0,407.0 L342.2,407.0 L342.4,407.0 L342.6,407.0 L342.9,407.0 L343.1,407.0 
		L343.3,407.0 L343.5,407.0 L343.7,407.0 L343.9,407.0 L344.1,407.0 L344.3,407.0 L344.5,407.0 L344.7,407.0 
		L344.9,407.1 L345.2,407.1 L345.4,407.1 L345.6,407.1 L345.8,407.1 L346.0,407.1 L346.2,407.1 L346.4,407.1 
		L346.6,407.1 L346.8,407.1 L347.0,407.3 L347.3,407.3 L347.5,407.3 L347.7,407.3 L347.9,407.2 L348.1,407.2 
		L348.3,407.3 L348.5,407.2 L348.7,407.1 L348.9,407.1 L349.1,407.1 L349.3,407.1 L349.6,407.1 L349.8,407.1 
		L350.0,407.1 L350.2,407.1 L350.4,407.1 L350.6,407.1 L350.8,407.1 L351.0,407.1 L351.2,407.1 L351.4,407.0 
		L351.6,407.0 L351.9,407.0 L352.1,407.0 L352.3,407.0 L352.5,407.0 L352.7,407.0 L352.9,407.0 L353.1,407.0 
		L353.3,407.0 L353.5,407.0 L353.7,407.0 L354.0,407.0 L354.2,407.0 L354.4,407.0 L354.6,407.0 L354.8,407.0 
		L355.0,407.0 L355.2,407.0 L355.4,407.0 L355.6,407.0 L355.8,407.1 L356.0,407.1 L356.3,407.0 L356.5,407.0 
		L356.7,407.0 L356.9,407.0 L357.1,407.0 L357.3,407.0 L357.5,407.0 L357.7,407.0 L357.9,407.0 L358.1,407.1 
		L358.3,407.1 L358.6,407.1 L358.8,407.1 L359.0,407.1 L359.2,407.1 L359.4,407.1 L359.6,407.1 L359.8,407.1 
		L360.0,407.1 L360.2,407.1 L360.4,407.1 L360.7,407.1 L360.9,407.1 L361.1,407.1 L361.3,407.1 L361.5,407.1 
		L361.7,407.2 L361.9,407.2 L362.1,407.2 L362.3,407.2 L362.5,407.2 L362.7,407.2 L363.0,407.1 L363.2,407.1 
		L363.4,407.1 L363.6,407.1 L363.8,407.1 L364.0,407.1 L364.2,407.2 L364.4,407.2 L364.6,407.2 L364.8,407.2 
		L365.0,407.2 L365.3,407.2 L365.5,407.2 L365.7,407.2 L365.9,407.2 L366.1,407.2 L366.3,407.2 L366.5,407.2 
		L366.7,407.2 L366.9,407.2 L367.1,407.2 L367.4,407.3 L367.6,407.3 L367.8,407.3 L368.0,407.3 L368.2,407.3 
		L368.4,407.3 L368.6,407.3 L368.8,407.3 L369.0,407.2 L369.2,407.2 L369.4,407.2 L369.7,407.2 L369.9,407.2 
		L370.1,407.2 L370.3,407.2 L370.5,407.2 L370.7,407.2 L370.9,407.2 L371.1,407.2 L371.3,407.2 L371.5,407.2 
		L371.7,407.2 L372.0,407.2 L372.2,407.3 L372.4,407.3 L372.6,407.3 L372.8,407.3 L373.0,407.2 L373.2,407.1 
		L373.4,407.1 L373.6,407.1 L373.8,407.0 L374.0,407.0 L374.3,407.0 L374.5,407.0 L374.7,407.0 L374.9,407.0 
		L375.1,407.0 L375.3,407.1 L375.5,407.1 L375.7,407.1 L375.9,407.1 L376.1,407.1 L376.4,407.0 L376.6,407.0 
		L376.8,407.0 L377.0,407.0 L377.2,407.1 L377.4,407.1 L377.6,407.1 L377.8,407.1 L378.0,407.1 L378.2,407.1 
		L378.4,407.1 L378.7,407.1 L378.9,407.1 L379.1,407.1 L379.3,407.1 L379.5,407.1 L379.7,407.1 L379.9,407.1 
		L380.1,407.1 L380.3,407.1 L380.5,407.1 L380.7,407.1 L381.0,407.1 L381.2,407.1 L381.4,407.1 L381.6,407.1 
		L381.8,407.0 L382.0,406.9 L382.2,406.9 L382.4,406.9 L382.6,406.9 L382.8,406.9 L383.1,407.0 L383.3,407.0 
		L383.5,407.0 L383.7,407.0 L383.9,407.0 L384.1,407.0 L384.3,406.9 L384.5,406.9 L384.7,406.9 L384.9,406.9 
		L385.1,406.9 L385.4,406.9 L385.6,406.9 L385.8,407.0 L386.0,407.0 L386.2,406.9 L386.4,406.9 L386.6,406.9 
		L386.8,406.9 L387.0,406.9 L387.2,406.9 L387.4,406.9 L387.7,406.9 L387.9,406.9 L388.1,406.9 L388.3,406.9 
		L388.5,406.9 L388.7,406.9 L388.9,406.9 L389.1,406.8 L389.3,406.7 L389.5,406.7 L389.8,406.7 L390.0,406.7 
		L390.2,406.7 L390.4,406.7 L390.6,406.7 L390.8,406.8 L391.0,406.7 L391.2,406.7 L391.4,406.7 L391.6,406.7 
		L391.8,406.8 L392.1,406.8 L392.3,406.8 L392.5,406.8 L392.7,406.7 L392.9,406.7 L393.1,406.7 L393.3,406.7 
		L393.5,406.7 L393.7,406.7 L393.9,406.7 L394.1,406.8 L394.4,406.8 L394.6,406.8 L394.8,406.8 L395.0,406.8 
		L395.2,406.8 L395.4,406.8 L395.6,406.7 L395.8,406.7 L396.0,406.7 L396.2,406.7 L396.4,406.7 L396.7,406.8 
		L396.9,406.8 L397.1,406.8 L397.3,406.8 L397.5,406.7 L397.7,406.7 L397.9,406.7 L398.1,406.7 L398.3,406.7 
		L398.5,406.7 L398.8,406.7 L399.0,406.7 L399.2,406.7 L399.4,406.7 L399.6,406.7 L399.8,406.7 L400.0,406.7 
		L400.2,406.7 L400.4,406.7 L400.6,406.6 L400.8,406.6 L401.1,406.6 L401.3,406.6 L401.5,406.6 L401.7,406.6 
		L401.9,406.6 L402.1,406.7 L402.3,406.7 L402.5,406.7 L402.7,406.7 L402.9,406.7 L403.1,406.7 L403.4,406.7 
		L403.6,406.7 L403.8,406.7 L404.0,406.7 L404.2,406.7 L404.4,406.7 L404.6,406.7 L404.8,406.7 L405.0,406.7 
		L405.2,406.7 L405.5,406.7 L405.7,406.7 L405.9,406.7 L406.1,406.7 L406.3,406.7 L406.5,406.7 L406.7,406.7 
		L406.9,406.7 L407.1,406.7 L407.3,406.7 L407.5,406.7 L407.8,406.7 L408.0,406.7 L408.2,406.7 L408.4,406.7 
		L408.6,406.7 L408.8,406.7 L409.0,406.7 L409.2,406.7 L409.4,406.8 L409.6,406.8 L409.8,406.8 L410.1,406.8 
		L410.3,406.8 L410.5,406.8 L410.7,406.8 L410.9,406.8 L411.1,406.8 L411.3,406.8 L411.5,406.8 L411.7,406.8 
		L411.9,406.8 L412.2,406.8 L412.4,406.8 L412.6,406.8 L412.8,406.8 L413.0,406.8 L413.2,406.8 L413.4,406.8 
		L413.6,406.8 L413.8,406.8 L414.0,406.8 L414.2,406.8 L414.5,406.8 L414.7,406.8 L414.9,406.8 L415.1,406.8 
		L415.3,406.8 L415.5,406.8 L415.7,406.8 L415.9,406.8 L416.1,406.8 L416.3,406.8 L416.5,406.8 L416.8,406.8 
		L417.0,406.9 L417.2,406.9 L417.4,406.9 L417.6,406.9 L417.8,406.9 L418.0,406.9 L418.2,406.9 L418.4,406.9 
		L418.6,406.9 L418.9,406.9 L419.1,406.9 L419.3,406.9 L419.5,406.9 L419.7,406.9 L419.9,406.9 L420.1,406.9 
		L420.3,406.9 L420.5,406.9 L420.7,406.9 L420.9,406.9 L421.2,406.9 L421.4,406.9 L421.6,406.9 L421.8,406.9 
		L422.0,406.8 L422.2,406.8 L422.4,406.8 L422.6,406.8 L422.8,406.8 L423.0,406.8 L423.2,406.8 L423.5,406.8 
		L423.7,406.8 L423.9,406.8 L424.1,406.8 L424.3,406.8 L424.5,406.8 L424.7,406.8 L424.9,406.8 L425.1,406.8 
		L425.3,406.8 L425.5,406.8 L425.8,406.8 L426.0,406.8 L426.2,406.7 L426.4,406.6 L426.6,406.6 L426.8,406.6 
		L427.0,406.5 L427.2,406.5 L427.4,406.5 L427.6,406.5 L427.9,406.5 L428.1,406.5 L428.3,406.5 L428.5,406.5 
		L428.7,406.6 L428.9,406.6 L429.1,406.6 L429.3,406.6 L429.5,406.6 L429.7,406.6 L429.9,406.6 L430.2,406.6 
		L430.4,406.6 L430.6,406.6 L430.8,406.6 L431.0,406.6 L431.2,406.6 L431.4,406.6 L431.6,406.6 L431.8,406.6 
		L432.0,406.6 L432.2,406.6 L432.5,406.6 L432.7,406.6 L432.9,406.6 L433.1,406.6 L433.3,406.6 L433.5,406.6 
		L433.7,406.6 L433.9,406.6 L434.1,406.6 L434.3,406.8 L434.6,406.7 L434.8,406.6 L435.0,406.6 L435.2,406.6 
		L435.4,406.6 L435.6,406.6 L435.8,406.6 L436.0,406.6 L436.2,406.6 L436.4,406.6 L436.6,406.6 L436.9,406.6 
		L437.1,406.6 L437.3,406.6 L437.5,406.6 L437.7,406.6 L437.9,406.6 L438.1,406.6 L438.3,406.6 L438.5,406.6 
		L438.7,406.6 L438.9,406.6 L439.2,406.6 L439.4,406.6 L439.6,406.6 L439.8,406.6 L440.0,406.5 L440.2,406.5 
		L440.4,406.5 L440.6,406.5 L440.8,406.5 L441.0,406.5 L441.3,406.5 L441.5,406.5 L441.7,406.5 L441.9,406.5 
		L442.1,406.5 L442.3,406.5 L442.5,406.5 L442.7,406.5 L442.9,406.5 L443.1,406.5 L443.3,406.5 L443.6,406.5 
		L443.8,406.5 L444.0,406.5 L444.2,406.5 L444.4,406.5 L444.6,406.6 L444.8,406.5 L445.0,406.5 L445.2,406.5 
		L445.4,406.6 L445.6,406.6 L445.9,406.6 L446.1,406.6 L446.3,406.4 L446.5,406.4 L446.7,406.4 L446.9,406.4 
		L447.1,406.4 L447.3,406.4 L447.5,406.4 L447.7,406.4 L447.9,406.4 L448.2,406.4 L448.4,406.4 L448.6,406.4 
		L448.8,406.4 L449.0,406.4 L449.2,406.4 L449.4,406.3 L449.6,406.3 L449.8,406.3 L450.0,406.3 L450.3,406.3 
		L450.5,406.3 L450.7,406.3 L450.9,406.3 L451.1,406.3 L451.3,406.3 L451.5,406.3 L451.7,406.3 L451.9,406.3 
		L452.1,406.3 L452.3,406.4 L452.6,406.4 L452.8,406.4 L453.0,406.4 L453.2,406.4 L453.4,406.4 L453.6,406.4 
		L453.8,406.4 L454.0,406.4 L454.2,406.4 L454.4,406.4 L454.6,406.4 L454.9,406.4 L455.1,406.4 L455.3,406.4 
		L455.5,406.4 L455.7,406.4 L455.9,406.4 L456.1,406.4 L456.3,406.4 L456.5,406.5 L456.7,406.5 L457.0,406.4 
		L457.2,406.4 L457.4,406.4 L457.6,406.4 L457.8,406.4 L458.0,406.4 L458.2,406.4 L458.4,406.4 L458.6,406.4 
		L458.8,406.4 L459.0,406.4 L459.3,406.4 L459.5,406.4 L459.7,406.4 L459.9,406.4 L460.1,406.4 L460.3,406.4 
		L460.5,406.4 L460.7,406.4 L460.9,406.4 L461.1,406.4 L461.3,406.4 L461.6,406.4 L461.8,406.4 L462.0,406.4 
		L462.2,406.4 L462.4,406.4 L462.6,406.4 L462.8,406.4 L463.0,406.4 L463.2,406.4 L463.4,406.4 L463.7,406.4 
		L463.9,406.4 L464.1,406.5 L464.3,406.5 L464.5,406.5 L464.7,406.4 L464.9,406.4 L465.1,406.4 L465.3,406.4 
		L465.5,406.4 L465.7,406.4 L466.0,406.5 L466.2,406.5 L466.4,406.5 L466.6,406.5 L466.8,406.5 L467.0,406.5 
		L467.2,406.5 L467.4,406.5 L467.6,406.5 L467.8,406.5 L468.0,406.5 L468.3,406.5 L468.5,406.5 L468.7,406.5 
		L468.9,406.5 L469.1,406.5 L469.3,406.5 L469.5,406.5 L469.7,406.5 L469.9,406.5 L470.1,406.5 L470.4,406.5 
		L470.6,406.5 L470.8,406.5 L471.0,406.5 L471.2,406.5 L471.4,406.5 L471.6,406.5 L471.8,406.5 L472.0,406.5 
		L472.2,406.5 L472.4,406.5 L472.7,406.5 L472.9,406.5 L473.1,406.5 L473.3,406.5 L473.5,406.5 L473.7,406.5 
		L473.9,406.5 L474.1,406.5 L474.3,406.5 L474.5,406.5 L474.7,406.5 L475.0,406.5 L475.2,406.5 L475.4,406.5 
		L475.6,406.5 L475.8,406.4 L476.0,406.4 L476.2,406.4 L476.4,406.4 L476.6,406.5 L476.8,406.5 L477.0,406.5 
		L477.3,406.5 L477.5,406.5 L477.7,406.5 L477.9,406.5 L478.1,406.5 L478.3,406.5 L478.5,406.5 L478.7,406.5 
		L478.9,406.5 L479.1,406.6 L479.4,406.6 L479.6,406.6 L479.8,406.6 L480.0,406.6 L480.2,406.6 L480.4,406.6 
		L480.6,406.6 L480.8,406.6 L481.0,406.6 L481.2,406.6 L481.4,406.6 L481.7,406.6 L481.9,406.6 L482.1,406.6 
		L482.3,406.6 L482.5,406.6 L482.7,406.6 L482.9,406.6 L483.1,406.6 L483.3,406.6 L483.5,406.6 L483.7,406.6 
		L484.0,406.6 L484.2,406.6 L484.4,406.6 L484.6,406.6 L484.8,406.6 L485.0,406.6 L485.2,406.6 L485.4,406.6 
		L485.6,406.6 L485.8,406.7 L486.1,406.5 L486.3,406.5 L486.5,406.5 L486.7,406.5 L486.9,406.5 L487.1,406.5 
		L487.3,406.5 L487.5,406.5 L487.7,406.5 L487.9,406.5 L488.1,406.5 L488.4,406.5 L488.6,406.5 L488.8,406.5 
		L489.0,406.5 L489.2,406.5 L489.4,406.5 L489.6,406.5 L489.8,406.5 L490.0,406.5 L490.2,406.5 L490.4,406.5 
		L490.7,406.5 L490.9,406.5 L491.1,406.5 L491.3,406.5 L491.5,406.5 L491.7,406.5 L491.9,406.5 L492.1,406.5 
		L492.3,406.5 L492.5,406.5 L492.8,406.5 L493.0,406.5 L493.2,406.4 L493.4,406.4 L493.6,406.4 L493.8,406.4 
		L494.0,406.4 L494.2,406.4 L494.4,406.4 L494.6,406.4 L494.8,406.4 L495.1,406.4 L495.3,406.4 L495.5,406.4 
		L495.7,406.4 L495.9,406.4 L496.1,406.4 L496.3,406.4 L496.5,406.4 L496.7,406.4 L496.9,406.4 L497.1,406.4 
		L497.4,406.5 L497.6,406.5 L497.8,406.5 L498.0,406.5 L498.2,406.5 L498.4,406.5 L498.6,406.5 L498.8,406.5 
		L499.0,406.5 L499.2,406.5 L499.4,406.5 L499.7,406.5 L499.9,406.5 L500.1,406.5 L500.3,406.5 L500.5,406.5 
		L500.7,406.5 L500.9,406.5 L501.1,406.5 L501.3,406.5 L501.5,406.5 L501.8,406.5 L502.0,406.5 L502.2,406.5 
		L502.4,406.5 L502.6,406.4 L502.8,406.4 L503.0,406.4 L503.2,406.4 L503.4,406.4 L503.6,406.4 L503.8,406.4 
		L504.1,406.4 L504.3,406.4 L504.5,406.4 L504.7,406.5 L504.9,406.5 L505.1,406.5 L505.3,406.5 L505.5,406.5 
		L505.7,406.5 L505.9,406.5 L506.1,406.5 L506.4,406.5 L506.6,406.5 L506.8,406.5 L507.0,406.5 L507.2,406.5 
		 h0.01'/></g>
	</g>
	<g id="gnuplot_plot_3" ><title>gnuplot_plot_3</title>
<g style="fill:none; color:blue; stroke:currentColor; stroke-width:1.00; stroke-linecap:butt; stroke-linejoin:miter">
	<g transform="translate(440.1,408.9)" style="stroke:none; fill:black; font-family:Arial; font-size:12.00pt; text-anchor:end">
		<text>TCP UL Delay</text>
	</g>
	<path  d='M448.4,404.4 L490.6,404.4 M88.5,400.6 L88.7,404.1 L88.9,394.7 L89.1,404.3 L89.3,403.4 L89.6,402.7 
		L89.8,394.8 L90.0,394.8 L90.2,378.0 L90.4,379.2 L90.6,375.6 L90.8,369.2 L91.0,367.0 L91.2,367.0 
		L91.5,367.0 L91.7,367.0 L91.9,367.0 L92.1,367.0 L92.3,367.0 L92.5,358.1 L92.7,358.1 L92.9,358.1 
		L93.1,338.5 L93.3,338.5 L93.6,338.5 L93.8,338.5 L94.0,338.5 L94.2,338.5 L94.4,338.5 L94.6,334.2 
		L94.8,235.8 L95.0,235.8 L95.2,217.3 L95.5,217.3 L95.7,188.7 L95.9,155.8 L96.1,155.8 L96.3,155.8 
		L96.5,155.8 L96.7,155.8 L96.9,155.8 L97.1,148.0 L97.3,74.9 L97.6,74.2 L97.8,74.2 L98.0,74.2 
		L98.2,74.2 L98.4,72.2 L98.6,72.2 L98.8,70.8 L99.0,65.1 L99.2,65.1 L99.5,65.1 L99.7,65.1 
		L99.9,65.1 L100.1,58.3 L100.3,78.1 L100.5,78.1 L100.7,78.1 L100.9,80.1 L101.1,80.1 L101.3,80.1 
		L101.6,80.1 L101.8,80.1 L102.0,80.7 L102.2,80.7 L102.4,80.2 L102.6,92.4 L102.8,94.3 L103.0,94.3 
		L103.2,94.3 L103.5,94.3 L103.7,94.3 L103.9,94.5 L104.1,121.9 L104.3,128.5 L104.5,128.5 L104.7,128.5 
		L104.9,128.5 L105.1,128.5 L105.3,128.5 L105.6,129.3 L105.8,129.3 L106.0,129.3 L106.2,129.3 L106.4,129.1 
		L106.6,132.8 L106.8,137.0 L107.0,142.2 L107.2,142.2 L107.5,147.4 L107.7,147.4 L107.9,148.2 L108.1,149.9 
		L108.3,152.2 L108.5,153.0 L108.7,153.0 L108.9,153.0 L109.1,153.0 L109.4,153.0 L109.6,153.0 L109.8,152.9 
		L110.0,152.6 L110.2,151.7 L110.4,158.0 L110.6,158.0 L110.8,158.0 L111.0,158.0 L111.2,158.0 L111.5,158.0 
		L111.7,158.0 L111.9,158.0 L112.1,158.0 L112.3,158.0 L112.5,158.0 L112.7,158.0 L112.9,151.0 L113.1,151.6 
		L113.4,154.8 L113.6,154.8 L113.8,154.8 L114.0,154.8 L114.2,154.8 L114.4,155.6 L114.6,157.0 L114.8,157.0 
		L115.0,157.0 L115.2,157.0 L115.5,157.0 L115.7,157.0 L115.9,157.0 L116.1,157.0 L116.3,157.0 L116.5,157.0 
		L116.7,157.0 L116.9,157.0 L117.1,157.0 L117.4,155.2 L117.6,155.2 L117.8,155.2 L118.0,155.2 L118.2,155.2 
		L118.4,154.0 L118.6,154.0 L118.8,154.0 L119.0,154.0 L119.2,154.0 L119.5,154.0 L119.7,157.3 L119.9,158.5 
		L120.1,161.0 L120.3,164.0 L120.5,164.0 L120.7,164.2 L120.9,168.9 L121.1,168.9 L121.4,168.9 L121.6,168.9 
		L121.8,168.9 L122.0,168.9 L122.2,168.9 L122.4,168.9 L122.6,168.9 L122.8,168.9 L123.0,168.9 L123.3,168.7 
		L123.5,166.7 L123.7,166.7 L123.9,166.7 L124.1,166.7 L124.3,167.0 L124.5,167.2 L124.7,170.9 L124.9,170.9 
		L125.1,170.9 L125.4,170.9 L125.6,170.9 L125.8,170.9 L126.0,170.9 L126.2,171.1 L126.4,172.4 L126.6,172.6 
		L126.8,174.3 L127.0,174.3 L127.3,174.3 L127.5,174.3 L127.7,176.4 L127.9,178.1 L128.1,178.1 L128.3,178.1 
		L128.5,178.7 L128.7,178.7 L128.9,178.7 L129.2,178.7 L129.4,179.2 L129.6,180.2 L129.8,180.2 L130.0,180.2 
		L130.2,181.0 L130.4,182.4 L130.6,182.4 L130.8,182.4 L131.0,182.4 L131.3,182.4 L131.5,184.7 L131.7,184.9 
		L131.9,184.9 L132.1,184.9 L132.3,184.9 L132.5,188.0 L132.7,188.0 L132.9,188.0 L133.2,188.0 L133.4,188.0 
		L133.6,188.0 L133.8,188.0 L134.0,188.0 L134.2,188.0 L134.4,188.0 L134.6,188.0 L134.8,188.0 L135.0,188.0 
		L135.3,188.0 L135.5,188.0 L135.7,188.0 L135.9,188.0 L136.1,188.0 L136.3,188.0 L136.5,188.0 L136.7,187.0 
		L136.9,183.2 L137.2,183.2 L137.4,183.2 L137.6,183.3 L137.8,184.3 L138.0,184.3 L138.2,184.9 L138.4,184.9 
		L138.6,184.9 L138.8,184.9 L139.1,184.9 L139.3,184.9 L139.5,185.5 L139.7,185.5 L139.9,185.5 L140.1,185.5 
		L140.3,185.5 L140.5,185.5 L140.7,185.5 L140.9,185.5 L141.2,185.5 L141.4,185.5 L141.6,185.5 L141.8,185.6 
		L142.0,185.6 L142.2,185.6 L142.4,185.6 L142.6,185.6 L142.8,185.9 L143.1,186.6 L143.3,186.6 L143.5,186.6 
		L143.7,186.6 L143.9,187.2 L144.1,188.5 L144.3,189.5 L144.5,190.5 L144.7,191.7 L144.9,191.7 L145.2,191.7 
		L145.4,191.7 L145.6,192.4 L145.8,193.2 L146.0,193.8 L146.2,193.8 L146.4,193.8 L146.6,193.8 L146.8,194.3 
		L147.1,194.3 L147.3,194.3 L147.5,194.3 L147.7,194.3 L147.9,194.4 L148.1,196.7 L148.3,196.7 L148.5,196.7 
		L148.7,196.7 L149.0,196.7 L149.2,196.7 L149.4,198.3 L149.6,198.3 L149.8,198.8 L150.0,198.8 L150.2,198.8 
		L150.4,198.8 L150.6,198.8 L150.8,198.8 L151.1,198.8 L151.3,198.3 L151.5,203.8 L151.7,205.2 L151.9,209.6 
		L152.1,209.6 L152.3,209.6 L152.5,209.9 L152.7,210.8 L153.0,212.5 L153.2,214.9 L153.4,214.9 L153.6,214.9 
		L153.8,214.9 L154.0,215.4 L154.2,215.4 L154.4,215.4 L154.6,215.2 L154.8,215.2 L155.1,215.6 L155.3,215.6 
		L155.5,215.6 L155.7,215.6 L155.9,215.6 L156.1,215.5 L156.3,216.4 L156.5,216.4 L156.7,216.4 L157.0,221.2 
		L157.2,221.2 L157.4,221.2 L157.6,221.2 L157.8,221.6 L158.0,221.6 L158.2,221.6 L158.4,221.4 L158.6,221.4 
		L158.8,221.4 L159.1,221.4 L159.3,221.4 L159.5,221.4 L159.7,221.0 L159.9,221.0 L160.1,221.0 L160.3,220.7 
		L160.5,220.7 L160.7,222.8 L161.0,225.8 L161.2,231.6 L161.4,231.9 L161.6,231.9 L161.8,231.9 L162.0,231.9 
		L162.2,231.9 L162.4,231.9 L162.6,231.7 L162.9,231.7 L163.1,231.7 L163.3,231.7 L163.5,231.7 L163.7,230.7 
		L163.9,230.4 L164.1,230.4 L164.3,230.4 L164.5,230.4 L164.7,230.4 L165.0,228.7 L165.2,228.7 L165.4,228.7 
		L165.6,225.7 L165.8,227.3 L166.0,230.1 L166.2,230.1 L166.4,230.1 L166.6,230.1 L166.9,230.1 L167.1,230.1 
		L167.3,230.1 L167.5,230.1 L167.7,230.1 L167.9,230.1 L168.1,229.8 L168.3,231.2 L168.5,231.4 L168.7,231.4 
		L169.0,231.4 L169.2,231.4 L169.4,231.4 L169.6,231.4 L169.8,231.4 L170.0,231.4 L170.2,231.4 L170.4,231.4 
		L170.6,232.0 L170.9,232.3 L171.1,232.3 L171.3,232.3 L171.5,232.7 L171.7,232.7 L171.9,232.7 L172.1,232.7 
		L172.3,232.7 L172.5,232.7 L172.7,233.1 L173.0,233.1 L173.2,233.1 L173.4,233.1 L173.6,233.1 L173.8,233.1 
		L174.0,233.1 L174.2,233.1 L174.4,233.1 L174.6,233.1 L174.9,233.4 L175.1,233.4 L175.3,233.4 L175.5,233.4 
		L175.7,233.4 L175.9,233.5 L176.1,233.7 L176.3,233.7 L176.5,233.9 L176.8,234.4 L177.0,234.6 L177.2,234.6 
		L177.4,234.6 L177.6,234.6 L177.8,234.6 L178.0,234.6 L178.2,234.7 L178.4,235.1 L178.6,235.4 L178.9,235.7 
		L179.1,235.8 L179.3,235.8 L179.5,236.3 L179.7,236.3 L179.9,236.3 L180.1,236.3 L180.3,236.3 L180.5,236.8 
		L180.8,236.8 L181.0,236.8 L181.2,236.8 L181.4,236.8 L181.6,237.2 L181.8,237.2 L182.0,238.0 L182.2,238.0 
		L182.4,238.8 L182.6,238.8 L182.9,238.8 L183.1,238.8 L183.3,238.8 L183.5,238.8 L183.7,238.8 L183.9,239.0 
		L184.1,239.0 L184.3,239.0 L184.5,239.0 L184.8,239.0 L185.0,239.0 L185.2,239.6 L185.4,239.6 L185.6,239.6 
		L185.8,239.6 L186.0,239.6 L186.2,239.7 L186.4,239.9 L186.7,239.9 L186.9,239.9 L187.1,239.9 L187.3,239.9 
		L187.5,239.9 L187.7,239.9 L187.9,239.9 L188.1,240.1 L188.3,240.5 L188.5,240.8 L188.8,240.8 L189.0,241.5 
		L189.2,241.5 L189.4,241.7 L189.6,241.7 L189.8,241.7 L190.0,241.7 L190.2,241.7 L190.4,241.7 L190.7,241.7 
		L190.9,241.4 L191.1,241.4 L191.3,241.4 L191.5,241.4 L191.7,241.7 L191.9,241.9 L192.1,241.9 L192.3,241.9 
		L192.5,242.0 L192.8,242.2 L193.0,242.2 L193.2,242.2 L193.4,242.3 L193.6,242.5 L193.8,242.5 L194.0,242.7 
		L194.2,242.7 L194.4,242.7 L194.7,242.7 L194.9,242.7 L195.1,242.7 L195.3,242.7 L195.5,242.7 L195.7,242.9 
		L195.9,242.9 L196.1,242.9 L196.3,242.9 L196.5,242.9 L196.8,242.9 L197.0,242.9 L197.2,242.9 L197.4,242.9 
		L197.6,243.1 L197.8,243.3 L198.0,243.3 L198.2,243.7 L198.4,243.7 L198.7,243.7 L198.9,243.7 L199.1,243.7 
		L199.3,243.7 L199.5,243.6 L199.7,243.9 L199.9,243.9 L200.1,243.9 L200.3,243.9 L200.6,243.9 L200.8,243.9 
		L201.0,243.9 L201.2,243.9 L201.4,243.9 L201.6,243.9 L201.8,243.8 L202.0,243.8 L202.2,243.8 L202.4,243.8 
		L202.7,243.8 L202.9,243.8 L203.1,243.8 L203.3,243.8 L203.5,243.8 L203.7,243.4 L203.9,243.9 L204.1,244.2 
		L204.3,244.2 L204.6,244.2 L204.8,244.9 L205.0,244.9 L205.2,244.9 L205.4,244.9 L205.6,245.6 L205.8,245.6 
		L206.0,246.1 L206.2,247.0 L206.4,247.4 L206.7,247.8 L206.9,247.8 L207.1,248.4 L207.3,248.9 L207.5,248.9 
		L207.7,250.0 L207.9,250.0 L208.1,250.0 L208.3,250.0 L208.6,250.0 L208.8,250.1 L209.0,252.2 L209.2,253.7 
		L209.4,253.7 L209.6,253.7 L209.8,253.7 L210.0,253.7 L210.2,254.2 L210.4,255.0 L210.7,255.2 L210.9,255.2 
		L211.1,255.5 L211.3,255.7 L211.5,255.7 L211.7,256.2 L211.9,256.2 L212.1,256.2 L212.3,256.3 L212.6,256.3 
		L212.8,256.3 L213.0,256.3 L213.2,256.3 L213.4,256.3 L213.6,256.3 L213.8,256.3 L214.0,256.3 L214.2,255.9 
		L214.5,255.9 L214.7,255.9 L214.9,255.9 L215.1,255.9 L215.3,255.9 L215.5,255.9 L215.7,255.9 L215.9,255.8 
		L216.1,256.2 L216.3,256.2 L216.6,256.5 L216.8,256.5 L217.0,256.9 L217.2,256.9 L217.4,256.9 L217.6,257.0 
		L217.8,257.0 L218.0,257.0 L218.2,257.0 L218.5,257.6 L218.7,257.6 L218.9,257.6 L219.1,258.6 L219.3,258.6 
		L219.5,258.6 L219.7,258.6 L219.9,258.6 L220.1,258.6 L220.3,258.6 L220.6,258.6 L220.8,258.6 L221.0,258.8 
		L221.2,259.0 L221.4,259.0 L221.6,259.2 L221.8,259.2 L222.0,259.2 L222.2,259.2 L222.5,259.2 L222.7,259.2 
		L222.9,259.2 L223.1,259.2 L223.3,259.3 L223.5,259.3 L223.7,259.3 L223.9,259.3 L224.1,259.3 L224.4,259.3 
		L224.6,259.3 L224.8,259.3 L225.0,259.3 L225.2,259.3 L225.4,259.3 L225.6,259.3 L225.8,259.3 L226.0,259.3 
		L226.2,259.3 L226.5,259.3 L226.7,259.3 L226.9,259.3 L227.1,259.3 L227.3,259.3 L227.5,259.3 L227.7,258.7 
		L227.9,258.7 L228.1,258.7 L228.4,258.7 L228.6,258.7 L228.8,258.7 L229.0,258.7 L229.2,258.7 L229.4,258.7 
		L229.6,258.7 L229.8,258.7 L230.0,258.9 L230.2,259.2 L230.5,259.5 L230.7,259.5 L230.9,259.5 L231.1,259.5 
		L231.3,259.5 L231.5,259.5 L231.7,259.5 L231.9,259.9 L232.1,259.9 L232.4,259.9 L232.6,260.4 L232.8,260.7 
		L233.0,260.7 L233.2,260.7 L233.4,260.7 L233.6,260.7 L233.8,260.8 L234.0,260.8 L234.2,260.8 L234.5,260.8 
		L234.7,260.8 L234.9,260.8 L235.1,261.2 L235.3,261.2 L235.5,261.2 L235.7,261.6 L235.9,262.0 L236.1,262.0 
		L236.4,262.0 L236.6,262.0 L236.8,262.4 L237.0,262.4 L237.2,262.4 L237.4,262.4 L237.6,262.4 L237.8,262.4 
		L238.0,262.3 L238.3,262.3 L238.5,262.3 L238.7,262.3 L238.9,262.3 L239.1,262.3 L239.3,262.3 L239.5,262.1 
		L239.7,262.6 L239.9,263.3 L240.1,263.9 L240.4,263.9 L240.6,263.9 L240.8,263.9 L241.0,263.9 L241.2,263.9 
		L241.4,263.9 L241.6,263.9 L241.8,263.4 L242.0,263.8 L242.3,263.8 L242.5,263.8 L242.7,264.0 L242.9,264.0 
		L243.1,264.2 L243.3,264.2 L243.5,264.2 L243.7,265.6 L243.9,266.0 L244.1,266.0 L244.4,266.0 L244.6,267.1 
		L244.8,267.5 L245.0,267.5 L245.2,268.3 L245.4,269.3 L245.6,270.6 L245.8,270.6 L246.0,270.8 L246.2,271.0 
		L246.5,271.0 L246.7,271.0 L246.9,271.0 L247.1,271.3 L247.3,271.3 L247.5,271.3 L247.7,272.6 L247.9,273.4 
		L248.1,273.4 L248.4,273.8 L248.6,273.8 L248.8,273.8 L249.0,275.4 L249.2,275.4 L249.4,275.4 L249.6,275.5 
		L249.8,275.5 L250.0,275.4 L250.3,275.4 L250.5,275.1 L250.7,275.1 L250.9,275.1 L251.1,275.1 L251.3,274.6 
		L251.5,274.5 L251.7,274.5 L251.9,274.5 L252.1,274.5 L252.4,274.5 L252.6,274.5 L252.8,274.5 L253.0,274.5 
		L253.2,274.5 L253.4,273.9 L253.6,273.9 L253.8,273.9 L254.0,273.9 L254.3,273.9 L254.5,273.9 L254.7,273.9 
		L254.9,273.9 L255.1,273.9 L255.3,273.9 L255.5,273.9 L255.7,273.9 L255.9,273.9 L256.1,273.9 L256.4,273.9 
		L256.6,273.9 L256.8,273.9 L257.0,272.8 L257.2,272.5 L257.4,268.6 L257.6,268.6 L257.8,268.6 L258.0,268.6 
		L258.3,268.6 L258.5,268.6 L258.7,268.6 L258.9,268.6 L259.1,268.6 L259.3,267.1 L259.5,267.1 L259.7,267.2 
		L259.9,267.7 L260.2,267.7 L260.4,267.7 L260.6,267.7 L260.8,267.6 L261.0,268.2 L261.2,268.2 L261.4,268.2 
		L261.6,268.2 L261.8,268.2 L262.0,268.2 L262.3,268.2 L262.5,268.2 L262.7,267.3 L262.9,267.6 L263.1,267.8 
		L263.3,269.0 L263.5,269.0 L263.7,269.2 L263.9,269.2 L264.2,269.2 L264.4,269.2 L264.6,269.2 L264.8,269.2 
		L265.0,269.2 L265.2,267.9 L265.4,267.9 L265.6,267.9 L265.8,267.9 L266.0,267.9 L266.3,267.2 L266.5,267.2 
		L266.7,267.2 L266.9,266.5 L267.1,266.5 L267.3,266.5 L267.5,266.1 L267.7,266.1 L267.9,266.1 L268.2,266.6 
		L268.4,266.9 L268.6,267.2 L268.8,267.7 L269.0,267.7 L269.2,267.7 L269.4,267.8 L269.6,268.2 L269.8,268.2 
		L270.0,268.4 L270.3,268.4 L270.5,268.4 L270.7,268.4 L270.9,268.4 L271.1,268.8 L271.3,268.8 L271.5,268.8 
		L271.7,268.9 L271.9,269.4 L272.2,269.4 L272.4,269.5 L272.6,269.7 L272.8,269.7 L273.0,269.7 L273.2,269.8 
		L273.4,269.8 L273.6,269.8 L273.8,269.8 L274.1,269.8 L274.3,269.8 L274.5,269.8 L274.7,269.8 L274.9,269.6 
		L275.1,269.6 L275.3,269.8 L275.5,270.1 L275.7,270.1 L275.9,270.1 L276.2,270.1 L276.4,270.3 L276.6,270.3 
		L276.8,270.3 L277.0,270.3 L277.2,271.0 L277.4,271.3 L277.6,271.3 L277.8,271.3 L278.1,271.5 L278.3,271.5 
		L278.5,271.5 L278.7,271.5 L278.9,271.5 L279.1,271.5 L279.3,271.5 L279.5,271.1 L279.7,271.5 L279.9,271.8 
		L280.2,272.2 L280.4,272.8 L280.6,272.8 L280.8,272.8 L281.0,272.8 L281.2,272.8 L281.4,272.7 L281.6,274.1 
		L281.8,274.1 L282.1,274.3 L282.3,274.3 L282.5,274.3 L282.7,274.3 L282.9,274.1 L283.1,274.6 L283.3,274.7 
		L283.5,274.7 L283.7,274.7 L283.9,274.7 L284.2,274.7 L284.4,274.7 L284.6,274.4 L284.8,274.5 L285.0,274.5 
		L285.2,274.7 L285.4,276.2 L285.6,276.2 L285.8,276.3 L286.1,276.4 L286.3,276.4 L286.5,276.4 L286.7,276.4 
		L286.9,276.2 L287.1,277.3 L287.3,277.3 L287.5,277.3 L287.7,277.3 L288.0,277.3 L288.2,277.3 L288.4,277.3 
		L288.6,277.3 L288.8,277.3 L289.0,277.3 L289.2,277.3 L289.4,277.3 L289.6,277.3 L289.8,277.3 L290.1,274.9 
		L290.3,274.9 L290.5,274.9 L290.7,274.9 L290.9,274.9 L291.1,274.9 L291.3,274.9 L291.5,274.9 L291.7,274.9 
		L292.0,274.9 L292.2,274.9 L292.4,274.9 L292.6,272.5 L292.8,272.5 L293.0,272.5 L293.2,272.5 L293.4,272.5 
		L293.6,272.3 L293.8,272.6 L294.1,272.6 L294.3,272.8 L294.5,272.8 L294.7,272.8 L294.9,272.8 L295.1,272.8 
		L295.3,272.8 L295.5,272.8 L295.7,272.8 L296.0,272.8 L296.2,272.8 L296.4,272.6 L296.6,272.6 L296.8,272.6 
		L297.0,272.6 L297.2,272.6 L297.4,272.6 L297.6,272.6 L297.9,272.6 L298.1,272.6 L298.3,272.8 L298.5,272.9 
		L298.7,272.9 L298.9,272.9 L299.1,272.9 L299.3,272.9 L299.5,272.9 L299.7,272.9 L300.0,272.9 L300.2,272.9 
		L300.4,272.9 L300.6,272.9 L300.8,273.0 L301.0,273.1 L301.2,273.3 L301.4,273.3 L301.6,273.5 L301.9,273.5 
		L302.1,273.5 L302.3,273.5 L302.5,273.5 L302.7,273.5 L302.9,273.5 L303.1,273.5 L303.3,273.5 L303.5,273.5 
		L303.7,273.1 L304.0,272.9 L304.2,272.9 L304.4,272.9 L304.6,272.9 L304.8,272.9 L305.0,272.9 L305.2,272.9 
		L305.4,272.7 L305.6,272.7 L305.9,272.7 L306.1,272.7 L306.3,272.7 L306.5,272.7 L306.7,272.7 L306.9,272.7 
		L307.1,272.8 L307.3,272.9 L307.5,273.4 L307.7,273.4 L308.0,273.4 L308.2,273.4 L308.4,273.6 L308.6,273.8 
		L308.8,274.0 L309.0,274.0 L309.2,274.1 L309.4,274.2 L309.6,274.2 L309.9,274.2 L310.1,274.2 L310.3,274.2 
		L310.5,274.1 L310.7,274.1 L310.9,274.1 L311.1,274.1 L311.3,274.1 L311.5,274.1 L311.8,274.1 L312.0,273.9 
		L312.2,273.4 L312.4,273.4 L312.6,273.4 L312.8,273.4 L313.0,273.4 L313.2,273.3 L313.4,273.3 L313.6,273.3 
		L313.9,273.0 L314.1,273.2 L314.3,273.2 L314.5,273.2 L314.7,273.2 L314.9,273.2 L315.1,273.2 L315.3,273.2 
		L315.5,273.2 L315.8,273.2 L316.0,273.2 L316.2,273.1 L316.4,273.1 L316.6,273.1 L316.8,273.1 L317.0,273.1 
		L317.2,273.1 L317.4,273.1 L317.6,273.1 L317.9,273.1 L318.1,273.1 L318.3,273.1 L318.5,273.1 L318.7,273.1 
		L318.9,273.1 L319.1,273.1 L319.3,273.1 L319.5,273.1 L319.8,272.3 L320.0,272.6 L320.2,272.8 L320.4,272.8 
		L320.6,272.8 L320.8,272.8 L321.0,272.8 L321.2,272.8 L321.4,272.8 L321.6,272.8 L321.9,272.8 L322.1,272.8 
		L322.3,272.8 L322.5,272.8 L322.7,272.8 L322.9,272.8 L323.1,272.8 L323.3,273.0 L323.5,274.2 L323.8,275.6 
		L324.0,275.9 L324.2,276.4 L324.4,276.5 L324.6,276.5 L324.8,276.5 L325.0,276.5 L325.2,276.5 L325.4,276.5 
		L325.7,276.3 L325.9,276.3 L326.1,276.3 L326.3,276.3 L326.5,276.3 L326.7,276.3 L326.9,276.3 L327.1,276.3 
		L327.3,276.3 L327.5,276.3 L327.8,276.3 L328.0,276.3 L328.2,275.1 L328.4,274.8 L328.6,274.8 L328.8,274.7 
		L329.0,274.5 L329.2,274.5 L329.4,274.8 L329.7,274.8 L329.9,275.1 L330.1,275.2 L330.3,275.3 L330.5,275.3 
		L330.7,275.3 L330.9,275.3 L331.1,275.3 L331.3,275.3 L331.5,275.3 L331.8,275.2 L332.0,275.6 L332.2,275.7 
		L332.4,275.8 L332.6,275.8 L332.8,275.8 L333.0,275.8 L333.2,275.8 L333.4,275.9 L333.7,276.4 L333.9,276.4 
		L334.1,276.5 L334.3,276.5 L334.5,276.5 L334.7,276.5 L334.9,277.1 L335.1,277.1 L335.3,277.1 L335.5,277.1 
		L335.8,277.1 L336.0,277.1 L336.2,277.1 L336.4,277.1 L336.6,276.9 L336.8,276.9 L337.0,276.9 L337.2,276.9 
		L337.4,276.9 L337.7,276.8 L337.9,276.8 L338.1,277.0 L338.3,277.0 L338.5,277.0 L338.7,277.0 L338.9,277.0 
		L339.1,277.0 L339.3,277.0 L339.6,277.0 L339.8,277.0 L340.0,277.0 L340.2,277.0 L340.4,277.0 L340.6,276.9 
		L340.8,276.6 L341.0,276.6 L341.2,275.9 L341.4,275.9 L341.7,275.8 L341.9,275.8 L342.1,275.8 L342.3,275.8 
		L342.5,275.8 L342.7,275.8 L342.9,275.8 L343.1,275.8 L343.3,275.8 L343.6,275.8 L343.8,275.8 L344.0,275.5 
		L344.2,275.5 L344.4,275.5 L344.6,275.5 L344.8,275.5 L345.0,275.5 L345.2,275.5 L345.4,275.5 L345.7,275.5 
		L345.9,275.5 L346.1,274.7 L346.3,274.7 L346.5,274.7 L346.7,274.7 L346.9,273.8 L347.1,274.0 L347.3,274.0 
		L347.6,274.6 L347.8,275.4 L348.0,275.4 L348.2,275.4 L348.4,275.4 L348.6,275.4 L348.8,275.4 L349.0,275.4 
		L349.2,275.4 L349.5,275.4 L349.7,275.4 L349.9,275.0 L350.1,275.0 L350.3,275.3 L350.5,275.9 L350.7,276.2 
		L350.9,276.3 L351.1,276.3 L351.3,276.4 L351.6,276.4 L351.8,276.4 L352.0,276.4 L352.2,276.4 L352.4,276.4 
		L352.6,276.4 L352.8,276.4 L353.0,276.4 L353.2,276.4 L353.5,276.4 L353.7,276.4 L353.9,276.4 L354.1,276.4 
		L354.3,276.4 L354.5,276.4 L354.7,276.4 L354.9,275.5 L355.1,275.7 L355.3,275.9 L355.6,276.1 L355.8,276.1 
		L356.0,276.1 L356.2,276.1 L356.4,276.1 L356.6,276.1 L356.8,276.1 L357.0,276.1 L357.2,276.0 L357.5,276.0 
		L357.7,276.0 L357.9,276.0 L358.1,276.0 L358.3,276.0 L358.5,276.0 L358.7,276.0 L358.9,276.0 L359.1,276.0 
		L359.3,276.0 L359.6,276.0 L359.8,276.1 L360.0,276.1 L360.2,276.2 L360.4,276.2 L360.6,276.2 L360.8,276.2 
		L361.0,276.2 L361.2,276.2 L361.5,276.2 L361.7,276.2 L361.9,276.0 L362.1,276.3 L362.3,276.3 L362.5,276.3 
		L362.7,276.3 L362.9,276.3 L363.1,276.3 L363.4,276.2 L363.6,276.2 L363.8,276.2 L364.0,276.2 L364.2,276.2 
		L364.4,276.2 L364.6,276.2 L364.8,276.2 L365.0,276.2 L365.2,276.2 L365.5,276.2 L365.7,276.2 L365.9,276.2 
		L366.1,276.2 L366.3,276.2 L366.5,275.5 L366.7,275.5 L366.9,275.5 L367.1,275.5 L367.4,275.5 L367.6,275.5 
		L367.8,275.5 L368.0,275.4 L368.2,275.6 L368.4,275.8 L368.6,276.0 L368.8,276.0 L369.0,276.0 L369.2,276.0 
		L369.5,276.0 L369.7,276.0 L369.9,276.0 L370.1,276.0 L370.3,276.0 L370.5,276.0 L370.7,276.0 L370.9,276.0 
		L371.1,276.0 L371.4,275.6 L371.6,275.7 L371.8,275.7 L372.0,275.8 L372.2,275.9 L372.4,276.1 L372.6,276.1 
		L372.8,276.2 L373.0,276.4 L373.2,276.6 L373.5,276.6 L373.7,276.6 L373.9,276.6 L374.1,276.6 L374.3,276.6 
		L374.5,276.4 L374.7,276.6 L374.9,276.6 L375.1,276.6 L375.4,276.7 L375.6,276.7 L375.8,276.7 L376.0,276.7 
		L376.2,276.7 L376.4,276.8 L376.6,276.9 L376.8,276.9 L377.0,276.9 L377.3,276.9 L377.5,277.0 L377.7,277.0 
		L377.9,277.0 L378.1,277.0 L378.3,277.0 L378.5,277.0 L378.7,277.1 L378.9,277.1 L379.1,277.1 L379.4,277.1 
		L379.6,277.3 L379.8,277.4 L380.0,277.4 L380.2,277.5 L380.4,277.5 L380.6,277.5 L380.8,277.7 L381.0,278.2 
		L381.3,278.3 L381.5,278.3 L381.7,278.3 L381.9,278.3 L382.1,278.3 L382.3,278.2 L382.5,278.2 L382.7,278.3 
		L382.9,278.4 L383.1,278.4 L383.4,278.5 L383.6,278.7 L383.8,278.7 L384.0,278.7 L384.2,278.7 L384.4,278.7 
		L384.6,278.7 L384.8,278.7 L385.0,278.8 L385.3,278.8 L385.5,278.8 L385.7,278.9 L385.9,279.0 L386.1,279.0 
		L386.3,279.0 L386.5,279.0 L386.7,279.0 L386.9,279.0 L387.2,279.0 L387.4,279.0 L387.6,279.0 L387.8,279.1 
		L388.0,279.2 L388.2,279.2 L388.4,279.3 L388.6,279.5 L388.8,279.5 L389.0,279.5 L389.3,279.5 L389.5,279.5 
		L389.7,279.5 L389.9,279.5 L390.1,279.5 L390.3,279.5 L390.5,279.5 L390.7,279.5 L390.9,279.5 L391.2,279.5 
		L391.4,279.5 L391.6,279.7 L391.8,279.8 L392.0,280.0 L392.2,280.0 L392.4,280.0 L392.6,280.0 L392.8,280.0 
		L393.0,280.0 L393.3,280.0 L393.5,279.9 L393.7,279.9 L393.9,279.9 L394.1,279.9 L394.3,279.9 L394.5,280.2 
		L394.7,280.4 L394.9,280.7 L395.2,280.7 L395.4,280.7 L395.6,280.7 L395.8,280.7 L396.0,280.6 L396.2,280.6 
		L396.4,280.6 L396.6,280.6 L396.8,280.9 L397.0,281.1 L397.3,281.4 L397.5,281.4 L397.7,281.7 L397.9,281.7 
		L398.1,281.7 L398.3,281.8 L398.5,282.0 L398.7,282.1 L398.9,282.1 L399.2,282.1 L399.4,282.1 L399.6,282.0 
		L399.8,282.0 L400.0,282.4 L400.2,282.4 L400.4,282.4 L400.6,282.4 L400.8,282.4 L401.1,282.4 L401.3,282.4 
		L401.5,282.3 L401.7,282.3 L401.9,282.3 L402.1,282.3 L402.3,282.3 L402.5,282.3 L402.7,282.3 L402.9,282.2 
		L403.2,281.8 L403.4,281.8 L403.6,282.2 L403.8,282.2 L404.0,282.2 L404.2,282.2 L404.4,282.2 L404.6,282.1 
		L404.8,282.1 L405.1,282.1 L405.3,282.0 L405.5,282.0 L405.7,282.0 L405.9,282.0 L406.1,282.1 L406.3,282.1 
		L406.5,282.1 L406.7,282.1 L406.9,282.1 L407.2,282.1 L407.4,282.1 L407.6,282.1 L407.8,282.1 L408.0,282.1 
		L408.2,282.1 L408.4,282.1 L408.6,282.1 L408.8,281.2 L409.1,281.2 L409.3,281.2 L409.5,281.2 L409.7,281.2 
		L409.9,281.2 L410.1,281.2 L410.3,280.6 L410.5,280.7 L410.7,280.7 L410.9,280.8 L411.2,281.1 L411.4,281.1 
		L411.6,281.1 L411.8,281.2 L412.0,281.2 L412.2,281.2 L412.4,281.2 L412.6,281.2 L412.8,281.2 L413.1,281.1 
		L413.3,281.1 L413.5,281.1 L413.7,281.1 L413.9,281.1 L414.1,280.9 L414.3,280.9 L414.5,280.9 L414.7,280.9 
		L415.0,280.9 L415.2,280.9 L415.4,280.9 L415.6,280.9 L415.8,280.9 L416.0,280.9 L416.2,280.9 L416.4,280.8 
		L416.6,279.3 L416.8,279.3 L417.1,279.5 L417.3,279.5 L417.5,279.5 L417.7,279.5 L417.9,279.5 L418.1,279.5 
		L418.3,279.5 L418.5,279.5 L418.7,279.5 L419.0,279.4 L419.2,279.4 L419.4,279.4 L419.6,279.4 L419.8,279.4 
		L420.0,279.4 L420.2,279.4 L420.4,278.5 L420.6,278.9 L420.8,278.9 L421.1,278.9 L421.3,279.0 L421.5,280.1 
		L421.7,280.3 L421.9,280.4 L422.1,280.4 L422.3,280.4 L422.5,280.4 L422.7,280.4 L423.0,280.4 L423.2,280.4 
		L423.4,280.5 L423.6,280.5 L423.8,280.6 L424.0,280.6 L424.2,280.6 L424.4,280.6 L424.6,280.6 L424.9,280.4 
		L425.1,280.6 L425.3,280.6 L425.5,280.6 L425.7,281.5 L425.9,281.6 L426.1,281.6 L426.3,282.4 L426.5,283.1 
		L426.7,283.1 L427.0,283.1 L427.2,283.1 L427.4,283.1 L427.6,283.1 L427.8,283.1 L428.0,283.1 L428.2,282.8 
		L428.4,282.8 L428.6,282.3 L428.9,282.1 L429.1,282.1 L429.3,282.1 L429.5,282.1 L429.7,282.1 L429.9,282.1 
		L430.1,282.1 L430.3,282.1 L430.5,282.1 L430.7,282.1 L431.0,282.1 L431.2,282.1 L431.4,282.1 L431.6,282.1 
		L431.8,282.1 L432.0,282.1 L432.2,282.1 L432.4,282.1 L432.6,282.1 L432.9,282.1 L433.1,282.1 L433.3,282.1 
		L433.5,282.1 L433.7,282.1 L433.9,281.6 L434.1,277.1 L434.3,277.6 L434.5,278.6 L434.7,278.6 L435.0,278.6 
		L435.2,278.6 L435.4,278.6 L435.6,278.6 L435.8,278.6 L436.0,278.6 L436.2,278.6 L436.4,278.6 L436.6,278.6 
		L436.9,278.6 L437.1,278.6 L437.3,278.4 L437.5,278.1 L437.7,278.2 L437.9,278.2 L438.1,278.2 L438.3,278.4 
		L438.5,278.5 L438.8,278.6 L439.0,278.6 L439.2,278.6 L439.4,279.3 L439.6,279.8 L439.8,279.8 L440.0,279.8 
		L440.2,279.8 L440.4,279.8 L440.6,279.8 L440.9,279.8 L441.1,279.8 L441.3,279.8 L441.5,279.6 L441.7,279.8 
		L441.9,279.8 L442.1,279.8 L442.3,279.8 L442.5,279.8 L442.8,279.8 L443.0,279.5 L443.2,279.9 L443.4,279.9 
		L443.6,279.9 L443.8,279.9 L444.0,279.9 L444.2,279.9 L444.4,279.8 L444.6,279.8 L444.9,279.8 L445.1,279.8 
		L445.3,279.5 L445.5,279.5 L445.7,279.5 L445.9,280.2 L446.1,280.3 L446.3,280.4 L446.5,280.4 L446.8,280.4 
		L447.0,280.5 L447.2,280.5 L447.4,280.5 L447.6,280.5 L447.8,280.5 L448.0,280.4 L448.2,280.4 L448.4,280.4 
		L448.6,280.8 L448.9,280.8 L449.1,281.3 L449.3,281.3 L449.5,281.7 L449.7,281.7 L449.9,281.7 L450.1,281.7 
		L450.3,281.7 L450.5,281.7 L450.8,281.7 L451.0,281.7 L451.2,281.7 L451.4,281.7 L451.6,281.7 L451.8,281.7 
		L452.0,281.4 L452.2,281.4 L452.4,280.3 L452.7,280.3 L452.9,280.3 L453.1,280.3 L453.3,280.3 L453.5,280.3 
		L453.7,280.3 L453.9,280.3 L454.1,280.3 L454.3,280.3 L454.5,280.3 L454.8,280.3 L455.0,280.3 L455.2,278.6 
		L455.4,278.6 L455.6,278.6 L455.8,278.6 L456.0,278.6 L456.2,278.5 L456.4,278.5 L456.7,278.7 L456.9,279.0 
		L457.1,279.0 L457.3,279.0 L457.5,279.0 L457.7,279.0 L457.9,279.0 L458.1,279.0 L458.3,279.0 L458.5,279.0 
		L458.8,279.0 L459.0,279.1 L459.2,279.2 L459.4,279.2 L459.6,279.2 L459.8,279.2 L460.0,279.2 L460.2,279.2 
		L460.4,279.2 L460.7,279.2 L460.9,279.2 L461.1,279.2 L461.3,279.2 L461.5,279.2 L461.7,279.2 L461.9,279.1 
		L462.1,279.1 L462.3,279.1 L462.5,279.1 L462.8,279.1 L463.0,279.1 L463.2,279.1 L463.4,279.1 L463.6,279.1 
		L463.8,279.1 L464.0,279.2 L464.2,279.2 L464.4,279.2 L464.7,279.2 L464.9,279.2 L465.1,279.2 L465.3,279.2 
		L465.5,279.2 L465.7,279.2 L465.9,279.2 L466.1,279.2 L466.3,279.2 L466.6,279.3 L466.8,279.4 L467.0,279.4 
		L467.2,279.4 L467.4,279.4 L467.6,279.5 L467.8,279.5 L468.0,279.5 L468.2,279.5 L468.4,279.5 L468.7,279.5 
		L468.9,279.5 L469.1,279.5 L469.3,279.5 L469.5,279.5 L469.7,279.6 L469.9,279.6 L470.1,279.6 L470.3,279.6 
		L470.6,279.6 L470.8,279.7 L471.0,279.9 L471.2,279.9 L471.4,280.0 L471.6,280.2 L471.8,280.2 L472.0,280.3 
		L472.2,280.3 L472.4,280.4 L472.7,280.4 L472.9,280.4 L473.1,280.4 L473.3,280.4 L473.5,280.4 L473.7,280.4 
		L473.9,280.4 L474.1,280.3 L474.3,280.4 L474.6,280.4 L474.8,280.4 L475.0,280.4 L475.2,280.4 L475.4,280.4 
		L475.6,280.9 L475.8,280.9 L476.0,280.9 L476.2,280.9 L476.5,280.9 L476.7,280.9 L476.9,280.9 L477.1,280.9 
		L477.3,280.9 L477.5,280.9 L477.7,280.9 L477.9,280.9 L478.1,280.9 L478.3,280.9 L478.6,280.9 L478.8,280.9 
		L479.0,280.7 L479.2,280.7 L479.4,280.7 L479.6,280.7 L479.8,280.7 L480.0,280.1 L480.2,280.1 L480.5,280.1 
		L480.7,280.1 L480.9,280.1 L481.1,280.1 L481.3,280.1 L481.5,280.1 L481.7,280.1 L481.9,280.1 L482.1,279.9 
		L482.3,279.9 L482.6,279.9 L482.8,279.9 L483.0,279.9 L483.2,279.9 L483.4,279.9 L483.6,279.9 L483.8,279.9 
		L484.0,279.9 L484.2,279.4 L484.5,279.5 L484.7,279.5 L484.9,279.5 L485.1,279.5 L485.3,279.5 L485.5,279.5 
		L485.7,279.3 L485.9,279.8 L486.1,279.8 L486.3,279.8 L486.6,280.1 L486.8,280.1 L487.0,280.1 L487.2,280.1 
		L487.4,280.1 L487.6,280.1 L487.8,280.3 L488.0,280.3 L488.2,280.6 L488.5,280.8 L488.7,280.8 L488.9,281.0 
		L489.1,281.0 L489.3,281.0 L489.5,281.0 L489.7,281.0 L489.9,281.0 L490.1,281.0 L490.4,280.8 L490.6,281.0 
		L490.8,281.0 L491.0,281.0 L491.2,281.0 L491.4,281.0 L491.6,280.9 L491.8,280.9 L492.0,280.9 L492.2,280.9 
		L492.5,280.7 L492.7,280.8 L492.9,280.8 L493.1,281.4 L493.3,281.5 L493.5,281.5 L493.7,281.5 L493.9,281.5 
		L494.1,281.5 L494.4,281.3 L494.6,281.4 L494.8,281.4 L495.0,281.4 L495.2,281.4 L495.4,281.4 L495.6,281.4 
		L495.8,281.4 L496.0,281.4 L496.2,281.4 L496.5,281.4 L496.7,281.4 L496.9,281.4 L497.1,281.4 L497.3,280.6 
		L497.5,280.7 L497.7,280.7 L497.9,280.7 L498.1,280.7 L498.4,280.7 L498.6,280.7 L498.8,280.7 L499.0,280.7 
		L499.2,280.7 L499.4,280.5 L499.6,280.5 L499.8,280.3 L500.0,280.3 L500.2,280.3 L500.5,280.3 L500.7,280.3 
		L500.9,280.3 L501.1,280.3 L501.3,280.3 L501.5,280.3 L501.7,280.3 L501.9,280.3 L502.1,280.4 L502.4,280.4 
		L502.6,280.7 L502.8,280.7 L503.0,280.7 L503.2,280.7 L503.4,280.7 L503.6,280.7 L503.8,280.7 L504.0,280.7 
		L504.3,280.7 L504.5,280.7 L504.7,280.4 L504.9,280.1 L505.1,279.9 L505.3,279.9 L505.5,279.9 L505.7,279.9 
		L505.9,279.9 L506.1,279.9 L506.4,279.9 L506.6,279.9 L506.8,279.9 L507.0,279.9 L507.2,279.9  h0.01'/></g>
	</g>
<g style="fill:none; color:black; stroke:currentColor; stroke-width:1.00; stroke-linecap:butt; stroke-linejoin:miter">
	<path  d='M88.5,54.1 L88.5,422.4 L507.2,422.4 L507.2,54.1 L88.5,54.1 Z  h0.01'/></g>
</g>
</svg>

