<?xml version="1.0" encoding="utf-8"  standalone="no"?>
<!DOCTYPE svg PUBLIC "-//W3C//DTD SVG 1.1//EN" 
 "http://www.w3.org/Graphics/SVG/1.1/DTD/svg11.dtd">
<svg 
 width="600" height="480" 
 viewBox="0 0 600 480"
 xmlns="http://www.w3.org/2000/svg"
 xmlns:xlink="http://www.w3.org/1999/xlink"
>

<title>Gnuplot</title>
<desc>Produced by GNUPLOT 4.6 patchlevel 1 </desc>

<g id="gnuplot_canvas">

<rect x="0" y="0" width="600" height="480" fill="none"/>
<defs>

	<circle id='gpDot' r='0.5' stroke-width='0.5'/>
	<path id='gpPt0' stroke-width='0.222' stroke='currentColor' d='M-1,0 h2 M0,-1 v2'/>
	<path id='gpPt1' stroke-width='0.222' stroke='currentColor' d='M-1,-1 L1,1 M1,-1 L-1,1'/>
	<path id='gpPt2' stroke-width='0.222' stroke='currentColor' d='M-1,0 L1,0 M0,-1 L0,1 M-1,-1 L1,1 M-1,1 L1,-1'/>
	<rect id='gpPt3' stroke-width='0.222' stroke='currentColor' x='-1' y='-1' width='2' height='2'/>
	<rect id='gpPt4' stroke-width='0.222' stroke='currentColor' fill='currentColor' x='-1' y='-1' width='2' height='2'/>
	<circle id='gpPt5' stroke-width='0.222' stroke='currentColor' cx='0' cy='0' r='1'/>
	<use xlink:href='#gpPt5' id='gpPt6' fill='currentColor' stroke='none'/>
	<path id='gpPt7' stroke-width='0.222' stroke='currentColor' d='M0,-1.33 L-1.33,0.67 L1.33,0.67 z'/>
	<use xlink:href='#gpPt7' id='gpPt8' fill='currentColor' stroke='none'/>
	<use xlink:href='#gpPt7' id='gpPt9' stroke='currentColor' transform='rotate(180)'/>
	<use xlink:href='#gpPt9' id='gpPt10' fill='currentColor' stroke='none'/>
	<use xlink:href='#gpPt3' id='gpPt11' stroke='currentColor' transform='rotate(45)'/>
	<use xlink:href='#gpPt11' id='gpPt12' fill='currentColor' stroke='none'/>
</defs>
<g style="fill:none; color:white; stroke:currentColor; stroke-width:1.00; stroke-linecap:butt; stroke-linejoin:miter">
</g>
<g style="fill:none; color:black; stroke:currentColor; stroke-width:1.00; stroke-linecap:butt; stroke-linejoin:miter">
	<path  d='M80.2,422.4 L89.2,422.4 M575.0,422.4 L566.0,422.4  h0.01'/>	<g transform="translate(71.9,426.9)" style="stroke:none; fill:black; font-family:Arial; font-size:12.00pt; text-anchor:end">
		<text> 0</text>
	</g>
	<path  d='M80.2,369.8 L89.2,369.8 M575.0,369.8 L566.0,369.8  h0.01'/>	<g transform="translate(71.9,374.3)" style="stroke:none; fill:black; font-family:Arial; font-size:12.00pt; text-anchor:end">
		<text> 500</text>
	</g>
	<path  d='M80.2,317.2 L89.2,317.2 M575.0,317.2 L566.0,317.2  h0.01'/>	<g transform="translate(71.9,321.7)" style="stroke:none; fill:black; font-family:Arial; font-size:12.00pt; text-anchor:end">
		<text> 1000</text>
	</g>
	<path  d='M80.2,264.6 L89.2,264.6 M575.0,264.6 L566.0,264.6  h0.01'/>	<g transform="translate(71.9,269.1)" style="stroke:none; fill:black; font-family:Arial; font-size:12.00pt; text-anchor:end">
		<text> 1500</text>
	</g>
	<path  d='M80.2,211.9 L89.2,211.9 M575.0,211.9 L566.0,211.9  h0.01'/>	<g transform="translate(71.9,216.4)" style="stroke:none; fill:black; font-family:Arial; font-size:12.00pt; text-anchor:end">
		<text> 2000</text>
	</g>
	<path  d='M80.2,159.3 L89.2,159.3 M575.0,159.3 L566.0,159.3  h0.01'/>	<g transform="translate(71.9,163.8)" style="stroke:none; fill:black; font-family:Arial; font-size:12.00pt; text-anchor:end">
		<text> 2500</text>
	</g>
	<path  d='M80.2,106.7 L89.2,106.7 M575.0,106.7 L566.0,106.7  h0.01'/>	<g transform="translate(71.9,111.2)" style="stroke:none; fill:black; font-family:Arial; font-size:12.00pt; text-anchor:end">
		<text> 3000</text>
	</g>
	<path  d='M80.2,54.1 L89.2,54.1 M575.0,54.1 L566.0,54.1  h0.01'/>	<g transform="translate(71.9,58.6)" style="stroke:none; fill:black; font-family:Arial; font-size:12.00pt; text-anchor:end">
		<text> 3500</text>
	</g>
	<path  d='M80.2,422.4 L80.2,413.4 M80.2,54.1 L80.2,63.1  h0.01'/>	<g transform="translate(80.2,444.9)" style="stroke:none; fill:black; font-family:Arial; font-size:12.00pt; text-anchor:middle">
		<text> 0</text>
	</g>
	<path  d='M129.7,422.4 L129.7,413.4 M129.7,54.1 L129.7,63.1  h0.01'/>	<g transform="translate(129.7,444.9)" style="stroke:none; fill:black; font-family:Arial; font-size:12.00pt; text-anchor:middle">
		<text> 10</text>
	</g>
	<path  d='M179.2,422.4 L179.2,413.4 M179.2,54.1 L179.2,63.1  h0.01'/>	<g transform="translate(179.2,444.9)" style="stroke:none; fill:black; font-family:Arial; font-size:12.00pt; text-anchor:middle">
		<text> 20</text>
	</g>
	<path  d='M228.6,422.4 L228.6,413.4 M228.6,54.1 L228.6,63.1  h0.01'/>	<g transform="translate(228.6,444.9)" style="stroke:none; fill:black; font-family:Arial; font-size:12.00pt; text-anchor:middle">
		<text> 30</text>
	</g>
	<path  d='M278.1,422.4 L278.1,413.4 M278.1,54.1 L278.1,63.1  h0.01'/>	<g transform="translate(278.1,444.9)" style="stroke:none; fill:black; font-family:Arial; font-size:12.00pt; text-anchor:middle">
		<text> 40</text>
	</g>
	<path  d='M327.6,422.4 L327.6,413.4 M327.6,54.1 L327.6,63.1  h0.01'/>	<g transform="translate(327.6,444.9)" style="stroke:none; fill:black; font-family:Arial; font-size:12.00pt; text-anchor:middle">
		<text> 50</text>
	</g>
	<path  d='M377.1,422.4 L377.1,413.4 M377.1,54.1 L377.1,63.1  h0.01'/>	<g transform="translate(377.1,444.9)" style="stroke:none; fill:black; font-family:Arial; font-size:12.00pt; text-anchor:middle">
		<text> 60</text>
	</g>
	<path  d='M426.6,422.4 L426.6,413.4 M426.6,54.1 L426.6,63.1  h0.01'/>	<g transform="translate(426.6,444.9)" style="stroke:none; fill:black; font-family:Arial; font-size:12.00pt; text-anchor:middle">
		<text> 70</text>
	</g>
	<path  d='M476.0,422.4 L476.0,413.4 M476.0,54.1 L476.0,63.1  h0.01'/>	<g transform="translate(476.0,444.9)" style="stroke:none; fill:black; font-family:Arial; font-size:12.00pt; text-anchor:middle">
		<text> 80</text>
	</g>
	<path  d='M525.5,422.4 L525.5,413.4 M525.5,54.1 L525.5,63.1  h0.01'/>	<g transform="translate(525.5,444.9)" style="stroke:none; fill:black; font-family:Arial; font-size:12.00pt; text-anchor:middle">
		<text> 90</text>
	</g>
	<path  d='M575.0,422.4 L575.0,413.4 M575.0,54.1 L575.0,63.1  h0.01'/>	<g transform="translate(575.0,444.9)" style="stroke:none; fill:black; font-family:Arial; font-size:12.00pt; text-anchor:middle">
		<text> 100</text>
	</g>
	<path  d='M80.2,54.1 L80.2,422.4 L575.0,422.4 L575.0,54.1 L80.2,54.1 Z  h0.01'/>	<g transform="translate(17.6,238.3) rotate(270)" style="stroke:none; fill:black; font-family:Arial; font-size:12.00pt; text-anchor:middle">
		<text>TCP throughput (kbps)</text>
	</g>
	<g transform="translate(327.6,471.9)" style="stroke:none; fill:black; font-family:Arial; font-size:12.00pt; text-anchor:middle">
		<text>Time (s)</text>
	</g>
	<g transform="translate(327.6,31.6)" style="stroke:none; fill:black; font-family:Arial; font-size:12.00pt; text-anchor:middle">
		<text>Distance 700m, 1kmph: TCP throughput vs link capacity Uplink 100RBs PfffScheduler</text>
	</g>
	<path  d='M325.3,413.4 L325.3,377.4 L566.7,377.4 L566.7,413.4 L325.3,413.4 Z  h0.01'/></g>
	<g id="gnuplot_plot_1" ><title>gnuplot_plot_1</title>
<g style="fill:none; color:red; stroke:currentColor; stroke-width:1.00; stroke-linecap:butt; stroke-linejoin:miter">
	<g transform="translate(507.9,390.9)" style="stroke:none; fill:black; font-family:Arial; font-size:12.00pt; text-anchor:end">
		<text>TCP Throughput</text>
	</g>
	<path  d='M516.2,386.4 L558.4,386.4 M84.7,395.4 L84.9,395.4 L85.1,395.4 L85.4,417.3 L85.6,404.8 L85.9,384.7 
		L86.1,384.7 L86.4,384.7 L86.6,387.5 L86.9,331.4 L87.1,248.4 L87.4,191.1 L87.6,177.8 L87.9,177.8 
		L88.1,177.8 L88.4,225.8 L88.6,194.5 L88.9,185.0 L89.1,185.0 L89.4,185.0 L89.6,185.0 L89.8,185.0 
		L90.1,185.0 L90.3,223.1 L90.6,220.8 L90.8,220.8 L91.1,218.6 L91.3,194.0 L91.6,191.8 L91.8,191.8 
		L92.1,191.8 L92.3,191.8 L92.6,191.8 L92.8,191.8 L93.1,229.2 L93.3,218.2 L93.6,203.3 L93.8,193.8 
		L94.0,182.2 L94.3,180.2 L94.5,180.2 L94.8,180.2 L95.0,180.2 L95.3,180.2 L95.5,180.2 L95.8,180.2 
		L96.0,180.2 L96.3,218.2 L96.5,222.5 L96.8,208.2 L97.0,184.9 L97.3,165.9 L97.5,158.3 L97.8,158.3 
		L98.0,158.3 L98.3,164.6 L98.5,161.8 L98.8,161.8 L99.0,168.9 L99.2,168.9 L99.5,168.9 L99.7,168.9 
		L100.0,181.0 L100.2,180.3 L100.5,180.3 L100.7,188.9 L101.0,188.9 L101.2,187.4 L101.5,174.1 L101.7,159.4 
		L102.0,150.1 L102.2,149.1 L102.5,149.1 L102.7,149.1 L103.0,149.1 L103.2,149.1 L103.5,166.8 L103.7,157.6 
		L103.9,155.0 L104.2,152.6 L104.4,150.4 L104.7,148.1 L104.9,147.4 L105.2,147.4 L105.4,147.4 L105.7,156.4 
		L105.9,155.3 L106.2,155.3 L106.4,161.6 L106.7,161.5 L106.9,161.5 L107.2,161.5 L107.4,161.5 L107.7,161.5 
		L107.9,172.7 L108.2,167.1 L108.4,162.1 L108.6,157.6 L108.9,155.6 L109.1,153.6 L109.4,153.4 L109.6,153.4 
		L109.9,153.4 L110.1,153.4 L110.4,153.4 L110.6,153.4 L110.9,167.4 L111.1,167.4 L111.4,167.4 L111.6,167.4 
		L111.9,167.4 L112.1,167.4 L112.4,167.4 L112.6,167.4 L112.9,182.3 L113.1,182.3 L113.3,182.3 L113.6,182.3 
		L113.8,182.3 L114.1,182.3 L114.3,182.3 L114.6,182.3 L114.8,196.4 L115.1,196.4 L115.3,196.4 L115.6,201.5 
		L115.8,201.4 L116.1,201.4 L116.3,201.4 L116.6,201.4 L116.8,201.4 L117.1,211.0 L117.3,210.5 L117.6,210.5 
		L117.8,210.5 L118.0,210.5 L118.3,210.5 L118.5,210.5 L118.8,210.5 L119.0,210.5 L119.3,210.5 L119.5,210.5 
		L119.8,210.5 L120.0,225.1 L120.3,225.1 L120.5,225.1 L120.8,225.1 L121.0,231.2 L121.3,231.0 L121.5,231.0 
		L121.8,231.0 L122.0,231.0 L122.3,231.0 L122.5,231.0 L122.7,231.0 L123.0,231.0 L123.2,231.0 L123.5,231.0 
		L123.7,231.0 L124.0,231.0 L124.2,231.0 L124.5,231.0 L124.7,231.0 L125.0,231.0 L125.2,231.0 L125.5,231.0 
		L125.7,231.0 L126.0,231.0 L126.2,252.1 L126.5,250.5 L126.7,248.8 L127.0,248.6 L127.2,248.6 L127.5,248.6 
		L127.7,248.6 L127.9,248.6 L128.2,253.6 L128.4,251.9 L128.7,252.0 L128.9,252.1 L129.2,252.2 L129.4,252.2 
		L129.7,253.3 L129.9,252.4 L130.2,251.2 L130.4,249.7 L130.7,249.5 L130.9,249.5 L131.2,249.5 L131.4,249.5 
		L131.7,249.5 L131.9,249.5 L132.2,249.5 L132.4,249.5 L132.6,256.0 L132.9,255.3 L133.1,255.3 L133.4,255.3 
		L133.6,255.2 L133.9,255.2 L134.1,255.2 L134.4,255.2 L134.6,255.2 L134.9,258.0 L135.1,257.3 L135.4,257.3 
		L135.6,257.3 L135.9,257.3 L136.1,257.3 L136.4,257.3 L136.6,257.3 L136.9,257.3 L137.1,257.3 L137.3,257.3 
		L137.6,257.3 L137.8,257.3 L138.1,266.1 L138.3,266.1 L138.6,266.3 L138.8,266.3 L139.1,266.5 L139.3,267.2 
		L139.6,267.3 L139.8,267.3 L140.1,267.3 L140.3,267.3 L140.6,267.3 L140.8,267.3 L141.1,267.3 L141.3,267.3 
		L141.6,271.9 L141.8,272.0 L142.1,272.0 L142.3,273.2 L142.5,273.2 L142.8,273.2 L143.0,273.2 L143.3,273.2 
		L143.5,273.2 L143.8,273.2 L144.0,273.2 L144.3,273.2 L144.5,273.2 L144.8,273.2 L145.0,273.2 L145.3,273.2 
		L145.5,280.7 L145.8,280.9 L146.0,281.3 L146.3,281.6 L146.5,281.5 L146.8,281.5 L147.0,282.9 L147.2,283.0 
		L147.5,283.0 L147.7,283.0 L148.0,283.0 L148.2,283.0 L148.5,283.0 L148.7,283.0 L149.0,283.0 L149.2,287.3 
		L149.5,287.3 L149.7,287.3 L150.0,287.8 L150.2,287.8 L150.5,287.8 L150.7,287.8 L151.0,287.8 L151.2,290.3 
		L151.5,290.3 L151.7,290.3 L151.9,290.3 L152.2,290.3 L152.4,290.3 L152.7,290.3 L152.9,290.3 L153.2,290.3 
		L153.4,290.3 L153.7,290.3 L153.9,290.3 L154.2,290.3 L154.4,290.3 L154.7,296.3 L154.9,296.3 L155.2,296.3 
		L155.4,296.3 L155.7,298.1 L155.9,298.3 L156.2,298.3 L156.4,298.3 L156.6,298.3 L156.9,298.3 L157.1,298.3 
		L157.4,298.3 L157.6,298.3 L157.9,298.3 L158.1,298.3 L158.4,298.3 L158.6,298.3 L158.9,298.3 L159.1,298.3 
		L159.4,298.3 L159.6,304.4 L159.9,304.6 L160.1,304.7 L160.4,304.7 L160.6,304.7 L160.9,304.7 L161.1,304.7 
		L161.3,306.3 L161.6,306.3 L161.8,306.3 L162.1,306.3 L162.3,306.3 L162.6,306.3 L162.8,308.4 L163.1,308.3 
		L163.3,308.3 L163.6,308.3 L163.8,308.3 L164.1,308.3 L164.3,308.3 L164.6,308.3 L164.8,308.3 L165.1,308.3 
		L165.3,308.3 L165.6,308.3 L165.8,308.3 L166.0,308.3 L166.3,308.3 L166.5,308.3 L166.8,308.3 L167.0,313.9 
		L167.3,314.0 L167.5,314.2 L167.8,314.2 L168.0,314.2 L168.3,314.6 L168.5,314.6 L168.8,315.2 L169.0,315.2 
		L169.3,315.2 L169.5,315.2 L169.8,315.7 L170.0,315.7 L170.3,315.7 L170.5,316.3 L170.7,316.3 L171.0,316.3 
		L171.2,316.9 L171.5,316.9 L171.7,316.9 L172.0,316.9 L172.2,316.9 L172.5,316.9 L172.7,316.9 L173.0,316.9 
		L173.2,316.9 L173.5,316.9 L173.7,316.9 L174.0,316.9 L174.2,316.9 L174.5,316.9 L174.7,320.9 L175.0,320.9 
		L175.2,320.9 L175.4,320.9 L175.7,320.9 L175.9,322.1 L176.2,322.1 L176.4,322.7 L176.7,322.5 L176.9,322.5 
		L177.2,322.5 L177.4,322.5 L177.7,322.5 L177.9,322.5 L178.2,322.5 L178.4,324.1 L178.7,324.1 L178.9,324.1 
		L179.2,324.1 L179.4,324.1 L179.7,324.9 L179.9,324.9 L180.1,324.9 L180.4,325.5 L180.6,325.5 L180.9,325.7 
		L181.1,325.5 L181.4,325.4 L181.6,325.4 L181.9,325.4 L182.1,325.4 L182.4,325.4 L182.6,326.4 L182.9,326.1 
		L183.1,326.1 L183.4,326.1 L183.6,326.1 L183.9,326.1 L184.1,326.1 L184.4,326.1 L184.6,326.1 L184.9,326.1 
		L185.1,327.7 L185.3,327.7 L185.6,327.7 L185.8,327.7 L186.1,327.7 L186.3,327.7 L186.6,328.3 L186.8,328.3 
		L187.1,328.3 L187.3,328.3 L187.6,328.3 L187.8,329.2 L188.1,329.0 L188.3,329.1 L188.6,329.1 L188.8,329.1 
		L189.1,329.1 L189.3,329.9 L189.6,329.9 L189.8,329.9 L190.0,329.9 L190.3,329.9 L190.5,329.9 L190.8,329.9 
		L191.0,329.9 L191.3,329.9 L191.5,329.9 L191.8,329.9 L192.0,329.9 L192.3,332.1 L192.5,332.2 L192.8,332.2 
		L193.0,332.3 L193.3,332.4 L193.5,332.3 L193.8,332.1 L194.0,331.8 L194.3,331.8 L194.5,331.8 L194.7,331.8 
		L195.0,331.8 L195.2,331.8 L195.5,331.8 L195.7,331.8 L196.0,331.8 L196.2,331.8 L196.5,331.8 L196.7,333.7 
		L197.0,333.6 L197.2,333.6 L197.5,333.6 L197.7,333.6 L198.0,333.6 L198.2,333.6 L198.5,334.2 L198.7,334.2 
		L199.0,334.2 L199.2,334.6 L199.4,334.4 L199.7,334.3 L199.9,334.3 L200.2,334.3 L200.4,334.8 L200.7,334.6 
		L200.9,334.3 L201.2,334.3 L201.4,334.3 L201.7,334.6 L201.9,334.2 L202.2,334.1 L202.4,334.1 L202.7,334.1 
		L202.9,334.1 L203.2,334.1 L203.4,334.1 L203.7,334.1 L203.9,334.1 L204.1,334.1 L204.4,334.1 L204.6,334.1 
		L204.9,334.1 L205.1,334.1 L205.4,334.1 L205.6,334.1 L205.9,334.1 L206.1,334.1 L206.4,334.1 L206.6,334.1 
		L206.9,334.1 L207.1,337.0 L207.4,336.9 L207.6,336.9 L207.9,336.9 L208.1,336.9 L208.4,336.9 L208.6,336.9 
		L208.8,336.9 L209.1,337.8 L209.3,337.8 L209.6,337.8 L209.8,337.8 L210.1,338.2 L210.3,338.2 L210.6,338.2 
		L210.8,338.1 L211.1,338.1 L211.3,338.1 L211.6,338.1 L211.8,338.1 L212.1,338.9 L212.3,338.6 L212.6,338.6 
		L212.8,338.6 L213.1,338.6 L213.3,338.6 L213.5,338.6 L213.8,338.6 L214.0,338.6 L214.3,339.6 L214.5,339.7 
		L214.8,339.7 L215.0,339.7 L215.3,339.7 L215.5,339.7 L215.8,339.7 L216.0,339.7 L216.3,339.7 L216.5,339.7 
		L216.8,339.7 L217.0,339.7 L217.3,339.7 L217.5,339.7 L217.8,341.4 L218.0,341.5 L218.2,341.5 L218.5,341.5 
		L218.7,341.5 L219.0,341.9 L219.2,342.0 L219.5,342.0 L219.7,341.9 L220.0,341.9 L220.2,341.9 L220.5,341.9 
		L220.7,341.9 L221.0,341.9 L221.2,341.9 L221.5,341.9 L221.7,341.9 L222.0,341.9 L222.2,341.9 L222.5,343.2 
		L222.7,343.1 L222.9,343.1 L223.2,343.1 L223.4,343.1 L223.7,343.1 L223.9,343.3 L224.2,343.3 L224.4,343.3 
		L224.7,343.3 L224.9,343.3 L225.2,343.3 L225.4,343.3 L225.7,343.3 L225.9,343.3 L226.2,344.4 L226.4,344.4 
		L226.7,344.4 L226.9,344.5 L227.2,344.5 L227.4,344.5 L227.7,344.5 L227.9,344.5 L228.1,344.5 L228.4,345.3 
		L228.6,345.3 L228.9,345.3 L229.1,345.3 L229.4,345.3 L229.6,345.3 L229.9,345.3 L230.1,345.3 L230.4,345.3 
		L230.6,345.3 L230.9,345.3 L231.1,345.3 L231.4,345.3 L231.6,345.3 L231.9,345.3 L232.1,347.0 L232.4,347.1 
		L232.6,347.1 L232.8,347.1 L233.1,347.4 L233.3,347.4 L233.6,347.5 L233.8,347.4 L234.1,347.3 L234.3,347.1 
		L234.6,347.1 L234.8,347.1 L235.1,347.1 L235.3,347.1 L235.6,347.1 L235.8,347.1 L236.1,347.1 L236.3,347.1 
		L236.6,347.1 L236.8,347.1 L237.1,347.1 L237.3,347.1 L237.5,347.1 L237.8,348.7 L238.0,348.3 L238.3,348.3 
		L238.5,348.2 L238.8,348.2 L239.0,348.3 L239.3,348.2 L239.5,348.2 L239.8,348.2 L240.0,348.2 L240.3,348.2 
		L240.5,348.2 L240.8,348.2 L241.0,348.2 L241.3,348.2 L241.5,348.2 L241.8,348.2 L242.0,348.2 L242.2,348.2 
		L242.5,348.2 L242.7,348.2 L243.0,348.2 L243.2,348.2 L243.5,348.2 L243.7,348.2 L244.0,348.2 L244.2,350.3 
		L244.5,350.3 L244.7,350.3 L245.0,350.3 L245.2,350.3 L245.5,350.3 L245.7,350.3 L246.0,350.9 L246.2,350.8 
		L246.5,350.8 L246.7,351.0 L246.9,351.0 L247.2,351.0 L247.4,351.0 L247.7,351.3 L247.9,351.3 L248.2,351.3 
		L248.4,351.3 L248.7,351.3 L248.9,351.3 L249.2,351.8 L249.4,351.8 L249.7,351.8 L249.9,351.8 L250.2,351.8 
		L250.4,351.8 L250.7,351.8 L250.9,351.8 L251.2,351.8 L251.4,351.8 L251.6,352.6 L251.9,352.7 L252.1,352.6 
		L252.4,352.5 L252.6,352.5 L252.9,352.5 L253.1,352.5 L253.4,352.5 L253.6,352.5 L253.9,352.5 L254.1,352.5 
		L254.4,352.5 L254.6,353.3 L254.9,353.3 L255.1,353.4 L255.4,353.4 L255.6,353.4 L255.9,353.4 L256.1,353.6 
		L256.3,353.2 L256.6,352.6 L256.8,352.0 L257.1,351.2 L257.3,351.0 L257.6,351.2 L257.8,350.4 L258.1,349.4 
		L258.3,348.4 L258.6,347.5 L258.8,346.9 L259.1,346.8 L259.3,346.8 L259.6,346.8 L259.8,346.8 L260.1,346.8 
		L260.3,346.8 L260.6,346.8 L260.8,346.8 L261.0,347.6 L261.3,347.6 L261.5,347.6 L261.8,347.8 L262.0,347.1 
		L262.3,346.7 L262.5,346.7 L262.8,346.8 L263.0,346.6 L263.3,346.6 L263.5,346.6 L263.8,346.6 L264.0,346.6 
		L264.3,346.6 L264.5,346.6 L264.8,346.6 L265.0,346.6 L265.3,346.6 L265.5,346.6 L265.8,346.6 L266.0,346.6 
		L266.2,346.6 L266.5,348.1 L266.7,347.7 L267.0,347.7 L267.2,347.7 L267.5,347.7 L267.7,347.7 L268.0,347.7 
		L268.2,347.7 L268.5,348.1 L268.7,348.1 L269.0,348.1 L269.2,348.1 L269.5,348.3 L269.7,348.3 L270.0,348.3 
		L270.2,348.3 L270.4,348.6 L270.7,348.6 L270.9,348.6 L271.2,348.6 L271.4,348.6 L271.7,348.6 L271.9,348.6 
		L272.2,349.2 L272.4,349.1 L272.7,349.2 L272.9,349.2 L273.2,349.2 L273.4,349.2 L273.7,349.2 L273.9,349.2 
		L274.2,349.2 L274.4,349.2 L274.7,349.2 L274.9,349.2 L275.1,349.2 L275.4,349.2 L275.6,349.2 L275.9,349.2 
		L276.1,349.2 L276.4,349.2 L276.6,349.2 L276.9,350.6 L277.1,350.6 L277.4,350.6 L277.6,350.6 L277.9,350.9 
		L278.1,350.9 L278.4,351.0 L278.6,351.0 L278.9,351.0 L279.1,351.0 L279.4,351.0 L279.6,351.0 L279.8,351.0 
		L280.1,351.0 L280.3,351.5 L280.6,351.4 L280.8,351.4 L281.1,351.5 L281.3,351.5 L281.6,351.5 L281.8,351.4 
		L282.1,351.4 L282.3,351.4 L282.6,351.5 L282.8,351.4 L283.1,351.3 L283.3,351.2 L283.6,351.2 L283.8,351.2 
		L284.1,351.2 L284.3,351.2 L284.5,351.6 L284.8,351.7 L285.0,351.7 L285.3,351.9 L285.5,351.7 L285.8,351.7 
		L286.0,351.7 L286.3,351.8 L286.5,351.8 L286.8,351.7 L287.0,351.7 L287.3,351.7 L287.5,351.7 L287.8,351.7 
		L288.0,351.7 L288.3,351.7 L288.5,351.7 L288.8,352.3 L289.0,352.2 L289.2,352.2 L289.5,352.2 L289.7,352.2 
		L290.0,352.2 L290.2,352.2 L290.5,352.3 L290.7,352.3 L291.0,352.1 L291.2,351.9 L291.5,351.6 L291.7,351.4 
		L292.0,351.4 L292.2,351.4 L292.5,351.4 L292.7,351.4 L293.0,351.4 L293.2,351.4 L293.5,351.3 L293.7,351.3 
		L293.9,351.3 L294.2,351.5 L294.4,351.5 L294.7,351.5 L294.9,351.5 L295.2,351.5 L295.4,351.5 L295.7,351.9 
		L295.9,351.9 L296.2,351.9 L296.4,351.9 L296.7,351.9 L296.9,351.9 L297.2,351.9 L297.4,352.3 L297.7,352.3 
		L297.9,352.3 L298.2,352.3 L298.4,352.3 L298.6,352.3 L298.9,352.3 L299.1,352.3 L299.4,352.3 L299.6,352.3 
		L299.9,352.3 L300.1,352.3 L300.4,352.3 L300.6,353.2 L300.9,353.3 L301.1,353.3 L301.4,353.3 L301.6,353.3 
		L301.9,353.3 L302.1,353.3 L302.4,353.3 L302.6,353.6 L302.9,353.6 L303.1,353.6 L303.3,353.6 L303.6,353.8 
		L303.8,353.8 L304.1,353.8 L304.3,353.8 L304.6,353.8 L304.8,354.1 L305.1,354.1 L305.3,354.1 L305.6,354.1 
		L305.8,354.1 L306.1,354.1 L306.3,354.1 L306.6,354.1 L306.8,354.1 L307.1,354.1 L307.3,354.1 L307.6,354.1 
		L307.8,354.1 L308.1,355.0 L308.3,355.0 L308.5,355.0 L308.8,355.0 L309.0,355.0 L309.3,355.0 L309.5,355.0 
		L309.8,355.0 L310.0,355.3 L310.3,355.3 L310.5,355.4 L310.8,355.4 L311.0,355.4 L311.3,355.4 L311.5,355.4 
		L311.8,355.4 L312.0,355.4 L312.3,355.4 L312.5,355.4 L312.8,356.0 L313.0,356.0 L313.2,356.1 L313.5,356.1 
		L313.7,356.1 L314.0,356.1 L314.2,356.3 L314.5,356.3 L314.7,356.3 L315.0,356.3 L315.2,356.3 L315.5,356.3 
		L315.7,356.3 L316.0,356.6 L316.2,356.6 L316.5,356.6 L316.7,356.6 L317.0,356.6 L317.2,356.6 L317.5,356.8 
		L317.7,356.8 L317.9,356.8 L318.2,356.8 L318.4,356.8 L318.7,356.8 L318.9,356.8 L319.2,357.0 L319.4,357.0 
		L319.7,356.9 L319.9,356.9 L320.2,356.9 L320.4,356.9 L320.7,357.1 L320.9,357.2 L321.2,357.1 L321.4,357.1 
		L321.7,357.1 L321.9,357.2 L322.2,357.0 L322.4,357.0 L322.6,357.0 L322.9,357.0 L323.1,357.2 L323.4,357.1 
		L323.6,357.1 L323.9,357.1 L324.1,357.3 L324.4,357.0 L324.6,356.6 L324.9,356.1 L325.1,356.0 L325.4,356.0 
		L325.6,356.0 L325.9,356.0 L326.1,356.1 L326.4,355.8 L326.6,355.8 L326.9,355.8 L327.1,355.8 L327.3,355.8 
		L327.6,355.8 L327.8,356.0 L328.1,356.0 L328.3,356.0 L328.6,356.0 L328.8,356.1 L329.1,356.0 L329.3,356.0 
		L329.6,355.9 L329.8,355.9 L330.1,355.9 L330.3,355.9 L330.6,355.9 L330.8,355.9 L331.1,355.9 L331.3,355.9 
		L331.6,355.9 L331.8,355.9 L332.0,355.9 L332.3,355.9 L332.5,355.9 L332.8,355.9 L333.0,355.9 L333.3,355.9 
		L333.5,355.9 L333.8,356.8 L334.0,356.8 L334.3,356.7 L334.5,356.7 L334.8,356.7 L335.0,356.7 L335.3,356.7 
		L335.5,356.7 L335.8,356.7 L336.0,356.7 L336.3,356.7 L336.5,356.7 L336.7,357.3 L337.0,357.3 L337.2,357.3 
		L337.5,357.3 L337.7,357.3 L338.0,357.3 L338.2,357.3 L338.5,357.3 L338.7,357.3 L339.0,357.6 L339.2,357.6 
		L339.5,357.6 L339.7,357.7 L340.0,357.7 L340.2,357.7 L340.5,357.7 L340.7,357.7 L341.0,357.7 L341.2,357.7 
		L341.4,357.7 L341.7,357.7 L341.9,358.2 L342.2,358.2 L342.4,358.2 L342.7,358.2 L342.9,358.2 L343.2,358.5 
		L343.4,358.5 L343.7,358.5 L343.9,358.5 L344.2,358.5 L344.4,358.6 L344.7,358.6 L344.9,358.6 L345.2,358.6 
		L345.4,358.5 L345.7,358.4 L345.9,358.3 L346.2,358.3 L346.4,358.3 L346.6,358.3 L346.9,358.3 L347.1,358.3 
		L347.4,358.3 L347.6,358.3 L347.9,358.3 L348.1,358.3 L348.4,358.3 L348.6,358.9 L348.9,358.6 L349.1,358.6 
		L349.4,358.6 L349.6,358.5 L349.9,358.5 L350.1,358.5 L350.4,358.5 L350.6,358.5 L350.9,358.5 L351.1,358.5 
		L351.3,358.5 L351.6,358.5 L351.8,358.5 L352.1,358.5 L352.3,358.5 L352.6,358.5 L352.8,358.5 L353.1,358.5 
		L353.3,358.5 L353.6,359.3 L353.8,359.3 L354.1,359.3 L354.3,359.3 L354.6,359.3 L354.8,359.3 L355.1,359.5 
		L355.3,359.5 L355.6,359.5 L355.8,359.5 L356.0,359.5 L356.3,359.5 L356.5,359.5 L356.8,359.5 L357.0,359.5 
		L357.3,359.5 L357.5,359.5 L357.8,359.5 L358.0,359.5 L358.3,359.5 L358.5,359.5 L358.8,359.5 L359.0,359.5 
		L359.3,359.5 L359.5,359.5 L359.8,359.5 L360.0,359.5 L360.3,359.5 L360.5,359.5 L360.7,360.6 L361.0,360.6 
		L361.2,360.6 L361.5,360.6 L361.7,360.7 L362.0,360.6 L362.2,360.6 L362.5,360.6 L362.7,360.6 L363.0,360.6 
		L363.2,360.6 L363.5,360.6 L363.7,360.6 L364.0,360.9 L364.2,360.9 L364.5,360.9 L364.7,361.0 L365.0,360.9 
		L365.2,360.9 L365.4,360.9 L365.7,360.9 L365.9,360.9 L366.2,360.9 L366.4,360.9 L366.7,360.9 L366.9,360.9 
		L367.2,360.9 L367.4,360.9 L367.7,360.9 L367.9,360.9 L368.2,360.9 L368.4,361.1 L368.7,361.1 L368.9,361.1 
		L369.2,361.1 L369.4,361.1 L369.7,361.1 L369.9,361.1 L370.1,361.1 L370.4,361.5 L370.6,361.5 L370.9,361.5 
		L371.1,361.5 L371.4,361.5 L371.6,361.7 L371.9,361.7 L372.1,361.7 L372.4,361.7 L372.6,361.7 L372.9,361.7 
		L373.1,361.7 L373.4,361.7 L373.6,361.7 L373.9,361.7 L374.1,361.7 L374.4,361.7 L374.6,361.7 L374.8,362.2 
		L375.1,362.2 L375.3,362.2 L375.6,362.2 L375.8,362.2 L376.1,362.2 L376.3,362.2 L376.6,362.2 L376.8,362.2 
		L377.1,362.2 L377.3,362.2 L377.6,362.7 L377.8,362.7 L378.1,362.7 L378.3,362.7 L378.6,362.7 L378.8,362.7 
		L379.1,362.9 L379.3,362.9 L379.5,362.9 L379.8,362.9 L380.0,362.9 L380.3,362.9 L380.5,362.9 L380.8,362.9 
		L381.0,362.9 L381.3,362.9 L381.5,363.4 L381.8,363.4 L382.0,363.4 L382.3,363.4 L382.5,363.4 L382.8,363.4 
		L383.0,363.4 L383.3,363.5 L383.5,363.5 L383.8,363.5 L384.0,363.7 L384.2,363.7 L384.5,363.7 L384.7,363.7 
		L385.0,363.7 L385.2,363.7 L385.5,363.8 L385.7,363.8 L386.0,363.8 L386.2,363.8 L386.5,363.8 L386.7,363.8 
		L387.0,363.8 L387.2,364.1 L387.5,364.1 L387.7,364.1 L388.0,364.1 L388.2,364.1 L388.5,364.1 L388.7,364.1 
		L389.0,364.1 L389.2,364.1 L389.4,364.5 L389.7,364.5 L389.9,364.5 L390.2,364.5 L390.4,364.5 L390.7,364.7 
		L390.9,364.7 L391.2,364.7 L391.4,364.7 L391.7,364.7 L391.9,364.7 L392.2,364.7 L392.4,364.8 L392.7,364.8 
		L392.9,364.8 L393.2,364.8 L393.4,364.8 L393.7,364.8 L393.9,364.8 L394.1,364.8 L394.4,364.8 L394.6,364.8 
		L394.9,364.8 L395.1,364.8 L395.4,364.8 L395.6,364.8 L395.9,364.8 L396.1,364.8 L396.4,364.8 L396.6,364.8 
		L396.9,364.8 L397.1,365.5 L397.4,365.5 L397.6,365.5 L397.9,365.5 L398.1,365.5 L398.4,365.5 L398.6,365.5 
		L398.8,365.5 L399.1,365.5 L399.3,365.5 L399.6,365.5 L399.8,365.5 L400.1,365.5 L400.3,365.5 L400.6,365.5 
		L400.8,365.5 L401.1,365.5 L401.3,365.5 L401.6,365.5 L401.8,366.2 L402.1,366.2 L402.3,366.2 L402.6,366.2 
		L402.8,366.2 L403.1,366.2 L403.3,366.2 L403.5,366.2 L403.8,366.2 L404.0,366.2 L404.3,366.2 L404.5,366.2 
		L404.8,366.2 L405.0,366.2 L405.3,366.2 L405.5,366.7 L405.8,366.7 L406.0,366.7 L406.3,366.7 L406.5,366.6 
		L406.8,366.6 L407.0,366.6 L407.3,366.5 L407.5,366.5 L407.8,366.5 L408.0,366.5 L408.2,366.4 L408.5,366.2 
		L408.7,366.1 L409.0,366.1 L409.2,366.2 L409.5,366.1 L409.7,365.9 L410.0,365.8 L410.2,365.8 L410.5,365.8 
		L410.7,365.8 L411.0,365.8 L411.2,365.8 L411.5,365.8 L411.7,365.8 L412.0,365.8 L412.2,366.1 L412.5,366.1 
		L412.7,366.1 L412.9,366.1 L413.2,365.9 L413.4,365.9 L413.7,365.9 L413.9,365.9 L414.2,365.9 L414.4,365.9 
		L414.7,365.9 L414.9,365.9 L415.2,365.9 L415.4,365.9 L415.7,365.9 L415.9,365.9 L416.2,365.9 L416.4,365.9 
		L416.7,365.9 L416.9,365.9 L417.2,365.9 L417.4,365.9 L417.6,365.9 L417.9,365.9 L418.1,365.9 L418.4,366.7 
		L418.6,366.6 L418.9,366.6 L419.1,366.6 L419.4,366.5 L419.6,366.4 L419.9,366.4 L420.1,366.4 L420.4,366.4 
		L420.6,366.4 L420.9,366.4 L421.1,366.4 L421.4,366.4 L421.6,366.4 L421.9,366.4 L422.1,366.4 L422.3,366.4 
		L422.6,366.4 L422.8,366.4 L423.1,366.4 L423.3,366.4 L423.6,366.4 L423.8,366.4 L424.1,367.1 L424.3,367.1 
		L424.6,367.1 L424.8,367.1 L425.1,367.1 L425.3,367.1 L425.6,367.2 L425.8,367.2 L426.1,367.2 L426.3,367.2 
		L426.6,367.2 L426.8,367.2 L427.0,367.2 L427.3,367.2 L427.5,367.2 L427.8,367.3 L428.0,367.2 L428.3,367.2 
		L428.5,367.2 L428.8,367.1 L429.0,367.0 L429.3,367.0 L429.5,367.0 L429.8,367.0 L430.0,367.0 L430.3,367.0 
		L430.5,367.0 L430.8,367.0 L431.0,367.0 L431.3,366.9 L431.5,366.9 L431.8,366.9 L432.0,366.9 L432.2,366.9 
		L432.5,366.9 L432.7,366.9 L433.0,366.9 L433.2,366.9 L433.5,367.1 L433.7,367.1 L434.0,367.1 L434.2,367.1 
		L434.5,367.1 L434.7,367.1 L435.0,367.1 L435.2,367.3 L435.5,367.3 L435.7,367.3 L436.0,367.2 L436.2,367.2 
		L436.5,367.1 L436.7,367.1 L436.9,367.1 L437.2,367.1 L437.4,367.1 L437.7,367.1 L437.9,367.1 L438.2,367.1 
		L438.4,367.1 L438.7,367.3 L438.9,367.3 L439.2,367.3 L439.4,367.3 L439.7,367.2 L439.9,367.2 L440.2,367.2 
		L440.4,367.2 L440.7,367.2 L440.9,367.2 L441.2,367.4 L441.4,367.4 L441.6,367.4 L441.9,367.4 L442.1,367.4 
		L442.4,367.4 L442.6,367.4 L442.9,367.4 L443.1,367.6 L443.4,367.6 L443.6,367.6 L443.9,367.6 L444.1,367.6 
		L444.4,367.6 L444.6,367.6 L444.9,367.6 L445.1,367.6 L445.4,367.6 L445.6,367.6 L445.9,367.6 L446.1,367.6 
		L446.3,367.6 L446.6,367.9 L446.8,367.9 L447.1,367.9 L447.3,367.9 L447.6,367.9 L447.8,367.9 L448.1,367.9 
		L448.3,367.9 L448.6,368.1 L448.8,368.1 L449.1,368.1 L449.3,368.1 L449.6,368.1 L449.8,368.1 L450.1,368.1 
		L450.3,368.3 L450.6,368.3 L450.8,368.3 L451.0,368.3 L451.3,368.3 L451.5,368.5 L451.8,368.5 L452.0,368.5 
		L452.3,368.5 L452.5,368.5 L452.8,368.5 L453.0,368.5 L453.3,368.7 L453.5,368.7 L453.8,368.6 L454.0,368.5 
		L454.3,368.5 L454.5,368.3 L454.8,368.2 L455.0,368.1 L455.3,368.0 L455.5,368.0 L455.7,368.0 L456.0,368.0 
		L456.2,368.0 L456.5,368.0 L456.7,368.2 L457.0,368.2 L457.2,368.2 L457.5,368.2 L457.7,368.2 L458.0,368.1 
		L458.2,368.1 L458.5,368.1 L458.7,368.1 L459.0,368.2 L459.2,368.2 L459.5,368.2 L459.7,368.2 L460.0,368.2 
		L460.2,368.2 L460.4,368.2 L460.7,368.2 L460.9,368.2 L461.2,368.2 L461.4,368.2 L461.7,368.2 L461.9,368.2 
		L462.2,368.2 L462.4,368.5 L462.7,368.5 L462.9,368.5 L463.2,368.5 L463.4,368.6 L463.7,368.6 L463.9,368.5 
		L464.2,368.5 L464.4,368.5 L464.7,368.5 L464.9,368.4 L465.1,368.3 L465.4,368.3 L465.6,368.3 L465.9,368.3 
		L466.1,368.4 L466.4,368.4 L466.6,368.3 L466.9,368.3 L467.1,368.3 L467.4,368.3 L467.6,368.3 L467.9,368.4 
		L468.1,368.3 L468.4,368.3 L468.6,368.3 L468.9,368.3 L469.1,368.3 L469.4,368.3 L469.6,368.3 L469.9,368.3 
		L470.1,368.3 L470.3,368.3 L470.6,368.3 L470.8,368.3 L471.1,368.3 L471.3,368.3 L471.6,368.7 L471.8,368.6 
		L472.1,368.6 L472.3,368.6 L472.6,368.6 L472.8,368.6 L473.1,368.6 L473.3,368.7 L473.6,368.7 L473.8,368.7 
		L474.1,368.7 L474.3,368.7 L474.6,368.7 L474.8,368.7 L475.0,368.7 L475.3,368.7 L475.5,368.7 L475.8,368.7 
		L476.0,368.7 L476.3,368.7 L476.5,368.7 L476.8,368.7 L477.0,368.7 L477.3,368.7 L477.5,368.7 L477.8,368.7 
		L478.0,368.7 L478.3,368.7 L478.5,369.3 L478.8,369.3 L479.0,369.3 L479.3,369.3 L479.5,369.3 L479.7,369.3 
		L480.0,369.4 L480.2,369.4 L480.5,369.4 L480.7,369.4 L481.0,369.4 L481.2,369.4 L481.5,369.4 L481.7,369.4 
		L482.0,369.5 L482.2,369.5 L482.5,369.5 L482.7,369.5 L483.0,369.5 L483.2,369.6 L483.5,369.5 L483.7,369.5 
		L484.0,369.5 L484.2,369.5 L484.4,369.6 L484.7,369.6 L484.9,369.6 L485.2,369.6 L485.4,369.6 L485.7,369.6 
		L485.9,369.6 L486.2,369.6 L486.4,369.7 L486.7,369.7 L486.9,369.7 L487.2,369.7 L487.4,369.8 L487.7,369.8 
		L487.9,369.8 L488.2,369.8 L488.4,369.8 L488.7,369.9 L488.9,369.9 L489.1,370.0 L489.4,370.0 L489.6,370.0 
		L489.9,369.9 L490.1,369.9 L490.4,369.8 L490.6,369.8 L490.9,369.8 L491.1,369.8 L491.4,369.7 L491.6,369.5 
		L491.9,369.5 L492.1,369.5 L492.4,369.5 L492.6,369.5 L492.9,369.5 L493.1,369.5 L493.4,369.5 L493.6,369.5 
		L493.8,369.5 L494.1,369.7 L494.3,369.7 L494.6,369.7 L494.8,369.7 L495.1,369.7 L495.3,369.7 L495.6,369.7 
		L495.8,369.7 L496.1,369.7 L496.3,369.7 L496.6,369.7 L496.8,369.7 L497.1,369.7 L497.3,369.7 L497.6,369.7 
		L497.8,369.7 L498.1,369.7 L498.3,370.3 L498.5,370.2 L498.8,370.2 L499.0,370.3 L499.3,370.1 L499.5,370.1 
		L499.8,370.0 L500.0,370.0 L500.3,370.0 L500.5,370.0 L500.8,370.1 L501.0,370.0 L501.3,370.0 L501.5,370.0 
		L501.8,370.1 L502.0,370.1 L502.3,370.1 L502.5,370.1 L502.8,370.0 L503.0,369.8 L503.2,369.6 L503.5,369.6 
		L503.7,369.3 L504.0,369.2 L504.2,369.2 L504.5,369.2 L504.7,369.2 L505.0,369.2 L505.2,369.2 L505.5,369.2 
		L505.7,369.2 L506.0,369.2 L506.2,369.2 L506.5,369.2 L506.7,369.2 L507.0,369.2 L507.2,369.4 L507.5,369.3 
		L507.7,369.2 L507.9,369.0 L508.2,368.8 L508.4,368.8 L508.7,368.8 L508.9,368.8 L509.2,368.8 L509.4,368.8 
		L509.7,368.8 L509.9,369.0 L510.2,369.0 L510.4,369.0 L510.7,368.9 L510.9,368.9 L511.2,368.9 L511.4,368.9 
		L511.7,369.0 L511.9,368.9 L512.2,368.9 L512.4,368.9 L512.7,368.9 L512.9,368.9 L513.1,368.9 L513.4,368.9 
		L513.6,368.9 L513.9,368.9 L514.1,368.9 L514.4,368.9 L514.6,369.2 L514.9,369.2 L515.1,369.2 L515.4,369.2 
		L515.6,369.2 L515.9,369.2 L516.1,369.4 L516.4,369.3 L516.6,369.3 L516.9,369.3 L517.1,369.4 L517.4,369.3 
		L517.6,369.3 L517.8,369.3 L518.1,369.3 L518.3,369.4 L518.6,369.4 L518.8,369.4 L519.1,369.5 L519.3,369.5 
		L519.6,369.5 L519.8,369.5 L520.1,369.4 L520.3,369.4 L520.6,369.4 L520.8,369.4 L521.1,369.3 L521.3,369.3 
		L521.6,369.3 L521.8,369.2 L522.1,369.2 L522.3,369.2 L522.5,369.0 L522.8,369.0 L523.0,369.0 L523.3,369.0 
		L523.5,369.0 L523.8,369.2 L524.0,369.0 L524.3,368.9 L524.5,368.9 L524.8,368.9 L525.0,369.0 L525.3,369.0 
		L525.5,368.9 L525.8,368.9 L526.0,368.9 L526.3,368.8 L526.5,368.8 L526.8,368.8 L527.0,368.8 L527.2,368.8 
		L527.5,368.8 L527.7,368.9 L528.0,368.8 L528.2,368.8 L528.5,368.8 L528.7,368.8 L529.0,368.8 L529.2,368.8 
		L529.5,368.8 L529.7,368.8 L530.0,369.0 L530.2,369.0 L530.5,369.0 L530.7,369.0 L531.0,369.0 L531.2,369.0 
		L531.5,369.0 L531.7,369.0 L531.9,369.0 L532.2,369.0 L532.4,369.0 L532.7,369.0 L532.9,369.0 L533.2,369.0 
		L533.4,369.0 L533.7,369.0 L533.9,369.0 L534.2,369.0 L534.4,369.0 L534.7,369.0 L534.9,369.0 L535.2,369.5 
		L535.4,369.5 L535.7,369.5 L535.9,369.5 L536.2,369.6 L536.4,369.6 L536.6,369.6 L536.9,369.6 L537.1,369.6 
		L537.4,369.6 L537.6,369.6 L537.9,369.6 L538.1,369.6 L538.4,369.6 L538.6,369.6 L538.9,369.6 L539.1,369.6 
		L539.4,369.6 L539.6,369.8 L539.9,369.8 L540.1,369.8 L540.4,369.8 L540.6,369.8 L540.9,369.8 L541.1,369.8 
		L541.3,369.8 L541.6,369.8 L541.8,369.8 L542.1,369.8 L542.3,369.9 L542.6,369.9 L542.8,369.9 L543.1,369.9 
		L543.3,369.9 L543.6,369.9 L543.8,369.9 L544.1,369.9 L544.3,369.9 L544.6,369.9 L544.8,369.9 L545.1,369.9 
		L545.3,369.9 L545.6,369.9 L545.8,369.9 L546.0,369.9 L546.3,370.3 L546.5,370.3 L546.8,370.3 L547.0,370.3 
		L547.3,370.3 L547.5,370.3 L547.8,370.3 L548.0,370.4 L548.3,370.3 L548.5,370.3 L548.8,370.3 L549.0,370.3 
		L549.3,370.3 L549.5,370.3 L549.8,370.3 L550.0,370.3 L550.3,370.3 L550.5,370.3 L550.7,370.3 L551.0,370.3 
		L551.2,370.3 L551.5,370.3 L551.7,370.6 L552.0,370.6 L552.2,370.6 L552.5,370.5 L552.7,370.5 L553.0,370.5 
		L553.2,370.5 L553.5,370.5 L553.7,370.5 L554.0,370.5 L554.2,370.5 L554.5,370.5 L554.7,370.5 L555.0,370.5 
		L555.2,370.5 L555.5,370.7 L555.7,370.7 L555.9,370.7 L556.2,370.7 L556.4,370.7 L556.7,370.7 L556.9,370.7 
		L557.2,370.7 L557.4,370.7 L557.7,370.7 L557.9,370.7 L558.2,370.7 L558.4,370.7 L558.7,370.7 L558.9,370.7 
		L559.2,370.7 L559.4,370.7 L559.7,370.9 L559.9,370.9 L560.2,370.9 L560.4,370.9 L560.6,370.9 L560.9,370.9 
		L561.1,370.9 L561.4,370.9 L561.6,370.9 L561.9,370.9 L562.1,370.9 L562.4,370.9 L562.6,371.0 L562.9,370.9 
		L563.1,370.8 L563.4,370.6 L563.6,370.5 L563.9,370.2 L564.1,370.1 L564.4,370.1 L564.6,370.1 L564.9,370.1 
		L565.1,370.1 L565.3,370.2 L565.6,370.2 L565.8,370.2 L566.1,370.2 L566.3,370.2 L566.6,370.2 L566.8,370.2 
		L567.1,370.2 L567.3,370.2 L567.6,370.2 L567.8,370.2 L568.1,370.2 L568.3,370.2 L568.6,370.2 L568.8,370.2 
		L569.1,370.5 L569.3,370.5 L569.6,370.5 L569.8,370.5 L570.0,370.5 L570.3,370.5 L570.5,370.5 L570.8,370.5 
		L571.0,370.5 L571.3,370.5 L571.5,370.5 L571.8,370.5 L572.0,370.5 L572.3,370.5 L572.5,370.5 L572.8,370.5 
		L573.0,370.9 L573.3,370.8 L573.5,370.8 L573.8,370.8 L574.0,370.8 L574.3,370.8 L574.5,370.9 L574.7,370.9 
		L575.0,370.9  h0.01'/></g>
	</g>
	<g id="gnuplot_plot_2" ><title>gnuplot_plot_2</title>
<g style="fill:none; color:green; stroke:currentColor; stroke-width:1.00; stroke-linecap:butt; stroke-linejoin:miter">
	<g transform="translate(507.9,408.9)" style="stroke:none; fill:black; font-family:Arial; font-size:12.00pt; text-anchor:end">
		<text>Radio maximum capacity</text>
	</g>
	<path  d='M516.2,404.4 L558.4,404.4 M84.7,117.2 L84.9,117.2 L85.1,117.2 L85.4,364.6 L85.6,284.0 L85.9,235.0 
		L86.1,235.0 L86.4,235.0 L86.6,289.6 L86.9,237.0 L87.1,162.1 L87.4,111.1 L87.6,103.1 L87.9,103.1 
		L88.1,103.1 L88.4,166.2 L88.6,138.1 L88.9,131.7 L89.1,131.7 L89.4,131.7 L89.6,131.7 L89.8,131.7 
		L90.1,131.7 L90.3,183.0 L90.6,181.3 L90.8,181.3 L91.1,183.0 L91.3,159.9 L91.6,157.9 L91.8,157.9 
		L92.1,157.9 L92.3,157.9 L92.6,157.9 L92.8,157.9 L93.1,201.6 L93.3,191.6 L93.6,177.2 L93.8,168.4 
		L94.0,157.3 L94.3,155.6 L94.5,155.6 L94.8,155.6 L95.0,155.6 L95.3,155.6 L95.5,155.6 L95.8,155.6 
		L96.0,155.6 L96.3,197.9 L96.5,202.7 L96.8,188.8 L97.0,165.8 L97.3,147.2 L97.5,139.8 L97.8,139.8 
		L98.0,139.8 L98.3,147.3 L98.5,144.4 L98.8,144.4 L99.0,152.2 L99.2,152.2 L99.5,152.2 L99.7,152.2 
		L100.0,165.3 L100.2,164.8 L100.5,164.8 L100.7,174.0 L101.0,174.0 L101.2,173.0 L101.5,158.7 L101.7,142.6 
		L102.0,133.6 L102.2,132.6 L102.5,132.6 L102.7,132.6 L103.0,132.6 L103.2,132.6 L103.5,151.6 L103.7,142.5 
		L103.9,136.2 L104.2,130.6 L104.4,128.1 L104.7,126.0 L104.9,125.5 L105.2,125.5 L105.4,125.5 L105.7,135.3 
		L105.9,134.4 L106.2,134.4 L106.4,141.2 L106.7,141.2 L106.9,141.2 L107.2,141.2 L107.4,141.2 L107.7,141.2 
		L107.9,152.9 L108.2,145.2 L108.4,140.4 L108.6,136.1 L108.9,134.3 L109.1,132.5 L109.4,132.5 L109.6,132.5 
		L109.9,132.5 L110.1,132.5 L110.4,132.5 L110.6,132.5 L110.9,147.7 L111.1,147.7 L111.4,147.7 L111.6,147.7 
		L111.9,147.7 L112.1,147.7 L112.4,147.7 L112.6,147.7 L112.9,164.0 L113.1,163.9 L113.3,163.9 L113.6,163.9 
		L113.8,163.9 L114.1,163.9 L114.3,163.9 L114.6,163.9 L114.8,179.2 L115.1,179.2 L115.3,179.2 L115.6,184.7 
		L115.8,184.7 L116.1,184.7 L116.3,184.7 L116.6,184.7 L116.8,184.7 L117.1,195.1 L117.3,194.7 L117.6,194.6 
		L117.8,194.6 L118.0,194.6 L118.3,194.6 L118.5,194.6 L118.8,194.6 L119.0,194.6 L119.3,194.6 L119.5,194.6 
		L119.8,194.6 L120.0,210.4 L120.3,210.4 L120.5,210.4 L120.8,210.4 L121.0,210.4 L121.3,216.4 L121.5,216.4 
		L121.8,216.4 L122.0,216.4 L122.3,216.4 L122.5,216.4 L122.7,216.4 L123.0,216.4 L123.2,216.4 L123.5,216.4 
		L123.7,216.4 L124.0,216.4 L124.2,216.4 L124.5,216.4 L124.7,216.4 L125.0,216.4 L125.2,216.4 L125.5,216.4 
		L125.7,216.4 L126.0,216.4 L126.2,238.7 L126.5,235.4 L126.7,233.0 L127.0,232.8 L127.2,232.8 L127.5,232.8 
		L127.7,232.8 L127.9,232.8 L128.2,238.3 L128.4,235.5 L128.7,232.3 L128.9,229.2 L129.2,227.9 L129.4,227.9 
		L129.7,228.7 L129.9,224.7 L130.2,220.0 L130.4,217.6 L130.7,217.5 L130.9,217.5 L131.2,217.5 L131.4,217.5 
		L131.7,217.5 L131.9,217.5 L132.2,217.5 L132.4,217.5 L132.6,225.4 L132.9,222.1 L133.1,217.8 L133.4,214.2 
		L133.6,211.9 L133.9,211.6 L134.1,211.6 L134.4,211.6 L134.6,211.6 L134.9,213.6 L135.1,212.7 L135.4,212.6 
		L135.6,212.6 L135.9,212.6 L136.1,212.6 L136.4,212.6 L136.6,212.6 L136.9,212.6 L137.1,212.6 L137.3,212.6 
		L137.6,212.6 L137.8,212.6 L138.1,223.9 L138.3,223.9 L138.6,223.6 L138.8,220.5 L139.1,220.3 L139.3,221.1 
		L139.6,219.5 L139.8,219.4 L140.1,219.4 L140.3,219.4 L140.6,219.4 L140.8,219.4 L141.1,219.4 L141.3,219.4 
		L141.6,224.9 L141.8,224.1 L142.1,224.1 L142.3,225.5 L142.5,225.5 L142.8,225.5 L143.0,225.5 L143.3,225.5 
		L143.5,225.5 L143.8,225.5 L144.0,225.5 L144.3,225.5 L144.5,225.5 L144.8,225.5 L145.0,225.5 L145.3,225.5 
		L145.5,234.9 L145.8,232.7 L146.0,230.5 L146.3,228.8 L146.5,228.7 L146.8,228.7 L147.0,230.3 L147.2,230.1 
		L147.5,230.1 L147.7,230.1 L148.0,230.1 L148.2,230.1 L148.5,230.1 L148.7,230.1 L149.0,230.1 L149.2,236.0 
		L149.5,235.3 L149.7,235.1 L150.0,235.4 L150.2,235.4 L150.5,235.4 L150.7,235.4 L151.0,235.4 L151.2,238.6 
		L151.5,238.6 L151.7,238.6 L151.9,238.6 L152.2,238.6 L152.4,238.6 L152.7,238.6 L152.9,238.6 L153.2,238.6 
		L153.4,238.6 L153.7,238.6 L153.9,238.6 L154.2,238.6 L154.4,238.6 L154.7,247.1 L154.9,247.1 L155.2,247.1 
		L155.4,247.1 L155.7,249.1 L155.9,249.0 L156.2,249.0 L156.4,249.0 L156.6,249.0 L156.9,249.0 L157.1,249.0 
		L157.4,249.0 L157.6,249.0 L157.9,249.0 L158.1,249.0 L158.4,249.0 L158.6,249.0 L158.9,249.0 L159.1,249.0 
		L159.4,249.0 L159.6,255.5 L159.9,253.0 L160.1,251.7 L160.4,251.7 L160.6,251.7 L160.9,251.7 L161.1,251.7 
		L161.3,253.6 L161.6,253.6 L161.8,253.6 L162.1,253.6 L162.3,253.6 L162.6,253.6 L162.8,255.8 L163.1,255.8 
		L163.3,255.8 L163.6,255.8 L163.8,255.8 L164.1,255.8 L164.3,255.8 L164.6,255.8 L164.8,255.8 L165.1,255.8 
		L165.3,255.8 L165.6,255.8 L165.8,255.8 L166.0,255.8 L166.3,255.8 L166.5,255.8 L166.8,255.8 L167.0,262.4 
		L167.3,258.1 L167.5,253.7 L167.8,251.3 L168.0,251.2 L168.3,251.8 L168.5,251.8 L168.8,252.7 L169.0,252.5 
		L169.3,252.5 L169.5,253.7 L169.8,252.3 L170.0,251.5 L170.3,251.5 L170.5,252.6 L170.7,252.5 L171.0,252.5 
		L171.2,253.6 L171.5,253.6 L171.7,253.6 L172.0,253.6 L172.2,253.6 L172.5,253.6 L172.7,253.6 L173.0,253.6 
		L173.2,253.6 L173.5,253.6 L173.7,253.6 L174.0,253.6 L174.2,253.6 L174.5,253.6 L174.7,260.1 L175.0,260.1 
		L175.2,260.1 L175.4,260.1 L175.7,260.1 L175.9,262.1 L176.2,262.1 L176.4,262.1 L176.7,262.9 L176.9,262.9 
		L177.2,262.9 L177.4,262.9 L177.7,262.9 L177.9,262.9 L178.2,262.9 L178.4,264.8 L178.7,264.3 L178.9,264.3 
		L179.2,264.3 L179.4,264.3 L179.7,265.4 L179.9,265.4 L180.1,265.4 L180.4,265.6 L180.6,265.6 L180.9,265.8 
		L181.1,264.6 L181.4,264.3 L181.6,264.3 L181.9,264.3 L182.1,264.3 L182.4,264.3 L182.6,266.2 L182.9,264.7 
		L183.1,263.9 L183.4,263.9 L183.6,263.9 L183.9,263.9 L184.1,263.9 L184.4,263.9 L184.6,263.9 L184.9,263.9 
		L185.1,266.6 L185.3,266.1 L185.6,265.6 L185.8,265.5 L186.1,265.5 L186.3,266.5 L186.6,266.0 L186.8,266.0 
		L187.1,266.0 L187.3,266.0 L187.6,266.0 L187.8,267.5 L188.1,266.4 L188.3,266.3 L188.6,266.3 L188.8,266.3 
		L189.1,266.3 L189.3,266.8 L189.6,266.7 L189.8,266.7 L190.0,266.7 L190.3,266.7 L190.5,266.7 L190.8,266.7 
		L191.0,266.7 L191.3,266.7 L191.5,266.7 L191.8,266.7 L192.0,266.7 L192.3,270.4 L192.5,270.7 L192.8,269.3 
		L193.0,267.4 L193.3,266.4 L193.5,265.8 L193.8,265.5 L194.0,265.2 L194.3,265.2 L194.5,265.2 L194.7,265.2 
		L195.0,265.2 L195.2,265.2 L195.5,265.2 L195.7,265.2 L196.0,265.2 L196.2,265.2 L196.5,265.2 L196.7,268.5 
		L197.0,268.5 L197.2,268.4 L197.5,268.3 L197.7,268.3 L198.0,268.3 L198.2,268.3 L198.5,269.0 L198.7,268.8 
		L199.0,268.8 L199.2,269.6 L199.4,268.9 L199.7,268.7 L199.9,268.7 L200.2,268.7 L200.4,269.5 L200.7,267.7 
		L200.9,266.6 L201.2,266.6 L201.4,266.6 L201.7,266.9 L201.9,265.5 L202.2,265.5 L202.4,265.5 L202.7,265.5 
		L202.9,265.5 L203.2,265.5 L203.4,265.5 L203.7,265.5 L203.9,265.5 L204.1,265.5 L204.4,265.5 L204.6,265.5 
		L204.9,265.5 L205.1,265.5 L205.4,265.5 L205.6,265.5 L205.9,265.5 L206.1,265.5 L206.4,265.5 L206.6,265.5 
		L206.9,265.5 L207.1,271.2 L207.4,270.7 L207.6,270.7 L207.9,270.7 L208.1,270.7 L208.4,270.7 L208.6,270.7 
		L208.8,270.7 L209.1,272.1 L209.3,272.1 L209.6,272.1 L209.8,272.1 L210.1,272.2 L210.3,271.0 L210.6,269.9 
		L210.8,269.2 L211.1,269.2 L211.3,269.2 L211.6,269.2 L211.8,269.2 L212.1,270.7 L212.3,269.7 L212.6,269.6 
		L212.8,269.6 L213.1,269.6 L213.3,269.6 L213.5,269.6 L213.8,269.6 L214.0,271.5 L214.3,270.4 L214.5,269.6 
		L214.8,269.5 L215.0,269.5 L215.3,269.5 L215.5,269.5 L215.8,269.5 L216.0,269.5 L216.3,269.5 L216.5,269.5 
		L216.8,269.5 L217.0,269.5 L217.3,269.5 L217.5,269.5 L217.8,271.8 L218.0,270.9 L218.2,270.7 L218.5,270.7 
		L218.7,270.7 L219.0,271.3 L219.2,271.6 L219.5,271.0 L219.7,270.0 L220.0,269.8 L220.2,269.8 L220.5,269.8 
		L220.7,269.8 L221.0,269.8 L221.2,269.8 L221.5,269.8 L221.7,269.8 L222.0,269.8 L222.2,269.8 L222.5,272.2 
		L222.7,270.6 L222.9,269.0 L223.2,268.3 L223.4,268.2 L223.7,268.2 L223.9,268.6 L224.2,268.6 L224.4,268.6 
		L224.7,268.6 L224.9,268.6 L225.2,268.6 L225.4,268.6 L225.7,268.6 L225.9,268.6 L226.2,270.7 L226.4,270.5 
		L226.7,270.5 L226.9,270.9 L227.2,270.9 L227.4,270.9 L227.7,270.9 L227.9,270.9 L228.1,270.9 L228.4,272.3 
		L228.6,272.3 L228.9,272.3 L229.1,272.3 L229.4,272.3 L229.6,272.3 L229.9,272.3 L230.1,272.3 L230.4,272.3 
		L230.6,272.3 L230.9,272.3 L231.1,272.3 L231.4,272.3 L231.6,272.3 L231.9,275.8 L232.1,275.3 L232.4,274.8 
		L232.6,274.7 L232.8,274.7 L233.1,275.2 L233.3,275.1 L233.6,274.9 L233.8,273.4 L234.1,271.9 L234.3,271.1 
		L234.6,270.8 L234.8,270.8 L235.1,270.8 L235.3,270.8 L235.6,270.8 L235.8,270.8 L236.1,270.8 L236.3,270.8 
		L236.6,270.8 L236.8,270.8 L237.1,270.8 L237.3,270.8 L237.5,270.8 L237.8,274.1 L238.0,272.8 L238.3,271.7 
		L238.5,270.8 L238.8,270.6 L239.0,270.9 L239.3,270.4 L239.5,270.3 L239.8,270.3 L240.0,270.3 L240.3,270.3 
		L240.5,270.3 L240.8,270.3 L241.0,270.3 L241.3,270.3 L241.5,270.3 L241.8,270.3 L242.0,270.3 L242.2,270.3 
		L242.5,270.3 L242.7,270.3 L243.0,270.3 L243.2,270.3 L243.5,270.3 L243.7,270.3 L244.0,270.3 L244.2,274.7 
		L244.5,274.7 L244.7,274.7 L245.0,274.7 L245.2,274.7 L245.5,274.7 L245.7,274.7 L246.0,276.1 L246.2,276.0 
		L246.5,276.0 L246.7,276.1 L246.9,276.1 L247.2,276.1 L247.4,276.1 L247.7,276.5 L247.9,276.5 L248.2,276.5 
		L248.4,276.5 L248.7,276.5 L248.9,276.5 L249.2,277.7 L249.4,277.6 L249.7,277.6 L249.9,277.6 L250.2,277.6 
		L250.4,277.6 L250.7,277.6 L250.9,277.6 L251.2,277.6 L251.4,277.6 L251.6,279.5 L251.9,279.7 L252.1,279.2 
		L252.4,279.0 L252.6,279.0 L252.9,279.0 L253.1,279.0 L253.4,279.0 L253.6,279.0 L253.9,279.0 L254.1,279.0 
		L254.4,279.0 L254.6,280.8 L254.9,280.8 L255.1,281.1 L255.4,281.1 L255.6,281.1 L255.9,281.1 L256.1,281.6 
		L256.3,280.3 L256.6,278.4 L256.8,276.5 L257.1,274.8 L257.3,274.6 L257.6,274.6 L257.8,273.6 L258.1,271.7 
		L258.3,269.6 L258.6,268.5 L258.8,268.0 L259.1,267.9 L259.3,267.9 L259.6,267.9 L259.8,267.9 L260.1,267.9 
		L260.3,267.9 L260.6,267.9 L260.8,267.9 L261.0,269.7 L261.3,269.7 L261.5,269.7 L261.8,270.3 L262.0,269.6 
		L262.3,268.9 L262.5,268.9 L262.8,269.3 L263.0,269.1 L263.3,269.1 L263.5,269.1 L263.8,269.1 L264.0,269.1 
		L264.3,269.1 L264.5,269.1 L264.8,269.1 L265.0,269.1 L265.3,269.1 L265.5,269.1 L265.8,269.1 L266.0,269.1 
		L266.2,269.1 L266.5,272.1 L266.7,271.7 L267.0,271.4 L267.2,271.4 L267.5,271.4 L267.7,271.4 L268.0,271.4 
		L268.2,271.4 L268.5,271.9 L268.7,271.6 L269.0,271.6 L269.2,271.6 L269.5,272.0 L269.7,271.9 L270.0,271.9 
		L270.2,271.9 L270.4,272.5 L270.7,272.5 L270.9,272.5 L271.2,272.5 L271.4,272.5 L271.7,272.5 L271.9,272.5 
		L272.2,273.6 L272.4,272.8 L272.7,272.2 L272.9,272.2 L273.2,272.2 L273.4,272.2 L273.7,272.2 L273.9,272.2 
		L274.2,272.2 L274.4,272.2 L274.7,272.2 L274.9,272.2 L275.1,272.2 L275.4,272.2 L275.6,272.2 L275.9,272.2 
		L276.1,272.2 L276.4,272.2 L276.6,272.2 L276.9,275.2 L277.1,275.1 L277.4,275.1 L277.6,275.1 L277.9,275.6 
		L278.1,275.6 L278.4,275.5 L278.6,275.2 L278.9,275.1 L279.1,275.1 L279.4,275.1 L279.6,275.1 L279.8,275.1 
		L280.1,275.1 L280.3,276.4 L280.6,275.7 L280.8,275.6 L281.1,275.2 L281.3,274.5 L281.6,274.2 L281.8,274.1 
		L282.1,274.1 L282.3,274.6 L282.6,274.0 L282.8,273.3 L283.1,272.5 L283.3,272.4 L283.6,272.4 L283.8,272.4 
		L284.1,272.4 L284.3,273.3 L284.5,273.3 L284.8,273.5 L285.0,273.5 L285.3,273.5 L285.5,273.6 L285.8,273.6 
		L286.0,273.6 L286.3,273.8 L286.5,273.2 L286.8,272.9 L287.0,272.9 L287.3,272.9 L287.5,272.9 L287.8,272.9 
		L288.0,272.9 L288.3,272.9 L288.5,272.9 L288.8,274.2 L289.0,273.6 L289.2,272.6 L289.5,272.0 L289.7,272.0 
		L290.0,272.0 L290.2,272.5 L290.5,271.9 L290.7,271.8 L291.0,271.4 L291.2,271.0 L291.5,270.7 L291.7,270.5 
		L292.0,270.5 L292.2,270.5 L292.5,270.5 L292.7,270.5 L293.0,270.5 L293.2,271.0 L293.5,270.9 L293.7,270.9 
		L293.9,270.9 L294.2,271.1 L294.4,271.1 L294.7,271.1 L294.9,271.1 L295.2,271.1 L295.4,271.1 L295.7,271.9 
		L295.9,271.8 L296.2,271.8 L296.4,271.8 L296.7,271.8 L296.9,271.8 L297.2,271.8 L297.4,272.8 L297.7,272.7 
		L297.9,272.7 L298.2,272.7 L298.4,272.7 L298.6,272.7 L298.9,272.7 L299.1,272.7 L299.4,272.7 L299.6,272.7 
		L299.9,272.7 L300.1,272.7 L300.4,272.7 L300.6,274.7 L300.9,274.2 L301.1,273.8 L301.4,273.7 L301.6,273.7 
		L301.9,273.7 L302.1,273.7 L302.4,273.7 L302.6,274.4 L302.9,273.9 L303.1,273.8 L303.3,273.8 L303.6,274.1 
		L303.8,274.0 L304.1,274.0 L304.3,274.0 L304.6,274.0 L304.8,274.7 L305.1,274.7 L305.3,274.7 L305.6,274.7 
		L305.8,274.7 L306.1,274.7 L306.3,274.7 L306.6,274.7 L306.8,274.7 L307.1,274.7 L307.3,274.7 L307.6,274.7 
		L307.8,274.7 L308.1,276.3 L308.3,275.6 L308.5,275.2 L308.8,275.2 L309.0,275.2 L309.3,275.2 L309.5,275.2 
		L309.8,275.2 L310.0,276.0 L310.3,276.0 L310.5,276.2 L310.8,276.2 L311.0,276.2 L311.3,276.2 L311.5,276.2 
		L311.8,276.2 L312.0,276.2 L312.3,276.2 L312.5,276.2 L312.8,277.4 L313.0,277.1 L313.2,276.5 L313.5,276.2 
		L313.7,276.2 L314.0,276.2 L314.2,276.5 L314.5,276.4 L314.7,276.4 L315.0,276.4 L315.2,276.4 L315.5,276.4 
		L315.7,276.4 L316.0,276.6 L316.2,275.8 L316.5,275.6 L316.7,275.6 L317.0,275.6 L317.2,275.6 L317.5,276.0 
		L317.7,275.1 L317.9,274.6 L318.2,274.0 L318.4,273.9 L318.7,273.9 L318.9,273.9 L319.2,274.4 L319.4,273.7 
		L319.7,273.3 L319.9,273.3 L320.2,273.3 L320.4,273.3 L320.7,273.8 L320.9,274.0 L321.2,273.9 L321.4,273.9 
		L321.7,273.9 L321.9,273.9 L322.2,273.5 L322.4,273.5 L322.6,273.5 L322.9,273.5 L323.1,274.0 L323.4,273.9 
		L323.6,273.9 L323.9,273.9 L324.1,274.4 L324.4,273.9 L324.6,273.3 L324.9,272.7 L325.1,272.6 L325.4,272.6 
		L325.6,272.6 L325.9,272.6 L326.1,273.1 L326.4,272.9 L326.6,272.9 L326.9,272.9 L327.1,272.9 L327.3,272.9 
		L327.6,272.9 L327.8,273.2 L328.1,272.9 L328.3,272.9 L328.6,272.9 L328.8,272.9 L329.1,272.3 L329.3,271.8 
		L329.6,271.6 L329.8,271.6 L330.1,271.6 L330.3,271.6 L330.6,271.6 L330.8,271.6 L331.1,271.6 L331.3,271.6 
		L331.6,271.6 L331.8,271.6 L332.0,271.6 L332.3,271.6 L332.5,271.6 L332.8,271.6 L333.0,271.6 L333.3,271.6 
		L333.5,271.6 L333.8,273.6 L334.0,272.8 L334.3,272.3 L334.5,272.3 L334.8,272.3 L335.0,272.3 L335.3,272.3 
		L335.5,272.3 L335.8,272.3 L336.0,272.3 L336.3,272.3 L336.5,272.3 L336.7,273.7 L337.0,273.3 L337.2,273.1 
		L337.5,273.1 L337.7,273.1 L338.0,273.1 L338.2,273.1 L338.5,273.1 L338.7,273.1 L339.0,273.7 L339.2,273.6 
		L339.5,273.6 L339.7,273.7 L340.0,273.7 L340.2,273.7 L340.5,273.7 L340.7,273.7 L341.0,273.7 L341.2,273.7 
		L341.4,273.7 L341.7,273.7 L341.9,274.9 L342.2,274.9 L342.4,274.9 L342.7,274.9 L342.9,274.9 L343.2,275.5 
		L343.4,275.1 L343.7,274.7 L343.9,274.7 L344.2,274.7 L344.4,275.0 L344.7,274.9 L344.9,274.9 L345.2,274.9 
		L345.4,274.3 L345.7,273.8 L345.9,273.3 L346.2,273.3 L346.4,273.3 L346.6,273.3 L346.9,273.3 L347.1,273.3 
		L347.4,273.3 L347.6,273.3 L347.9,273.3 L348.1,273.3 L348.4,273.3 L348.6,273.3 L348.9,274.3 L349.1,273.7 
		L349.4,273.2 L349.6,273.1 L349.9,273.1 L350.1,273.1 L350.4,273.1 L350.6,273.1 L350.9,273.1 L351.1,273.1 
		L351.3,273.1 L351.6,273.1 L351.8,273.1 L352.1,273.1 L352.3,273.1 L352.6,273.1 L352.8,273.1 L353.1,273.1 
		L353.3,273.1 L353.6,274.9 L353.8,274.5 L354.1,274.4 L354.3,274.4 L354.6,274.4 L354.8,274.4 L355.1,274.8 
		L355.3,274.4 L355.6,274.4 L355.8,274.4 L356.0,274.4 L356.3,274.4 L356.5,274.4 L356.8,274.4 L357.0,274.4 
		L357.3,274.4 L357.5,274.4 L357.8,274.4 L358.0,274.4 L358.3,274.4 L358.5,274.4 L358.8,274.4 L359.0,274.4 
		L359.3,274.4 L359.5,274.4 L359.8,274.4 L360.0,274.4 L360.3,274.4 L360.5,274.4 L360.7,276.8 L361.0,276.2 
		L361.2,276.1 L361.5,276.1 L361.7,275.9 L362.0,274.9 L362.2,274.1 L362.5,274.1 L362.7,274.1 L363.0,274.1 
		L363.2,274.1 L363.5,274.1 L363.7,274.1 L364.0,274.9 L364.2,274.9 L364.5,274.9 L364.7,275.2 L365.0,275.1 
		L365.2,275.1 L365.4,274.3 L365.7,273.7 L365.9,273.7 L366.2,273.7 L366.4,273.8 L366.7,273.8 L366.9,273.8 
		L367.2,273.8 L367.4,273.8 L367.7,273.8 L367.9,273.8 L368.2,273.8 L368.4,274.6 L368.7,274.5 L368.9,274.5 
		L369.2,274.5 L369.4,274.5 L369.7,274.5 L369.9,274.5 L370.1,274.5 L370.4,275.2 L370.6,275.2 L370.9,275.2 
		L371.1,275.2 L371.4,275.2 L371.6,275.8 L371.9,275.3 L372.1,274.8 L372.4,274.7 L372.6,274.7 L372.9,274.7 
		L373.1,274.7 L373.4,274.7 L373.6,274.7 L373.9,274.7 L374.1,274.7 L374.4,274.7 L374.6,274.7 L374.8,275.9 
		L375.1,275.7 L375.3,275.7 L375.6,275.7 L375.8,275.7 L376.1,275.7 L376.3,275.7 L376.6,275.7 L376.8,275.7 
		L377.1,275.7 L377.3,275.7 L377.6,276.9 L377.8,276.7 L378.1,276.7 L378.3,276.7 L378.6,276.7 L378.8,276.7 
		L379.1,277.2 L379.3,277.2 L379.5,277.2 L379.8,277.2 L380.0,277.2 L380.3,277.2 L380.5,277.2 L380.8,277.2 
		L381.0,277.2 L381.3,277.2 L381.5,278.4 L381.8,278.0 L382.0,277.3 L382.3,277.2 L382.5,277.2 L382.8,277.2 
		L383.0,277.2 L383.3,277.6 L383.5,277.6 L383.8,277.6 L384.0,277.8 L384.2,277.7 L384.5,277.7 L384.7,277.7 
		L385.0,277.7 L385.2,277.7 L385.5,278.0 L385.7,278.0 L386.0,278.0 L386.2,278.0 L386.5,278.0 L386.7,278.0 
		L387.0,278.0 L387.2,278.7 L387.5,278.7 L387.7,278.7 L388.0,278.7 L388.2,278.7 L388.5,278.7 L388.7,278.7 
		L389.0,278.7 L389.2,278.7 L389.4,279.5 L389.7,279.5 L389.9,279.5 L390.2,279.5 L390.4,279.5 L390.7,279.9 
		L390.9,279.8 L391.2,279.6 L391.4,279.4 L391.7,279.4 L391.9,279.4 L392.2,279.8 L392.4,279.7 L392.7,279.7 
		L392.9,279.7 L393.2,279.7 L393.4,279.7 L393.7,279.7 L393.9,279.7 L394.1,279.7 L394.4,279.7 L394.6,279.7 
		L394.9,279.7 L395.1,279.7 L395.4,279.7 L395.6,279.7 L395.9,279.7 L396.1,279.7 L396.4,279.7 L396.6,279.7 
		L396.9,279.7 L397.1,281.4 L397.4,281.4 L397.6,281.4 L397.9,281.4 L398.1,281.4 L398.4,281.4 L398.6,281.4 
		L398.8,281.4 L399.1,281.4 L399.3,281.4 L399.6,281.4 L399.8,281.4 L400.1,281.4 L400.3,281.4 L400.6,281.4 
		L400.8,281.4 L401.1,281.4 L401.3,281.4 L401.6,281.4 L401.8,283.3 L402.1,282.9 L402.3,282.8 L402.6,282.8 
		L402.8,282.8 L403.1,282.8 L403.3,282.8 L403.5,282.8 L403.8,282.8 L404.0,282.8 L404.3,282.8 L404.5,282.8 
		L404.8,282.8 L405.0,282.8 L405.3,282.8 L405.5,284.0 L405.8,283.3 L406.0,282.6 L406.3,282.1 L406.5,282.0 
		L406.8,282.0 L407.0,281.3 L407.3,280.9 L407.5,280.9 L407.8,280.9 L408.0,281.0 L408.2,280.4 L408.5,279.7 
		L408.7,279.5 L409.0,279.5 L409.2,279.7 L409.5,279.5 L409.7,279.0 L410.0,278.9 L410.2,278.9 L410.5,278.9 
		L410.7,278.9 L411.0,278.9 L411.2,278.9 L411.5,278.9 L411.7,278.9 L412.0,278.9 L412.2,279.8 L412.5,279.8 
		L412.7,279.8 L412.9,280.0 L413.2,279.9 L413.4,279.9 L413.7,279.9 L413.9,279.9 L414.2,279.9 L414.4,279.9 
		L414.7,279.9 L414.9,279.9 L415.2,279.9 L415.4,279.9 L415.7,279.9 L415.9,279.9 L416.2,279.9 L416.4,279.9 
		L416.7,279.9 L416.9,279.9 L417.2,279.9 L417.4,279.9 L417.6,279.9 L417.9,279.9 L418.1,279.9 L418.4,281.8 
		L418.6,281.4 L418.9,280.7 L419.1,280.4 L419.4,280.3 L419.6,280.0 L419.9,280.0 L420.1,280.0 L420.4,280.0 
		L420.6,280.0 L420.9,280.0 L421.1,280.0 L421.4,280.0 L421.6,280.0 L421.9,280.0 L422.1,280.0 L422.3,280.0 
		L422.6,280.0 L422.8,280.0 L423.1,280.0 L423.3,280.0 L423.6,280.0 L423.8,280.0 L424.1,281.8 L424.3,281.7 
		L424.6,281.7 L424.8,281.7 L425.1,281.7 L425.3,281.7 L425.6,281.8 L425.8,280.9 L426.1,280.6 L426.3,280.6 
		L426.6,280.5 L426.8,280.5 L427.0,280.5 L427.3,280.5 L427.5,280.5 L427.8,280.6 L428.0,280.3 L428.3,280.3 
		L428.5,280.3 L428.8,280.4 L429.0,280.3 L429.3,280.4 L429.5,280.4 L429.8,280.4 L430.0,280.4 L430.3,280.4 
		L430.5,280.4 L430.8,280.4 L431.0,279.7 L431.3,279.3 L431.5,278.9 L431.8,278.8 L432.0,278.8 L432.2,278.8 
		L432.5,278.8 L432.7,278.8 L433.0,278.8 L433.2,278.8 L433.5,279.6 L433.7,279.6 L434.0,279.6 L434.2,279.6 
		L434.5,279.6 L434.7,279.6 L435.0,279.6 L435.2,280.2 L435.5,279.8 L435.7,279.6 L436.0,279.1 L436.2,278.2 
		L436.5,277.5 L436.7,277.4 L436.9,277.4 L437.2,277.4 L437.4,277.4 L437.7,277.4 L437.9,277.4 L438.2,277.4 
		L438.4,277.4 L438.7,277.8 L438.9,277.5 L439.2,277.4 L439.4,277.5 L439.7,277.3 L439.9,277.3 L440.2,277.3 
		L440.4,277.3 L440.7,277.3 L440.9,277.3 L441.2,277.8 L441.4,277.8 L441.6,277.8 L441.9,277.8 L442.1,277.8 
		L442.4,277.8 L442.6,277.8 L442.9,277.8 L443.1,278.4 L443.4,278.3 L443.6,278.3 L443.9,278.3 L444.1,278.4 
		L444.4,278.4 L444.6,278.4 L444.9,278.4 L445.1,278.4 L445.4,278.4 L445.6,278.4 L445.9,278.4 L446.1,278.4 
		L446.3,278.4 L446.6,278.9 L446.8,278.6 L447.1,278.6 L447.3,278.6 L447.6,278.6 L447.8,278.6 L448.1,278.6 
		L448.3,278.6 L448.6,279.1 L448.8,279.1 L449.1,279.1 L449.3,279.1 L449.6,279.1 L449.8,279.1 L450.1,279.1 
		L450.3,279.7 L450.6,279.7 L450.8,279.7 L451.0,279.7 L451.3,279.7 L451.5,280.0 L451.8,279.9 L452.0,279.9 
		L452.3,279.9 L452.5,279.9 L452.8,279.9 L453.0,279.9 L453.3,280.3 L453.5,279.7 L453.8,278.8 L454.0,278.4 
		L454.3,277.9 L454.5,277.0 L454.8,276.4 L455.0,275.9 L455.3,275.8 L455.5,275.8 L455.7,275.8 L456.0,275.8 
		L456.2,275.8 L456.5,275.8 L456.7,276.4 L457.0,276.4 L457.2,276.5 L457.5,276.5 L457.7,276.7 L458.0,276.6 
		L458.2,276.6 L458.5,276.6 L458.7,276.6 L459.0,276.9 L459.2,276.6 L459.5,276.6 L459.7,276.6 L460.0,276.6 
		L460.2,276.6 L460.4,276.6 L460.7,276.6 L460.9,276.6 L461.2,276.6 L461.4,276.6 L461.7,276.6 L461.9,276.6 
		L462.2,276.6 L462.4,277.4 L462.7,277.0 L462.9,276.9 L463.2,276.9 L463.4,276.7 L463.7,276.2 L463.9,276.2 
		L464.2,276.2 L464.4,275.9 L464.7,275.3 L464.9,274.9 L465.1,274.9 L465.4,274.9 L465.6,274.9 L465.9,274.9 
		L466.1,275.3 L466.4,275.3 L466.6,275.1 L466.9,274.8 L467.1,274.8 L467.4,274.8 L467.6,274.8 L467.9,275.0 
		L468.1,274.6 L468.4,274.4 L468.6,274.4 L468.9,274.4 L469.1,274.4 L469.4,274.4 L469.6,274.4 L469.9,274.4 
		L470.1,274.4 L470.3,274.4 L470.6,274.4 L470.8,274.4 L471.1,274.4 L471.3,274.4 L471.6,275.6 L471.8,275.6 
		L472.1,275.6 L472.3,275.6 L472.6,275.6 L472.8,275.6 L473.1,275.6 L473.3,275.7 L473.6,275.2 L473.8,275.2 
		L474.1,275.2 L474.3,275.2 L474.6,275.2 L474.8,275.2 L475.0,275.2 L475.3,275.2 L475.5,275.2 L475.8,275.2 
		L476.0,275.2 L476.3,275.2 L476.5,275.2 L476.8,275.2 L477.0,275.2 L477.3,275.2 L477.5,275.2 L477.8,275.2 
		L478.0,275.2 L478.3,276.9 L478.5,276.7 L478.8,276.7 L479.0,276.7 L479.3,276.7 L479.5,276.7 L479.7,276.7 
		L480.0,276.9 L480.2,276.7 L480.5,276.3 L480.7,275.6 L481.0,274.9 L481.2,274.8 L481.5,274.8 L481.7,274.8 
		L482.0,275.1 L482.2,275.1 L482.5,275.1 L482.7,275.1 L483.0,275.1 L483.2,275.6 L483.5,275.2 L483.7,275.1 
		L484.0,275.1 L484.2,275.1 L484.4,275.4 L484.7,275.3 L484.9,275.2 L485.2,275.2 L485.4,275.2 L485.7,275.2 
		L485.9,275.2 L486.2,275.2 L486.4,275.7 L486.7,275.6 L486.9,275.6 L487.2,275.9 L487.4,275.9 L487.7,275.9 
		L487.9,275.9 L488.2,275.9 L488.4,275.9 L488.7,276.3 L488.9,276.3 L489.1,276.3 L489.4,276.5 L489.6,276.5 
		L489.9,276.2 L490.1,275.9 L490.4,275.7 L490.6,275.6 L490.9,275.6 L491.1,275.4 L491.4,274.7 L491.6,274.1 
		L491.9,274.0 L492.1,274.0 L492.4,274.0 L492.6,274.0 L492.9,274.0 L493.1,274.0 L493.4,274.0 L493.6,274.0 
		L493.8,274.0 L494.1,274.8 L494.3,274.8 L494.6,274.8 L494.8,274.8 L495.1,274.8 L495.3,274.8 L495.6,274.8 
		L495.8,274.8 L496.1,274.8 L496.3,274.8 L496.6,274.8 L496.8,274.8 L497.1,274.8 L497.3,274.8 L497.6,274.8 
		L497.8,274.8 L498.1,274.8 L498.3,276.3 L498.5,276.3 L498.8,276.3 L499.0,276.5 L499.3,276.0 L499.5,275.6 
		L499.8,275.6 L500.0,275.6 L500.3,275.6 L500.5,275.6 L500.8,275.7 L501.0,275.6 L501.3,275.6 L501.5,275.6 
		L501.8,275.8 L502.0,275.8 L502.3,275.8 L502.5,276.0 L502.8,275.7 L503.0,275.4 L503.2,275.2 L503.5,275.1 
		L503.7,274.6 L504.0,274.5 L504.2,274.5 L504.5,274.5 L504.7,274.5 L505.0,274.5 L505.2,274.5 L505.5,274.5 
		L505.7,274.5 L506.0,274.5 L506.2,274.5 L506.5,274.5 L506.7,274.5 L507.0,275.6 L507.2,275.5 L507.5,275.2 
		L507.7,274.7 L507.9,274.3 L508.2,274.0 L508.4,274.0 L508.7,274.0 L508.9,274.0 L509.2,274.0 L509.4,274.0 
		L509.7,274.0 L509.9,274.5 L510.2,274.5 L510.4,274.5 L510.7,274.6 L510.9,274.5 L511.2,274.5 L511.4,274.5 
		L511.7,274.6 L511.9,274.5 L512.2,274.5 L512.4,274.5 L512.7,274.5 L512.9,274.5 L513.1,274.5 L513.4,274.5 
		L513.6,274.5 L513.9,274.5 L514.1,274.5 L514.4,274.5 L514.6,275.4 L514.9,275.4 L515.1,275.4 L515.4,275.4 
		L515.6,275.4 L515.9,275.4 L516.1,275.9 L516.4,275.7 L516.6,275.7 L516.9,275.7 L517.1,275.7 L517.4,275.7 
		L517.6,275.7 L517.8,275.7 L518.1,275.7 L518.3,276.0 L518.6,276.0 L518.8,276.0 L519.1,276.1 L519.3,276.0 
		L519.6,276.0 L519.8,276.0 L520.1,275.8 L520.3,275.8 L520.6,275.8 L520.8,275.8 L521.1,275.8 L521.3,275.8 
		L521.6,275.9 L521.8,275.6 L522.1,275.6 L522.3,275.7 L522.5,275.5 L522.8,275.5 L523.0,275.5 L523.3,275.5 
		L523.5,275.5 L523.8,275.5 L524.0,275.8 L524.3,275.6 L524.5,275.6 L524.8,275.6 L525.0,275.8 L525.3,275.6 
		L525.5,275.1 L525.8,275.0 L526.0,275.1 L526.3,274.9 L526.5,274.9 L526.8,274.9 L527.0,274.9 L527.2,274.9 
		L527.5,274.9 L527.7,274.9 L528.0,275.1 L528.2,275.1 L528.5,275.1 L528.7,275.1 L529.0,275.1 L529.2,275.1 
		L529.5,275.1 L529.7,275.1 L530.0,275.5 L530.2,275.5 L530.5,275.5 L530.7,275.5 L531.0,275.5 L531.2,275.5 
		L531.5,275.5 L531.7,275.5 L531.9,275.5 L532.2,275.5 L532.4,275.5 L532.7,275.5 L532.9,275.5 L533.2,275.5 
		L533.4,275.5 L533.7,275.5 L533.9,275.5 L534.2,275.5 L534.4,275.5 L534.7,275.5 L534.9,275.5 L535.2,277.1 
		L535.4,276.8 L535.7,276.8 L535.9,276.8 L536.2,276.9 L536.4,276.8 L536.6,276.8 L536.9,276.8 L537.1,277.0 
		L537.4,276.9 L537.6,276.9 L537.9,276.9 L538.1,276.9 L538.4,276.9 L538.6,276.9 L538.9,276.9 L539.1,276.9 
		L539.4,276.9 L539.6,277.6 L539.9,277.5 L540.1,277.5 L540.4,277.5 L540.6,277.5 L540.9,277.5 L541.1,277.5 
		L541.3,277.5 L541.6,277.5 L541.8,277.5 L542.1,277.5 L542.3,277.8 L542.6,277.8 L542.8,277.8 L543.1,277.8 
		L543.3,277.8 L543.6,277.8 L543.8,277.8 L544.1,277.8 L544.3,277.8 L544.6,277.8 L544.8,277.8 L545.1,277.8 
		L545.3,277.8 L545.6,277.8 L545.8,277.8 L546.0,277.8 L546.3,278.8 L546.5,278.5 L546.8,278.2 L547.0,278.0 
		L547.3,278.0 L547.5,278.0 L547.8,278.0 L548.0,278.2 L548.3,278.0 L548.5,277.9 L548.8,277.9 L549.0,277.9 
		L549.3,277.9 L549.5,277.9 L549.8,277.9 L550.0,277.9 L550.3,277.9 L550.5,277.9 L550.7,277.9 L551.0,277.9 
		L551.2,277.9 L551.5,277.9 L551.7,278.9 L552.0,278.8 L552.2,278.8 L552.5,278.6 L552.7,278.2 L553.0,278.2 
		L553.2,278.2 L553.5,278.2 L553.7,278.2 L554.0,278.2 L554.2,278.2 L554.5,278.2 L554.7,278.2 L555.0,278.2 
		L555.2,278.2 L555.5,278.7 L555.7,278.7 L555.9,278.7 L556.2,278.8 L556.4,278.5 L556.7,278.4 L556.9,278.4 
		L557.2,278.5 L557.4,278.5 L557.7,278.5 L557.9,278.5 L558.2,278.5 L558.4,278.5 L558.7,278.5 L558.9,278.5 
		L559.2,278.5 L559.4,278.5 L559.7,279.0 L559.9,278.7 L560.2,278.4 L560.4,278.4 L560.6,278.4 L560.9,278.6 
		L561.1,278.5 L561.4,278.5 L561.6,278.4 L561.9,278.4 L562.1,278.4 L562.4,278.4 L562.6,278.6 L562.9,278.5 
		L563.1,278.3 L563.4,278.0 L563.6,277.7 L563.9,277.5 L564.1,277.4 L564.4,277.4 L564.6,277.4 L564.9,277.4 
		L565.1,277.4 L565.3,277.7 L565.6,277.7 L565.8,277.7 L566.1,277.7 L566.3,277.7 L566.6,277.7 L566.8,277.7 
		L567.1,277.7 L567.3,277.7 L567.6,277.7 L567.8,277.7 L568.1,277.7 L568.3,277.7 L568.6,277.7 L568.8,277.7 
		L569.1,278.8 L569.3,278.8 L569.6,278.8 L569.8,278.8 L570.0,278.8 L570.3,278.8 L570.5,278.8 L570.8,278.8 
		L571.0,278.8 L571.3,278.8 L571.5,278.8 L571.8,278.8 L572.0,278.8 L572.3,278.8 L572.5,278.8 L572.8,278.8 
		L573.0,279.8 L573.3,279.5 L573.5,279.3 L573.8,279.3 L574.0,279.3 L574.3,279.5 L574.5,279.5 L574.7,279.5 
		L575.0,279.5  h0.01'/></g>
	</g>
<g style="fill:none; color:black; stroke:currentColor; stroke-width:1.00; stroke-linecap:butt; stroke-linejoin:miter">
	<path  d='M80.2,54.1 L80.2,422.4 L575.0,422.4 L575.0,54.1 L80.2,54.1 Z  h0.01'/></g>
</g>
</svg>

