<?xml version="1.0" encoding="utf-8"  standalone="no"?>
<!DOCTYPE svg PUBLIC "-//W3C//DTD SVG 1.1//EN" 
 "http://www.w3.org/Graphics/SVG/1.1/DTD/svg11.dtd">
<svg 
 width="600" height="480" 
 viewBox="0 0 600 480"
 xmlns="http://www.w3.org/2000/svg"
 xmlns:xlink="http://www.w3.org/1999/xlink"
>

<title>Gnuplot</title>
<desc>Produced by GNUPLOT 4.6 patchlevel 1 </desc>

<g id="gnuplot_canvas">

<rect x="0" y="0" width="600" height="480" fill="none"/>
<defs>

	<circle id='gpDot' r='0.5' stroke-width='0.5'/>
	<path id='gpPt0' stroke-width='0.222' stroke='currentColor' d='M-1,0 h2 M0,-1 v2'/>
	<path id='gpPt1' stroke-width='0.222' stroke='currentColor' d='M-1,-1 L1,1 M1,-1 L-1,1'/>
	<path id='gpPt2' stroke-width='0.222' stroke='currentColor' d='M-1,0 L1,0 M0,-1 L0,1 M-1,-1 L1,1 M-1,1 L1,-1'/>
	<rect id='gpPt3' stroke-width='0.222' stroke='currentColor' x='-1' y='-1' width='2' height='2'/>
	<rect id='gpPt4' stroke-width='0.222' stroke='currentColor' fill='currentColor' x='-1' y='-1' width='2' height='2'/>
	<circle id='gpPt5' stroke-width='0.222' stroke='currentColor' cx='0' cy='0' r='1'/>
	<use xlink:href='#gpPt5' id='gpPt6' fill='currentColor' stroke='none'/>
	<path id='gpPt7' stroke-width='0.222' stroke='currentColor' d='M0,-1.33 L-1.33,0.67 L1.33,0.67 z'/>
	<use xlink:href='#gpPt7' id='gpPt8' fill='currentColor' stroke='none'/>
	<use xlink:href='#gpPt7' id='gpPt9' stroke='currentColor' transform='rotate(180)'/>
	<use xlink:href='#gpPt9' id='gpPt10' fill='currentColor' stroke='none'/>
	<use xlink:href='#gpPt3' id='gpPt11' stroke='currentColor' transform='rotate(45)'/>
	<use xlink:href='#gpPt11' id='gpPt12' fill='currentColor' stroke='none'/>
</defs>
<g style="fill:none; color:white; stroke:currentColor; stroke-width:1.00; stroke-linecap:butt; stroke-linejoin:miter">
</g>
<g style="fill:none; color:black; stroke:currentColor; stroke-width:1.00; stroke-linecap:butt; stroke-linejoin:miter">
	<path  d='M88.5,422.4 L97.5,422.4 M575.0,422.4 L566.0,422.4  h0.01'/>	<g transform="translate(80.2,426.9)" style="stroke:none; fill:black; font-family:Arial; font-size:12.00pt; text-anchor:end">
		<text> 0</text>
	</g>
	<path  d='M88.5,369.8 L97.5,369.8 M575.0,369.8 L566.0,369.8  h0.01'/>	<g transform="translate(80.2,374.3)" style="stroke:none; fill:black; font-family:Arial; font-size:12.00pt; text-anchor:end">
		<text> 2000</text>
	</g>
	<path  d='M88.5,317.2 L97.5,317.2 M575.0,317.2 L566.0,317.2  h0.01'/>	<g transform="translate(80.2,321.7)" style="stroke:none; fill:black; font-family:Arial; font-size:12.00pt; text-anchor:end">
		<text> 4000</text>
	</g>
	<path  d='M88.5,264.6 L97.5,264.6 M575.0,264.6 L566.0,264.6  h0.01'/>	<g transform="translate(80.2,269.1)" style="stroke:none; fill:black; font-family:Arial; font-size:12.00pt; text-anchor:end">
		<text> 6000</text>
	</g>
	<path  d='M88.5,211.9 L97.5,211.9 M575.0,211.9 L566.0,211.9  h0.01'/>	<g transform="translate(80.2,216.4)" style="stroke:none; fill:black; font-family:Arial; font-size:12.00pt; text-anchor:end">
		<text> 8000</text>
	</g>
	<path  d='M88.5,159.3 L97.5,159.3 M575.0,159.3 L566.0,159.3  h0.01'/>	<g transform="translate(80.2,163.8)" style="stroke:none; fill:black; font-family:Arial; font-size:12.00pt; text-anchor:end">
		<text> 10000</text>
	</g>
	<path  d='M88.5,106.7 L97.5,106.7 M575.0,106.7 L566.0,106.7  h0.01'/>	<g transform="translate(80.2,111.2)" style="stroke:none; fill:black; font-family:Arial; font-size:12.00pt; text-anchor:end">
		<text> 12000</text>
	</g>
	<path  d='M88.5,54.1 L97.5,54.1 M575.0,54.1 L566.0,54.1  h0.01'/>	<g transform="translate(80.2,58.6)" style="stroke:none; fill:black; font-family:Arial; font-size:12.00pt; text-anchor:end">
		<text> 14000</text>
	</g>
	<path  d='M88.5,422.4 L88.5,413.4 M88.5,54.1 L88.5,63.1  h0.01'/>	<g transform="translate(88.5,444.9)" style="stroke:none; fill:black; font-family:Arial; font-size:12.00pt; text-anchor:middle">
		<text> 0</text>
	</g>
	<path  d='M137.2,422.4 L137.2,413.4 M137.2,54.1 L137.2,63.1  h0.01'/>	<g transform="translate(137.2,444.9)" style="stroke:none; fill:black; font-family:Arial; font-size:12.00pt; text-anchor:middle">
		<text> 10</text>
	</g>
	<path  d='M185.8,422.4 L185.8,413.4 M185.8,54.1 L185.8,63.1  h0.01'/>	<g transform="translate(185.8,444.9)" style="stroke:none; fill:black; font-family:Arial; font-size:12.00pt; text-anchor:middle">
		<text> 20</text>
	</g>
	<path  d='M234.5,422.4 L234.5,413.4 M234.5,54.1 L234.5,63.1  h0.01'/>	<g transform="translate(234.5,444.9)" style="stroke:none; fill:black; font-family:Arial; font-size:12.00pt; text-anchor:middle">
		<text> 30</text>
	</g>
	<path  d='M283.1,422.4 L283.1,413.4 M283.1,54.1 L283.1,63.1  h0.01'/>	<g transform="translate(283.1,444.9)" style="stroke:none; fill:black; font-family:Arial; font-size:12.00pt; text-anchor:middle">
		<text> 40</text>
	</g>
	<path  d='M331.8,422.4 L331.8,413.4 M331.8,54.1 L331.8,63.1  h0.01'/>	<g transform="translate(331.8,444.9)" style="stroke:none; fill:black; font-family:Arial; font-size:12.00pt; text-anchor:middle">
		<text> 50</text>
	</g>
	<path  d='M380.4,422.4 L380.4,413.4 M380.4,54.1 L380.4,63.1  h0.01'/>	<g transform="translate(380.4,444.9)" style="stroke:none; fill:black; font-family:Arial; font-size:12.00pt; text-anchor:middle">
		<text> 60</text>
	</g>
	<path  d='M429.1,422.4 L429.1,413.4 M429.1,54.1 L429.1,63.1  h0.01'/>	<g transform="translate(429.1,444.9)" style="stroke:none; fill:black; font-family:Arial; font-size:12.00pt; text-anchor:middle">
		<text> 70</text>
	</g>
	<path  d='M477.7,422.4 L477.7,413.4 M477.7,54.1 L477.7,63.1  h0.01'/>	<g transform="translate(477.7,444.9)" style="stroke:none; fill:black; font-family:Arial; font-size:12.00pt; text-anchor:middle">
		<text> 80</text>
	</g>
	<path  d='M526.4,422.4 L526.4,413.4 M526.4,54.1 L526.4,63.1  h0.01'/>	<g transform="translate(526.4,444.9)" style="stroke:none; fill:black; font-family:Arial; font-size:12.00pt; text-anchor:middle">
		<text> 90</text>
	</g>
	<path  d='M575.0,422.4 L575.0,413.4 M575.0,54.1 L575.0,63.1  h0.01'/>	<g transform="translate(575.0,444.9)" style="stroke:none; fill:black; font-family:Arial; font-size:12.00pt; text-anchor:middle">
		<text> 100</text>
	</g>
	<path  d='M88.5,54.1 L88.5,422.4 L575.0,422.4 L575.0,54.1 L88.5,54.1 Z  h0.01'/>	<g transform="translate(17.6,238.3) rotate(270)" style="stroke:none; fill:black; font-family:Arial; font-size:12.00pt; text-anchor:middle">
		<text>TCP throughput (kbps)</text>
	</g>
	<g transform="translate(331.7,471.9)" style="stroke:none; fill:black; font-family:Arial; font-size:12.00pt; text-anchor:middle">
		<text>Time (s)</text>
	</g>
	<g transform="translate(331.7,31.6)" style="stroke:none; fill:black; font-family:Arial; font-size:12.00pt; text-anchor:middle">
		<text>Distance 200m, 1kmph: TCP throughput vs link capacity Uplink 100RBs PfffScheduler</text>
	</g>
	<path  d='M325.3,413.4 L325.3,377.4 L566.7,377.4 L566.7,413.4 L325.3,413.4 Z  h0.01'/></g>
	<g id="gnuplot_plot_1" ><title>gnuplot_plot_1</title>
<g style="fill:none; color:red; stroke:currentColor; stroke-width:1.00; stroke-linecap:butt; stroke-linejoin:miter">
	<g transform="translate(507.9,390.9)" style="stroke:none; fill:black; font-family:Arial; font-size:12.00pt; text-anchor:end">
		<text>TCP Throughput</text>
	</g>
	<path  d='M516.2,386.4 L558.4,386.4 M91.7,413.1 L91.9,411.3 L92.1,409.5 L92.4,407.0 L92.6,410.1 L92.9,392.9 
		L93.1,382.4 L93.4,382.4 L93.6,390.8 L93.9,340.6 L94.1,303.2 L94.3,302.9 L94.6,307.1 L94.8,284.7 
		L95.1,247.4 L95.3,207.4 L95.6,175.1 L95.8,162.1 L96.0,160.4 L96.3,162.3 L96.5,159.7 L96.8,138.4 
		L97.0,128.3 L97.3,131.1 L97.5,137.0 L97.7,138.4 L98.0,154.7 L98.2,155.4 L98.5,152.5 L98.7,151.0 
		L99.0,155.1 L99.2,139.2 L99.4,123.1 L99.7,121.6 L99.9,121.9 L100.2,136.5 L100.4,136.5 L100.7,151.0 
		L100.9,154.7 L101.1,150.7 L101.4,141.6 L101.6,129.0 L101.9,120.1 L102.1,111.7 L102.4,109.4 L102.6,111.0 
		L102.8,119.8 L103.1,121.3 L103.3,121.3 L103.6,121.3 L103.8,121.3 L104.1,143.4 L104.3,141.8 L104.5,145.3 
		L104.8,135.6 L105.0,122.9 L105.3,111.6 L105.5,105.1 L105.8,108.4 L106.0,108.4 L106.3,110.6 L106.5,108.1 
		L106.7,110.5 L107.0,107.8 L107.2,108.9 L107.5,108.9 L107.7,117.2 L108.0,113.4 L108.2,112.9 L108.4,120.1 
		L108.7,118.4 L108.9,118.8 L109.2,117.9 L109.4,109.2 L109.7,100.1 L109.9,93.4 L110.1,92.9 L110.4,93.4 
		L110.6,99.4 L110.9,101.1 L111.1,104.9 L111.4,102.4 L111.6,96.3 L111.8,90.5 L112.1,86.0 L112.3,82.4 
		L112.6,80.3 L112.8,79.0 L113.1,79.8 L113.3,85.6 L113.5,85.3 L113.8,84.3 L114.0,87.4 L114.3,87.8 
		L114.5,87.4 L114.8,89.2 L115.0,92.0 L115.3,94.4 L115.5,95.9 L115.7,92.7 L116.0,87.7 L116.2,83.2 
		L116.5,79.8 L116.7,77.0 L117.0,75.5 L117.2,75.2 L117.4,75.6 L117.7,80.3 L117.9,83.1 L118.2,83.4 
		L118.4,87.1 L118.7,84.9 L118.9,85.5 L119.1,86.2 L119.4,86.5 L119.6,86.5 L119.9,86.5 L120.1,94.9 
		L120.4,95.5 L120.6,94.1 L120.8,94.6 L121.1,97.6 L121.3,97.6 L121.6,97.6 L121.8,105.5 L122.1,106.6 
		L122.3,108.0 L122.6,107.6 L122.8,110.2 L123.0,110.8 L123.3,113.1 L123.5,113.2 L123.8,116.1 L124.0,116.6 
		L124.3,116.6 L124.5,116.6 L124.7,121.8 L125.0,121.1 L125.2,121.5 L125.5,121.5 L125.7,124.4 L126.0,124.0 
		L126.2,124.5 L126.4,124.9 L126.7,126.8 L126.9,127.1 L127.2,127.1 L127.4,127.1 L127.7,132.6 L127.9,133.6 
		L128.1,134.2 L128.4,134.2 L128.6,136.2 L128.9,135.4 L129.1,135.9 L129.4,135.9 L129.6,140.3 L129.8,140.8 
		L130.1,140.7 L130.3,140.2 L130.6,140.1 L130.8,140.7 L131.1,140.7 L131.3,140.7 L131.6,145.8 L131.8,145.8 
		L132.0,145.8 L132.3,145.8 L132.5,150.6 L132.8,150.8 L133.0,150.9 L133.3,150.9 L133.5,155.4 L133.7,153.7 
		L134.0,151.2 L134.2,149.2 L134.5,149.5 L134.7,149.5 L135.0,150.3 L135.2,150.3 L135.4,153.5 L135.7,152.7 
		L135.9,150.1 L136.2,147.0 L136.4,144.4 L136.7,142.9 L136.9,143.6 L137.2,142.0 L137.4,139.4 L137.6,136.5 
		L137.9,134.3 L138.1,134.3 L138.4,136.2 L138.6,137.3 L138.9,137.7 L139.1,137.7 L139.3,140.0 L139.6,141.4 
		L139.8,141.6 L140.1,140.4 L140.3,137.9 L140.6,134.7 L140.8,132.1 L141.0,130.2 L141.3,129.8 L141.5,130.6 
		L141.8,131.2 L142.0,131.7 L142.3,130.2 L142.5,129.1 L142.7,129.2 L143.0,129.2 L143.2,129.2 L143.5,129.2 
		L143.7,129.2 L144.0,135.8 L144.2,137.4 L144.4,138.4 L144.7,138.7 L144.9,140.3 L145.2,141.3 L145.4,140.7 
		L145.7,141.3 L145.9,141.1 L146.2,141.3 L146.4,141.5 L146.6,142.6 L146.9,142.5 L147.1,142.2 L147.4,142.4 
		L147.6,142.8 L147.9,142.8 L148.1,145.8 L148.3,146.1 L148.6,146.4 L148.8,145.9 L149.1,145.3 L149.3,145.6 
		L149.6,146.4 L149.8,146.0 L150.0,146.1 L150.3,146.4 L150.5,147.6 L150.8,148.0 L151.0,148.0 L151.3,150.5 
		L151.5,151.0 L151.7,150.9 L152.0,151.8 L152.2,152.0 L152.5,153.3 L152.7,152.4 L153.0,151.2 L153.2,150.1 
		L153.4,148.9 L153.7,148.7 L153.9,150.0 L154.2,149.4 L154.4,149.1 L154.7,150.6 L154.9,150.9 L155.2,150.7 
		L155.4,151.0 L155.6,151.1 L155.9,152.1 L156.1,152.7 L156.4,152.3 L156.6,151.4 L156.9,150.9 L157.1,150.5 
		L157.3,150.9 L157.6,150.6 L157.8,150.8 L158.1,152.3 L158.3,151.7 L158.6,151.7 L158.8,152.6 L159.0,153.3 
		L159.3,153.8 L159.5,154.3 L159.8,154.3 L160.0,156.4 L160.3,156.2 L160.5,156.4 L160.7,156.4 L161.0,156.4 
		L161.2,156.4 L161.5,156.4 L161.7,160.3 L162.0,160.3 L162.2,160.3 L162.4,162.4 L162.7,162.1 L162.9,162.2 
		L163.2,162.4 L163.4,162.4 L163.7,162.4 L163.9,165.2 L164.2,165.4 L164.4,165.4 L164.6,165.5 L164.9,166.5 
		L165.1,166.5 L165.4,166.5 L165.6,168.4 L165.9,168.3 L166.1,168.5 L166.3,168.6 L166.6,169.4 L166.8,169.4 
		L167.1,169.5 L167.3,169.6 L167.6,170.8 L167.8,170.7 L168.0,171.1 L168.3,170.7 L168.5,170.7 L168.8,170.9 
		L169.0,170.7 L169.3,170.7 L169.5,171.4 L169.7,170.9 L170.0,170.9 L170.2,170.9 L170.5,171.7 L170.7,171.7 
		L171.0,172.6 L171.2,172.7 L171.4,173.0 L171.7,173.0 L171.9,173.0 L172.2,174.8 L172.4,174.8 L172.7,174.8 
		L172.9,174.8 L173.2,174.8 L173.4,174.8 L173.6,178.3 L173.9,177.5 L174.1,178.0 L174.4,178.5 L174.6,178.8 
		L174.9,179.1 L175.1,179.8 L175.3,180.5 L175.6,180.7 L175.8,181.1 L176.1,181.3 L176.3,181.4 L176.6,181.3 
		L176.8,181.3 L177.0,181.3 L177.3,182.0 L177.5,182.0 L177.8,182.7 L178.0,182.5 L178.3,182.5 L178.5,182.6 
		L178.7,182.8 L179.0,182.8 L179.2,183.9 L179.5,184.5 L179.7,184.7 L180.0,184.8 L180.2,184.9 L180.4,185.2 
		L180.7,185.4 L180.9,185.6 L181.2,186.1 L181.4,185.8 L181.7,185.8 L181.9,186.2 L182.2,186.1 L182.4,186.5 
		L182.6,186.1 L182.9,186.2 L183.1,186.4 L183.4,186.2 L183.6,186.9 L183.9,186.9 L184.1,187.8 L184.3,187.8 
		L184.6,187.8 L184.8,189.1 L185.1,188.4 L185.3,187.8 L185.6,187.8 L185.8,188.3 L186.0,188.1 L186.3,187.8 
		L186.5,187.8 L186.8,188.3 L187.0,187.4 L187.3,187.7 L187.5,187.0 L187.7,186.0 L188.0,185.6 L188.2,186.0 
		L188.5,186.0 L188.7,186.5 L189.0,186.8 L189.2,186.2 L189.4,185.1 L189.7,184.3 L189.9,184.3 L190.2,184.5 
		L190.4,184.6 L190.7,184.6 L190.9,185.9 L191.2,185.9 L191.4,185.9 L191.6,187.0 L191.9,186.3 L192.1,185.7 
		L192.4,185.7 L192.6,185.7 L192.9,185.9 L193.1,185.3 L193.3,185.6 L193.6,185.4 L193.8,185.3 L194.1,185.7 
		L194.3,185.1 L194.6,184.2 L194.8,184.0 L195.0,184.5 L195.3,184.5 L195.5,184.5 L195.8,184.3 L196.0,184.1 
		L196.3,184.6 L196.5,185.0 L196.7,185.0 L197.0,185.0 L197.2,185.8 L197.5,185.5 L197.7,185.4 L198.0,185.5 
		L198.2,185.6 L198.4,185.4 L198.7,185.1 L198.9,185.4 L199.2,184.2 L199.4,182.9 L199.7,181.8 L199.9,181.3 
		L200.2,180.8 L200.4,180.4 L200.6,180.8 L200.9,180.9 L201.1,181.3 L201.4,181.7 L201.6,181.7 L201.9,181.7 
		L202.1,183.3 L202.3,183.4 L202.6,183.9 L202.8,184.3 L203.1,183.4 L203.3,183.4 L203.6,183.3 L203.8,183.2 
		L204.0,183.3 L204.3,183.3 L204.5,183.8 L204.8,183.2 L205.0,182.9 L205.3,182.8 L205.5,183.2 L205.7,182.4 
		L206.0,182.2 L206.2,182.2 L206.5,183.1 L206.7,182.6 L207.0,181.2 L207.2,180.3 L207.4,180.6 L207.7,180.7 
		L207.9,180.7 L208.2,179.6 L208.4,179.5 L208.7,180.1 L208.9,180.1 L209.2,180.6 L209.4,180.8 L209.6,180.8 
		L209.9,180.8 L210.1,182.0 L210.4,181.9 L210.6,181.9 L210.9,181.9 L211.1,181.9 L211.3,183.8 L211.6,183.6 
		L211.8,183.6 L212.1,183.8 L212.3,183.8 L212.6,184.9 L212.8,185.0 L213.0,185.0 L213.3,185.2 L213.5,184.7 
		L213.8,184.7 L214.0,184.8 L214.3,185.6 L214.5,185.5 L214.7,185.6 L215.0,185.6 L215.2,186.1 L215.5,186.0 
		L215.7,186.0 L216.0,186.5 L216.2,185.6 L216.4,184.6 L216.7,183.5 L216.9,182.9 L217.2,182.9 L217.4,183.6 
		L217.7,183.6 L217.9,183.6 L218.2,183.5 L218.4,182.6 L218.6,182.4 L218.9,182.4 L219.1,183.3 L219.4,183.4 
		L219.6,183.5 L219.9,183.5 L220.1,184.4 L220.3,183.5 L220.6,182.7 L220.8,182.5 L221.1,182.7 L221.3,182.8 
		L221.6,182.8 L221.8,183.6 L222.0,184.0 L222.3,184.1 L222.5,184.1 L222.8,184.1 L223.0,184.2 L223.3,184.1 
		L223.5,184.1 L223.7,183.0 L224.0,182.1 L224.2,182.0 L224.5,182.3 L224.7,182.3 L225.0,182.7 L225.2,182.3 
		L225.4,181.7 L225.7,180.8 L225.9,180.7 L226.2,181.0 L226.4,181.2 L226.7,181.2 L226.9,181.7 L227.2,181.8 
		L227.4,182.4 L227.6,182.4 L227.9,182.4 L228.1,183.2 L228.4,182.8 L228.6,181.8 L228.9,180.7 L229.1,180.0 
		L229.3,180.0 L229.6,180.0 L229.8,180.4 L230.1,180.4 L230.3,180.4 L230.6,180.4 L230.8,180.4 L231.0,182.3 
		L231.3,182.4 L231.5,182.5 L231.8,182.6 L232.0,182.1 L232.3,182.1 L232.5,182.6 L232.7,182.5 L233.0,182.6 
		L233.2,182.6 L233.5,182.6 L233.7,182.6 L234.0,184.2 L234.2,184.1 L234.5,184.0 L234.7,184.2 L234.9,184.7 
		L235.2,184.6 L235.4,184.4 L235.7,184.5 L235.9,184.5 L236.2,184.5 L236.4,185.7 L236.6,185.7 L236.9,185.7 
		L237.1,186.6 L237.4,186.5 L237.6,186.9 L237.9,186.7 L238.1,186.3 L238.3,186.2 L238.6,186.8 L238.8,186.5 
		L239.1,186.4 L239.3,186.5 L239.6,186.0 L239.8,185.6 L240.0,185.1 L240.3,184.8 L240.5,184.8 L240.8,185.3 
		L241.0,185.3 L241.3,185.7 L241.5,185.7 L241.7,185.7 L242.0,185.7 L242.2,187.3 L242.5,187.5 L242.7,187.5 
		L243.0,187.5 L243.2,187.5 L243.5,187.5 L243.7,186.9 L243.9,186.2 L244.2,185.6 L244.4,185.6 L244.7,185.3 
		L244.9,184.8 L245.2,184.5 L245.4,184.7 L245.6,184.7 L245.9,184.7 L246.1,185.6 L246.4,186.1 L246.6,186.0 
		L246.9,186.0 L247.1,186.4 L247.3,186.3 L247.6,186.4 L247.8,186.4 L248.1,186.4 L248.3,186.4 L248.6,188.1 
		L248.8,188.1 L249.0,188.2 L249.3,188.2 L249.5,188.2 L249.8,188.2 L250.0,188.3 L250.3,188.6 L250.5,188.6 
		L250.7,189.1 L251.0,189.4 L251.2,189.9 L251.5,189.9 L251.7,189.8 L252.0,190.2 L252.2,190.2 L252.5,190.1 
		L252.7,190.2 L252.9,190.6 L253.2,190.4 L253.4,190.4 L253.7,190.4 L253.9,190.4 L254.2,191.4 L254.4,191.2 
		L254.6,190.9 L254.9,190.8 L255.1,191.2 L255.4,191.5 L255.6,191.5 L255.9,191.9 L256.1,191.8 L256.3,191.8 
		L256.6,191.8 L256.8,192.1 L257.1,192.2 L257.3,192.0 L257.6,191.6 L257.8,191.4 L258.0,191.5 L258.3,191.5 
		L258.5,191.5 L258.8,192.3 L259.0,192.7 L259.3,192.6 L259.5,192.6 L259.7,192.7 L260.0,192.6 L260.2,192.9 
		L260.5,192.6 L260.7,192.6 L261.0,192.9 L261.2,193.2 L261.5,192.9 L261.7,192.3 L261.9,191.8 L262.2,191.2 
		L262.4,190.5 L262.7,190.3 L262.9,190.2 L263.2,189.5 L263.4,188.8 L263.6,188.1 L263.9,187.7 L264.1,187.2 
		L264.4,187.1 L264.6,187.1 L264.9,187.4 L265.1,187.8 L265.3,187.8 L265.6,187.8 L265.8,187.9 L266.1,187.9 
		L266.3,188.6 L266.6,188.7 L266.8,189.0 L267.0,188.7 L267.3,188.1 L267.5,187.5 L267.8,187.6 L268.0,187.4 
		L268.3,187.3 L268.5,187.3 L268.7,187.4 L269.0,187.5 L269.2,187.5 L269.5,187.5 L269.7,188.6 L270.0,188.8 
		L270.2,188.8 L270.5,188.8 L270.7,188.8 L270.9,189.8 L271.2,189.8 L271.4,190.5 L271.7,190.9 L271.9,190.3 
		L272.1,189.9 L272.4,190.0 L272.6,190.3 L272.9,190.3 L273.1,190.4 L273.4,190.5 L273.6,190.3 L273.9,189.9 
		L274.1,189.9 L274.3,190.2 L274.6,189.9 L274.8,189.8 L275.1,189.8 L275.3,190.1 L275.6,190.1 L275.8,190.4 
		L276.0,190.3 L276.3,190.3 L276.5,190.3 L276.8,190.9 L277.0,191.0 L277.3,190.5 L277.5,190.0 L277.7,189.5 
		L278.0,189.4 L278.2,189.6 L278.5,189.7 L278.7,190.1 L279.0,190.1 L279.2,190.2 L279.4,190.2 L279.7,190.7 
		L279.9,190.7 L280.2,191.0 L280.4,190.9 L280.7,190.8 L280.9,190.8 L281.1,190.8 L281.4,190.9 L281.6,191.3 
		L281.9,190.9 L282.1,190.8 L282.4,191.0 L282.6,191.0 L282.9,190.6 L283.1,190.6 L283.3,190.6 L283.6,190.2 
		L283.8,190.2 L284.1,190.2 L284.3,190.3 L284.6,190.6 L284.8,190.7 L285.0,190.7 L285.3,190.8 L285.5,190.2 
		L285.8,190.2 L286.0,189.6 L286.3,189.0 L286.5,188.6 L286.7,188.5 L287.0,188.7 L287.2,188.7 L287.5,188.2 
		L287.7,187.5 L288.0,186.8 L288.2,186.8 L288.4,187.1 L288.7,187.3 L288.9,187.4 L289.2,187.6 L289.4,187.5 
		L289.7,187.7 L289.9,187.7 L290.1,187.6 L290.4,187.3 L290.6,187.3 L290.9,187.1 L291.1,186.8 L291.4,186.3 
		L291.6,186.0 L291.9,186.0 L292.1,186.0 L292.3,186.0 L292.6,186.7 L292.8,186.8 L293.1,186.8 L293.3,187.5 
		L293.6,187.3 L293.8,186.7 L294.0,185.9 L294.3,185.4 L294.5,185.3 L294.8,185.4 L295.0,185.8 L295.3,185.3 
		L295.5,185.0 L295.7,184.7 L296.0,184.3 L296.2,184.0 L296.5,183.8 L296.7,183.8 L297.0,183.8 L297.2,183.9 
		L297.4,184.2 L297.7,184.3 L297.9,184.1 L298.2,183.9 L298.4,184.1 L298.7,184.1 L298.9,184.0 L299.1,184.1 
		L299.4,184.3 L299.6,184.3 L299.9,184.8 L300.1,184.8 L300.4,185.0 L300.6,184.9 L300.9,185.1 L301.1,185.2 
		L301.3,185.4 L301.6,185.4 L301.8,185.5 L302.1,185.8 L302.3,185.7 L302.6,185.8 L302.8,186.2 L303.0,186.2 
		L303.3,186.3 L303.5,186.3 L303.8,186.3 L304.0,186.4 L304.3,186.4 L304.5,187.0 L304.7,187.1 L305.0,187.3 
		L305.2,187.4 L305.5,186.9 L305.7,186.5 L306.0,186.4 L306.2,186.5 L306.4,186.5 L306.7,187.1 L306.9,187.1 
		L307.2,187.1 L307.4,186.7 L307.7,186.6 L307.9,186.5 L308.1,186.2 L308.4,186.2 L308.6,186.5 L308.9,186.6 
		L309.1,186.8 L309.4,186.7 L309.6,186.9 L309.9,187.0 L310.1,187.3 L310.3,187.4 L310.6,187.4 L310.8,187.4 
		L311.1,187.4 L311.3,188.5 L311.6,188.5 L311.8,188.4 L312.0,188.5 L312.3,188.5 L312.5,188.2 L312.8,187.7 
		L313.0,187.4 L313.3,187.4 L313.5,187.4 L313.7,188.0 L314.0,188.1 L314.2,188.1 L314.5,188.4 L314.7,188.4 
		L315.0,188.6 L315.2,188.6 L315.4,189.0 L315.7,189.1 L315.9,189.1 L316.2,189.2 L316.4,189.5 L316.7,189.5 
		L316.9,189.9 L317.2,189.6 L317.4,189.3 L317.6,188.8 L317.9,188.4 L318.1,188.4 L318.4,188.5 L318.6,188.7 
		L318.9,188.6 L319.1,188.6 L319.3,188.8 L319.6,189.2 L319.8,189.2 L320.1,189.3 L320.3,188.7 L320.6,188.1 
		L320.8,187.9 L321.0,187.9 L321.3,188.2 L321.5,188.1 L321.8,187.8 L322.0,187.1 L322.3,186.7 L322.5,186.2 
		L322.7,186.1 L323.0,186.2 L323.2,186.2 L323.5,186.6 L323.7,186.0 L324.0,185.6 L324.2,185.6 L324.4,185.8 
		L324.7,186.0 L324.9,185.9 L325.2,185.9 L325.4,185.8 L325.7,185.9 L325.9,185.9 L326.2,185.4 L326.4,185.0 
		L326.6,185.0 L326.9,185.0 L327.1,185.6 L327.4,185.4 L327.6,185.2 L327.9,185.3 L328.1,185.4 L328.3,185.3 
		L328.6,184.8 L328.8,184.3 L329.1,183.8 L329.3,183.6 L329.6,183.7 L329.8,183.8 L330.0,184.0 L330.3,183.7 
		L330.5,183.5 L330.8,183.5 L331.0,183.6 L331.3,183.6 L331.5,183.5 L331.7,183.6 L332.0,183.3 L332.2,183.0 
		L332.5,183.0 L332.7,183.3 L333.0,182.9 L333.2,182.5 L333.4,182.0 L333.7,181.7 L333.9,181.9 L334.2,182.0 
		L334.4,182.3 L334.7,182.4 L334.9,182.8 L335.2,182.8 L335.4,183.2 L335.6,183.2 L335.9,183.4 L336.1,183.5 
		L336.4,183.4 L336.6,183.6 L336.9,183.8 L337.1,184.1 L337.3,184.0 L337.6,184.0 L337.8,183.6 L338.1,183.0 
		L338.3,182.6 L338.6,182.5 L338.8,182.8 L339.0,182.9 L339.3,182.8 L339.5,182.9 L339.8,182.9 L340.0,183.2 
		L340.3,183.3 L340.5,183.3 L340.7,183.4 L341.0,183.0 L341.2,182.8 L341.5,182.8 L341.7,183.1 L342.0,183.1 
		L342.2,183.1 L342.4,183.1 L342.7,183.5 L342.9,183.2 L343.2,183.0 L343.4,182.9 L343.7,182.8 L343.9,182.8 
		L344.2,183.1 L344.4,183.1 L344.6,183.6 L344.9,183.7 L345.1,183.7 L345.4,184.0 L345.6,183.8 L345.9,183.8 
		L346.1,183.9 L346.3,183.8 L346.6,183.8 L346.8,183.8 L347.1,184.2 L347.3,183.8 L347.6,183.5 L347.8,183.4 
		L348.0,183.6 L348.3,183.5 L348.5,183.3 L348.8,183.4 L349.0,183.4 L349.3,183.0 L349.5,182.6 L349.7,182.3 
		L350.0,182.2 L350.2,182.2 L350.5,182.8 L350.7,182.9 L351.0,182.9 L351.2,183.1 L351.4,183.1 L351.7,183.3 
		L351.9,183.3 L352.2,183.3 L352.4,183.6 L352.7,183.2 L352.9,182.7 L353.2,182.3 L353.4,182.1 L353.6,182.2 
		L353.9,182.2 L354.1,182.2 L354.4,182.6 L354.6,182.6 L354.9,182.6 L355.1,182.6 L355.3,182.6 L355.6,182.6 
		L355.8,183.6 L356.1,183.6 L356.3,183.6 L356.6,183.7 L356.8,183.6 L357.0,183.5 L357.3,183.4 L357.5,183.3 
		L357.8,183.3 L358.0,183.3 L358.3,183.3 L358.5,183.3 L358.7,183.9 L359.0,183.8 L359.2,183.8 L359.5,184.1 
		L359.7,184.1 L360.0,184.1 L360.2,184.6 L360.4,184.6 L360.7,184.6 L360.9,185.1 L361.2,185.3 L361.4,185.3 
		L361.7,185.3 L361.9,185.8 L362.2,186.0 L362.4,186.1 L362.6,186.4 L362.9,186.4 L363.1,186.4 L363.4,186.6 
		L363.6,186.6 L363.9,186.8 L364.1,187.1 L364.3,186.9 L364.6,186.7 L364.8,186.7 L365.1,186.7 L365.3,186.4 
		L365.6,186.1 L365.8,185.8 L366.0,185.8 L366.3,185.7 L366.5,185.7 L366.8,185.9 L367.0,185.8 L367.3,185.7 
		L367.5,185.6 L367.7,185.6 L368.0,185.6 L368.2,185.8 L368.5,185.8 L368.7,185.5 L369.0,185.1 L369.2,184.7 
		L369.4,184.7 L369.7,184.8 L369.9,184.6 L370.2,184.6 L370.4,184.7 L370.7,184.8 L370.9,185.1 L371.2,185.2 
		L371.4,185.2 L371.6,185.4 L371.9,185.2 L372.1,185.2 L372.4,185.4 L372.6,185.4 L372.9,185.8 L373.1,185.9 
		L373.3,185.8 L373.6,185.8 L373.8,185.6 L374.1,185.5 L374.3,185.6 L374.6,185.6 L374.8,185.9 L375.0,185.7 
		L375.3,185.3 L375.5,184.9 L375.8,184.8 L376.0,184.8 L376.3,184.8 L376.5,185.1 L376.7,185.1 L377.0,185.1 
		L377.2,185.7 L377.5,185.7 L377.7,185.9 L378.0,186.0 L378.2,185.8 L378.4,185.6 L378.7,185.5 L378.9,185.5 
		L379.2,185.5 L379.4,185.5 L379.7,185.8 L379.9,185.8 L380.2,185.8 L380.4,186.3 L380.6,186.5 L380.9,186.4 
		L381.1,186.2 L381.4,186.2 L381.6,186.2 L381.9,186.7 L382.1,186.7 L382.3,186.6 L382.6,186.6 L382.8,186.6 
		L383.1,186.9 L383.3,186.9 L383.6,186.9 L383.8,186.9 L384.0,187.0 L384.3,187.0 L384.5,187.2 L384.8,187.5 
		L385.0,187.1 L385.3,186.6 L385.5,186.5 L385.7,186.6 L386.0,186.6 L386.2,186.7 L386.5,186.5 L386.7,186.6 
		L387.0,186.7 L387.2,186.6 L387.4,186.5 L387.7,186.5 L387.9,186.8 L388.2,186.8 L388.4,186.7 L388.7,186.5 
		L388.9,186.5 L389.2,186.7 L389.4,186.9 L389.6,186.9 L389.9,186.8 L390.1,186.9 L390.4,186.8 L390.6,186.8 
		L390.9,187.1 L391.1,187.1 L391.3,187.1 L391.6,187.3 L391.8,187.3 L392.1,187.3 L392.3,187.2 L392.6,187.0 
		L392.8,187.0 L393.0,187.0 L393.3,187.4 L393.5,187.3 L393.8,187.1 L394.0,187.0 L394.3,186.7 L394.5,186.6 
		L394.7,186.6 L395.0,186.6 L395.2,186.7 L395.5,186.5 L395.7,186.5 L396.0,186.5 L396.2,186.7 L396.4,186.7 
		L396.7,186.9 L396.9,186.9 L397.2,187.2 L397.4,187.3 L397.7,187.4 L397.9,187.3 L398.2,187.3 L398.4,187.4 
		L398.6,187.4 L398.9,187.4 L399.1,187.4 L399.4,187.4 L399.6,188.3 L399.9,188.3 L400.1,188.3 L400.3,188.2 
		L400.6,188.2 L400.8,188.5 L401.1,188.5 L401.3,188.8 L401.6,188.8 L401.8,189.1 L402.0,189.3 L402.3,189.3 
		L402.5,189.3 L402.8,189.7 L403.0,189.7 L403.3,189.7 L403.5,190.1 L403.7,190.2 L404.0,190.1 L404.2,190.0 
		L404.5,190.0 L404.7,190.1 L405.0,190.0 L405.2,189.9 L405.4,189.9 L405.7,190.2 L405.9,190.2 L406.2,190.5 
		L406.4,190.5 L406.7,190.5 L406.9,190.9 L407.2,191.0 L407.4,191.0 L407.6,191.2 L407.9,191.2 L408.1,191.2 
		L408.4,191.7 L408.6,191.5 L408.9,191.3 L409.1,191.2 L409.3,191.0 L409.6,191.0 L409.8,191.0 L410.1,190.8 
		L410.3,190.9 L410.6,190.7 L410.8,190.8 L411.0,190.6 L411.3,190.4 L411.5,190.2 L411.8,190.3 L412.0,190.1 
		L412.3,189.9 L412.5,189.5 L412.7,189.4 L413.0,189.4 L413.2,189.4 L413.5,189.9 L413.7,190.1 L414.0,190.1 
		L414.2,190.2 L414.5,190.2 L414.7,190.4 L414.9,190.4 L415.2,190.6 L415.4,190.5 L415.7,190.4 L415.9,190.3 
		L416.2,190.2 L416.4,190.2 L416.6,190.2 L416.9,190.3 L417.1,190.4 L417.4,190.4 L417.6,190.7 L417.9,190.8 
		L418.1,190.8 L418.3,190.9 L418.6,190.9 L418.8,191.0 L419.1,191.1 L419.3,191.1 L419.6,191.2 L419.8,191.2 
		L420.0,191.2 L420.3,191.2 L420.5,191.2 L420.8,192.0 L421.0,191.8 L421.3,191.7 L421.5,191.7 L421.7,191.7 
		L422.0,191.7 L422.2,191.7 L422.5,191.8 L422.7,191.9 L423.0,192.1 L423.2,192.1 L423.5,192.4 L423.7,192.3 
		L423.9,192.3 L424.2,192.3 L424.4,192.3 L424.7,192.4 L424.9,192.4 L425.2,192.4 L425.4,192.4 L425.6,193.1 
		L425.9,193.1 L426.1,193.2 L426.4,193.4 L426.6,193.3 L426.9,193.4 L427.1,193.4 L427.3,193.7 L427.6,193.7 
		L427.8,193.7 L428.1,193.6 L428.3,193.5 L428.6,193.3 L428.8,193.4 L429.0,193.2 L429.3,193.2 L429.5,193.2 
		L429.8,193.6 L430.0,193.6 L430.3,193.4 L430.5,193.2 L430.7,193.1 L431.0,193.2 L431.2,193.1 L431.5,193.0 
		L431.7,192.9 L432.0,192.9 L432.2,193.0 L432.5,193.0 L432.7,193.2 L432.9,193.0 L433.2,192.7 L433.4,192.4 
		L433.7,192.1 L433.9,191.8 L434.2,191.8 L434.4,191.8 L434.6,191.8 L434.9,191.8 L435.1,191.8 L435.4,191.8 
		L435.6,192.5 L435.9,192.4 L436.1,192.5 L436.3,192.7 L436.6,192.7 L436.8,192.8 L437.1,192.9 L437.3,192.9 
		L437.6,192.9 L437.8,192.9 L438.0,192.9 L438.3,192.8 L438.5,192.8 L438.8,192.7 L439.0,192.7 L439.3,192.7 
		L439.5,193.0 L439.7,193.3 L440.0,193.3 L440.2,193.6 L440.5,193.7 L440.7,193.9 L441.0,194.0 L441.2,194.1 
		L441.5,194.3 L441.7,194.4 L441.9,194.5 L442.2,194.6 L442.4,194.7 L442.7,194.7 L442.9,195.0 L443.2,195.2 
		L443.4,195.2 L443.6,195.3 L443.9,195.4 L444.1,195.4 L444.4,195.4 L444.6,195.8 L444.9,195.8 L445.1,195.9 
		L445.3,195.9 L445.6,195.9 L445.8,195.8 L446.1,195.8 L446.3,195.8 L446.6,195.8 L446.8,196.0 L447.0,196.0 
		L447.3,196.1 L447.5,196.1 L447.8,196.1 L448.0,196.1 L448.3,196.1 L448.5,196.8 L448.7,196.8 L449.0,196.9 
		L449.2,197.0 L449.5,197.0 L449.7,197.3 L450.0,197.4 L450.2,197.5 L450.5,197.5 L450.7,197.7 L450.9,197.8 
		L451.2,197.9 L451.4,198.0 L451.7,198.1 L451.9,198.2 L452.2,198.3 L452.4,198.4 L452.6,198.5 L452.9,198.5 
		L453.1,198.5 L453.4,198.6 L453.6,198.6 L453.9,198.6 L454.1,198.7 L454.3,198.7 L454.6,198.9 L454.8,198.9 
		L455.1,198.9 L455.3,199.3 L455.6,199.3 L455.8,199.3 L456.0,199.2 L456.3,199.1 L456.5,199.0 L456.8,198.9 
		L457.0,198.8 L457.3,198.7 L457.5,198.7 L457.7,198.7 L458.0,198.7 L458.2,199.2 L458.5,199.3 L458.7,199.3 
		L459.0,199.3 L459.2,199.3 L459.5,199.4 L459.7,199.2 L459.9,199.1 L460.2,199.2 L460.4,199.4 L460.7,199.4 
		L460.9,199.3 L461.2,199.1 L461.4,199.0 L461.6,199.2 L461.9,199.2 L462.1,199.2 L462.4,199.4 L462.6,199.4 
		L462.9,199.4 L463.1,199.7 L463.3,199.7 L463.6,200.0 L463.8,200.0 L464.1,200.0 L464.3,199.8 L464.6,199.5 
		L464.8,199.5 L465.0,199.5 L465.3,199.2 L465.5,198.9 L465.8,198.9 L466.0,198.8 L466.3,198.5 L466.5,198.2 
		L466.7,197.9 L467.0,197.9 L467.2,198.1 L467.5,198.1 L467.7,198.3 L468.0,198.2 L468.2,198.1 L468.5,197.9 
		L468.7,197.6 L468.9,197.6 L469.2,197.7 L469.4,197.7 L469.7,197.9 L469.9,197.5 L470.2,197.3 L470.4,197.4 
		L470.6,197.5 L470.9,197.4 L471.1,197.5 L471.4,197.5 L471.6,197.5 L471.9,197.5 L472.1,197.9 L472.3,197.9 
		L472.6,198.0 L472.8,198.0 L473.1,198.3 L473.3,198.2 L473.6,198.1 L473.8,198.0 L474.0,198.0 L474.3,198.0 
		L474.5,198.0 L474.8,198.4 L475.0,198.1 L475.3,197.7 L475.5,197.8 L475.7,197.8 L476.0,197.8 L476.2,197.9 
		L476.5,197.9 L476.7,197.9 L477.0,197.9 L477.2,198.4 L477.5,198.5 L477.7,198.5 L477.9,198.5 L478.2,198.5 
		L478.4,198.5 L478.7,198.5 L478.9,198.5 L479.2,199.2 L479.4,199.2 L479.6,199.3 L479.9,199.5 L480.1,199.3 
		L480.4,199.3 L480.6,199.3 L480.9,199.4 L481.1,199.5 L481.3,199.4 L481.6,199.4 L481.8,199.3 L482.1,199.2 
		L482.3,199.1 L482.6,199.0 L482.8,199.0 L483.0,199.0 L483.3,199.0 L483.5,199.1 L483.8,199.1 L484.0,199.1 
		L484.3,199.5 L484.5,199.5 L484.7,199.6 L485.0,199.5 L485.2,199.5 L485.5,199.5 L485.7,199.8 L486.0,199.9 
		L486.2,199.9 L486.5,200.0 L486.7,200.0 L486.9,200.0 L487.2,200.0 L487.4,200.1 L487.7,200.1 L487.9,200.0 
		L488.2,200.0 L488.4,200.0 L488.6,200.1 L488.9,200.1 L489.1,200.3 L489.4,200.3 L489.6,200.4 L489.9,200.5 
		L490.1,200.4 L490.3,200.4 L490.6,200.3 L490.8,200.3 L491.1,200.4 L491.3,200.3 L491.6,200.1 L491.8,200.0 
		L492.0,199.9 L492.3,199.9 L492.5,199.9 L492.8,199.8 L493.0,199.6 L493.3,199.6 L493.5,199.6 L493.7,199.7 
		L494.0,199.7 L494.2,199.7 L494.5,199.7 L494.7,199.7 L495.0,199.6 L495.2,199.6 L495.5,199.6 L495.7,199.6 
		L495.9,199.8 L496.2,199.8 L496.4,200.0 L496.7,200.0 L496.9,200.0 L497.2,200.4 L497.4,200.4 L497.6,200.4 
		L497.9,200.4 L498.1,200.4 L498.4,200.4 L498.6,201.2 L498.9,201.3 L499.1,201.3 L499.3,201.4 L499.6,201.3 
		L499.8,201.3 L500.1,201.3 L500.3,201.3 L500.6,201.0 L500.8,200.7 L501.0,200.7 L501.3,200.8 L501.5,200.8 
		L501.8,200.7 L502.0,200.5 L502.3,200.4 L502.5,200.5 L502.7,200.4 L503.0,200.3 L503.2,200.3 L503.5,200.5 
		L503.7,200.5 L504.0,200.2 L504.2,199.9 L504.5,199.8 L504.7,199.5 L504.9,199.2 L505.2,199.1 L505.4,199.2 
		L505.7,199.2 L505.9,199.2 L506.2,199.2 L506.4,199.7 L506.6,199.7 L506.9,199.7 L507.1,199.7 L507.4,200.3 
		L507.6,200.3 L507.9,200.5 L508.1,200.4 L508.3,200.2 L508.6,200.0 L508.8,199.6 L509.1,199.3 L509.3,199.0 
		L509.6,198.9 L509.8,198.9 L510.0,199.0 L510.3,199.0 L510.5,198.9 L510.8,198.9 L511.0,198.8 L511.3,198.8 
		L511.5,198.8 L511.8,198.8 L512.0,198.8 L512.2,198.9 L512.5,198.9 L512.7,199.0 L513.0,198.8 L513.2,198.8 
		L513.5,198.8 L513.7,198.8 L513.9,199.1 L514.2,199.1 L514.4,199.3 L514.7,199.3 L514.9,199.4 L515.2,199.4 
		L515.4,199.5 L515.6,199.5 L515.9,199.6 L516.1,199.5 L516.4,199.5 L516.6,199.5 L516.9,199.6 L517.1,199.5 
		L517.3,199.4 L517.6,199.4 L517.8,199.5 L518.1,199.3 L518.3,199.2 L518.6,199.2 L518.8,199.3 L519.0,199.3 
		L519.3,199.3 L519.5,199.3 L519.8,199.5 L520.0,199.3 L520.3,199.2 L520.5,199.3 L520.8,199.0 L521.0,198.8 
		L521.2,198.9 L521.5,198.9 L521.7,198.7 L522.0,198.7 L522.2,198.8 L522.5,198.6 L522.7,198.3 L522.9,198.3 
		L523.2,198.4 L523.4,198.3 L523.7,198.3 L523.9,198.5 L524.2,198.6 L524.4,198.6 L524.6,198.7 L524.9,198.5 
		L525.1,198.4 L525.4,198.4 L525.6,198.5 L525.9,198.4 L526.1,198.1 L526.3,197.8 L526.6,197.8 L526.8,197.8 
		L527.1,197.8 L527.3,198.1 L527.6,198.2 L527.8,198.3 L528.0,198.4 L528.3,198.6 L528.5,198.7 L528.8,198.8 
		L529.0,198.8 L529.3,199.0 L529.5,199.2 L529.8,199.1 L530.0,199.3 L530.2,199.3 L530.5,199.2 L530.7,199.1 
		L531.0,199.1 L531.2,199.2 L531.5,199.2 L531.7,199.3 L531.9,199.4 L532.2,199.4 L532.4,199.7 L532.7,199.6 
		L532.9,199.6 L533.2,199.7 L533.4,199.7 L533.6,199.7 L533.9,199.7 L534.1,200.1 L534.4,200.2 L534.6,200.2 
		L534.9,200.2 L535.1,200.2 L535.3,200.2 L535.6,200.6 L535.8,200.4 L536.1,200.2 L536.3,200.2 L536.6,200.3 
		L536.8,200.2 L537.0,200.1 L537.3,200.1 L537.5,200.2 L537.8,200.1 L538.0,200.1 L538.3,200.1 L538.5,200.1 
		L538.8,200.4 L539.0,200.4 L539.2,200.4 L539.5,200.5 L539.7,200.5 L540.0,200.5 L540.2,200.4 L540.5,200.3 
		L540.7,200.3 L540.9,200.3 L541.2,200.2 L541.4,200.2 L541.7,200.2 L541.9,200.3 L542.2,200.4 L542.4,200.5 
		L542.6,200.5 L542.9,200.3 L543.1,200.3 L543.4,200.4 L543.6,200.5 L543.9,200.5 L544.1,200.7 L544.3,200.7 
		L544.6,200.7 L544.8,200.9 L545.1,200.9 L545.3,201.1 L545.6,201.1 L545.8,201.1 L546.0,201.1 L546.3,201.4 
		L546.5,201.6 L546.8,201.4 L547.0,201.1 L547.3,200.9 L547.5,200.7 L547.8,200.6 L548.0,200.7 L548.2,200.7 
		L548.5,200.8 L548.7,200.6 L549.0,200.5 L549.2,200.5 L549.5,200.5 L549.7,200.5 L549.9,200.5 L550.2,201.0 
		L550.4,201.0 L550.7,201.0 L550.9,201.3 L551.2,201.3 L551.4,201.4 L551.6,201.4 L551.9,201.6 L552.1,201.5 
		L552.4,201.5 L552.6,201.5 L552.9,201.2 L553.1,200.9 L553.3,200.9 L553.6,200.9 L553.8,201.1 L554.1,201.1 
		L554.3,201.1 L554.6,201.4 L554.8,201.4 L555.0,201.4 L555.3,201.4 L555.5,201.7 L555.8,201.6 L556.0,201.5 
		L556.3,201.6 L556.5,201.4 L556.8,201.2 L557.0,201.1 L557.2,201.2 L557.5,201.0 L557.7,201.1 L558.0,201.2 
		L558.2,201.1 L558.5,201.1 L558.7,201.2 L558.9,201.2 L559.2,201.2 L559.4,201.2 L559.7,201.3 L559.9,201.1 
		L560.2,200.8 L560.4,200.6 L560.6,200.7 L560.9,200.6 L561.1,200.5 L561.4,200.5 L561.6,200.5 L561.9,200.3 
		L562.1,200.3 L562.3,200.3 L562.6,200.5 L562.8,200.3 L563.1,200.2 L563.3,200.0 L563.6,199.7 L563.8,199.5 
		L564.0,199.2 L564.3,199.1 L564.5,199.2 L564.8,199.3 L565.0,199.3 L565.3,199.3 L565.5,199.4 L565.8,199.5 
		L566.0,199.6 L566.2,199.5 L566.5,199.6 L566.7,199.7 L567.0,199.8 L567.2,199.8 L567.5,199.8 L567.7,200.1 
		L567.9,200.1 L568.2,200.1 L568.4,200.4 L568.7,200.4 L568.9,200.5 L569.2,200.4 L569.4,200.5 L569.6,200.6 
		L569.9,200.6 L570.1,200.8 L570.4,200.8 L570.6,200.8 L570.9,200.8 L571.1,201.1 L571.3,201.2 L571.6,201.2 
		L571.8,201.2 L572.1,201.2 L572.3,201.6 L572.6,201.7 L572.8,201.7 L573.0,201.8 L573.3,201.5 L573.5,201.4 
		L573.8,201.4 L574.0,201.5 L574.3,201.6 L574.5,201.6 L574.8,201.6 L575.0,201.4  h0.01'/></g>
	</g>
	<g id="gnuplot_plot_2" ><title>gnuplot_plot_2</title>
<g style="fill:none; color:green; stroke:currentColor; stroke-width:1.00; stroke-linecap:butt; stroke-linejoin:miter">
	<g transform="translate(507.9,408.9)" style="stroke:none; fill:black; font-family:Arial; font-size:12.00pt; text-anchor:end">
		<text>Radio maximum capacity</text>
	</g>
	<path  d='M516.2,404.4 L558.4,404.4 M91.4,295.2 L91.7,234.1 L91.9,239.1 L92.1,303.2 L92.4,303.2 L92.6,345.6 
		L92.9,292.2 L93.1,287.3 L93.4,287.3 L93.6,317.9 L93.9,274.3 L94.1,242.2 L94.3,246.9 L94.6,248.4 
		L94.8,236.4 L95.1,201.8 L95.3,164.4 L95.6,134.4 L95.8,123.4 L96.0,123.6 L96.3,126.0 L96.5,126.4 
		L96.8,106.4 L97.0,97.6 L97.3,101.4 L97.5,108.7 L97.7,110.1 L98.0,128.4 L98.2,129.3 L98.5,127.9 
		L98.7,127.0 L99.0,132.1 L99.2,116.9 L99.4,101.3 L99.7,100.5 L99.9,100.5 L100.2,116.6 L100.4,116.6 
		L100.7,132.0 L100.9,136.1 L101.1,132.6 L101.4,124.0 L101.6,111.7 L101.9,103.1 L102.1,95.1 L102.4,93.1 
		L102.6,94.7 L102.8,104.1 L103.1,105.8 L103.3,105.8 L103.6,105.8 L103.8,105.8 L104.1,129.3 L104.3,128.0 
		L104.5,131.8 L104.8,122.2 L105.0,109.7 L105.3,98.5 L105.5,92.3 L105.8,95.8 L106.0,95.8 L106.3,98.4 
		L106.5,96.0 L106.7,98.6 L107.0,96.1 L107.2,97.4 L107.5,97.4 L107.7,106.0 L108.0,102.4 L108.2,101.9 
		L108.4,109.3 L108.7,107.8 L108.9,108.3 L109.2,107.5 L109.4,99.0 L109.7,90.0 L109.9,83.3 L110.1,82.9 
		L110.4,83.6 L110.6,89.8 L110.9,91.5 L111.1,95.4 L111.4,93.1 L111.6,87.1 L111.8,81.4 L112.1,77.0 
		L112.3,73.4 L112.6,71.4 L112.8,70.2 L113.1,71.1 L113.3,77.0 L113.5,76.8 L113.8,75.9 L114.0,76.6 
		L114.3,79.5 L114.5,79.2 L114.8,81.1 L115.0,84.0 L115.3,86.4 L115.5,88.0 L115.7,84.9 L116.0,80.0 
		L116.2,75.5 L116.5,72.2 L116.7,69.4 L117.0,67.9 L117.2,67.7 L117.4,68.1 L117.7,73.0 L117.9,73.3 
		L118.2,76.1 L118.4,79.9 L118.7,77.8 L118.9,78.5 L119.1,79.2 L119.4,79.6 L119.6,79.6 L119.9,79.6 
		L120.1,88.1 L120.4,88.8 L120.6,87.4 L120.8,88.0 L121.1,91.0 L121.3,91.0 L121.6,91.0 L121.8,99.2 
		L122.1,100.4 L122.3,101.8 L122.6,101.4 L122.8,104.0 L123.0,104.6 L123.3,107.0 L123.5,107.1 L123.8,110.1 
		L124.0,110.5 L124.3,110.5 L124.5,110.5 L124.7,116.0 L125.0,115.3 L125.2,115.7 L125.5,115.7 L125.7,118.7 
		L126.0,118.4 L126.2,118.9 L126.4,119.3 L126.7,121.2 L126.9,121.6 L127.2,121.6 L127.4,121.6 L127.7,127.2 
		L127.9,128.2 L128.1,128.8 L128.4,128.8 L128.6,130.9 L128.9,130.2 L129.1,130.7 L129.4,130.7 L129.6,130.7 
		L129.8,135.7 L130.1,135.6 L130.3,135.1 L130.6,135.1 L130.8,135.7 L131.1,135.7 L131.3,135.7 L131.6,140.9 
		L131.8,140.9 L132.0,140.9 L132.3,140.9 L132.5,145.8 L132.8,146.0 L133.0,146.1 L133.3,146.1 L133.5,150.7 
		L133.7,149.1 L134.0,146.6 L134.2,144.5 L134.5,144.3 L134.7,144.9 L135.0,145.8 L135.2,145.8 L135.4,149.0 
		L135.7,148.2 L135.9,145.6 L136.2,142.6 L136.4,139.9 L136.7,138.5 L136.9,139.2 L137.2,137.6 L137.4,135.0 
		L137.6,132.1 L137.9,129.9 L138.1,129.9 L138.4,131.9 L138.6,133.0 L138.9,133.4 L139.1,133.4 L139.3,135.8 
		L139.6,137.2 L139.8,137.4 L140.1,136.2 L140.3,133.8 L140.6,130.6 L140.8,128.0 L141.0,126.1 L141.3,125.7 
		L141.5,126.5 L141.8,127.1 L142.0,127.7 L142.3,126.2 L142.5,125.0 L142.7,125.1 L143.0,125.1 L143.2,125.1 
		L143.5,125.1 L143.7,125.1 L144.0,131.8 L144.2,133.5 L144.4,134.5 L144.7,134.9 L144.9,136.4 L145.2,137.4 
		L145.4,136.8 L145.7,137.5 L145.9,135.7 L146.2,133.3 L146.4,133.2 L146.6,133.9 L146.9,132.4 L147.1,132.1 
		L147.4,132.3 L147.6,132.7 L147.9,132.7 L148.1,135.8 L148.3,136.2 L148.6,136.5 L148.8,135.6 L149.1,134.6 
		L149.3,134.9 L149.6,135.6 L149.8,135.3 L150.0,135.4 L150.3,135.8 L150.5,137.0 L150.8,137.4 L151.0,137.4 
		L151.3,140.0 L151.5,140.5 L151.7,140.5 L152.0,141.5 L152.2,141.7 L152.5,143.0 L152.7,142.0 L153.0,140.1 
		L153.2,138.1 L153.4,136.5 L153.7,136.4 L153.9,137.8 L154.2,137.1 L154.4,136.9 L154.7,138.5 L154.9,138.8 
		L155.2,138.6 L155.4,139.0 L155.6,139.1 L155.9,139.1 L156.1,140.8 L156.4,140.5 L156.6,139.6 L156.9,139.1 
		L157.1,138.7 L157.3,139.2 L157.6,139.0 L157.8,139.1 L158.1,140.7 L158.3,140.2 L158.6,140.2 L158.8,141.1 
		L159.0,141.9 L159.3,142.4 L159.5,142.9 L159.8,142.9 L160.0,145.1 L160.3,145.0 L160.5,145.2 L160.7,145.2 
		L161.0,145.2 L161.2,145.2 L161.5,145.2 L161.7,149.3 L162.0,149.3 L162.2,149.3 L162.4,151.5 L162.7,151.1 
		L162.9,150.8 L163.2,151.0 L163.4,151.0 L163.7,151.0 L163.9,153.8 L164.2,153.9 L164.4,153.7 L164.6,153.8 
		L164.9,154.8 L165.1,154.8 L165.4,154.8 L165.6,156.8 L165.9,156.6 L166.1,156.8 L166.3,156.9 L166.6,156.3 
		L166.8,154.4 L167.1,153.3 L167.3,153.2 L167.6,154.5 L167.8,154.3 L168.0,154.8 L168.3,153.9 L168.5,154.0 
		L168.8,154.2 L169.0,154.0 L169.3,154.0 L169.5,154.8 L169.7,154.2 L170.0,154.2 L170.2,154.2 L170.5,155.1 
		L170.7,155.2 L171.0,156.2 L171.2,156.3 L171.4,156.6 L171.7,156.6 L171.9,156.6 L172.2,158.5 L172.4,158.6 
		L172.7,158.6 L172.9,158.6 L173.2,158.6 L173.4,158.6 L173.6,162.4 L173.9,160.3 L174.1,157.6 L174.4,154.6 
		L174.6,152.8 L174.9,152.8 L175.1,153.4 L175.3,154.2 L175.6,153.7 L175.8,153.2 L176.1,153.3 L176.3,153.1 
		L176.6,152.1 L176.8,151.4 L177.0,151.5 L177.3,151.8 L177.5,151.8 L177.8,152.4 L178.0,152.1 L178.3,152.2 
		L178.5,152.4 L178.7,152.6 L179.0,152.6 L179.2,154.0 L179.5,154.6 L179.7,154.8 L180.0,155.1 L180.2,155.2 
		L180.4,155.5 L180.7,155.8 L180.9,155.9 L181.2,156.3 L181.4,156.1 L181.7,156.1 L181.9,156.7 L182.2,156.6 
		L182.4,157.2 L182.6,156.8 L182.9,156.9 L183.1,157.2 L183.4,157.1 L183.6,157.7 L183.9,157.7 L184.1,158.9 
		L184.3,158.9 L184.6,158.9 L184.8,160.4 L185.1,159.5 L185.3,158.9 L185.6,159.0 L185.8,159.5 L186.0,159.4 
		L186.3,159.1 L186.5,159.2 L186.8,159.8 L187.0,158.9 L187.3,159.2 L187.5,158.5 L187.7,157.6 L188.0,157.2 
		L188.2,157.7 L188.5,157.7 L188.7,158.3 L189.0,158.7 L189.2,158.2 L189.4,157.0 L189.7,156.3 L189.9,156.3 
		L190.2,156.6 L190.4,156.7 L190.7,156.7 L190.9,158.1 L191.2,158.1 L191.4,158.1 L191.6,159.4 L191.9,158.8 
		L192.1,158.3 L192.4,158.3 L192.6,158.3 L192.9,158.7 L193.1,158.2 L193.3,158.5 L193.6,158.4 L193.8,158.3 
		L194.1,158.8 L194.3,158.2 L194.6,157.4 L194.8,157.3 L195.0,157.8 L195.3,157.9 L195.5,157.9 L195.8,157.7 
		L196.0,157.6 L196.3,158.2 L196.5,158.6 L196.7,158.6 L197.0,158.6 L197.2,159.6 L197.5,159.4 L197.7,159.4 
		L198.0,159.5 L198.2,159.7 L198.4,159.5 L198.7,159.2 L198.9,159.6 L199.2,158.5 L199.4,157.2 L199.7,156.2 
		L199.9,155.7 L200.2,155.3 L200.4,155.0 L200.6,154.9 L200.9,155.5 L201.1,155.9 L201.4,156.4 L201.6,156.4 
		L201.9,156.4 L202.1,158.2 L202.3,158.3 L202.6,158.9 L202.8,159.4 L203.1,158.6 L203.3,158.6 L203.6,158.6 
		L203.8,158.5 L204.0,158.5 L204.3,158.5 L204.5,159.2 L204.8,158.7 L205.0,158.4 L205.3,158.4 L205.5,158.8 
		L205.7,158.1 L206.0,157.9 L206.2,157.9 L206.5,159.0 L206.7,158.5 L207.0,157.1 L207.2,156.3 L207.4,156.7 
		L207.7,156.8 L207.9,156.8 L208.2,155.8 L208.4,155.7 L208.7,156.4 L208.9,156.4 L209.2,157.0 L209.4,157.2 
		L209.6,157.2 L209.9,157.2 L210.1,158.6 L210.4,158.5 L210.6,158.5 L210.9,158.5 L211.1,158.5 L211.3,160.6 
		L211.6,160.5 L211.8,160.5 L212.1,160.7 L212.3,160.7 L212.6,161.9 L212.8,162.0 L213.0,162.0 L213.3,162.4 
		L213.5,161.9 L213.8,162.0 L214.0,162.0 L214.3,163.0 L214.5,162.9 L214.7,163.0 L215.0,163.0 L215.2,163.6 
		L215.5,163.6 L215.7,163.6 L216.0,164.2 L216.2,163.3 L216.4,162.3 L216.7,161.3 L216.9,160.7 L217.2,160.7 
		L217.4,161.5 L217.7,161.5 L217.9,161.6 L218.2,161.5 L218.4,160.7 L218.6,160.5 L218.9,160.6 L219.1,160.6 
		L219.4,161.6 L219.6,161.8 L219.9,161.8 L220.1,162.8 L220.3,161.9 L220.6,161.2 L220.8,161.0 L221.1,161.2 
		L221.3,161.4 L221.6,161.4 L221.8,162.2 L222.0,162.7 L222.3,162.8 L222.5,162.9 L222.8,162.8 L223.0,163.0 
		L223.3,163.0 L223.5,163.0 L223.7,162.0 L224.0,161.1 L224.2,160.9 L224.5,161.4 L224.7,161.4 L225.0,161.8 
		L225.2,161.5 L225.4,160.9 L225.7,160.0 L225.9,159.9 L226.2,160.3 L226.4,160.5 L226.7,160.5 L226.9,161.1 
		L227.2,161.2 L227.4,161.9 L227.6,161.9 L227.9,161.9 L228.1,162.8 L228.4,162.5 L228.6,161.4 L228.9,160.4 
		L229.1,159.7 L229.3,159.7 L229.6,159.7 L229.8,160.2 L230.1,160.3 L230.3,160.3 L230.6,160.3 L230.8,160.3 
		L231.0,162.3 L231.3,162.4 L231.5,162.5 L231.8,162.7 L232.0,162.3 L232.3,162.1 L232.5,162.5 L232.7,162.3 
		L233.0,162.3 L233.2,162.3 L233.5,162.3 L233.7,164.1 L234.0,164.2 L234.2,164.0 L234.5,164.0 L234.7,164.2 
		L234.9,164.7 L235.2,164.5 L235.4,164.4 L235.7,164.6 L235.9,164.6 L236.2,164.6 L236.4,165.8 L236.6,165.9 
		L236.9,165.9 L237.1,166.9 L237.4,166.8 L237.6,167.2 L237.9,166.8 L238.1,166.2 L238.3,166.1 L238.6,166.7 
		L238.8,166.3 L239.1,166.3 L239.3,166.1 L239.6,165.0 L239.8,164.1 L240.0,163.3 L240.3,163.0 L240.5,163.1 
		L240.8,163.6 L241.0,163.6 L241.3,164.0 L241.5,164.0 L241.7,164.0 L242.0,164.0 L242.2,165.8 L242.5,166.0 
		L242.7,166.0 L243.0,166.1 L243.2,166.1 L243.5,166.2 L243.7,165.3 L243.9,164.4 L244.2,163.6 L244.4,163.7 
		L244.7,163.4 L244.9,162.9 L245.2,162.7 L245.4,162.9 L245.6,162.9 L245.9,162.9 L246.1,164.0 L246.4,164.5 
		L246.6,164.4 L246.9,164.4 L247.1,164.9 L247.3,164.8 L247.6,164.9 L247.8,164.9 L248.1,164.9 L248.3,164.9 
		L248.6,166.7 L248.8,166.8 L249.0,166.9 L249.3,167.0 L249.5,166.9 L249.8,166.7 L250.0,166.6 L250.3,166.9 
		L250.5,167.0 L250.7,167.5 L251.0,167.9 L251.2,168.4 L251.5,168.0 L251.7,167.9 L252.0,168.3 L252.2,167.9 
		L252.5,167.8 L252.7,167.9 L252.9,168.2 L253.2,167.9 L253.4,167.9 L253.7,167.9 L253.9,167.9 L254.2,168.9 
		L254.4,168.8 L254.6,168.5 L254.9,168.5 L255.1,168.8 L255.4,169.2 L255.6,169.3 L255.9,169.7 L256.1,169.6 
		L256.3,169.6 L256.6,169.6 L256.8,169.9 L257.1,170.0 L257.3,169.8 L257.6,169.3 L257.8,169.1 L258.0,169.2 
		L258.3,169.2 L258.5,169.2 L258.8,170.1 L259.0,170.3 L259.3,170.5 L259.5,170.5 L259.7,170.7 L260.0,170.6 
		L260.2,170.9 L260.5,170.6 L260.7,170.6 L261.0,171.0 L261.2,171.4 L261.5,171.0 L261.7,170.1 L261.9,169.0 
		L262.2,167.8 L262.4,166.6 L262.7,166.4 L262.9,166.3 L263.2,165.4 L263.4,164.2 L263.6,162.8 L263.9,162.0 
		L264.1,161.6 L264.4,161.5 L264.6,161.5 L264.9,161.9 L265.1,162.4 L265.3,162.3 L265.6,162.4 L265.8,162.5 
		L266.1,162.5 L266.3,163.3 L266.6,163.4 L266.8,163.8 L267.0,163.5 L267.3,163.0 L267.5,162.4 L267.8,162.5 
		L268.0,162.4 L268.3,162.2 L268.5,162.3 L268.7,162.5 L269.0,162.5 L269.2,162.5 L269.5,162.5 L269.7,162.5 
		L270.0,164.0 L270.2,164.0 L270.5,164.0 L270.7,165.1 L270.9,165.1 L271.2,165.1 L271.4,165.9 L271.7,166.3 
		L271.9,165.8 L272.1,165.5 L272.4,165.5 L272.6,165.5 L272.9,165.9 L273.1,166.0 L273.4,166.1 L273.6,166.0 
		L273.9,165.7 L274.1,165.7 L274.3,166.0 L274.6,165.7 L274.8,165.6 L275.1,165.7 L275.3,166.1 L275.6,166.0 
		L275.8,166.4 L276.0,166.3 L276.3,166.4 L276.5,166.4 L276.8,167.0 L277.0,167.1 L277.3,166.7 L277.5,166.2 
		L277.7,165.7 L278.0,165.7 L278.2,165.9 L278.5,166.1 L278.7,166.4 L279.0,166.5 L279.2,166.6 L279.4,167.1 
		L279.7,167.2 L279.9,167.2 L280.2,167.6 L280.4,167.4 L280.7,167.4 L280.9,167.5 L281.1,167.5 L281.4,167.6 
		L281.6,168.0 L281.9,167.6 L282.1,167.5 L282.4,167.6 L282.6,167.8 L282.9,167.5 L283.1,167.5 L283.3,167.5 
		L283.6,167.2 L283.8,167.1 L284.1,167.2 L284.3,167.3 L284.6,167.6 L284.8,167.7 L285.0,167.8 L285.3,167.9 
		L285.5,167.4 L285.8,167.4 L286.0,166.8 L286.3,166.2 L286.5,165.9 L286.7,165.8 L287.0,166.0 L287.2,166.1 
		L287.5,165.6 L287.7,164.9 L288.0,164.3 L288.2,164.3 L288.4,164.6 L288.7,164.9 L288.9,164.9 L289.2,165.1 
		L289.4,165.1 L289.7,165.3 L289.9,165.4 L290.1,165.2 L290.4,165.0 L290.6,165.0 L290.9,164.9 L291.1,164.6 
		L291.4,164.1 L291.6,163.8 L291.9,163.9 L292.1,163.9 L292.3,163.9 L292.6,164.7 L292.8,164.7 L293.1,164.7 
		L293.3,165.5 L293.6,165.3 L293.8,164.7 L294.0,164.0 L294.3,163.5 L294.5,163.5 L294.8,163.5 L295.0,163.9 
		L295.3,163.5 L295.5,163.3 L295.7,162.9 L296.0,162.6 L296.2,162.3 L296.5,162.1 L296.7,162.2 L297.0,162.2 
		L297.2,162.3 L297.4,162.7 L297.7,162.8 L297.9,162.6 L298.2,162.4 L298.4,162.6 L298.7,162.6 L298.9,162.6 
		L299.1,162.7 L299.4,163.0 L299.6,163.0 L299.9,163.5 L300.1,163.5 L300.4,163.8 L300.6,163.6 L300.9,163.7 
		L301.1,164.0 L301.3,164.2 L301.6,164.3 L301.8,164.3 L302.1,164.7 L302.3,164.6 L302.6,164.8 L302.8,165.2 
		L303.0,165.2 L303.3,165.3 L303.5,165.4 L303.8,165.4 L304.0,165.5 L304.3,165.5 L304.5,166.1 L304.7,166.3 
		L305.0,166.4 L305.2,166.6 L305.5,166.2 L305.7,165.8 L306.0,165.7 L306.2,165.7 L306.4,165.7 L306.7,166.4 
		L306.9,166.5 L307.2,166.5 L307.4,166.1 L307.7,166.0 L307.9,166.0 L308.1,165.7 L308.4,165.7 L308.6,166.1 
		L308.9,166.2 L309.1,166.4 L309.4,166.3 L309.6,166.6 L309.9,166.6 L310.1,167.0 L310.3,167.1 L310.6,167.1 
		L310.8,167.1 L311.1,167.1 L311.3,168.3 L311.6,168.3 L311.8,168.2 L312.0,168.3 L312.3,168.3 L312.5,168.1 
		L312.8,167.6 L313.0,167.3 L313.3,167.3 L313.5,167.3 L313.7,168.0 L314.0,168.1 L314.2,168.1 L314.5,168.4 
		L314.7,168.5 L315.0,168.7 L315.2,168.7 L315.4,169.1 L315.7,169.2 L315.9,169.3 L316.2,169.4 L316.4,169.7 
		L316.7,169.7 L316.9,170.2 L317.2,169.9 L317.4,169.6 L317.6,169.1 L317.9,168.8 L318.1,168.8 L318.4,168.9 
		L318.6,169.1 L318.9,169.0 L319.1,169.0 L319.3,169.3 L319.6,169.7 L319.8,169.7 L320.1,169.9 L320.3,169.3 
		L320.6,168.7 L320.8,168.5 L321.0,168.5 L321.3,168.8 L321.5,168.8 L321.8,168.5 L322.0,167.8 L322.3,167.4 
		L322.5,166.9 L322.7,166.8 L323.0,167.0 L323.2,167.0 L323.5,167.4 L323.7,166.9 L324.0,166.5 L324.2,166.6 
		L324.4,166.6 L324.7,166.9 L324.9,166.8 L325.2,166.8 L325.4,166.7 L325.7,166.8 L325.9,166.9 L326.2,166.4 
		L326.4,166.1 L326.6,166.1 L326.9,166.1 L327.1,166.7 L327.4,166.5 L327.6,166.4 L327.9,166.4 L328.1,166.5 
		L328.3,166.5 L328.6,166.0 L328.8,165.5 L329.1,165.0 L329.3,164.8 L329.6,165.0 L329.8,165.1 L330.0,165.3 
		L330.3,165.1 L330.5,164.8 L330.8,164.9 L331.0,165.0 L331.3,165.0 L331.5,165.0 L331.7,165.0 L332.0,164.8 
		L332.2,164.5 L332.5,164.5 L332.7,164.8 L333.0,164.5 L333.2,164.0 L333.4,163.5 L333.7,163.3 L333.9,163.3 
		L334.2,163.6 L334.4,164.0 L334.7,164.0 L334.9,164.0 L335.2,164.5 L335.4,164.9 L335.6,164.9 L335.9,165.1 
		L336.1,165.3 L336.4,165.2 L336.6,165.4 L336.9,165.6 L337.1,165.9 L337.3,165.8 L337.6,165.9 L337.8,165.4 
		L338.1,164.9 L338.3,164.5 L338.6,164.4 L338.8,164.8 L339.0,164.8 L339.3,164.8 L339.5,164.9 L339.8,164.9 
		L340.0,165.3 L340.3,165.4 L340.5,165.4 L340.7,165.5 L341.0,165.1 L341.2,164.9 L341.5,164.9 L341.7,165.2 
		L342.0,165.2 L342.2,165.2 L342.4,165.2 L342.7,165.7 L342.9,165.5 L343.2,165.3 L343.4,165.2 L343.7,165.1 
		L343.9,165.1 L344.2,165.4 L344.4,165.4 L344.6,165.9 L344.9,166.0 L345.1,166.1 L345.4,166.4 L345.6,166.2 
		L345.9,166.2 L346.1,166.4 L346.3,166.3 L346.6,166.3 L346.8,166.3 L347.1,166.7 L347.3,166.4 L347.6,166.0 
		L347.8,166.0 L348.0,166.2 L348.3,166.1 L348.5,165.9 L348.8,166.0 L349.0,166.0 L349.3,165.7 L349.5,165.3 
		L349.7,165.0 L350.0,164.9 L350.2,164.9 L350.5,164.9 L350.7,165.6 L351.0,165.6 L351.2,165.9 L351.4,165.9 
		L351.7,166.1 L351.9,166.2 L352.2,166.2 L352.4,166.5 L352.7,166.1 L352.9,165.6 L353.2,165.2 L353.4,165.0 
		L353.6,165.1 L353.9,165.1 L354.1,165.1 L354.4,165.6 L354.6,165.6 L354.9,165.6 L355.1,165.6 L355.3,165.6 
		L355.6,165.6 L355.8,166.7 L356.1,166.7 L356.3,166.7 L356.6,166.8 L356.8,166.7 L357.0,166.6 L357.3,166.3 
		L357.5,166.0 L357.8,165.9 L358.0,166.0 L358.3,166.0 L358.5,166.0 L358.7,166.5 L359.0,166.1 L359.2,166.1 
		L359.5,166.4 L359.7,166.5 L360.0,166.5 L360.2,166.9 L360.4,166.9 L360.7,166.9 L360.9,167.5 L361.2,167.7 
		L361.4,167.8 L361.7,167.8 L361.9,168.2 L362.2,168.2 L362.4,168.6 L362.6,168.9 L362.9,168.9 L363.1,169.0 
		L363.4,169.1 L363.6,169.2 L363.9,169.4 L364.1,169.7 L364.3,169.4 L364.6,168.9 L364.8,168.9 L365.1,168.9 
		L365.3,168.5 L365.6,167.9 L365.8,167.3 L366.0,167.3 L366.3,167.2 L366.5,167.2 L366.8,167.5 L367.0,167.4 
		L367.3,167.3 L367.5,167.2 L367.7,167.2 L368.0,167.2 L368.2,167.4 L368.5,167.4 L368.7,167.1 L369.0,166.6 
		L369.2,166.1 L369.4,166.1 L369.7,166.2 L369.9,166.1 L370.2,166.1 L370.4,166.2 L370.7,166.2 L370.9,166.6 
		L371.2,166.7 L371.4,166.7 L371.6,167.0 L371.9,166.8 L372.1,166.7 L372.4,166.9 L372.6,166.9 L372.9,167.4 
		L373.1,167.6 L373.3,167.5 L373.6,167.5 L373.8,167.3 L374.1,167.2 L374.3,167.3 L374.6,167.3 L374.8,167.6 
		L375.0,167.4 L375.3,167.0 L375.5,166.7 L375.8,166.6 L376.0,166.6 L376.3,166.6 L376.5,167.0 L376.7,167.0 
		L377.0,167.0 L377.2,167.6 L377.5,167.6 L377.7,167.8 L378.0,168.0 L378.2,167.8 L378.4,167.6 L378.7,167.5 
		L378.9,167.5 L379.2,167.5 L379.4,167.6 L379.7,167.9 L379.9,167.9 L380.2,167.9 L380.4,168.4 L380.6,168.6 
		L380.9,168.5 L381.1,168.3 L381.4,168.4 L381.6,168.4 L381.9,168.8 L382.1,168.9 L382.3,168.8 L382.6,168.8 
		L382.8,168.8 L383.1,169.2 L383.3,169.2 L383.6,169.2 L383.8,169.2 L384.0,169.3 L384.3,169.3 L384.5,169.5 
		L384.8,169.8 L385.0,169.5 L385.3,169.0 L385.5,168.9 L385.7,169.0 L386.0,169.0 L386.2,169.2 L386.5,169.0 
		L386.7,169.0 L387.0,169.2 L387.2,169.1 L387.4,169.0 L387.7,169.0 L387.9,169.3 L388.2,169.3 L388.4,169.3 
		L388.7,169.1 L388.9,169.1 L389.2,169.3 L389.4,169.5 L389.6,169.5 L389.9,169.4 L390.1,169.5 L390.4,169.4 
		L390.6,169.5 L390.9,169.8 L391.1,169.8 L391.3,169.8 L391.6,170.0 L391.8,170.1 L392.1,170.1 L392.3,169.9 
		L392.6,169.8 L392.8,169.8 L393.0,169.8 L393.3,170.2 L393.5,170.1 L393.8,170.0 L394.0,169.9 L394.3,169.6 
		L394.5,169.5 L394.7,169.5 L395.0,169.5 L395.2,169.6 L395.5,169.5 L395.7,169.5 L396.0,169.5 L396.2,169.7 
		L396.4,169.7 L396.7,170.0 L396.9,170.0 L397.2,170.2 L397.4,170.4 L397.7,170.4 L397.9,170.4 L398.2,170.4 
		L398.4,170.5 L398.6,170.5 L398.9,170.5 L399.1,170.5 L399.4,170.5 L399.6,171.5 L399.9,171.5 L400.1,171.5 
		L400.3,171.4 L400.6,171.5 L400.8,171.7 L401.1,171.8 L401.3,172.1 L401.6,172.1 L401.8,172.4 L402.0,172.6 
		L402.3,172.6 L402.5,172.6 L402.8,173.0 L403.0,173.1 L403.3,173.1 L403.5,173.5 L403.7,173.6 L404.0,173.5 
		L404.2,173.4 L404.5,173.4 L404.7,173.5 L405.0,173.2 L405.2,173.1 L405.4,173.1 L405.7,173.4 L405.9,173.4 
		L406.2,173.7 L406.4,173.7 L406.7,173.7 L406.9,174.2 L407.2,174.2 L407.4,174.3 L407.6,174.5 L407.9,174.5 
		L408.1,174.5 L408.4,174.9 L408.6,174.4 L408.9,174.0 L409.1,173.6 L409.3,173.4 L409.6,173.5 L409.8,173.0 
		L410.1,172.7 L410.3,172.8 L410.6,172.6 L410.8,172.7 L411.0,172.3 L411.3,171.8 L411.5,171.6 L411.8,171.7 
		L412.0,171.5 L412.3,171.2 L412.5,170.8 L412.7,170.7 L413.0,170.7 L413.2,170.7 L413.5,171.2 L413.7,171.2 
		L414.0,171.4 L414.2,171.5 L414.5,171.5 L414.7,171.8 L414.9,171.8 L415.2,172.0 L415.4,171.9 L415.7,171.8 
		L415.9,171.7 L416.2,171.6 L416.4,171.6 L416.6,171.7 L416.9,171.8 L417.1,171.9 L417.4,171.9 L417.6,172.3 
		L417.9,172.4 L418.1,172.4 L418.3,172.5 L418.6,172.5 L418.8,172.6 L419.1,172.7 L419.3,172.8 L419.6,172.8 
		L419.8,172.8 L420.0,172.8 L420.3,172.8 L420.5,172.8 L420.8,173.7 L421.0,173.5 L421.3,173.1 L421.5,172.7 
		L421.7,172.4 L422.0,172.2 L422.2,171.9 L422.5,172.1 L422.7,172.1 L423.0,172.3 L423.2,172.3 L423.5,172.6 
		L423.7,172.6 L423.9,172.5 L424.2,172.5 L424.4,172.5 L424.7,172.7 L424.9,172.7 L425.2,172.7 L425.4,172.7 
		L425.6,173.4 L425.9,173.4 L426.1,173.6 L426.4,173.8 L426.6,173.6 L426.9,173.6 L427.1,173.7 L427.3,174.0 
		L427.6,173.9 L427.8,174.0 L428.1,173.5 L428.3,173.0 L428.6,172.8 L428.8,172.8 L429.0,172.5 L429.3,172.5 
		L429.5,172.5 L429.8,172.9 L430.0,173.0 L430.3,172.7 L430.5,172.4 L430.7,172.4 L431.0,172.5 L431.2,172.4 
		L431.5,172.3 L431.7,172.2 L432.0,172.2 L432.2,172.3 L432.5,172.3 L432.7,172.5 L432.9,172.4 L433.2,171.9 
		L433.4,171.5 L433.7,171.1 L433.9,170.8 L434.2,170.8 L434.4,170.8 L434.6,170.8 L434.9,170.8 L435.1,170.8 
		L435.4,170.8 L435.6,171.6 L435.9,171.6 L436.1,171.6 L436.3,171.8 L436.6,171.9 L436.8,171.9 L437.1,172.1 
		L437.3,172.1 L437.6,172.0 L437.8,171.8 L438.0,171.5 L438.3,171.1 L438.5,170.6 L438.8,170.1 L439.0,170.0 
		L439.3,170.0 L439.5,170.0 L439.7,170.6 L440.0,170.6 L440.2,170.9 L440.5,170.9 L440.7,171.0 L441.0,170.6 
		L441.2,170.3 L441.5,170.3 L441.7,170.3 L441.9,170.2 L442.2,170.2 L442.4,170.2 L442.7,170.2 L442.9,170.6 
		L443.2,170.8 L443.4,170.6 L443.6,170.5 L443.9,170.5 L444.1,170.7 L444.4,170.7 L444.6,171.1 L444.9,171.1 
		L445.1,171.3 L445.3,171.1 L445.6,171.0 L445.8,170.9 L446.1,170.9 L446.3,170.8 L446.6,170.8 L446.8,171.0 
		L447.0,171.0 L447.3,171.2 L447.5,171.2 L447.8,171.2 L448.0,171.2 L448.3,171.2 L448.5,171.9 L448.7,171.6 
		L449.0,171.4 L449.2,171.4 L449.5,171.4 L449.7,171.8 L450.0,171.8 L450.2,171.8 L450.5,171.8 L450.7,171.8 
		L450.9,172.0 L451.2,172.0 L451.4,172.1 L451.7,172.2 L451.9,172.3 L452.2,172.5 L452.4,172.4 L452.6,172.5 
		L452.9,172.5 L453.1,172.5 L453.4,172.6 L453.6,172.5 L453.9,172.4 L454.1,172.5 L454.3,172.5 L454.6,172.8 
		L454.8,172.8 L455.1,172.8 L455.3,173.0 L455.6,172.6 L455.8,172.1 L456.0,171.8 L456.3,171.4 L456.5,170.9 
		L456.8,170.4 L457.0,170.1 L457.3,170.0 L457.5,170.0 L457.7,170.0 L458.0,170.0 L458.2,170.6 L458.5,170.7 
		L458.7,170.7 L459.0,170.7 L459.2,170.8 L459.5,170.8 L459.7,170.7 L459.9,170.6 L460.2,170.7 L460.4,170.9 
		L460.7,171.0 L460.9,170.8 L461.2,170.6 L461.4,170.5 L461.6,170.7 L461.9,170.8 L462.1,170.8 L462.4,171.0 
		L462.6,171.0 L462.9,171.0 L463.1,171.4 L463.3,171.4 L463.6,171.6 L463.8,171.6 L464.1,171.8 L464.3,171.4 
		L464.6,171.1 L464.8,171.1 L465.0,171.1 L465.3,170.8 L465.5,170.4 L465.8,170.4 L466.0,170.4 L466.3,170.0 
		L466.5,169.6 L466.7,169.3 L467.0,169.3 L467.2,169.6 L467.5,169.6 L467.7,169.8 L468.0,169.7 L468.2,169.7 
		L468.5,169.4 L468.7,169.2 L468.9,169.2 L469.2,169.3 L469.4,169.3 L469.7,169.5 L469.9,169.1 L470.2,169.0 
		L470.4,169.1 L470.6,169.2 L470.9,169.2 L471.1,169.2 L471.4,169.3 L471.6,169.3 L471.9,169.3 L472.1,169.7 
		L472.3,169.7 L472.6,169.8 L472.8,169.8 L473.1,170.1 L473.3,170.0 L473.6,170.0 L473.8,170.0 L474.0,170.0 
		L474.3,170.0 L474.5,170.0 L474.8,170.4 L475.0,170.1 L475.3,169.7 L475.5,169.8 L475.7,169.8 L476.0,169.9 
		L476.2,170.0 L476.5,170.0 L476.7,170.0 L477.0,170.0 L477.2,170.6 L477.5,170.7 L477.7,170.7 L477.9,170.7 
		L478.2,170.7 L478.4,170.7 L478.7,170.7 L478.9,170.7 L479.2,171.5 L479.4,171.5 L479.6,171.6 L479.9,171.8 
		L480.1,171.6 L480.4,171.7 L480.6,171.7 L480.9,171.8 L481.1,171.9 L481.3,171.8 L481.6,171.6 L481.8,171.4 
		L482.1,171.1 L482.3,170.6 L482.6,170.2 L482.8,170.1 L483.0,170.1 L483.3,170.1 L483.5,170.3 L483.8,170.3 
		L484.0,170.3 L484.3,170.7 L484.5,170.8 L484.7,170.8 L485.0,170.5 L485.2,170.4 L485.5,170.5 L485.7,170.7 
		L486.0,170.6 L486.2,170.5 L486.5,170.4 L486.7,170.4 L486.9,170.4 L487.2,170.5 L487.4,170.6 L487.7,170.5 
		L487.9,170.4 L488.2,170.4 L488.4,170.4 L488.6,170.6 L488.9,170.6 L489.1,170.7 L489.4,170.7 L489.6,170.9 
		L489.9,171.0 L490.1,170.9 L490.3,171.0 L490.6,170.9 L490.8,170.8 L491.1,170.9 L491.3,170.6 L491.6,170.3 
		L491.8,170.1 L492.0,170.1 L492.3,170.1 L492.5,170.0 L492.8,169.5 L493.0,169.2 L493.3,169.1 L493.5,169.2 
		L493.7,169.3 L494.0,169.3 L494.2,169.3 L494.5,169.4 L494.7,169.3 L495.0,169.3 L495.2,169.3 L495.5,169.3 
		L495.7,169.3 L495.9,169.5 L496.2,169.5 L496.4,169.8 L496.7,169.8 L496.9,169.8 L497.2,170.2 L497.4,170.2 
		L497.6,170.2 L497.9,170.2 L498.1,170.2 L498.4,170.2 L498.6,171.1 L498.9,171.2 L499.1,171.3 L499.3,171.4 
		L499.6,171.3 L499.8,171.3 L500.1,171.3 L500.3,171.4 L500.6,171.0 L500.8,170.7 L501.0,170.7 L501.3,170.8 
		L501.5,170.8 L501.8,170.8 L502.0,170.5 L502.3,170.5 L502.5,170.6 L502.7,170.5 L503.0,170.4 L503.2,170.5 
		L503.5,170.6 L503.7,170.6 L504.0,170.4 L504.2,170.1 L504.5,170.0 L504.7,169.7 L504.9,169.4 L505.2,169.3 
		L505.4,169.5 L505.7,169.5 L505.9,169.5 L506.2,169.5 L506.4,170.0 L506.6,170.0 L506.9,170.0 L507.1,170.0 
		L507.4,170.7 L507.6,170.7 L507.9,170.9 L508.1,170.9 L508.3,170.7 L508.6,170.5 L508.8,170.1 L509.1,169.8 
		L509.3,169.5 L509.6,169.5 L509.8,169.5 L510.0,169.6 L510.3,169.6 L510.5,169.6 L510.8,169.5 L511.0,169.5 
		L511.3,169.5 L511.5,169.5 L511.8,169.5 L512.0,169.5 L512.2,169.6 L512.5,169.6 L512.7,169.8 L513.0,169.6 
		L513.2,169.6 L513.5,169.7 L513.7,169.7 L513.9,169.9 L514.2,170.0 L514.4,170.1 L514.7,170.2 L514.9,170.3 
		L515.2,170.3 L515.4,170.4 L515.6,170.4 L515.9,170.6 L516.1,170.5 L516.4,170.5 L516.6,170.5 L516.9,170.6 
		L517.1,170.6 L517.3,170.5 L517.6,170.5 L517.8,170.6 L518.1,170.4 L518.3,170.4 L518.6,170.4 L518.8,170.5 
		L519.0,170.5 L519.3,170.6 L519.5,170.6 L519.8,170.7 L520.0,170.6 L520.3,170.5 L520.5,170.6 L520.8,170.3 
		L521.0,170.2 L521.2,170.2 L521.5,170.3 L521.7,170.1 L522.0,170.1 L522.2,170.2 L522.5,170.0 L522.7,169.8 
		L522.9,169.8 L523.2,169.9 L523.4,169.8 L523.7,169.8 L523.9,170.0 L524.2,170.1 L524.4,170.1 L524.6,170.3 
		L524.9,170.1 L525.1,169.9 L525.4,170.0 L525.6,170.2 L525.9,170.1 L526.1,169.8 L526.3,169.5 L526.6,169.4 
		L526.8,169.6 L527.1,169.5 L527.3,169.4 L527.6,169.6 L527.8,169.6 L528.0,169.8 L528.3,169.8 L528.5,169.8 
		L528.8,169.7 L529.0,169.7 L529.3,169.8 L529.5,170.0 L529.8,170.0 L530.0,170.1 L530.2,170.1 L530.5,170.0 
		L530.7,169.9 L531.0,169.9 L531.2,170.0 L531.5,170.1 L531.7,170.1 L531.9,170.3 L532.2,170.3 L532.4,170.6 
		L532.7,170.6 L532.9,170.6 L533.2,170.7 L533.4,170.7 L533.6,170.7 L533.9,170.7 L534.1,171.2 L534.4,171.2 
		L534.6,171.3 L534.9,171.3 L535.1,171.3 L535.3,171.3 L535.6,171.7 L535.8,171.6 L536.1,171.3 L536.3,171.3 
		L536.6,171.5 L536.8,171.4 L537.0,171.3 L537.3,171.3 L537.5,171.5 L537.8,171.4 L538.0,171.3 L538.3,171.3 
		L538.5,171.3 L538.8,171.7 L539.0,171.7 L539.2,171.7 L539.5,171.9 L539.7,171.9 L540.0,171.9 L540.2,171.8 
		L540.5,171.7 L540.7,171.7 L540.9,171.7 L541.2,171.7 L541.4,171.6 L541.7,171.7 L541.9,171.8 L542.2,172.0 
		L542.4,172.0 L542.6,172.1 L542.9,171.9 L543.1,171.9 L543.4,172.0 L543.6,172.1 L543.9,172.1 L544.1,172.3 
		L544.3,172.3 L544.6,172.3 L544.8,172.6 L545.1,172.6 L545.3,172.8 L545.6,172.9 L545.8,172.9 L546.0,172.9 
		L546.3,173.2 L546.5,173.4 L546.8,173.2 L547.0,173.0 L547.3,172.7 L547.5,172.5 L547.8,172.5 L548.0,172.6 
		L548.2,172.6 L548.5,172.7 L548.7,172.5 L549.0,172.4 L549.2,172.5 L549.5,172.5 L549.7,172.5 L549.9,172.5 
		L550.2,173.0 L550.4,173.0 L550.7,173.0 L550.9,173.4 L551.2,173.4 L551.4,173.5 L551.6,173.5 L551.9,173.7 
		L552.1,173.7 L552.4,173.6 L552.6,173.7 L552.9,173.4 L553.1,173.1 L553.3,173.1 L553.6,173.1 L553.8,173.3 
		L554.1,173.3 L554.3,173.3 L554.6,173.6 L554.8,173.7 L555.0,173.7 L555.3,173.7 L555.5,174.1 L555.8,173.9 
		L556.0,173.9 L556.3,173.9 L556.5,173.8 L556.8,173.6 L557.0,173.6 L557.2,173.6 L557.5,173.5 L557.7,173.6 
		L558.0,173.6 L558.2,173.6 L558.5,173.6 L558.7,173.7 L558.9,173.7 L559.2,173.8 L559.4,173.8 L559.7,173.9 
		L559.9,173.7 L560.2,173.5 L560.4,173.2 L560.6,173.3 L560.9,173.3 L561.1,173.2 L561.4,173.1 L561.6,173.2 
		L561.9,173.0 L562.1,173.0 L562.3,173.0 L562.6,173.2 L562.8,173.1 L563.1,173.0 L563.3,172.8 L563.6,172.5 
		L563.8,172.3 L564.0,172.1 L564.3,172.0 L564.5,172.0 L564.8,172.2 L565.0,172.2 L565.3,172.2 L565.5,172.4 
		L565.8,172.4 L566.0,172.5 L566.2,172.5 L566.5,172.5 L566.7,172.6 L567.0,172.8 L567.2,172.8 L567.5,172.8 
		L567.7,173.1 L567.9,173.1 L568.2,173.1 L568.4,173.4 L568.7,173.4 L568.9,173.6 L569.2,173.5 L569.4,173.6 
		L569.6,173.8 L569.9,173.8 L570.1,174.0 L570.4,174.0 L570.6,174.0 L570.9,174.0 L571.1,174.3 L571.3,174.4 
		L571.6,174.4 L571.8,174.4 L572.1,174.4 L572.3,174.9 L572.6,175.0 L572.8,175.0 L573.0,175.1 L573.3,174.8 
		L573.5,174.7 L573.8,174.8 L574.0,174.9 L574.3,175.0 L574.5,175.0 L574.8,175.1 L575.0,174.8  h0.01'/></g>
	</g>
<g style="fill:none; color:black; stroke:currentColor; stroke-width:1.00; stroke-linecap:butt; stroke-linejoin:miter">
	<path  d='M88.5,54.1 L88.5,422.4 L575.0,422.4 L575.0,54.1 L88.5,54.1 Z  h0.01'/></g>
</g>
</svg>

