#Time		Tcp throughput		Tcp delay		Number of Lost Pkts		Number of Tx Pkts
0		0		0		0		0
50		0		0		0		0
100		0		0		0		0
150		0		0		0		0
200		0		0		0		0
250		0		0		0		0
299		0		0		0		0
349		0		0		0		0
399		0		0		0		0
449		0		0		0		0
499		0		0		0		0
549		0		0		0		1
599		93.1818		23.3803		0		3
650		128.409		23.2564		0		5
700		167.424		23.1866		0		8
750		186.932		23.1549		0		11
800		246.83		23.3015		0		17
850		246.83		23.3015		0		26
900		327.184		23.529		0		38
950		419.137		23.7786		0		56
1000		548.705		24.1933		0		83
1050		727.341		24.8754		0		83
1100		987.745		26.0115		0		125
1150		1348.83		27.4663		0		188
1200		1665.13		28.2181		0		281
1250		2009.13		29.0459		0		403
1300		2476.97		30.2543		0		525
1350		2888.17		30.1077		0		645
1400		3387.54		29.9911		0		749
1450		3785.22		29.8526		0		851
1500		4137.67		29.752		0		955
1550		4452.18		29.6757		0		1057
1600		4734.78		29.6154		0		1135
1650		4936.17		29.5626		0		1257
1700		5120.43		29.5157		0		1379
1750		5289.66		29.4776		0		1501
1800		5445.63		29.4432		0		1623
1850		5589.84		29.4138		0		1745
1900		5723.56		29.4187		0		1865
1950		5965.26		29.4207		0		1969
2000		6116.36		29.4022		0		2071
2050		6256.51		29.3858		0		2175
2100		6386.85		29.3712		0		2277
2150		6509.61		29.3577		0		2355
2200		6591.96		29.342		0		2477
2250		6669.54		29.3263		0		2599
2299		6736.41		29.3118		0		2721
2349		6805.82		29.2991		0		2843
2399		6871.53		29.2884		0		2965
2449		6933.83		29.3024		0		3085
2499		7094.09		29.3012		0		3189
2549		7173.02		29.2942		0		3291
2599		7247.76		29.2878		0		3395
2649		7318.63		29.2818		0		3497
2699		7382.36		29.2754		0		3575
2749		7424.78		29.2669		0		3697
2799		7465.33		29.2586		0		3819
2849		7504.14		29.251		0		3941
2899		7541.32		29.2437		0		4063
2949		7576.96		29.2376		0		4185
2999		7611.16		29.2488		0		4305
3049		7727.61		29.2494		0		4409
3099		7776.01		29.2458		0		4511
3149		7822.36		29.2423		0		4615
3199		7866.81		29.2391		0		4717
3249		7907.02		29.2354		0		4795
3299		7931.58		29.2298		0		4917
3349		7955.27		29.2243		0		5039
3399		7978.13		29.2192		0		5161
3449		8000.21		29.2143		0		5283
3499		8021.55		29.2102		0		5405
3549		8042.19		29.2193		0		5525
3599		8133.18		29.2204		0		5629
3649		8165.85		29.2182		0		5731
3699		8197.39		29.2161		0		5835
3749		8227.85		29.2141		0		5937
3799		8255.46		29.2116		0		6015
3849		8270.71		29.2076		0		6137
3899		8285.52		29.2035		0		6259
3949		8299.89		29.1997		0		6381
3999		8313.85		29.1961		0		6503
4049		8327.41		29.193		0		6625
4099		8340.59		29.2007		0		6745
4149		8415.06		29.202		0		6849
4199		8438.59		29.2005		0		6951
4249		8461.43		29.199		0		7055
4299		8483.6		29.1977		0		7157
4349		8503.69		29.1959		0		7235
4399		8513.58		29.1927		0		7357
4449		8523.22		29.1895		0		7479
4499		8532.61		29.1865		0		7601
4549		8541.77		29.1836		0		7723
4599		8550.71		29.1812		0		7845
4649		8559.42		29.1879		0		7965
4699		8622.35		29.1891		0		8069
4749		8640.11		29.1881		0		8171
4799		8657.4		29.187		0		8275
4849		8674.25		29.186		0		8377
4899		8689.51		29.1846		0		8455
4949		8696.07		29.1821		0		8577
4999		8702.49		29.1795		0		8699
5049		8708.76		29.177		0		8821
5099		8714.89		29.1746		0		8943
5149		8720.89		29.1727		0		9065
5199		8726.76		29.1785		0		9185
5249		8781.2		29.1797		0		9289
5299		8795.07		29.1789		0		9391
5349		8808.62		29.1781		0		9495
5399		8821.86		29.1774		0		9597
5449		8833.83		29.1763		0		9675
5499		8838.22		29.1741		0		9797
5549		8842.51		29.1719		0		9919
5599		8846.72		29.1698		0		10041
5649		8850.85		29.1678		0		10163
5699		8854.9		29.1661		0		10285
5749		8858.88		29.1714		0		10405
5799		8906.81		29.1725		0		10509
5849		8917.95		29.1719		0		10611
5899		8928.85		29.1713		0		10715
5949		8939.53		29.1707		0		10817
5999		8949.16		29.1698		0		10895
6049		8952.06		29.1679		0		11017
6099		8954.91		29.166		0		11139
6149		8957.71		29.1642		0		11261
6199		8960.46		29.1625		0		11383
6249		8963.17		29.161		0		11505
6299		8965.82		29.1658		0		11625
6349		9008.63		29.1668		0		11729
6399		9017.76		29.1663		0		11831
6449		9026.72		29.1658		0		11935
6499		9035.52		29.1654		0		12037
6549		9043.42		29.1646		0		12115
6599		9045.29		29.163		0		12237
6649		9047.12		29.1613		0		12359
6699		9048.93		29.1597		0		12481
6749		9050.7		29.1582		0		12603
6799		9052.45		29.1569		0		12725
6849		9054.17		29.1612		0		12845
6899		9092.83		29.1622		0		12949
6949		9100.46		29.1618		0		13051
6999		9107.95		29.1614		0		13155
7049		9115.32		29.161		0		13257
7099		9121.92		29.1603		0		13335
7149		9123.04		29.1589		0		13457
7199		9124.14		29.1574		0		13579
7249		9125.22		29.156		0		13701
7299		9126.29		29.1546		0		13823
7349		9127.34		29.1535		0		13945
7399		9128.38		29.1575		0		14065
7449		9163.62		29.1584		0		14169
7499		9170.08		29.1581		0		14271
7549		9176.45		29.1577		0		14375
7599		9182.71		29.1574		0		14477
7649		9188.3		29.1568		0		14555
7699		9188.87		29.1555		0		14677
7749		9189.43		29.1542		0		14799
7799		9189.98		29.1529		0		14921
7849		9190.53		29.1517		0		15043
7899		9191.07		29.1506		0		15165
7949		9191.6		29.1543		0		15285
7999		9223.97		29.1552		0		15389
8049		9229.52		29.1549		0		15491
8099		9234.98		29.1546		0		15595
8149		9240.37		29.1543		0		15697
8199		9245.16		29.1538		0		15775
8249		9245.32		29.1527		0		15897
8299		9245.48		29.1514		0		16019
8349		9245.64		29.1503		0		16141
8399		9245.79		29.1491		0		16263
8449		9245.95		29.1482		0		16385
8499		9246.1		29.1516		0		16505
8549		9276.02		29.1525		0		16609
8599		9280.84		29.1522		0		16711
8649		9285.59		29.152		0		16815
8699		9290.27		29.1517		0		16917
8749		9294.42		29.1513		0		16995
8799		9294.27		29.1502		0		17117
8849		9294.13		29.1491		0		17239
8899		9293.99		29.148		0		17361
8949		9293.84		29.147		0		17483
8999		9293.7		29.1461		0		17605
9049		9293.56		29.1493		0		17725
9099		9321.39		29.1501		0		17829
9149		9325.61		29.1499		0		17931
9199		9329.77		29.1497		0		18035
9249		9333.88		29.1495		0		18137
9299		9337.51		29.1491		0		18215
9349		9337.12		29.1481		0		18337
9399		9336.75		29.147		0		18459
9449		9336.37		29.1461		0		18581
9500		9336.97		29.1452		0		18703
9550		9336.6		29.1443		0		18825
9600		9336.23		29.1462		0		18945
9650		9361.27		29.1481		0		19049
9700		9365		29.1479		0		19151
9750		9368.68		29.1477		0		19255
9800		9372.32		29.1475		0		19357
9850		9376.43		29.1473		0		19435
9900		9375.87		29.1464		0		19557
9950		9375.31		29.1454		0		19679
10000		9374.75		29.1445		0		19801
10050		9374.2		29.1436		0		19923
10100		9373.66		29.1427		0		20045
10150		9373.12		29.1445		0		20165
10200		9396.62		29.1463		0		20269
10250		9399.93		29.1461		0		20371
10300		9403.21		29.1459		0		20475
10350		9406.45		29.1458		0		20577
10400		9410.15		29.1456		0		20655
10450		9409.44		29.1447		0		20777
10500		9408.74		29.1438		0		20899
10550		9408.05		29.143		0		21021
10600		9407.37		29.1421		0		21143
10650		9406.69		29.1413		0		21265
10700		9406.02		29.143		0		21385
10750		9428.15		29.1447		0		21489
10800		9431.12		29.1445		0		21591
10850		9434.05		29.1444		0		21695
10900		9436.96		29.1442		0		21797
10950		9440.31		29.144		0		21875
11000		9439.49		29.1433		0		21997
11050		9438.69		29.1424		0		22119
11100		9437.89		29.1416		0		22241
11150		9437.1		29.1408		0		22363
11200		9436.32		29.14		0		22485
11250		9435.54		29.1417		0		22605
11300		9456.46		29.1432		0		22709
11350		9459.13		29.1431		0		22811
11400		9461.78		29.143		0		22915
11450		9464.4		29.1428		0		23017
11500		9467.44		29.1427		0		23095
11550		9466.54		29.142		0		23217
11600		9465.66		29.1411		0		23339
11650		9464.78		29.1404		0		23461
11700		9463.91		29.1396		0		23583
11750		9463.04		29.1389		0		23705
11800		9462.19		29.1405		0		23825
11850		9482.01		29.142		0		23929
11900		9484.43		29.1418		0		24031
11950		9486.83		29.1417		0		24135
12000		9489.2		29.1416		0		24237
12050		9491.99		29.1415		0		24315
12100		9491.03		29.1408		0		24437
12150		9490.08		29.14		0		24559
12200		9489.13		29.1393		0		24681
12250		9488.2		29.1386		0		24803
12300		9487.27		29.1379		0		24925
12350		9486.35		29.1394		0		25045
12400		9505.2		29.1408		0		25149
12450		9507.4		29.1407		0		25251
12500		9509.58		29.1406		0		25355
12550		9511.74		29.1405		0		25457
12600		9514.29		29.1403		0		25535
12650		9513.29		29.1397		0		25657
12700		9512.29		29.139		0		25779
12750		9511.3		29.1383		0		25901
12800		9510.31		29.1376		0		26023
12850		9509.34		29.137		0		26145
12900		9508.37		29.1384		0		26265
12950		9526.33		29.1398		0		26369
13000		9528.34		29.1397		0		26471
13050		9530.33		29.1396		0		26575
13100		9532.3		29.1395		0		26677
13150		9534.66		29.1393		0		26755
13200		9533.62		29.1387		0		26877
13250		9532.58		29.138		0		26999
13300		9531.55		29.1374		0		27121
13350		9530.53		29.1368		0		27243
13400		9529.52		29.1361		0		27365
13450		9528.52		29.1375		0		27485
13500		9545.66		29.1388		0		27589
13550		9547.5		29.1387		0		27691
13600		9549.33		29.1386		0		27795
13650		9551.15		29.1385		0		27897
13700		9553.33		29.1384		0		27975
13750		9552.26		29.1378		0		28097
13800		9551.19		29.1372		0		28219
13850		9550.14		29.1366		0		28341
13900		9549.09		29.136		0		28463
13950		9548.05		29.1354		0		28585
14000		9547.02		29.1367		0		28705
14050		9563.42		29.1379		0		28809
14100		9565.12		29.1379		0		28911
14150		9566.8		29.1378		0		29015
14200		9568.47		29.1377		0		29117
14250		9570.5		29.1376		0		29195
14300		9569.41		29.137		0		29317
14350		9568.32		29.1364		0		29439
14400		9567.25		29.1358		0		29561
14450		9566.18		29.1352		0		29683
14500		9565.12		29.1347		0		29805
14550		9564.07		29.1359		0		29925
14600		9579.79		29.1371		0		30029
14650		9581.36		29.1371		0		30131
14700		9582.91		29.137		0		30235
14750		9584.46		29.1369		0		30337
14800		9586.34		29.1368		0		30415
14850		9585.24		29.1363		0		30537
14900		9584.14		29.1357		0		30659
14950		9583.05		29.1351		0		30781
15000		9581.97		29.1346		0		30903
15050		9580.9		29.134		0		31025
15100		9579.83		29.1352		0		31145
15150		9594.93		29.1364		0		31249
15200		9596.38		29.1363		0		31351
15250		9597.82		29.1363		0		31455
15300		9599.25		29.1362		0		31557
15350		9601.01		29.1361		0		31635
15400		9599.9		29.1356		0		31757
15450		9598.8		29.135		0		31879
15500		9597.7		29.1345		0		32001
15550		9596.61		29.1339		0		32123
15600		9595.52		29.1334		0		32245
15650		9594.45		29.1346		0		32365
15700		9608.97		29.1357		0		32469
15750		9610.32		29.1356		0		32571
15800		9611.65		29.1356		0		32675
15850		9612.98		29.1355		0		32777
15900		9614.63		29.1354		0		32855
15950		9613.52		29.1349		0		32977
16000		9612.41		29.1344		0		33099
16050		9611.31		29.1339		0		33221
16100		9610.21		29.1334		0		33343
16150		9609.12		29.1329		0		33465
16200		9608.04		29.134		0		33585
16250		9622.02		29.1351		0		33689
16300		9623.28		29.135		0		33791
16350		9624.53		29.135		0		33895
16400		9625.76		29.1349		0		33997
16450		9627.32		29.1348		0		34075
16500		9626.2		29.1343		0		34197
16550		9625.09		29.1338		0		34319
16600		9623.98		29.1333		0		34441
16650		9622.88		29.1328		0		34563
16700		9621.79		29.1324		0		34685
16750		9620.71		29.1334		0		34805
16800		9634.2		29.1345		0		34909
16850		9635.37		29.1344		0		35011
16900		9636.53		29.1344		0		35115
16950		9637.69		29.1343		0		35217
17000		9639.15		29.1342		0		35295
17050		9638.03		29.1338		0		35417
17100		9636.92		29.1333		0		35539
17150		9635.82		29.1328		0		35661
17200		9634.72		29.1323		0		35783
17250		9633.63		29.1319		0		35905
17300		9632.55		29.1329		0		36025
17350		9645.57		29.1339		0		36129
17400		9646.67		29.1339		0		36231
17450		9647.76		29.1338		0		36335
17500		9648.84		29.1338		0		36437
17550		9650.22		29.1337		0		36515
17600		9649.11		29.1333		0		36637
17650		9648		29.1328		0		36759
17700		9646.9		29.1323		0		36881
17750		9645.8		29.1319		0		37003
17800		9644.72		29.1314		0		37125
17850		9643.64		29.1324		0		37245
17900		9656.23		29.1334		0		37349
17950		9657.26		29.1334		0		37451
18000		9658.28		29.1333		0		37555
18050		9659.29		29.1333		0		37657
18100		9660.6		29.1332		0		37735
18150		9659.49		29.1328		0		37857
18200		9658.39		29.1323		0		37979
18250		9657.29		29.1319		0		38101
18300		9656.2		29.1314		0		38223
18350		9655.12		29.131		0		38345
18400		9654.04		29.132		0		38465
18450		9666.23		29.1329		0		38569
18500		9667.19		29.1329		0		38671
18550		9668.15		29.1329		0		38775
18600		9669.11		29.1328		0		38877
18650		9670.34		29.1327		0		38955
18700		9669.24		29.1323		0		39077
18750		9668.15		29.1319		0		39199
18800		9667.06		29.1315		0		39321
18850		9665.97		29.131		0		39443
18900		9664.9		29.1306		0		39565
18950		9663.82		29.1316		0		39685
19000		9675.63		29.1325		0		39789
19050		9676.54		29.1325		0		39891
19100		9677.45		29.1324		0		39995
19150		9678.34		29.1324		0		40097
19200		9679.52		29.1323		0		40175
19250		9678.42		29.1319		0		40297
19300		9677.33		29.1315		0		40419
19350		9676.25		29.1311		0		40541
19400		9675.18		29.1306		0		40663
19450		9674.11		29.1302		0		40785
19500		9673.04		29.1312		0		40905
19550		9684.49		29.1321		0		41009
19600		9685.35		29.132		0		41111
19650		9686.2		29.132		0		41215
19700		9687.05		29.1319		0		41317
19750		9688.16		29.1319		0		41395
19800		9687.08		29.1315		0		41517
19850		9686		29.1311		0		41639
19900		9684.93		29.1307		0		41761
19950		9683.86		29.1303		0		41883
20000		9682.8		29.1299		0		42005
20050		9681.74		29.1308		0		42125
20100		9692.85		29.1317		0		42229
20150		9693.66		29.1316		0		42331
20200		9694.47		29.1316		0		42435
20250		9695.27		29.1316		0		42537
20300		9696.33		29.1315		0		42615
20350		9695.25		29.1311		0		42737
20400		9694.19		29.1307		0		42859
20450		9693.12		29.1303		0		42981
20500		9692.06		29.1299		0		43103
20550		9691.01		29.1296		0		43225
20600		9689.96		29.1304		0		43345
20650		9700.76		29.1313		0		43449
20700		9701.52		29.1313		0		43551
20750		9702.29		29.1312		0		43655
20800		9703.04		29.1312		0		43757
20850		9704.06		29.1311		0		43835
20900		9702.99		29.1308		0		43957
20950		9701.93		29.1304		0		44079
21000		9700.88		29.13		0		44201
21050		9699.83		29.1296		0		44323
21100		9698.78		29.1293		0		44445
21150		9697.74		29.1301		0		44565
21200		9708.24		29.1309		0		44669
21250		9708.97		29.1309		0		44771
21300		9709.69		29.1309		0		44875
21350		9710.41		29.1308		0		44977
21400		9711.37		29.1308		0		45055
21450		9710.32		29.1304		0		45177
21500		9709.27		29.13		0		45299
21550		9708.22		29.1297		0		45421
21600		9707.18		29.1293		0		45543
21650		9706.15		29.129		0		45665
21700		9705.12		29.1298		0		45785
21750		9715.34		29.1306		0		45889
21800		9716.03		29.1306		0		45991
21850		9716.71		29.1305		0		46095
21900		9717.39		29.1305		0		46197
21950		9718.32		29.1304		0		46275
22000		9717.27		29.1301		0		46397
22050		9716.23		29.1297		0		46519
22100		9715.2		29.1294		0		46641
22150		9714.17		29.129		0		46763
22200		9713.14		29.1287		0		46885
22250		9712.12		29.1295		0		47005
22300		9722.07		29.1303		0		47109
22350		9722.73		29.1302		0		47211
22400		9723.38		29.1302		0		47315
22450		9724.03		29.1302		0		47417
22500		9724.91		29.1301		0		47495
22550		9723.88		29.1298		0		47617
22600		9722.85		29.1294		0		47739
22650		9721.83		29.1291		0		47861
22700		9720.81		29.1288		0		47983
22750		9719.79		29.1284		0		48105
22800		9718.78		29.1292		0		48225
22850		9728.48		29.13		0		48329
22900		9729.1		29.1299		0		48431
22950		9729.72		29.1299		0		48535
23000		9730.34		29.1299		0		48637
23050		9731.18		29.1298		0		48715
23100		9730.16		29.1295		0		48837
23150		9729.14		29.1292		0		48959
23200		9728.13		29.1288		0		49081
23250		9727.12		29.1285		0		49203
23300		9726.12		29.1282		0		49325
23350		9725.12		29.1289		0		49445
23400		9734.57		29.1297		0		49549
23450		9735.17		29.1297		0		49651
23500		9735.76		29.1296		0		49755
23550		9736.34		29.1296		0		49857
23600		9737.16		29.1296		0		49935
23650		9736.15		29.1293		0		50057
23700		9735.14		29.1289		0		50179
23750		9734.14		29.1286		0		50301
23800		9733.14		29.1282		0		50423
23850		9732.15		29.1279		0		50545
23900		9731.16		29.1287		0		50665
23950		9740.38		29.1294		0		50769
24000		9740.95		29.1294		0		50871
24050		9741.51		29.1294		0		50975
24100		9742.07		29.1293		0		51077
24150		9742.85		29.1293		0		51155
24200		9741.85		29.129		0		51277
24250		9740.86		29.1286		0		51399
24300		9739.87		29.1283		0		51521
24350		9738.88		29.128		0		51643
24400		9737.9		29.1277		0		51765
24450		9736.92		29.1284		0		51885
24500		9745.92		29.1291		0		51989
24550		9746.47		29.1291		0		52091
24600		9747		29.1291		0		52195
24650		9747.54		29.1291		0		52297
24700		9748.29		29.129		0		52375
24750		9747.3		29.1287		0		52497
24800		9746.32		29.1284		0		52619
24850		9745.34		29.1281		0		52741
24900		9744.36		29.1278		0		52863
24950		9743.39		29.1275		0		52985
25000		9742.43		29.1282		0		53105
25050		9751.22		29.1289		0		53209
25100		9751.74		29.1289		0		53311
25150		9752.25		29.1289		0		53415
25200		9752.76		29.1288		0		53517
25250		9753.48		29.1288		0		53595
25300		9752.51		29.1285		0		53717
25350		9751.54		29.1282		0		53839
25400		9750.57		29.1279		0		53961
25450		9749.6		29.1276		0		54083
25500		9748.64		29.1273		0		54205
25550		9747.69		29.128		0		54325
25600		9756.28		29.1287		0		54429
25650		9756.77		29.1286		0		54531
25700		9757.27		29.1286		0		54635
25750		9757.76		29.1286		0		54737
25800		9758.45		29.1286		0		54815
25850		9757.49		29.1283		0		54937
25900		9756.53		29.1279		0		55059
25950		9755.57		29.1277		0		55181
26000		9754.62		29.1274		0		55303
26050		9753.67		29.1271		0		55425
26100		9752.72		29.1278		0		55545
26150		9761.12		29.1284		0		55649
26200		9761.6		29.1284		0		55751
26250		9762.07		29.1284		0		55855
26300		9762.54		29.1284		0		55957
26350		9763.21		29.1283		0		56035
26400		9762.26		29.1281		0		56157
26450		9761.31		29.1277		0		56279
26500		9760.36		29.1275		0		56401
26550		9759.42		29.1272		0		56523
26600		9758.48		29.1269		0		56645
26650		9757.55		29.1276		0		56765
26700		9765.77		29.1282		0		56869
26750		9766.22		29.1282		0		56971
26800		9766.67		29.1282		0		57075
26850		9767.12		29.1282		0		57177
26900		9767.77		29.1281		0		57255
26950		9766.83		29.1278		0		57377
27000		9765.89		29.1275		0		57499
27050		9764.95		29.1273		0		57621
27100		9764.02		29.127		0		57743
27150		9763.09		29.1267		0		57865
27200		9762.17		29.1274		0		57985
27250		9770.21		29.128		0		58089
27300		9770.65		29.128		0		58191
27350		9771.08		29.128		0		58295
27400		9771.51		29.1279		0		58397
27450		9772.14		29.1279		0		58475
27500		9771.21		29.1276		0		58597
27550		9770.28		29.1273		0		58719
27600		9769.36		29.1271		0		58841
27650		9768.44		29.1268		0		58963
27700		9767.52		29.1265		0		59085
27750		9766.61		29.1272		0		59205
27800		9774.48		29.1278		0		59309
27850		9774.9		29.1278		0		59411
27900		9775.32		29.1278		0		59515
27950		9775.73		29.1277		0		59617
28000		9776.34		29.1277		0		59695
28050		9775.42		29.1275		0		59817
28100		9774.5		29.1272		0		59939
28150		9773.59		29.1269		0		60061
28200		9772.68		29.1266		0		60183
28250		9771.77		29.1264		0		60305
28300		9770.87		29.127		0		60425
28350		9778.59		29.1276		0		60529
28400		9778.99		29.1276		0		60631
28450		9779.39		29.1276		0		60735
28500		9779.78		29.1276		0		60837
28550		9780.37		29.1275		0		60915
28600		9779.46		29.1273		0		61037
28650		9778.55		29.127		0		61159
28700		9777.65		29.1267		0		61281
28750		9776.75		29.1265		0		61403
28800		9775.86		29.1262		0		61525
28850		9774.96		29.1268		0		61645
28900		9782.53		29.1274		0		61749
28950		9782.91		29.1274		0		61851
29000		9783.3		29.1274		0		61955
29050		9783.68		29.1274		0		62057
29100		9784.25		29.1273		0		62135
29150		9783.35		29.1271		0		62257
29200		9782.45		29.1268		0		62379
29250		9781.56		29.1266		0		62501
29300		9780.67		29.1263		0		62623
29350		9779.79		29.126		0		62745
29400		9778.9		29.1267		0		62865
29450		9786.32		29.1272		0		62969
29500		9786.69		29.1272		0		63071
29550		9787.06		29.1272		0		63175
29600		9787.43		29.1272		0		63277
29650		9787.98		29.1272		0		63355
29700		9787.09		29.1269		0		63477
29750		9786.2		29.1266		0		63599
29800		9785.32		29.1264		0		63721
29850		9784.44		29.1261		0		63843
29900		9783.57		29.1259		0		63965
29950		9782.7		29.1265		0		64085
30000		9789.97		29.1271		0		64189
30050		9790.33		29.1271		0		64291
30100		9790.68		29.127		0		64395
30150		9791.04		29.127		0		64497
30200		9791.57		29.127		0		64575
30250		9790.69		29.1268		0		64697
30300		9789.82		29.1265		0		64819
30350		9788.95		29.1263		0		64941
30400		9788.08		29.126		0		65063
30450		9787.21		29.1258		0		65185
30500		9786.35		29.1263		0		65305
30550		9793.49		29.1269		0		65409
30600		9793.83		29.1269		0		65511
30650		9794.17		29.1269		0		65615
30700		9794.52		29.1269		0		65717
30750		9795.03		29.1268		0		65795
30800		9794.16		29.1266		0		65917
30850		9793.3		29.1263		0		66039
30900		9792.44		29.1261		0		66161
30950		9791.58		29.1259		0		66283
31000		9790.72		29.1256		0		66405
31050		9789.87		29.1262		0		66525
31100		9796.88		29.1268		0		66629
31150		9797.21		29.1267		0		66731
31200		9797.54		29.1267		0		66835
31250		9797.87		29.1267		0		66937
31300		9798.37		29.1267		0		67015
31350		9797.51		29.1265		0		67137
31400		9796.66		29.1262		0		67259
31450		9795.81		29.126		0		67381
31500		9794.96		29.1257		0		67503
31550		9794.11		29.1255		0		67625
31600		9793.27		29.126		0		67745
31650		9800.15		29.1266		0		67849
31700		9800.47		29.1266		0		67951
31750		9800.79		29.1266		0		68055
31800		9801.1		29.1266		0		68157
31850		9801.59		29.1265		0		68235
31900		9800.74		29.1263		0		68357
31950		9799.9		29.126		0		68479
32000		9799.06		29.1258		0		68601
32050		9798.22		29.1256		0		68723
32100		9797.38		29.1254		0		68845
32150		9796.55		29.1259		0		68965
32200		9803.3		29.1265		0		69069
32250		9803.61		29.1264		0		69171
32300		9803.92		29.1264		0		69275
32350		9804.23		29.1264		0		69377
32400		9804.7		29.1264		0		69455
32450		9803.86		29.1262		0		69577
32500		9803.03		29.1259		0		69699
32550		9802.2		29.1257		0		69821
32600		9801.37		29.1255		0		69943
32650		9800.54		29.1252		0		70065
32700		9799.71		29.1258		0		70185
32750		9806.35		29.1263		0		70289
32800		9806.65		29.1263		0		70391
32850		9806.95		29.1263		0		70495
32900		9807.24		29.1263		0		70597
32950		9807.7		29.1262		0		70675
33000		9806.88		29.126		0		70797
33050		9806.05		29.1258		0		70919
33100		9805.23		29.1256		0		71041
33150		9804.41		29.1253		0		71163
33200		9803.59		29.1251		0		71285
33250		9802.78		29.1256		0		71405
33300		9809.3		29.1262		0		71509
33350		9809.59		29.1262		0		71611
33400		9809.87		29.1261		0		71715
33450		9810.16		29.1261		0		71817
33500		9810.61		29.1261		0		71895
33550		9809.79		29.1259		0		72017
33600		9808.97		29.1257		0		72139
33650		9808.16		29.1254		0		72261
33700		9807.35		29.1252		0		72383
33750		9806.54		29.125		0		72505
33800		9805.73		29.1255		0		72625
33850		9812.15		29.126		0		72729
33900		9812.43		29.126		0		72831
33950		9812.7		29.126		0		72935
34000		9812.98		29.126		0		73037
34050		9813.42		29.126		0		73115
34100		9812.61		29.1258		0		73237
34150		9811.8		29.1255		0		73359
34200		9811		29.1253		0		73481
34250		9810.19		29.1251		0		73603
34300		9809.39		29.1249		0		73725
34350		9808.6		29.1254		0		73845
34400		9814.9		29.1259		0		73949
34450		9815.17		29.1259		0		74051
34500		9815.44		29.1259		0		74155
34550		9815.71		29.1259		0		74257
34600		9816.14		29.1259		0		74335
34650		9815.34		29.1257		0		74457
34700		9814.54		29.1254		0		74579
34750		9813.74		29.1252		0		74701
34800		9812.95		29.125		0		74823
34850		9812.16		29.1248		0		74945
34900		9811.37		29.1253		0		75065
34950		9817.57		29.1258		0		75169
35000		9817.83		29.1258		0		75271
35050		9818.09		29.1258		0		75375
35100		9818.35		29.1258		0		75477
35150		9818.77		29.1257		0		75555
35200		9817.98		29.1255		0		75677
35250		9817.19		29.1253		0		75799
35300		9816.4		29.1251		0		75921
35350		9815.62		29.1249		0		76043
35400		9814.83		29.1247		0		76165
35450		9814.05		29.1252		0		76285
35500		9820.15		29.1257		0		76389
35550		9820.41		29.1257		0		76491
35600		9820.66		29.1256		0		76595
35650		9820.91		29.1256		0		76697
35700		9821.32		29.1256		0		76775
35750		9820.53		29.1254		0		76897
35800		9819.75		29.1252		0		77019
35850		9818.98		29.125		0		77141
35900		9818.2		29.1248		0		77263
35950		9817.43		29.1246		0		77385
36000		9816.65		29.1251		0		77505
36050		9822.66		29.1256		0		77609
36100		9822.9		29.1255		0		77711
36150		9823.15		29.1255		0		77815
36200		9823.39		29.1255		0		77917
36250		9823.79		29.1255		0		77995
36300		9823.01		29.1253		0		78117
36350		9822.24		29.1251		0		78239
36400		9821.47		29.1249		0		78361
36450		9820.7		29.1247		0		78483
36500		9819.94		29.1245		0		78605
36550		9819.18		29.125		0		78725
36600		9825.09		29.1254		0		78829
36650		9825.32		29.1254		0		78931
36700		9825.56		29.1254		0		79035
36750		9825.8		29.1254		0		79137
36800		9826.18		29.1254		0		79215
36850		9825.42		29.1252		0		79337
36900		9824.65		29.125		0		79459
36950		9823.89		29.1248		0		79581
37000		9823.13		29.1246		0		79703
37050		9822.38		29.1244		0		79825
37100		9821.62		29.1249		0		79945
37150		9827.44		29.1253		0		80049
37200		9827.67		29.1253		0		80151
37250		9827.9		29.1253		0		80255
37300		9828.13		29.1253		0		80357
37350		9828.51		29.1253		0		80435
37400		9827.75		29.1251		0		80557
37450		9827		29.1249		0		80679
37500		9826.24		29.1247		0		80801
37550		9825.49		29.1245		0		80923
37600		9824.74		29.1243		0		81045
37649		9823.77		29.125		0		81165
37699		9829.73		29.1252		0		81269
37749		9829.95		29.1252		0		81371
37799		9830.17		29.1252		0		81475
37849		9830.4		29.1252		0		81577
37899		9830.55		29.1251		0		81655
37949		9829.8		29.1249		0		81777
37999		9829.05		29.1247		0		81899
38049		9828.3		29.1245		0		82021
38099		9827.56		29.1244		0		82143
38149		9826.82		29.1242		0		82265
38199		9826.08		29.1249		0		82385
38249		9831.94		29.1251		0		82489
38299		9832.16		29.1251		0		82591
38349		9832.38		29.1251		0		82695
38399		9832.6		29.1251		0		82797
38449		9832.74		29.125		0		82875
38499		9832		29.1248		0		82997
38549		9831.26		29.1246		0		83119
38599		9830.52		29.1245		0		83241
38649		9829.79		29.1243		0		83363
38699		9829.05		29.1241		0		83485
38749		9828.32		29.1248		0		83605
38799		9834.1		29.125		0		83709
38849		9834.31		29.125		0		83811
38899		9834.52		29.125		0		83915
38949		9834.73		29.125		0		84017
38999		9834.87		29.1249		0		84095
39049		9834.14		29.1247		0		84217
39099		9833.41		29.1246		0		84339
39149		9832.68		29.1244		0		84461
39199		9831.95		29.1242		0		84583
39249		9831.22		29.124		0		84705
39299		9830.5		29.1247		0		84825
39349		9836.19		29.1249		0		84929
39399		9836.4		29.1249		0		85031
39449		9836.6		29.1249		0		85135
39499		9836.81		29.1249		0		85237
39549		9836.94		29.1248		0		85315
39599		9836.22		29.1247		0		85437
39649		9835.49		29.1245		0		85559
39699		9834.77		29.1243		0		85681
39749		9834.05		29.1241		0		85803
39799		9833.33		29.1239		0		85925
39849		9832.62		29.1246		0		86045
39899		9838.23		29.1248		0		86149
39949		9838.43		29.1248		0		86251
39999		9838.63		29.1248		0		86355
40049		9838.83		29.1248		0		86457
40099		9838.95		29.1247		0		86535
40149		9838.24		29.1246		0		86657
40199		9837.52		29.1244		0		86779
40249		9836.81		29.1242		0		86901
40299		9836.09		29.124		0		87023
40349		9835.38		29.1239		0		87145
40399		9834.67		29.1245		0		87265
40449		9840.21		29.1247		0		87369
40499		9840.4		29.1247		0		87471
40549		9840.6		29.1247		0		87575
40599		9840.79		29.1247		0		87677
40649		9840.91		29.1247		0		87755
40699		9840.2		29.1245		0		87877
40749		9839.49		29.1243		0		87999
40799		9838.79		29.1241		0		88121
40849		9838.08		29.1239		0		88243
40899		9837.38		29.1238		0		88365
40949		9836.68		29.1245		0		88485
40999		9842.13		29.1246		0		88589
41049		9842.32		29.1246		0		88691
41099		9842.51		29.1246		0		88795
41149		9842.7		29.1246		0		88897
41199		9842.82		29.1246		0		88975
41249		9842.11		29.1244		0		89097
41299		9841.41		29.1242		0		89219
41349		9840.71		29.124		0		89341
41399		9840.02		29.1239		0		89463
41449		9839.32		29.1237		0		89585
41499		9838.62		29.1244		0		89705
41549		9844.01		29.1246		0		89809
41599		9844.19		29.1246		0		89911
41649		9844.37		29.1245		0		90015
41699		9844.56		29.1245		0		90117
41749		9844.67		29.1245		0		90195
41799		9843.98		29.1243		0		90317
41849		9843.28		29.1241		0		90439
41899		9842.59		29.124		0		90561
41949		9841.9		29.1238		0		90683
41999		9841.21		29.1236		0		90805
42049		9840.52		29.1243		0		90925
42099		9845.83		29.1245		0		91029
42149		9846.01		29.1245		0		91131
42199		9846.19		29.1245		0		91235
42249		9846.37		29.1245		0		91337
42299		9846.48		29.1244		0		91415
42349		9845.79		29.1242		0		91537
42399		9845.1		29.124		0		91659
42449		9844.42		29.1239		0		91781
42499		9843.73		29.1237		0		91903
42549		9843.05		29.1236		0		92025
42599		9842.37		29.1242		0		92145
42649		9847.61		29.1244		0		92249
42699		9847.78		29.1244		0		92351
42749		9847.96		29.1244		0		92455
42799		9848.13		29.1244		0		92557
42849		9848.24		29.1243		0		92635
42899		9847.55		29.1242		0		92757
42949		9846.87		29.124		0		92879
42999		9846.19		29.1238		0		93001
43049		9845.52		29.1236		0		93123
43099		9844.84		29.1235		0		93245
43149		9844.17		29.1241		0		93365
43199		9849.34		29.1243		0		93469
43249		9849.51		29.1243		0		93571
43299		9849.68		29.1243		0		93675
43349		9849.85		29.1243		0		93777
43399		9849.95		29.1242		0		93855
43449		9849.27		29.1241		0		93977
43499		9848.6		29.1239		0		94099
43549		9847.93		29.1237		0		94221
43599		9847.26		29.1236		0		94343
43649		9846.59		29.1234		0		94465
43699		9845.92		29.1241		0		94585
43749		9851.02		29.1242		0		94689
43799		9851.19		29.1242		0		94791
43849		9851.35		29.1242		0		94895
43899		9851.52		29.1242		0		94997
43949		9851.62		29.1242		0		95075
43999		9850.95		29.124		0		95197
44049		9850.28		29.1238		0		95319
44099		9849.62		29.1237		0		95441
44149		9848.95		29.1235		0		95563
44199		9848.29		29.1234		0		95685
44249		9847.63		29.124		0		95805
44299		9852.67		29.1242		0		95909
44349		9852.83		29.1242		0		96011
44399		9852.99		29.1241		0		96115
44449		9853.15		29.1241		0		96217
44499		9853.25		29.1241		0		96295
44549		9852.59		29.1239		0		96417
44599		9851.93		29.1238		0		96539
44649		9851.27		29.1236		0		96661
44699		9850.61		29.1234		0		96783
44749		9849.95		29.1233		0		96905
44799		9849.3		29.1239		0		97025
44849		9854.27		29.1241		0		97129
44899		9854.43		29.1241		0		97231
44949		9854.59		29.1241		0		97335
44999		9854.74		29.1241		0		97437
45049		9854.84		29.124		0		97515
45099		9854.18		29.1239		0		97637
45149		9853.53		29.1237		0		97759
45199		9852.87		29.1235		0		97881
45249		9852.22		29.1234		0		98003
45299		9851.57		29.1232		0		98125
45349		9850.92		29.1238		0		98245
45399		9855.83		29.124		0		98349
45449		9855.99		29.124		0		98451
45499		9856.14		29.124		0		98555
45549		9856.3		29.124		0		98657
45599		9856.39		29.1239		0		98735
45649		9855.74		29.1238		0		98857
45699		9855.09		29.1236		0		98979
45749		9854.44		29.1235		0		99101
45799		9853.8		29.1233		0		99223
45849		9853.15		29.1232		0		99345
45899		9852.51		29.1238		0		99465
45949		9857.36		29.1239		0		99569
45999		9857.51		29.1239		0		99671
46049		9857.66		29.1239		0		99775
46099		9857.81		29.1239		0		99877
46149		9857.9		29.1239		0		99955
46199		9857.26		29.1237		0		100077
46249		9856.61		29.1236		0		100199
46299		9855.97		29.1234		0		100321
46349		9855.33		29.1232		0		100443
46399		9854.69		29.1231		0		100565
46449		9854.06		29.1237		0		100685
46499		9858.85		29.1239		0		100789
46549		9859		29.1239		0		100891
46599		9859.14		29.1239		0		100995
46649		9859.29		29.1239		0		101097
46699		9859.37		29.1238		0		101175
46749		9858.74		29.1237		0		101297
46799		9858.1		29.1235		0		101419
46849		9857.47		29.1233		0		101541
46899		9856.83		29.1232		0		101663
46949		9856.2		29.1231		0		101785
46999		9855.57		29.1236		0		101905
47049		9860.3		29.1238		0		102009
47099		9860.45		29.1238		0		102111
47149		9860.59		29.1238		0		102215
47199		9860.73		29.1238		0		102317
47249		9860.82		29.1237		0		102395
47299		9860.18		29.1236		0		102517
47349		9859.55		29.1234		0		102639
47399		9858.93		29.1233		0		102761
47449		9858.3		29.1231		0		102883
47499		9857.67		29.123		0		103005
47549		9857.05		29.1236		0		103125
47599		9861.72		29.1237		0		103229
47649		9861.86		29.1237		0		103331
47699		9862		29.1237		0		103435
47749		9862.14		29.1237		0		103537
47799		9862.22		29.1237		0		103615
47849		9861.6		29.1235		0		103737
47899		9860.97		29.1234		0		103859
47949		9860.35		29.1232		0		103981
47999		9859.73		29.1231		0		104103
48049		9859.11		29.1229		0		104225
48099		9858.49		29.1235		0		104345
48149		9863.11		29.1237		0		104449
48199		9863.25		29.1237		0		104551
48249		9863.38		29.1237		0		104655
48299		9863.52		29.1237		0		104757
48349		9863.6		29.1236		0		104835
48399		9862.98		29.1235		0		104957
48449		9862.36		29.1233		0		105079
48499		9861.74		29.1232		0		105201
48549		9861.13		29.123		0		105323
48599		9860.51		29.1229		0		105445
48649		9859.9		29.1234		0		105565
48699		9864.47		29.1236		0		105669
48749		9864.6		29.1236		0		105771
48799		9864.73		29.1236		0		105875
48849		9864.87		29.1236		0		105977
48899		9864.94		29.1236		0		106055
48949		9864.33		29.1234		0		106177
48999		9863.72		29.1233		0		106299
49049		9863.1		29.1231		0		106421
49099		9862.49		29.123		0		106543
49149		9861.88		29.1228		0		106665
49199		9861.28		29.1234		0		106785
49249		9865.79		29.1236		0		106889
49299		9865.92		29.1235		0		106991
49349		9866.05		29.1235		0		107095
49399		9866.18		29.1235		0		107197
49449		9866.26		29.1235		0		107275
49499		9865.65		29.1234		0		107397
49549		9865.04		29.1232		0		107519
49599		9864.43		29.1231		0		107641
49649		9863.83		29.1229		0		107763
49699		9863.23		29.1228		0		107885
49749		9862.62		29.1233		0		108005
49799		9867.09		29.1235		0		108109
49849		9867.22		29.1235		0		108211
49899		9867.34		29.1235		0		108315
49949		9867.47		29.1235		0		108417
49999		9867.54		29.1234		0		108495
