% time	cellId	IMSI	RNTI	txMode	layer	mcs	size	rv	ndi	correct
535	1	1	1	0	0	16	3822	0	1	1
590	1	1	1	0	0	8	1764	0	1	1
645	1	1	1	0	0	18	4107	0	1	1
700	1	1	1	0	0	24	6882	0	1	1
807	1	1	1	0	0	20	4904	0	1	1
862	1	1	1	0	0	0	349	0	1	1
917	1	1	1	0	0	12	2481	0	1	1
972	1	1	1	0	0	28	9422	0	1	1
1027	1	1	1	0	0	14	3182	0	1	1
1082	1	1	1	0	0	20	4904	0	1	1
1137	1	1	1	0	0	14	3182	0	1	1
1192	1	1	1	0	0	14	3182	0	1	1
1247	1	1	1	0	0	10	1980	0	1	1
1248	1	1	1	0	0	10	1980	0	1	1
1302	1	1	1	0	0	2	573	0	1	1
1303	1	1	1	0	0	2	573	0	1	1
1304	1	1	1	0	0	2	573	0	1	1
1305	1	1	1	0	0	2	573	0	1	1
1306	1	1	1	0	0	2	573	0	1	1
1357	1	1	1	0	0	18	4107	0	1	1
1358	1	1	1	0	0	18	4107	0	1	1
1413	1	1	1	0	0	4	903	0	1	1
1468	1	1	1	0	0	20	4904	0	1	1
1527	1	1	1	0	0	4	903	0	1	1
1582	1	1	1	0	0	22	5861	0	1	1
1637	1	1	1	0	0	10	1980	0	1	1
1692	1	1	1	0	0	16	3822	0	1	1
1747	1	1	1	0	0	18	4107	0	1	1
1802	1	1	1	0	0	6	1287	0	1	1
1857	1	1	1	0	0	18	4107	0	1	1
1912	1	1	1	0	0	12	2481	0	1	1
2007	1	1	1	0	0	4	903	0	1	1
2008	1	1	1	0	0	4	903	0	1	1
2062	1	1	1	0	0	14	3182	0	1	1
2117	1	1	1	0	0	18	4107	0	1	1
2172	1	1	1	0	0	20	4904	0	1	1
2227	1	1	1	0	0	4	903	0	1	1
2228	1	1	1	0	0	4	903	0	1	1
2282	1	1	1	0	0	10	1980	0	1	1
2337	1	1	1	0	0	14	3182	0	1	1
2392	1	1	1	0	0	18	4107	0	1	1
2447	1	1	1	0	0	14	3182	0	1	1
2502	1	1	1	0	0	22	5861	0	1	1
2557	1	1	1	0	0	6	1287	0	1	1
2558	1	1	1	0	0	6	1287	0	1	1
2612	1	1	1	0	0	12	2481	0	1	1
2687	1	1	1	0	0	4	903	0	1	1
2688	1	1	1	0	0	4	903	0	1	1
2742	1	1	1	0	0	4	903	0	1	1
2743	1	1	1	0	0	4	903	0	1	1
2797	1	1	1	0	0	8	1764	0	1	1
2852	1	1	1	0	0	6	1287	0	1	1
2853	1	1	1	0	0	6	1287	0	1	1
2907	1	1	1	0	0	12	2481	0	1	1
2962	1	1	1	0	0	14	3182	0	1	1
3017	1	1	1	0	0	18	4107	0	1	1
3072	1	1	1	0	0	14	3182	0	1	1
3127	1	1	1	0	0	18	4107	0	1	1
3182	1	1	1	0	0	26	7708	0	1	1
3247	1	1	1	0	0	4	903	0	1	1
3248	1	1	1	0	0	4	903	0	1	1
3367	1	1	1	0	0	2	573	0	1	1
3368	1	1	1	0	0	2	573	0	1	1
3369	1	1	1	0	0	2	573	0	1	1
3422	1	1	1	0	0	14	3182	0	1	1
3477	1	1	1	0	0	18	4107	0	1	1
3532	1	1	1	0	0	12	2481	0	1	1
3587	1	1	1	0	0	8	1764	0	1	1
3642	1	1	1	0	0	10	1980	0	1	1
3697	1	1	1	0	0	24	6882	0	1	1
3752	1	1	1	0	0	18	4107	0	1	1
3807	1	1	1	0	0	18	4107	0	1	1
3862	1	1	1	0	0	14	3182	0	1	1
3917	1	1	1	0	0	8	1764	0	1	1
3918	1	1	1	0	0	8	1764	0	1	1
3919	1	1	1	0	0	8	1764	0	1	1
3920	1	1	1	0	0	8	1764	0	1	1
3921	1	1	1	0	0	8	1764	0	1	1
3922	1	1	1	0	0	8	1764	0	1	1
3923	1	1	1	0	0	8	1764	0	1	1
3972	1	1	1	0	0	14	3182	0	1	1
4027	1	1	1	0	0	4	903	0	1	1
4028	1	1	1	0	0	4	903	0	1	1
4082	1	1	1	0	0	8	1764	0	1	1
4137	1	1	1	0	0	16	3822	0	1	1
4192	1	1	1	0	0	6	1287	0	1	1
4193	1	1	1	0	0	6	1287	0	1	1
4247	1	1	1	0	0	12	2481	0	1	1
4327	1	1	1	0	0	4	903	0	1	1
4328	1	1	1	0	0	4	903	0	1	1
4382	1	1	1	0	0	6	1287	0	1	1
4383	1	1	1	0	0	6	1287	0	1	1
4437	1	1	1	0	0	8	1764	0	1	1
4492	1	1	1	0	0	6	1287	0	1	1
4493	1	1	1	0	0	6	1287	0	1	1
4547	1	1	1	0	0	18	4107	0	1	1
4602	1	1	1	0	0	0	349	0	1	1
4603	1	1	1	0	0	0	349	0	1	1
4604	1	1	1	0	0	0	349	0	1	1
4605	1	1	1	0	0	0	349	0	1	1
4606	1	1	1	0	0	0	349	0	1	1
4657	1	1	1	0	0	24	6882	0	1	1
4712	1	1	1	0	0	0	349	0	1	1
4713	1	1	1	0	0	0	349	0	1	1
4714	1	1	1	0	0	0	349	0	1	1
4715	1	1	1	0	0	0	349	0	1	1
4716	1	1	1	0	0	0	349	0	1	1
4717	1	1	1	0	0	0	349	0	1	1
4767	1	1	1	0	0	26	7708	0	1	1
4822	1	1	1	0	0	14	3182	0	1	1
4877	1	1	1	0	0	2	573	0	1	1
4878	1	1	1	0	0	2	573	0	1	1
4879	1	1	1	0	0	2	573	0	1	1
4880	1	1	1	0	0	2	573	0	1	1
4932	1	1	1	0	0	14	3182	0	1	1
4987	1	1	1	0	0	18	4107	0	1	1
5042	1	1	1	0	0	20	4904	0	1	1
5127	1	1	1	0	0	14	3182	0	1	1
5182	1	1	1	0	0	8	1764	0	1	1
5183	1	1	1	0	0	8	1764	0	1	1
5237	1	1	1	0	0	22	5861	0	1	1
5292	1	1	1	0	0	18	4107	0	1	1
5347	1	1	1	0	0	12	2481	0	1	1
5402	1	1	1	0	0	20	4904	0	1	1
5457	1	1	1	0	0	14	3182	0	1	1
5512	1	1	1	0	0	0	349	0	1	1
5513	1	1	1	0	0	0	349	0	1	1
5514	1	1	1	0	0	0	349	0	1	1
5515	1	1	1	0	0	0	349	0	1	1
5516	1	1	1	0	0	0	349	0	1	1
5517	1	1	1	0	0	0	349	0	1	1
5567	1	1	1	0	0	0	349	0	1	1
5568	1	1	1	0	0	0	349	0	1	1
5569	1	1	1	0	0	0	349	0	1	1
5570	1	1	1	0	0	0	349	0	1	1
5571	1	1	1	0	0	0	349	0	1	1
5572	1	1	1	0	0	0	349	0	1	1
5622	1	1	1	0	0	8	1764	0	1	1
5623	1	1	1	0	0	8	1764	0	1	1
5677	1	1	1	0	0	4	903	0	1	1
5678	1	1	1	0	0	4	903	0	1	1
5679	1	1	1	0	0	4	903	0	1	1
5732	1	1	1	0	0	6	1287	0	1	1
5733	1	1	1	0	0	6	1287	0	1	1
5787	1	1	1	0	0	14	3182	0	1	1
5847	1	1	1	0	0	2	573	0	1	1
5848	1	1	1	0	0	2	573	0	1	1
5849	1	1	1	0	0	2	573	0	1	1
5850	1	1	1	0	0	2	573	0	1	1
5902	1	1	1	0	0	6	1287	0	1	1
5903	1	1	1	0	0	6	1287	0	1	1
5957	1	1	1	0	0	14	3182	0	1	1
6012	1	1	1	0	0	12	2481	0	1	1
6067	1	1	1	0	0	14	3182	0	1	1
6122	1	1	1	0	0	20	4904	0	1	1
6177	1	1	1	0	0	6	1287	0	1	1
6178	1	1	1	0	0	6	1287	0	1	1
6232	1	1	1	0	0	4	903	0	1	1
6233	1	1	1	0	0	4	903	0	1	1
6234	1	1	1	0	0	4	903	0	1	1
6287	1	1	1	0	0	18	4107	0	1	1
6342	1	1	1	0	0	6	1287	0	1	1
6343	1	1	1	0	0	6	1287	0	1	1
6397	1	1	1	0	0	6	1287	0	1	1
6398	1	1	1	0	0	6	1287	0	1	1
6487	1	1	1	0	0	4	903	0	1	1
6488	1	1	1	0	0	4	903	0	1	1
6489	1	1	1	0	0	4	903	0	1	1
6542	1	1	1	0	0	14	3182	0	1	1
6597	1	1	1	0	0	12	2481	0	1	1
6652	1	1	1	0	0	12	2481	0	1	1
6707	1	1	1	0	0	14	3182	0	1	1
6762	1	1	1	0	0	22	5861	0	1	1
6847	1	1	1	0	0	18	4107	0	1	1
6927	1	1	1	0	0	18	4107	0	1	1
6982	1	1	1	0	0	20	4904	0	1	1
7037	1	1	1	0	0	2	573	0	1	1
7038	1	1	1	0	0	2	573	0	1	1
7039	1	1	1	0	0	2	573	0	1	1
7040	1	1	1	0	0	2	573	0	1	1
7092	1	1	1	0	0	18	4107	0	1	1
7147	1	1	1	0	0	6	1287	0	1	1
7148	1	1	1	0	0	6	1287	0	1	1
7202	1	1	1	0	0	16	3822	0	1	1
7287	1	1	1	0	0	12	2481	0	1	1
7342	1	1	1	0	0	12	2481	0	1	1
7407	1	1	1	0	0	0	349	0	1	1
7408	1	1	1	0	0	0	349	0	1	1
7409	1	1	1	0	0	0	349	0	1	1
7410	1	1	1	0	0	0	349	0	1	1
7411	1	1	1	0	0	0	349	0	1	1
7412	1	1	1	0	0	0	349	0	1	1
7413	1	1	1	0	0	0	349	0	1	1
7487	1	1	1	0	0	20	4904	0	1	1
7542	1	1	1	0	0	8	1764	0	1	1
7543	1	1	1	0	0	8	1764	0	1	1
7597	1	1	1	0	0	26	7708	0	1	1
7652	1	1	1	0	0	6	1287	0	1	1
7653	1	1	1	0	0	6	1287	0	1	1
7707	1	1	1	0	0	0	349	0	1	1
7708	1	1	1	0	0	0	349	0	1	1
7709	1	1	1	0	0	0	349	0	1	1
7710	1	1	1	0	0	0	349	0	1	1
7711	1	1	1	0	0	0	349	0	1	1
7712	1	1	1	0	0	0	349	0	1	1
7713	1	1	1	0	0	0	349	0	1	1
7762	1	1	1	0	0	16	3822	0	1	1
7817	1	1	1	0	0	24	6882	0	1	1
7872	1	1	1	0	0	18	4107	0	1	1
7927	1	1	1	0	0	4	903	0	1	1
7928	1	1	1	0	0	4	903	0	1	1
7929	1	1	1	0	0	4	903	0	1	1
7982	1	1	1	0	0	18	4107	0	1	1
8037	1	1	1	0	0	14	3182	0	1	1
8092	1	1	1	0	0	10	1980	0	1	1
8093	1	1	1	0	0	10	1980	0	1	1
8147	1	1	1	0	0	6	1287	0	1	1
8148	1	1	1	0	0	6	1287	0	1	1
8207	1	1	1	0	0	12	2481	0	1	1
8287	1	1	1	0	0	2	573	0	1	1
8288	1	1	1	0	0	2	573	0	1	1
8289	1	1	1	0	0	2	573	0	1	1
8290	1	1	1	0	0	2	573	0	1	1
8291	1	1	1	0	0	2	573	0	1	1
8342	1	1	1	0	0	6	1287	0	1	1
8343	1	1	1	0	0	6	1287	0	1	1
8397	1	1	1	0	0	8	1764	0	1	1
8398	1	1	1	0	0	8	1764	0	1	1
8399	1	1	1	0	0	8	1764	0	1	1
8447	1	1	1	0	0	6	1287	0	1	1
8452	1	1	1	0	0	6	1287	0	1	1
8453	1	1	1	0	0	6	1287	0	1	1
8502	1	1	1	0	0	14	3182	0	1	1
8503	1	1	1	0	0	14	3182	0	1	1
8504	1	1	1	0	0	14	3182	0	1	1
8557	1	1	1	0	0	8	1764	0	1	1
8558	1	1	1	0	0	8	1764	0	1	1
8559	1	1	1	0	0	8	1764	0	1	1
8560	1	1	1	0	0	8	1764	0	1	1
8612	1	1	1	0	0	18	4107	0	1	1
8613	1	1	1	0	0	18	4107	0	1	1
8667	1	1	1	0	0	16	3822	0	1	1
8722	1	1	1	0	0	12	2481	0	1	1
8777	1	1	1	0	0	0	349	0	1	1
8778	1	1	1	0	0	0	349	0	1	1
8779	1	1	1	0	0	0	349	0	1	1
8780	1	1	1	0	0	0	349	0	1	1
8781	1	1	1	0	0	0	349	0	1	1
8782	1	1	1	0	0	0	349	0	1	1
8783	1	1	1	0	0	0	349	0	1	1
8784	1	1	1	0	0	14	3182	0	1	1
8832	1	1	1	0	0	26	7708	0	1	1
8887	1	1	1	0	0	10	1980	0	1	1
8967	1	1	1	0	0	12	2481	0	1	1
9022	1	1	1	0	0	20	4904	0	1	1
9077	1	1	1	0	0	20	4904	0	1	1
9132	1	1	1	0	0	2	573	0	1	1
9133	1	1	1	0	0	2	573	0	1	1
9134	1	1	1	0	0	2	573	0	1	1
9187	1	1	1	0	0	12	2481	0	1	1
9242	1	1	1	0	0	16	3822	0	1	1
9367	1	1	1	0	0	22	5861	0	1	1
9422	1	1	1	0	0	0	349	0	1	1
9423	1	1	1	0	0	0	349	0	1	1
9424	1	1	1	0	0	0	349	0	1	1
9425	1	1	1	0	0	0	349	0	1	1
9477	1	1	1	0	0	6	1287	0	1	1
9532	1	1	1	0	0	6	1287	0	1	1
9607	1	1	1	0	0	6	1287	0	1	1
9662	1	1	1	0	0	14	3182	0	1	1
9767	1	1	1	0	0	8	1764	0	1	1
9822	1	1	1	0	0	18	4107	0	1	1
9877	1	1	1	0	0	10	1980	0	1	1
9967	1	1	1	0	0	10	1980	0	1	1
10022	1	1	1	0	0	10	1980	0	1	1
10077	1	1	1	0	0	6	1287	0	1	1
10078	1	1	1	0	0	6	1287	0	1	1
10132	1	1	1	0	0	14	3182	0	1	1
10187	1	1	1	0	0	18	4107	0	1	1
10242	1	1	1	0	0	4	903	0	1	1
10243	1	1	1	0	0	4	903	0	1	1
10297	1	1	1	0	0	2	573	0	1	1
10298	1	1	1	0	0	2	573	0	1	1
10299	1	1	1	0	0	2	573	0	1	1
10352	1	1	1	0	0	18	4107	0	1	1
10407	1	1	1	0	0	2	573	0	1	1
10408	1	1	1	0	0	2	573	0	1	1
10409	1	1	1	0	0	2	573	0	1	1
10462	1	1	1	0	0	2	573	0	1	1
10463	1	1	1	0	0	2	573	0	1	1
10464	1	1	1	0	0	2	573	0	1	1
10527	1	1	1	0	0	22	5861	0	1	1
10582	1	1	1	0	0	2	573	0	1	1
10583	1	1	1	0	0	2	573	0	1	1
10584	1	1	1	0	0	2	573	0	1	1
10637	1	1	1	0	0	14	3182	0	1	1
10692	1	1	1	0	0	28	9422	0	1	1
10747	1	1	1	0	0	22	5861	0	1	1
10802	1	1	1	0	0	12	2481	0	1	1
10857	1	1	1	0	0	12	2481	0	1	1
10912	1	1	1	0	0	12	2481	0	1	1
10967	1	1	1	0	0	6	1287	0	1	1
10968	1	1	1	0	0	6	1287	0	1	1
11022	1	1	1	0	0	6	1287	0	1	1
11023	1	1	1	0	0	6	1287	0	1	1
11077	1	1	1	0	0	0	349	0	1	1
11078	1	1	1	0	0	0	349	0	1	1
11079	1	1	1	0	0	0	349	0	1	1
11080	1	1	1	0	0	0	349	0	1	1
11081	1	1	1	0	0	0	349	0	1	1
11132	1	1	1	0	0	14	3182	0	1	1
11187	1	1	1	0	0	18	4107	0	1	1
11242	1	1	1	0	0	20	4904	0	1	1
11297	1	1	1	0	0	10	1980	0	1	1
11352	1	1	1	0	0	14	3182	0	1	1
11407	1	1	1	0	0	14	3182	0	1	1
11462	1	1	1	0	0	8	1764	0	1	1
11517	1	1	1	0	0	20	4904	0	1	1
11572	1	1	1	0	0	6	1287	0	1	1
11573	1	1	1	0	0	6	1287	0	1	1
11627	1	1	1	0	0	4	903	0	1	1
11628	1	1	1	0	0	4	903	0	1	1
11727	1	1	1	0	0	10	1980	0	1	1
11782	1	1	1	0	0	10	1980	0	1	1
11837	1	1	1	0	0	22	5861	0	1	1
11892	1	1	1	0	0	16	3822	0	1	1
11947	1	1	1	0	0	20	4904	0	1	1
12002	1	1	1	0	0	20	4904	0	1	1
12057	1	1	1	0	0	16	3822	0	1	1
12112	1	1	1	0	0	6	1287	0	1	1
12113	1	1	1	0	0	6	1287	0	1	1
12167	1	1	1	0	0	18	4107	0	1	1
12222	1	1	1	0	0	16	3822	0	1	1
12277	1	1	1	0	0	8	1764	0	1	1
12332	1	1	1	0	0	14	3182	0	1	1
12407	1	1	1	0	0	0	349	0	1	1
12408	1	1	1	0	0	0	349	0	1	1
12409	1	1	1	0	0	0	349	0	1	1
12410	1	1	1	0	0	0	349	0	1	1
12411	1	1	1	0	0	0	349	0	1	1
12462	1	1	1	0	0	10	1980	0	1	1
12517	1	1	1	0	0	8	1764	0	1	1
12518	1	1	1	0	0	8	1764	0	1	1
12572	1	1	1	0	0	22	5861	0	1	1
12647	1	1	1	0	0	6	1287	0	1	1
12648	1	1	1	0	0	6	1287	0	1	1
12702	1	1	1	0	0	20	4904	0	1	1
12757	1	1	1	0	0	2	573	0	1	1
12758	1	1	1	0	0	2	573	0	1	1
12759	1	1	1	0	0	2	573	0	1	1
12760	1	1	1	0	0	2	573	0	1	1
12812	1	1	1	0	0	20	4904	0	1	1
12867	1	1	1	0	0	28	9422	0	1	1
12922	1	1	1	0	0	20	4904	0	1	1
12977	1	1	1	0	0	2	573	0	1	1
12978	1	1	1	0	0	2	573	0	1	1
12979	1	1	1	0	0	2	573	0	1	1
12980	1	1	1	0	0	2	573	0	1	1
13032	1	1	1	0	0	10	1980	0	1	1
13127	1	1	1	0	0	18	4107	0	1	1
13182	1	1	1	0	0	10	1980	0	1	1
13237	1	1	1	0	0	0	349	0	1	1
13238	1	1	1	0	0	0	349	0	1	1
13239	1	1	1	0	0	0	349	0	1	1
13240	1	1	1	0	0	0	349	0	1	1
13241	1	1	1	0	0	0	349	0	1	1
13242	1	1	1	0	0	0	349	0	1	1
13292	1	1	1	0	0	12	2481	0	1	1
13347	1	1	1	0	0	12	2481	0	1	1
13402	1	1	1	0	0	2	573	0	1	1
13403	1	1	1	0	0	2	573	0	1	1
13404	1	1	1	0	0	2	573	0	1	1
13405	1	1	1	0	0	2	573	0	1	1
13457	1	1	1	0	0	4	903	0	1	1
13458	1	1	1	0	0	4	903	0	1	1
13459	1	1	1	0	0	4	903	0	1	1
13527	1	1	1	0	0	12	2481	0	1	1
13582	1	1	1	0	0	18	4107	0	1	1
13637	1	1	1	0	0	28	9422	0	1	1
13692	1	1	1	0	0	24	6882	0	1	1
13747	1	1	1	0	0	22	5861	0	1	1
13802	1	1	1	0	0	24	6882	0	1	1
13857	1	1	1	0	0	10	1980	0	1	1
13858	1	1	1	0	0	10	1980	0	1	1
13912	1	1	1	0	0	24	6882	0	1	1
13967	1	1	1	0	0	12	2481	0	1	1
14022	1	1	1	0	0	16	3822	0	1	1
14077	1	1	1	0	0	18	4107	0	1	1
14132	1	1	1	0	0	2	573	0	1	1
14133	1	1	1	0	0	2	573	0	1	1
14134	1	1	1	0	0	2	573	0	1	1
14135	1	1	1	0	0	2	573	0	1	1
14187	1	1	1	0	0	2	573	0	1	1
14188	1	1	1	0	0	2	573	0	1	1
14189	1	1	1	0	0	2	573	0	1	1
14190	1	1	1	0	0	2	573	0	1	1
14242	1	1	1	0	0	14	3182	0	1	1
14297	1	1	1	0	0	14	3182	0	1	1
14352	1	1	1	0	0	20	4904	0	1	1
14407	1	1	1	0	0	6	1287	0	1	1
14408	1	1	1	0	0	6	1287	0	1	1
14462	1	1	1	0	0	6	1287	0	1	1
14463	1	1	1	0	0	6	1287	0	1	1
14517	1	1	1	0	0	26	7708	0	1	1
14572	1	1	1	0	0	14	3182	0	1	1
14627	1	1	1	0	0	16	3822	0	1	1
14628	1	1	1	0	0	16	3822	0	1	1
14682	1	1	1	0	0	20	4904	0	1	1
14737	1	1	1	0	0	10	1980	0	1	1
14738	1	1	1	0	0	10	1980	0	1	1
14792	1	1	1	0	0	10	1980	0	1	1
14793	1	1	1	0	0	10	1980	0	1	1
14847	1	1	1	0	0	4	903	0	1	1
14848	1	1	1	0	0	4	903	0	1	1
14849	1	1	1	0	0	4	903	0	1	1
14902	1	1	1	0	0	2	573	0	1	1
14903	1	1	1	0	0	2	573	0	1	1
14904	1	1	1	0	0	2	573	0	1	1
14905	1	1	1	0	0	2	573	0	1	1
14967	1	1	1	0	0	12	2481	0	1	1
15022	1	1	1	0	0	22	5861	0	1	1
15077	1	1	1	0	0	12	2481	0	1	1
15132	1	1	1	0	0	18	4107	0	1	1
15187	1	1	1	0	0	22	5861	0	1	1
15242	1	1	1	0	0	4	903	0	1	1
15243	1	1	1	0	0	4	903	0	1	1
15244	1	1	1	0	0	4	903	0	1	1
15327	1	1	1	0	0	24	6882	0	1	1
15382	1	1	1	0	0	20	4904	0	1	1
15383	1	1	1	0	0	20	4904	0	1	1
15384	1	1	1	0	0	20	4904	0	1	1
15385	1	1	1	0	0	20	4904	0	1	1
15386	1	1	1	0	0	20	4904	0	1	1
15437	1	1	1	0	0	2	573	0	1	1
15438	1	1	1	0	0	2	573	0	1	1
15439	1	1	1	0	0	2	573	0	1	1
15440	1	1	1	0	0	2	573	0	1	1
15441	1	1	1	0	0	2	573	0	1	1
15442	1	1	1	0	0	2	573	0	1	1
15527	1	1	1	0	0	6	1287	0	1	1
15528	1	1	1	0	0	6	1287	0	1	1
15582	1	1	1	0	0	12	2481	0	1	1
15637	1	1	1	0	0	14	3182	0	1	1
15692	1	1	1	0	0	2	573	0	1	1
15693	1	1	1	0	0	2	573	0	1	1
15694	1	1	1	0	0	2	573	0	1	1
15695	1	1	1	0	0	2	573	0	1	1
15696	1	1	1	0	0	2	573	0	1	1
15747	1	1	1	0	0	2	573	0	1	1
15748	1	1	1	0	0	2	573	0	1	1
15749	1	1	1	0	0	2	573	0	1	1
15750	1	1	1	0	0	2	573	0	1	1
15751	1	1	1	0	0	2	573	0	1	1
15802	1	1	1	0	0	22	5861	0	1	1
15857	1	1	1	0	0	2	573	0	1	1
15858	1	1	1	0	0	2	573	0	1	1
15859	1	1	1	0	0	2	573	0	1	1
15860	1	1	1	0	0	2	573	0	1	1
15861	1	1	1	0	0	2	573	0	1	1
15912	1	1	1	0	0	22	5861	0	1	1
15967	1	1	1	0	0	4	903	0	1	1
15968	1	1	1	0	0	4	903	0	1	1
15969	1	1	1	0	0	4	903	0	1	1
16022	1	1	1	0	0	8	1764	0	1	1
16023	1	1	1	0	0	8	1764	0	1	1
16077	1	1	1	0	0	10	1980	0	1	1
16078	1	1	1	0	0	10	1980	0	1	1
16167	1	1	1	0	0	20	4904	0	1	1
16247	1	1	1	0	0	10	1980	0	1	1
16248	1	1	1	0	0	10	1980	0	1	1
16302	1	1	1	0	0	8	1764	0	1	1
16303	1	1	1	0	0	8	1764	0	1	1
16304	1	1	1	0	0	8	1764	0	1	1
16357	1	1	1	0	0	18	4107	0	1	1
16412	1	1	1	0	0	14	3182	0	1	1
16487	1	1	1	0	0	6	1287	0	1	1
16542	1	1	1	0	0	0	349	0	1	1
16543	1	1	1	0	0	0	349	0	1	1
16544	1	1	1	0	0	0	349	0	1	1
16545	1	1	1	0	0	0	349	0	1	1
16597	1	1	1	0	0	10	1980	0	1	1
16652	1	1	1	0	0	12	2481	0	1	1
16727	1	1	1	0	0	18	4107	0	1	1
16782	1	1	1	0	0	0	349	0	1	1
16783	1	1	1	0	0	0	349	0	1	1
16784	1	1	1	0	0	0	349	0	1	1
16785	1	1	1	0	0	0	349	0	1	1
16837	1	1	1	0	0	6	1287	0	1	1
16838	1	1	1	0	0	6	1287	0	1	1
16839	1	1	1	0	0	6	1287	0	1	1
16892	1	1	1	0	0	16	3822	0	1	1
16947	1	1	1	0	0	20	4904	0	1	1
17002	1	1	1	0	0	14	3182	0	1	1
17057	1	1	1	0	0	24	6882	0	1	1
17112	1	1	1	0	0	22	5861	0	1	1
17167	1	1	1	0	0	26	7708	0	1	1
17222	1	1	1	0	0	10	1980	0	1	1
17277	1	1	1	0	0	16	3822	0	1	1
17332	1	1	1	0	0	14	3182	0	1	1
17387	1	1	1	0	0	20	4904	0	1	1
17447	1	1	1	0	0	14	3182	0	1	1
17502	1	1	1	0	0	2	573	0	1	1
17503	1	1	1	0	0	2	573	0	1	1
17504	1	1	1	0	0	2	573	0	1	1
17567	1	1	1	0	0	16	3822	0	1	1
17622	1	1	1	0	0	8	1764	0	1	1
17677	1	1	1	0	0	26	7708	0	1	1
17732	1	1	1	0	0	8	1764	0	1	1
17787	1	1	1	0	0	10	1980	0	1	1
17842	1	1	1	0	0	16	3822	0	1	1
17897	1	1	1	0	0	26	7708	0	1	1
17952	1	1	1	0	0	12	2481	0	1	1
18007	1	1	1	0	0	12	2481	0	1	1
18062	1	1	1	0	0	12	2481	0	1	1
18117	1	1	1	0	0	22	5861	0	1	1
18172	1	1	1	0	0	18	4107	0	1	1
18227	1	1	1	0	0	12	2481	0	1	1
18282	1	1	1	0	0	22	5861	0	1	1
18367	1	1	1	0	0	6	1287	0	1	1
18368	1	1	1	0	0	6	1287	0	1	1
18447	1	1	1	0	0	8	1764	0	1	1
18502	1	1	1	0	0	2	573	0	1	1
18503	1	1	1	0	0	2	573	0	1	1
18504	1	1	1	0	0	2	573	0	1	1
18557	1	1	1	0	0	6	1287	0	1	1
18558	1	1	1	0	0	6	1287	0	1	1
18612	1	1	1	0	0	14	3182	0	1	1
18667	1	1	1	0	0	10	1980	0	1	1
18722	1	1	1	0	0	16	3822	0	1	1
18777	1	1	1	0	0	2	573	0	1	1
18778	1	1	1	0	0	2	573	0	1	1
18779	1	1	1	0	0	2	573	0	1	1
18832	1	1	1	0	0	2	573	0	1	1
18833	1	1	1	0	0	2	573	0	1	1
18834	1	1	1	0	0	2	573	0	1	1
18887	1	1	1	0	0	26	7708	0	1	1
18942	1	1	1	0	0	14	3182	0	1	1
18997	1	1	1	0	0	6	1287	0	1	1
18998	1	1	1	0	0	6	1287	0	1	1
19052	1	1	1	0	0	12	2481	0	1	1
19107	1	1	1	0	0	2	573	0	1	1
19108	1	1	1	0	0	2	573	0	1	1
19109	1	1	1	0	0	2	573	0	1	1
19162	1	1	1	0	0	14	3182	0	1	1
19217	1	1	1	0	0	24	6882	0	1	1
19272	1	1	1	0	0	2	573	0	1	1
19273	1	1	1	0	0	2	573	0	1	1
19274	1	1	1	0	0	2	573	0	1	1
19327	1	1	1	0	0	6	1287	0	1	1
19328	1	1	1	0	0	6	1287	0	1	1
19382	1	1	1	0	0	12	2481	0	1	1
19437	1	1	1	0	0	14	3182	0	1	1
19492	1	1	1	0	0	8	1764	0	1	1
19547	1	1	1	0	0	28	9422	0	1	1
19602	1	1	1	0	0	16	3822	0	1	1
19657	1	1	1	0	0	18	4107	0	1	1
19712	1	1	1	0	0	4	903	0	1	1
19713	1	1	1	0	0	4	903	0	1	1
19767	1	1	1	0	0	0	349	0	1	1
19768	1	1	1	0	0	0	349	0	1	1
19769	1	1	1	0	0	0	349	0	1	1
19770	1	1	1	0	0	0	349	0	1	1
19771	1	1	1	0	0	0	349	0	1	1
19822	1	1	1	0	0	24	6882	0	1	1
19877	1	1	1	0	0	16	3822	0	1	1
19932	1	1	1	0	0	20	4904	0	1	1
19987	1	1	1	0	0	18	4107	0	1	1
20042	1	1	1	0	0	6	1287	0	1	1
20043	1	1	1	0	0	6	1287	0	1	1
20097	1	1	1	0	0	6	1287	0	1	1
20098	1	1	1	0	0	6	1287	0	1	1
20152	1	1	1	0	0	0	349	0	1	1
20153	1	1	1	0	0	0	349	0	1	1
20154	1	1	1	0	0	0	349	0	1	1
20155	1	1	1	0	0	0	349	0	1	1
20156	1	1	1	0	0	0	349	0	1	1
20157	1	1	1	0	0	0	349	0	1	1
20207	1	1	1	0	0	16	3822	0	1	1
20262	1	1	1	0	0	16	3822	0	1	1
20317	1	1	1	0	0	20	4904	0	1	1
20372	1	1	1	0	0	8	1764	0	1	1
20373	1	1	1	0	0	8	1764	0	1	1
20427	1	1	1	0	0	12	2481	0	1	1
20482	1	1	1	0	0	16	3822	0	1	1
20537	1	1	1	0	0	4	903	0	1	1
20538	1	1	1	0	0	4	903	0	1	1
20539	1	1	1	0	0	4	903	0	1	1
20592	1	1	1	0	0	10	1980	0	1	1
20647	1	1	1	0	0	4	903	0	1	1
20648	1	1	1	0	0	4	903	0	1	1
20649	1	1	1	0	0	4	903	0	1	1
20702	1	1	1	0	0	0	349	0	1	1
20703	1	1	1	0	0	0	349	0	1	1
20704	1	1	1	0	0	0	349	0	1	1
20705	1	1	1	0	0	0	349	0	1	1
20706	1	1	1	0	0	0	349	0	1	1
20707	1	1	1	0	0	0	349	0	1	1
20757	1	1	1	0	0	10	1980	0	1	1
20847	1	1	1	0	0	0	349	0	1	1
20848	1	1	1	0	0	0	349	0	1	1
20849	1	1	1	0	0	0	349	0	1	1
20850	1	1	1	0	0	0	349	0	1	1
20851	1	1	1	0	0	0	349	0	1	1
20852	1	1	1	0	0	0	349	0	1	1
20902	1	1	1	0	0	4	903	0	1	1
20903	1	1	1	0	0	4	903	0	1	1
20904	1	1	1	0	0	4	903	0	1	1
20957	1	1	1	0	0	4	903	0	1	1
20958	1	1	1	0	0	4	903	0	1	1
20959	1	1	1	0	0	4	903	0	1	1
21047	1	1	1	0	0	20	4904	0	1	1
21102	1	1	1	0	0	0	349	0	1	1
21103	1	1	1	0	0	0	349	0	1	1
21104	1	1	1	0	0	0	349	0	1	1
21105	1	1	1	0	0	0	349	0	1	1
21106	1	1	1	0	0	0	349	0	1	1
21107	1	1	1	0	0	0	349	0	1	1
21157	1	1	1	0	0	12	2481	0	1	1
21212	1	1	1	0	0	28	9422	0	1	1
21267	1	1	1	0	0	18	4107	0	1	1
21268	1	1	1	0	0	18	4107	0	1	1
21322	1	1	1	0	0	12	2481	0	1	1
21377	1	1	1	0	0	18	4107	0	1	1
21432	1	1	1	0	0	18	4107	0	1	1
21487	1	1	1	0	0	2	573	0	1	1
21488	1	1	1	0	0	2	573	0	1	1
21489	1	1	1	0	0	2	573	0	1	1
21490	1	1	1	0	0	2	573	0	1	1
21542	1	1	1	0	0	6	1287	0	1	1
21543	1	1	1	0	0	6	1287	0	1	1
21597	1	1	1	0	0	20	4904	0	1	1
21727	1	1	1	0	0	18	4107	0	1	1
21782	1	1	1	0	0	18	4107	0	1	1
21837	1	1	1	0	0	2	573	0	1	1
21838	1	1	1	0	0	2	573	0	1	1
21839	1	1	1	0	0	2	573	0	1	1
21840	1	1	1	0	0	2	573	0	1	1
21887	1	1	1	0	0	4	903	0	1	1
21888	1	1	1	0	0	4	903	0	1	1
21892	1	1	1	0	0	4	903	0	1	1
21942	1	1	1	0	0	6	1287	0	1	1
21943	1	1	1	0	0	6	1287	0	1	1
21997	1	1	1	0	0	22	5861	0	1	1
22087	1	1	1	0	0	2	573	0	1	1
22088	1	1	1	0	0	2	573	0	1	1
22089	1	1	1	0	0	2	573	0	1	1
22090	1	1	1	0	0	2	573	0	1	1
22167	1	1	1	0	0	20	4904	0	1	1
22222	1	1	1	0	0	14	3182	0	1	1
22277	1	1	1	0	0	0	349	0	1	1
22278	1	1	1	0	0	0	349	0	1	1
22279	1	1	1	0	0	0	349	0	1	1
22280	1	1	1	0	0	0	349	0	1	1
22281	1	1	1	0	0	0	349	0	1	1
22282	1	1	1	0	0	0	349	0	1	1
22283	1	1	1	0	0	0	349	0	1	1
22332	1	1	1	0	0	18	4107	0	1	1
22387	1	1	1	0	0	4	903	0	1	1
22388	1	1	1	0	0	4	903	0	1	1
22389	1	1	1	0	0	4	903	0	1	1
22442	1	1	1	0	0	10	1980	0	1	1
22443	1	1	1	0	0	10	1980	0	1	1
22444	1	1	1	0	0	10	1980	0	1	1
22445	1	1	1	0	0	10	1980	0	1	1
22446	1	1	1	0	0	10	1980	0	1	1
22447	1	1	1	0	0	4	903	0	1	1
22497	1	1	1	0	0	6	1287	0	1	1
22506	1	1	1	0	0	4	903	0	1	1
22507	1	1	1	0	0	4	903	0	1	1
22552	1	1	1	0	0	14	3182	0	1	1
22561	1	1	1	0	0	22	5861	0	1	1
22607	1	1	1	0	0	18	4107	0	1	1
22616	1	1	1	0	0	8	1764	0	1	1
22662	1	1	1	0	0	6	1287	0	1	1
22727	1	1	1	0	0	12	2481	0	1	1
22782	1	1	1	0	0	14	3182	0	1	1
22837	1	1	1	0	0	16	3822	0	1	1
22892	1	1	1	0	0	20	4904	0	1	1
22947	1	1	1	0	0	10	1980	0	1	1
22948	1	1	1	0	0	10	1980	0	1	1
23002	1	1	1	0	0	16	3822	0	1	1
23057	1	1	1	0	0	4	903	0	1	1
23058	1	1	1	0	0	4	903	0	1	1
23059	1	1	1	0	0	4	903	0	1	1
23112	1	1	1	0	0	16	3822	0	1	1
23167	1	1	1	0	0	24	6882	0	1	1
23222	1	1	1	0	0	18	4107	0	1	1
23277	1	1	1	0	0	14	3182	0	1	1
23332	1	1	1	0	0	4	903	0	1	1
23333	1	1	1	0	0	4	903	0	1	1
23334	1	1	1	0	0	4	903	0	1	1
23387	1	1	1	0	0	12	2481	0	1	1
23442	1	1	1	0	0	16	3822	0	1	1
23497	1	1	1	0	0	0	349	0	1	1
23498	1	1	1	0	0	0	349	0	1	1
23499	1	1	1	0	0	0	349	0	1	1
23500	1	1	1	0	0	0	349	0	1	1
23501	1	1	1	0	0	0	349	0	1	1
23502	1	1	1	0	0	0	349	0	1	1
23503	1	1	1	0	0	0	349	0	1	1
23552	1	1	1	0	0	18	4107	0	1	1
23553	1	1	1	0	0	18	4107	0	1	1
23607	1	1	1	0	0	4	903	0	1	1
23662	1	1	1	0	0	4	903	0	1	1
23663	1	1	1	0	0	4	903	0	1	1
23727	1	1	1	0	0	12	2481	0	1	1
23782	1	1	1	0	0	0	349	0	1	1
23783	1	1	1	0	0	0	349	0	1	1
23784	1	1	1	0	0	0	349	0	1	1
23785	1	1	1	0	0	0	349	0	1	1
23847	1	1	1	0	0	20	4904	0	1	1
23902	1	1	1	0	0	10	1980	0	1	1
23967	1	1	1	0	0	24	6882	0	1	1
24022	1	1	1	0	0	20	4904	0	1	1
24077	1	1	1	0	0	2	573	0	1	1
24078	1	1	1	0	0	2	573	0	1	1
24079	1	1	1	0	0	2	573	0	1	1
24167	1	1	1	0	0	4	903	0	1	1
24168	1	1	1	0	0	4	903	0	1	1
24222	1	1	1	0	0	4	903	0	1	1
24223	1	1	1	0	0	4	903	0	1	1
24277	1	1	1	0	0	10	1980	0	1	1
24332	1	1	1	0	0	12	2481	0	1	1
24387	1	1	1	0	0	18	4107	0	1	1
24442	1	1	1	0	0	22	5861	0	1	1
24497	1	1	1	0	0	6	1287	0	1	1
24498	1	1	1	0	0	6	1287	0	1	1
24552	1	1	1	0	0	18	4107	0	1	1
24607	1	1	1	0	0	16	3822	0	1	1
24662	1	1	1	0	0	16	3822	0	1	1
24717	1	1	1	0	0	4	903	0	1	1
24718	1	1	1	0	0	4	903	0	1	1
24772	1	1	1	0	0	14	3182	0	1	1
24827	1	1	1	0	0	20	4904	0	1	1
24882	1	1	1	0	0	28	9422	0	1	1
24937	1	1	1	0	0	24	6882	0	1	1
24992	1	1	1	0	0	22	5861	0	1	1
25047	1	1	1	0	0	16	3822	0	1	1
25102	1	1	1	0	0	20	4904	0	1	1
25157	1	1	1	0	0	14	3182	0	1	1
25212	1	1	1	0	0	22	5861	0	1	1
25267	1	1	1	0	0	0	349	0	1	1
25268	1	1	1	0	0	0	349	0	1	1
25269	1	1	1	0	0	0	349	0	1	1
25270	1	1	1	0	0	0	349	0	1	1
25271	1	1	1	0	0	0	349	0	1	1
25322	1	1	1	0	0	16	3822	0	1	1
25377	1	1	1	0	0	28	9422	0	1	1
25432	1	1	1	0	0	24	6882	0	1	1
25487	1	1	1	0	0	10	1980	0	1	1
25542	1	1	1	0	0	2	573	0	1	1
25543	1	1	1	0	0	2	573	0	1	1
25544	1	1	1	0	0	2	573	0	1	1
25607	1	1	1	0	0	22	5861	0	1	1
25662	1	1	1	0	0	8	1764	0	1	1
25727	1	1	1	0	0	20	4904	0	1	1
25782	1	1	1	0	0	22	5861	0	1	1
25837	1	1	1	0	0	4	903	0	1	1
25838	1	1	1	0	0	4	903	0	1	1
25927	1	1	1	0	0	4	903	0	1	1
25928	1	1	1	0	0	4	903	0	1	1
26007	1	1	1	0	0	20	4904	0	1	1
26087	1	1	1	0	0	10	1980	0	1	1
26142	1	1	1	0	0	24	6882	0	1	1
26197	1	1	1	0	0	12	2481	0	1	1
26198	1	1	1	0	0	12	2481	0	1	1
26199	1	1	1	0	0	12	2481	0	1	1
26200	1	1	1	0	0	12	2481	0	1	1
26201	1	1	1	0	0	12	2481	0	1	1
26202	1	1	1	0	0	12	2481	0	1	1
26203	1	1	1	0	0	12	2481	0	1	1
26252	1	1	1	0	0	26	7708	0	1	1
26307	1	1	1	0	0	14	3182	0	1	1
26362	1	1	1	0	0	8	1764	0	1	1
26417	1	1	1	0	0	14	3182	0	1	1
26472	1	1	1	0	0	20	4904	0	1	1
26567	1	1	1	0	0	6	1287	0	1	1
26568	1	1	1	0	0	6	1287	0	1	1
26622	1	1	1	0	0	24	6882	0	1	1
26623	1	1	1	0	0	24	6882	0	1	1
26677	1	1	1	0	0	22	5861	0	1	1
26732	1	1	1	0	0	10	1980	0	1	1
26787	1	1	1	0	0	10	1980	0	1	1
26842	1	1	1	0	0	0	349	0	1	1
26843	1	1	1	0	0	0	349	0	1	1
26844	1	1	1	0	0	0	349	0	1	1
26845	1	1	1	0	0	0	349	0	1	1
26846	1	1	1	0	0	0	349	0	1	1
26897	1	1	1	0	0	2	573	0	1	1
26898	1	1	1	0	0	2	573	0	1	1
26899	1	1	1	0	0	2	573	0	1	1
26900	1	1	1	0	0	2	573	0	1	1
26952	1	1	1	0	0	8	1764	0	1	1
27007	1	1	1	0	0	18	4107	0	1	1
27062	1	1	1	0	0	8	1764	0	1	1
27117	1	1	1	0	0	22	5861	0	1	1
27172	1	1	1	0	0	4	903	0	1	1
27173	1	1	1	0	0	4	903	0	1	1
27227	1	1	1	0	0	20	4904	0	1	1
27282	1	1	1	0	0	0	349	0	1	1
27283	1	1	1	0	0	0	349	0	1	1
27284	1	1	1	0	0	0	349	0	1	1
27285	1	1	1	0	0	0	349	0	1	1
27286	1	1	1	0	0	0	349	0	1	1
27287	1	1	1	0	0	12	2481	0	1	1
27337	1	1	1	0	0	22	5861	0	1	1
27392	1	1	1	0	0	28	9422	0	1	1
27447	1	1	1	0	0	12	2481	0	1	1
27502	1	1	1	0	0	4	903	0	1	1
27503	1	1	1	0	0	4	903	0	1	1
27504	1	1	1	0	0	4	903	0	1	1
27557	1	1	1	0	0	4	903	0	1	1
27558	1	1	1	0	0	4	903	0	1	1
27559	1	1	1	0	0	4	903	0	1	1
27612	1	1	1	0	0	16	3822	0	1	1
27667	1	1	1	0	0	20	4904	0	1	1
27668	1	1	1	0	0	20	4904	0	1	1
27722	1	1	1	0	0	8	1764	0	1	1
27723	1	1	1	0	0	8	1764	0	1	1
27847	1	1	1	0	0	22	5861	0	1	1
27927	1	1	1	0	0	20	4904	0	1	1
27982	1	1	1	0	0	24	6882	0	1	1
28037	1	1	1	0	0	2	573	0	1	1
28038	1	1	1	0	0	2	573	0	1	1
28039	1	1	1	0	0	2	573	0	1	1
28040	1	1	1	0	0	2	573	0	1	1
28092	1	1	1	0	0	26	7708	0	1	1
28147	1	1	1	0	0	24	6882	0	1	1
28202	1	1	1	0	0	18	4107	0	1	1
28257	1	1	1	0	0	26	7708	0	1	1
28312	1	1	1	0	0	14	3182	0	1	1
28313	1	1	1	0	0	14	3182	0	1	1
28367	1	1	1	0	0	24	6882	0	1	1
28422	1	1	1	0	0	24	6882	0	1	1
28423	1	1	1	0	0	24	6882	0	1	1
28424	1	1	1	0	0	24	6882	0	1	1
28425	1	1	1	0	0	24	6882	0	1	1
28427	1	1	1	0	0	24	6882	0	1	1
28428	1	1	1	0	0	24	6882	0	1	1
28487	1	1	1	0	0	20	4904	0	1	1
28542	1	1	1	0	0	18	4107	0	1	1
28597	1	1	1	0	0	20	4904	0	1	1
28652	1	1	1	0	0	4	903	0	1	1
28653	1	1	1	0	0	4	903	0	1	1
28654	1	1	1	0	0	4	903	0	1	1
28707	1	1	1	0	0	10	1980	0	1	1
28708	1	1	1	0	0	10	1980	0	1	1
28762	1	1	1	0	0	2	573	0	1	1
28763	1	1	1	0	0	2	573	0	1	1
28764	1	1	1	0	0	2	573	0	1	1
28765	1	1	1	0	0	2	573	0	1	1
28817	1	1	1	0	0	18	4107	0	1	1
28872	1	1	1	0	0	20	4904	0	1	1
28927	1	1	1	0	0	22	5861	0	1	1
28982	1	1	1	0	0	16	3822	0	1	1
29037	1	1	1	0	0	4	903	0	1	1
29038	1	1	1	0	0	4	903	0	1	1
29039	1	1	1	0	0	4	903	0	1	1
29092	1	1	1	0	0	16	3822	0	1	1
29147	1	1	1	0	0	6	1287	0	1	1
29148	1	1	1	0	0	6	1287	0	1	1
29202	1	1	1	0	0	22	5861	0	1	1
29257	1	1	1	0	0	18	4107	0	1	1
29312	1	1	1	0	0	26	7708	0	1	1
29313	1	1	1	0	0	26	7708	0	1	1
29367	1	1	1	0	0	14	3182	0	1	1
29422	1	1	1	0	0	14	3182	0	1	1
29477	1	1	1	0	0	14	3182	0	1	1
29532	1	1	1	0	0	24	6882	0	1	1
29587	1	1	1	0	0	26	7708	0	1	1
29642	1	1	1	0	0	18	4107	0	1	1
29697	1	1	1	0	0	18	4107	0	1	1
29752	1	1	1	0	0	24	6882	0	1	1
29807	1	1	1	0	0	18	4107	0	1	1
29862	1	1	1	0	0	20	4904	0	1	1
29917	1	1	1	0	0	12	2481	0	1	1
29972	1	1	1	0	0	2	573	0	1	1
29973	1	1	1	0	0	2	573	0	1	1
29974	1	1	1	0	0	2	573	0	1	1
29975	1	1	1	0	0	2	573	0	1	1
30027	1	1	1	0	0	18	4107	0	1	1
30082	1	1	1	0	0	18	4107	0	1	1
30137	1	1	1	0	0	20	4904	0	1	1
30192	1	1	1	0	0	10	1980	0	1	1
30193	1	1	1	0	0	10	1980	0	1	1
30247	1	1	1	0	0	12	2481	0	1	1
30327	1	1	1	0	0	20	4904	0	1	1
30382	1	1	1	0	0	0	349	0	1	1
30383	1	1	1	0	0	0	349	0	1	1
30384	1	1	1	0	0	0	349	0	1	1
30385	1	1	1	0	0	0	349	0	1	1
30386	1	1	1	0	0	0	349	0	1	1
30387	1	1	1	0	0	0	349	0	1	1
30388	1	1	1	0	0	0	349	0	1	1
30437	1	1	1	0	0	8	1764	0	1	1
30438	1	1	1	0	0	8	1764	0	1	1
30492	1	1	1	0	0	18	4107	0	1	1
30493	1	1	1	0	0	18	4107	0	1	1
30547	1	1	1	0	0	12	2481	0	1	1
30548	1	1	1	0	0	12	2481	0	1	1
30549	1	1	1	0	0	12	2481	0	1	1
30602	1	1	1	0	0	20	4904	0	1	1
30603	1	1	1	0	0	20	4904	0	1	1
30657	1	1	1	0	0	14	3182	0	1	1
30712	1	1	1	0	0	18	4107	0	1	1
30713	1	1	1	0	0	18	4107	0	1	1
30714	1	1	1	0	0	18	4107	0	1	1
30715	1	1	1	0	0	18	4107	0	1	1
30767	1	1	1	0	0	22	5861	0	1	1
30822	1	1	1	0	0	12	2481	0	1	1
30887	1	1	1	0	0	12	2481	0	1	1
30942	1	1	1	0	0	16	3822	0	1	1
30997	1	1	1	0	0	16	3822	0	1	1
31087	1	1	1	0	0	18	4107	0	1	1
31142	1	1	1	0	0	20	4904	0	1	1
31197	1	1	1	0	0	2	573	0	1	1
31198	1	1	1	0	0	2	573	0	1	1
31199	1	1	1	0	0	2	573	0	1	1
31252	1	1	1	0	0	0	349	0	1	1
31253	1	1	1	0	0	0	349	0	1	1
31254	1	1	1	0	0	0	349	0	1	1
31255	1	1	1	0	0	0	349	0	1	1
31307	1	1	1	0	0	2	573	0	1	1
31308	1	1	1	0	0	2	573	0	1	1
31309	1	1	1	0	0	2	573	0	1	1
31362	1	1	1	0	0	22	5861	0	1	1
31417	1	1	1	0	0	20	4904	0	1	1
31472	1	1	1	0	0	24	6882	0	1	1
31527	1	1	1	0	0	6	1287	0	1	1
31647	1	1	1	0	0	20	4904	0	1	1
31702	1	1	1	0	0	24	6882	0	1	1
31767	1	1	1	0	0	20	4904	0	1	1
31822	1	1	1	0	0	4	903	0	1	1
31823	1	1	1	0	0	4	903	0	1	1
31877	1	1	1	0	0	18	4107	0	1	1
31967	1	1	1	0	0	16	3822	0	1	1
32022	1	1	1	0	0	12	2481	0	1	1
32077	1	1	1	0	0	4	903	0	1	1
32078	1	1	1	0	0	4	903	0	1	1
32132	1	1	1	0	0	14	3182	0	1	1
32187	1	1	1	0	0	22	5861	0	1	1
32242	1	1	1	0	0	20	4904	0	1	1
32297	1	1	1	0	0	8	1764	0	1	1
32352	1	1	1	0	0	14	3182	0	1	1
32407	1	1	1	0	0	22	5861	0	1	1
32462	1	1	1	0	0	18	4107	0	1	1
32517	1	1	1	0	0	10	1980	0	1	1
32572	1	1	1	0	0	20	4904	0	1	1
32627	1	1	1	0	0	22	5861	0	1	1
32682	1	1	1	0	0	6	1287	0	1	1
32683	1	1	1	0	0	6	1287	0	1	1
32767	1	1	1	0	0	2	573	0	1	1
32768	1	1	1	0	0	2	573	0	1	1
32769	1	1	1	0	0	2	573	0	1	1
32822	1	1	1	0	0	6	1287	0	1	1
32823	1	1	1	0	0	6	1287	0	1	1
32877	1	1	1	0	0	10	1980	0	1	1
32932	1	1	1	0	0	2	573	0	1	1
32933	1	1	1	0	0	2	573	0	1	1
32934	1	1	1	0	0	2	573	0	1	1
32987	1	1	1	0	0	14	3182	0	1	1
33042	1	1	1	0	0	4	903	0	1	1
33043	1	1	1	0	0	4	903	0	1	1
33097	1	1	1	0	0	2	573	0	1	1
33098	1	1	1	0	0	2	573	0	1	1
33099	1	1	1	0	0	2	573	0	1	1
33167	1	1	1	0	0	8	1764	0	1	1
33222	1	1	1	0	0	18	4107	0	1	1
33223	1	1	1	0	0	18	4107	0	1	1
33277	1	1	1	0	0	12	2481	0	1	1
33332	1	1	1	0	0	20	4904	0	1	1
33387	1	1	1	0	0	6	1287	0	1	1
33388	1	1	1	0	0	6	1287	0	1	1
33442	1	1	1	0	0	12	2481	0	1	1
33497	1	1	1	0	0	2	573	0	1	1
33498	1	1	1	0	0	2	573	0	1	1
33499	1	1	1	0	0	2	573	0	1	1
33552	1	1	1	0	0	14	3182	0	1	1
33607	1	1	1	0	0	4	903	0	1	1
33608	1	1	1	0	0	4	903	0	1	1
33662	1	1	1	0	0	12	2481	0	1	1
33717	1	1	1	0	0	12	2481	0	1	1
33718	1	1	1	0	0	12	2481	0	1	1
33719	1	1	1	0	0	12	2481	0	1	1
33720	1	1	1	0	0	12	2481	0	1	1
33772	1	1	1	0	0	4	903	0	1	1
33773	1	1	1	0	0	4	903	0	1	1
33827	1	1	1	0	0	18	4107	0	1	1
33882	1	1	1	0	0	12	2481	0	1	1
33937	1	1	1	0	0	24	6882	0	1	1
34007	1	1	1	0	0	18	4107	0	1	1
34062	1	1	1	0	0	20	4904	0	1	1
34117	1	1	1	0	0	10	1980	0	1	1
34207	1	1	1	0	0	4	903	0	1	1
34208	1	1	1	0	0	4	903	0	1	1
34262	1	1	1	0	0	20	4904	0	1	1
34317	1	1	1	0	0	14	3182	0	1	1
34372	1	1	1	0	0	24	6882	0	1	1
34427	1	1	1	0	0	18	4107	0	1	1
34482	1	1	1	0	0	18	4107	0	1	1
34537	1	1	1	0	0	2	573	0	1	1
34538	1	1	1	0	0	2	573	0	1	1
34539	1	1	1	0	0	2	573	0	1	1
34540	1	1	1	0	0	2	573	0	1	1
34592	1	1	1	0	0	14	3182	0	1	1
34647	1	1	1	0	0	28	9422	0	1	1
34702	1	1	1	0	0	22	5861	0	1	1
34757	1	1	1	0	0	12	2481	0	1	1
34812	1	1	1	0	0	14	3182	0	1	1
34867	1	1	1	0	0	12	2481	0	1	1
34922	1	1	1	0	0	24	6882	0	1	1
34977	1	1	1	0	0	14	3182	0	1	1
35032	1	1	1	0	0	4	903	0	1	1
35033	1	1	1	0	0	4	903	0	1	1
35034	1	1	1	0	0	4	903	0	1	1
35127	1	1	1	0	0	6	1287	0	1	1
35128	1	1	1	0	0	6	1287	0	1	1
35182	1	1	1	0	0	8	1764	0	1	1
35183	1	1	1	0	0	8	1764	0	1	1
35237	1	1	1	0	0	16	3822	0	1	1
35292	1	1	1	0	0	2	573	0	1	1
35293	1	1	1	0	0	2	573	0	1	1
35294	1	1	1	0	0	2	573	0	1	1
35295	1	1	1	0	0	2	573	0	1	1
35347	1	1	1	0	0	6	1287	0	1	1
35348	1	1	1	0	0	6	1287	0	1	1
35407	1	1	1	0	0	8	1764	0	1	1
35408	1	1	1	0	0	8	1764	0	1	1
35462	1	1	1	0	0	18	4107	0	1	1
35463	1	1	1	0	0	18	4107	0	1	1
35517	1	1	1	0	0	18	4107	0	1	1
35572	1	1	1	0	0	18	4107	0	1	1
35627	1	1	1	0	0	10	1980	0	1	1
35687	1	1	1	0	0	20	4904	0	1	1
35742	1	1	1	0	0	18	4107	0	1	1
35797	1	1	1	0	0	14	3182	0	1	1
35852	1	1	1	0	0	12	2481	0	1	1
35967	1	1	1	0	0	0	349	0	1	1
35968	1	1	1	0	0	0	349	0	1	1
35969	1	1	1	0	0	0	349	0	1	1
35970	1	1	1	0	0	0	349	0	1	1
35971	1	1	1	0	0	0	349	0	1	1
35972	1	1	1	0	0	0	349	0	1	1
36022	1	1	1	0	0	22	5861	0	1	1
36077	1	1	1	0	0	20	4904	0	1	1
36132	1	1	1	0	0	10	1980	0	1	1
36133	1	1	1	0	0	10	1980	0	1	1
36187	1	1	1	0	0	18	4107	0	1	1
36188	1	1	1	0	0	18	4107	0	1	1
36189	1	1	1	0	0	18	4107	0	1	1
36242	1	1	1	0	0	14	3182	0	1	1
36327	1	1	1	0	0	6	1287	0	1	1
36328	1	1	1	0	0	6	1287	0	1	1
36382	1	1	1	0	0	20	4904	0	1	1
36437	1	1	1	0	0	2	573	0	1	1
36438	1	1	1	0	0	2	573	0	1	1
36439	1	1	1	0	0	2	573	0	1	1
36440	1	1	1	0	0	2	573	0	1	1
36492	1	1	1	0	0	20	4904	0	1	1
36547	1	1	1	0	0	8	1764	0	1	1
36548	1	1	1	0	0	8	1764	0	1	1
36602	1	1	1	0	0	8	1764	0	1	1
36603	1	1	1	0	0	8	1764	0	1	1
36657	1	1	1	0	0	10	1980	0	1	1
36658	1	1	1	0	0	10	1980	0	1	1
36712	1	1	1	0	0	16	3822	0	1	1
36767	1	1	1	0	0	6	1287	0	1	1
36768	1	1	1	0	0	6	1287	0	1	1
36822	1	1	1	0	0	12	2481	0	1	1
36877	1	1	1	0	0	8	1764	0	1	1
36878	1	1	1	0	0	8	1764	0	1	1
36932	1	1	1	0	0	12	2481	0	1	1
36987	1	1	1	0	0	24	6882	0	1	1
37042	1	1	1	0	0	8	1764	0	1	1
37043	1	1	1	0	0	8	1764	0	1	1
37097	1	1	1	0	0	8	1764	0	1	1
37098	1	1	1	0	0	8	1764	0	1	1
37152	1	1	1	0	0	22	5861	0	1	1
37207	1	1	1	0	0	10	1980	0	1	1
37208	1	1	1	0	0	10	1980	0	1	1
37262	1	1	1	0	0	18	4107	0	1	1
37317	1	1	1	0	0	4	903	0	1	1
37318	1	1	1	0	0	4	903	0	1	1
37319	1	1	1	0	0	4	903	0	1	1
37372	1	1	1	0	0	24	6882	0	1	1
37373	1	1	1	0	0	24	6882	0	1	1
37374	1	1	1	0	0	24	6882	0	1	1
37375	1	1	1	0	0	24	6882	0	1	1
37376	1	1	1	0	0	24	6882	0	1	1
37427	1	1	1	0	0	24	6882	0	1	1
37428	1	1	1	0	0	24	6882	0	1	1
37429	1	1	1	0	0	24	6882	0	1	1
37430	1	1	1	0	0	24	6882	0	1	1
37482	1	1	1	0	0	18	4107	0	1	1
37567	1	1	1	0	0	6	1287	0	1	1
37568	1	1	1	0	0	6	1287	0	1	1
37647	1	1	1	0	0	4	903	0	1	1
37648	1	1	1	0	0	4	903	0	1	1
37649	1	1	1	0	0	4	903	0	1	1
37702	1	1	1	0	0	12	2481	0	1	1
37757	1	1	1	0	0	6	1287	0	1	1
37758	1	1	1	0	0	6	1287	0	1	1
37812	1	1	1	0	0	6	1287	0	1	1
37813	1	1	1	0	0	6	1287	0	1	1
37867	1	1	1	0	0	14	3182	0	1	1
37922	1	1	1	0	0	4	903	0	1	1
37923	1	1	1	0	0	4	903	0	1	1
37924	1	1	1	0	0	4	903	0	1	1
37977	1	1	1	0	0	4	903	0	1	1
37978	1	1	1	0	0	4	903	0	1	1
37979	1	1	1	0	0	4	903	0	1	1
37980	1	1	1	0	0	4	903	0	1	1
37981	1	1	1	0	0	4	903	0	1	1
37982	1	1	1	0	0	4	903	0	1	1
38047	1	1	1	0	0	20	4904	0	1	1
38102	1	1	1	0	0	14	3182	0	1	1
38157	1	1	1	0	0	14	3182	0	1	1
38212	1	1	1	0	0	22	5861	0	1	1
38267	1	1	1	0	0	12	2481	0	1	1
38322	1	1	1	0	0	22	5861	0	1	1
38377	1	1	1	0	0	26	7708	0	1	1
38432	1	1	1	0	0	12	2481	0	1	1
38487	1	1	1	0	0	2	573	0	1	1
38488	1	1	1	0	0	2	573	0	1	1
38489	1	1	1	0	0	2	573	0	1	1
38542	1	1	1	0	0	18	4107	0	1	1
38597	1	1	1	0	0	6	1287	0	1	1
38652	1	1	1	0	0	16	3822	0	1	1
38707	1	1	1	0	0	2	573	0	1	1
38708	1	1	1	0	0	2	573	0	1	1
38709	1	1	1	0	0	2	573	0	1	1
38767	1	1	1	0	0	0	349	0	1	1
38768	1	1	1	0	0	0	349	0	1	1
38769	1	1	1	0	0	0	349	0	1	1
38770	1	1	1	0	0	0	349	0	1	1
38822	1	1	1	0	0	22	5861	0	1	1
38887	1	1	1	0	0	0	349	0	1	1
38888	1	1	1	0	0	0	349	0	1	1
38889	1	1	1	0	0	0	349	0	1	1
38890	1	1	1	0	0	0	349	0	1	1
38942	1	1	1	0	0	20	4904	0	1	1
38997	1	1	1	0	0	22	5861	0	1	1
39052	1	1	1	0	0	2	573	0	1	1
39053	1	1	1	0	0	2	573	0	1	1
39054	1	1	1	0	0	2	573	0	1	1
39107	1	1	1	0	0	18	4107	0	1	1
39162	1	1	1	0	0	12	2481	0	1	1
39217	1	1	1	0	0	16	3822	0	1	1
39272	1	1	1	0	0	4	903	0	1	1
39273	1	1	1	0	0	4	903	0	1	1
39367	1	1	1	0	0	18	4107	0	1	1
39422	1	1	1	0	0	10	1980	0	1	1
39477	1	1	1	0	0	26	7708	0	1	1
39532	1	1	1	0	0	22	5861	0	1	1
39587	1	1	1	0	0	6	1287	0	1	1
39588	1	1	1	0	0	6	1287	0	1	1
39642	1	1	1	0	0	20	4904	0	1	1
39697	1	1	1	0	0	24	6882	0	1	1
39752	1	1	1	0	0	18	4107	0	1	1
39807	1	1	1	0	0	4	903	0	1	1
39808	1	1	1	0	0	4	903	0	1	1
39887	1	1	1	0	0	12	2481	0	1	1
39942	1	1	1	0	0	12	2481	0	1	1
39997	1	1	1	0	0	4	903	0	1	1
39998	1	1	1	0	0	4	903	0	1	1
40052	1	1	1	0	0	18	4107	0	1	1
40127	1	1	1	0	0	4	903	0	1	1
40128	1	1	1	0	0	4	903	0	1	1
40207	1	1	1	0	0	8	1764	0	1	1
40262	1	1	1	0	0	18	4107	0	1	1
40317	1	1	1	0	0	6	1287	0	1	1
40318	1	1	1	0	0	6	1287	0	1	1
40372	1	1	1	0	0	12	2481	0	1	1
40427	1	1	1	0	0	2	573	0	1	1
40428	1	1	1	0	0	2	573	0	1	1
40429	1	1	1	0	0	2	573	0	1	1
40482	1	1	1	0	0	14	3182	0	1	1
40537	1	1	1	0	0	20	4904	0	1	1
40592	1	1	1	0	0	4	903	0	1	1
40593	1	1	1	0	0	4	903	0	1	1
40647	1	1	1	0	0	0	349	0	1	1
40648	1	1	1	0	0	0	349	0	1	1
40649	1	1	1	0	0	0	349	0	1	1
40650	1	1	1	0	0	0	349	0	1	1
40651	1	1	1	0	0	0	349	0	1	1
40702	1	1	1	0	0	14	3182	0	1	1
40757	1	1	1	0	0	18	4107	0	1	1
40812	1	1	1	0	0	18	4107	0	1	1
40867	1	1	1	0	0	22	5861	0	1	1
40922	1	1	1	0	0	14	3182	0	1	1
40977	1	1	1	0	0	14	3182	0	1	1
41032	1	1	1	0	0	2	573	0	1	1
41033	1	1	1	0	0	2	573	0	1	1
41034	1	1	1	0	0	2	573	0	1	1
41087	1	1	1	0	0	14	3182	0	1	1
41142	1	1	1	0	0	10	1980	0	1	1
41197	1	1	1	0	0	8	1764	0	1	1
41252	1	1	1	0	0	8	1764	0	1	1
41307	1	1	1	0	0	8	1764	0	1	1
41362	1	1	1	0	0	10	1980	0	1	1
41417	1	1	1	0	0	0	349	0	1	1
41418	1	1	1	0	0	0	349	0	1	1
41419	1	1	1	0	0	0	349	0	1	1
41420	1	1	1	0	0	0	349	0	1	1
41421	1	1	1	0	0	0	349	0	1	1
41472	1	1	1	0	0	6	1287	0	1	1
41473	1	1	1	0	0	6	1287	0	1	1
41527	1	1	1	0	0	18	4107	0	1	1
41582	1	1	1	0	0	18	4107	0	1	1
41637	1	1	1	0	0	2	573	0	1	1
41638	1	1	1	0	0	2	573	0	1	1
41639	1	1	1	0	0	2	573	0	1	1
41640	1	1	1	0	0	2	573	0	1	1
41692	1	1	1	0	0	20	4904	0	1	1
41747	1	1	1	0	0	8	1764	0	1	1
41748	1	1	1	0	0	8	1764	0	1	1
41802	1	1	1	0	0	18	4107	0	1	1
41857	1	1	1	0	0	8	1764	0	1	1
41858	1	1	1	0	0	8	1764	0	1	1
41912	1	1	1	0	0	2	573	0	1	1
41913	1	1	1	0	0	2	573	0	1	1
41914	1	1	1	0	0	2	573	0	1	1
41915	1	1	1	0	0	2	573	0	1	1
41967	1	1	1	0	0	16	3822	0	1	1
42047	1	1	1	0	0	8	1764	0	1	1
42048	1	1	1	0	0	8	1764	0	1	1
42102	1	1	1	0	0	8	1764	0	1	1
42103	1	1	1	0	0	8	1764	0	1	1
42157	1	1	1	0	0	6	1287	0	1	1
42158	1	1	1	0	0	6	1287	0	1	1
42212	1	1	1	0	0	8	1764	0	1	1
42213	1	1	1	0	0	8	1764	0	1	1
42287	1	1	1	0	0	16	3822	0	1	1
42342	1	1	1	0	0	14	3182	0	1	1
42397	1	1	1	0	0	8	1764	0	1	1
42398	1	1	1	0	0	8	1764	0	1	1
42452	1	1	1	0	0	14	3182	0	1	1
42453	1	1	1	0	0	14	3182	0	1	1
42507	1	1	1	0	0	4	903	0	1	1
42508	1	1	1	0	0	4	903	0	1	1
42509	1	1	1	0	0	4	903	0	1	1
42562	1	1	1	0	0	2	573	0	1	1
42563	1	1	1	0	0	2	573	0	1	1
42564	1	1	1	0	0	2	573	0	1	1
42565	1	1	1	0	0	2	573	0	1	1
42617	1	1	1	0	0	2	573	0	1	1
42618	1	1	1	0	0	2	573	0	1	1
42619	1	1	1	0	0	2	573	0	1	1
42620	1	1	1	0	0	2	573	0	1	1
42672	1	1	1	0	0	6	1287	0	1	1
42673	1	1	1	0	0	6	1287	0	1	1
42727	1	1	1	0	0	12	2481	0	1	1
42807	1	1	1	0	0	8	1764	0	1	1
42808	1	1	1	0	0	8	1764	0	1	1
42862	1	1	1	0	0	14	3182	0	1	1
42863	1	1	1	0	0	14	3182	0	1	1
42917	1	1	1	0	0	4	903	0	1	1
42918	1	1	1	0	0	4	903	0	1	1
42919	1	1	1	0	0	4	903	0	1	1
42972	1	1	1	0	0	4	903	0	1	1
42973	1	1	1	0	0	4	903	0	1	1
42974	1	1	1	0	0	4	903	0	1	1
43027	1	1	1	0	0	14	3182	0	1	1
43082	1	1	1	0	0	16	3822	0	1	1
43137	1	1	1	0	0	24	6882	0	1	1
43138	1	1	1	0	0	24	6882	0	1	1
43139	1	1	1	0	0	24	6882	0	1	1
43140	1	1	1	0	0	24	6882	0	1	1
43192	1	1	1	0	0	12	2481	0	1	1
43247	1	1	1	0	0	12	2481	0	1	1
43302	1	1	1	0	0	4	903	0	1	1
43303	1	1	1	0	0	4	903	0	1	1
43304	1	1	1	0	0	4	903	0	1	1
43407	1	1	1	0	0	12	2481	0	1	1
43462	1	1	1	0	0	14	3182	0	1	1
43517	1	1	1	0	0	20	4904	0	1	1
43518	1	1	1	0	0	20	4904	0	1	1
43519	1	1	1	0	0	20	4904	0	1	1
43520	1	1	1	0	0	20	4904	0	1	1
43607	1	1	1	0	0	26	7708	0	1	1
43662	1	1	1	0	0	26	7708	0	1	1
43663	1	1	1	0	0	26	7708	0	1	1
43664	1	1	1	0	0	26	7708	0	1	1
43665	1	1	1	0	0	26	7708	0	1	1
43666	1	1	1	0	0	26	7708	0	1	1
43717	1	1	1	0	0	6	1287	0	1	1
43718	1	1	1	0	0	6	1287	0	1	1
43772	1	1	1	0	0	20	4904	0	1	1
43827	1	1	1	0	0	2	573	0	1	1
43828	1	1	1	0	0	2	573	0	1	1
43829	1	1	1	0	0	2	573	0	1	1
43830	1	1	1	0	0	2	573	0	1	1
43882	1	1	1	0	0	26	7708	0	1	1
43937	1	1	1	0	0	8	1764	0	1	1
43938	1	1	1	0	0	8	1764	0	1	1
43939	1	1	1	0	0	8	1764	0	1	1
44007	1	1	1	0	0	2	573	0	1	1
44008	1	1	1	0	0	2	573	0	1	1
44009	1	1	1	0	0	2	573	0	1	1
44010	1	1	1	0	0	2	573	0	1	1
44062	1	1	1	0	0	8	1764	0	1	1
44063	1	1	1	0	0	8	1764	0	1	1
44117	1	1	1	0	0	14	3182	0	1	1
44172	1	1	1	0	0	12	2481	0	1	1
44227	1	1	1	0	0	20	4904	0	1	1
44282	1	1	1	0	0	24	6882	0	1	1
44283	1	1	1	0	0	24	6882	0	1	1
44284	1	1	1	0	0	24	6882	0	1	1
44337	1	1	1	0	0	24	6882	0	1	1
44338	1	1	1	0	0	24	6882	0	1	1
44392	1	1	1	0	0	14	3182	0	1	1
44447	1	1	1	0	0	12	2481	0	1	1
44502	1	1	1	0	0	14	3182	0	1	1
44557	1	1	1	0	0	4	903	0	1	1
44558	1	1	1	0	0	4	903	0	1	1
44559	1	1	1	0	0	4	903	0	1	1
44647	1	1	1	0	0	12	2481	0	1	1
44702	1	1	1	0	0	10	1980	0	1	1
44703	1	1	1	0	0	10	1980	0	1	1
44757	1	1	1	0	0	22	5861	0	1	1
44812	1	1	1	0	0	16	3822	0	1	1
44867	1	1	1	0	0	20	4904	0	1	1
44922	1	1	1	0	0	20	4904	0	1	1
45007	1	1	1	0	0	24	6882	0	1	1
45062	1	1	1	0	0	28	9422	0	1	1
45117	1	1	1	0	0	18	4107	0	1	1
45118	1	1	1	0	0	18	4107	0	1	1
45172	1	1	1	0	0	2	573	0	1	1
45227	1	1	1	0	0	18	4107	0	1	1
45282	1	1	1	0	0	18	4107	0	1	1
45337	1	1	1	0	0	2	573	0	1	1
45338	1	1	1	0	0	2	573	0	1	1
45339	1	1	1	0	0	2	573	0	1	1
45392	1	1	1	0	0	14	3182	0	1	1
45487	1	1	1	0	0	4	903	0	1	1
45488	1	1	1	0	0	4	903	0	1	1
45542	1	1	1	0	0	2	573	0	1	1
45543	1	1	1	0	0	2	573	0	1	1
45544	1	1	1	0	0	2	573	0	1	1
45597	1	1	1	0	0	18	4107	0	1	1
45652	1	1	1	0	0	2	573	0	1	1
45653	1	1	1	0	0	2	573	0	1	1
45654	1	1	1	0	0	2	573	0	1	1
45707	1	1	1	0	0	8	1764	0	1	1
45767	1	1	1	0	0	12	2481	0	1	1
45847	1	1	1	0	0	2	573	0	1	1
45848	1	1	1	0	0	2	573	0	1	1
45849	1	1	1	0	0	2	573	0	1	1
45902	1	1	1	0	0	8	1764	0	1	1
46007	1	1	1	0	0	20	4904	0	1	1
46062	1	1	1	0	0	14	3182	0	1	1
46207	1	1	1	0	0	20	4904	0	1	1
46262	1	1	1	0	0	12	2481	0	1	1
46317	1	1	1	0	0	14	3182	0	1	1
46372	1	1	1	0	0	14	3182	0	1	1
46427	1	1	1	0	0	18	4107	0	1	1
46482	1	1	1	0	0	14	3182	0	1	1
46537	1	1	1	0	0	20	4904	0	1	1
46592	1	1	1	0	0	12	2481	0	1	1
46647	1	1	1	0	0	6	1287	0	1	1
46648	1	1	1	0	0	6	1287	0	1	1
46702	1	1	1	0	0	6	1287	0	1	1
46703	1	1	1	0	0	6	1287	0	1	1
46757	1	1	1	0	0	0	349	0	1	1
46758	1	1	1	0	0	0	349	0	1	1
46759	1	1	1	0	0	0	349	0	1	1
46760	1	1	1	0	0	0	349	0	1	1
46812	1	1	1	0	0	16	3822	0	1	1
46867	1	1	1	0	0	18	4107	0	1	1
46922	1	1	1	0	0	20	4904	0	1	1
46977	1	1	1	0	0	12	2481	0	1	1
47032	1	1	1	0	0	8	1764	0	1	1
47087	1	1	1	0	0	18	4107	0	1	1
47142	1	1	1	0	0	0	349	0	1	1
47143	1	1	1	0	0	0	349	0	1	1
47144	1	1	1	0	0	0	349	0	1	1
47145	1	1	1	0	0	0	349	0	1	1
47146	1	1	1	0	0	0	349	0	1	1
47197	1	1	1	0	0	12	2481	0	1	1
47252	1	1	1	0	0	28	9422	0	1	1
47307	1	1	1	0	0	14	3182	0	1	1
47362	1	1	1	0	0	8	1764	0	1	1
47417	1	1	1	0	0	18	4107	0	1	1
47472	1	1	1	0	0	20	4904	0	1	1
47527	1	1	1	0	0	10	1980	0	1	1
47528	1	1	1	0	0	10	1980	0	1	1
47582	1	1	1	0	0	18	4107	0	1	1
47637	1	1	1	0	0	6	1287	0	1	1
47638	1	1	1	0	0	6	1287	0	1	1
47692	1	1	1	0	0	2	573	0	1	1
47693	1	1	1	0	0	2	573	0	1	1
47694	1	1	1	0	0	2	573	0	1	1
47747	1	1	1	0	0	24	6882	0	1	1
47802	1	1	1	0	0	20	4904	0	1	1
47857	1	1	1	0	0	8	1764	0	1	1
47912	1	1	1	0	0	12	2481	0	1	1
47967	1	1	1	0	0	4	903	0	1	1
47968	1	1	1	0	0	4	903	0	1	1
48022	1	1	1	0	0	16	3822	0	1	1
48077	1	1	1	0	0	2	573	0	1	1
48078	1	1	1	0	0	2	573	0	1	1
48079	1	1	1	0	0	2	573	0	1	1
48132	1	1	1	0	0	16	3822	0	1	1
48187	1	1	1	0	0	10	1980	0	1	1
48242	1	1	1	0	0	6	1287	0	1	1
48243	1	1	1	0	0	6	1287	0	1	1
48297	1	1	1	0	0	12	2481	0	1	1
48352	1	1	1	0	0	18	4107	0	1	1
48407	1	1	1	0	0	4	903	0	1	1
48408	1	1	1	0	0	4	903	0	1	1
48462	1	1	1	0	0	8	1764	0	1	1
48517	1	1	1	0	0	18	4107	0	1	1
48572	1	1	1	0	0	20	4904	0	1	1
48627	1	1	1	0	0	12	2481	0	1	1
48682	1	1	1	0	0	6	1287	0	1	1
48683	1	1	1	0	0	6	1287	0	1	1
48737	1	1	1	0	0	18	4107	0	1	1
48792	1	1	1	0	0	14	3182	0	1	1
48847	1	1	1	0	0	4	903	0	1	1
48848	1	1	1	0	0	4	903	0	1	1
48902	1	1	1	0	0	16	3822	0	1	1
48957	1	1	1	0	0	4	903	0	1	1
48958	1	1	1	0	0	4	903	0	1	1
49012	1	1	1	0	0	14	3182	0	1	1
49067	1	1	1	0	0	12	2481	0	1	1
49122	1	1	1	0	0	20	4904	0	1	1
49177	1	1	1	0	0	20	4904	0	1	1
49232	1	1	1	0	0	18	4107	0	1	1
49287	1	1	1	0	0	14	3182	0	1	1
49288	1	1	1	0	0	14	3182	0	1	1
49342	1	1	1	0	0	12	2481	0	1	1
49343	1	1	1	0	0	12	2481	0	1	1
49397	1	1	1	0	0	12	2481	0	1	1
49452	1	1	1	0	0	4	903	0	1	1
49453	1	1	1	0	0	4	903	0	1	1
49454	1	1	1	0	0	4	903	0	1	1
49507	1	1	1	0	0	6	1287	0	1	1
49508	1	1	1	0	0	6	1287	0	1	1
49562	1	1	1	0	0	18	4107	0	1	1
49617	1	1	1	0	0	8	1764	0	1	1
49618	1	1	1	0	0	8	1764	0	1	1
49672	1	1	1	0	0	6	1287	0	1	1
49673	1	1	1	0	0	6	1287	0	1	1
49727	1	1	1	0	0	16	3822	0	1	1
49782	1	1	1	0	0	28	9422	0	1	1
49837	1	1	1	0	0	22	5861	0	1	1
49892	1	1	1	0	0	22	5861	0	1	1
49947	1	1	1	0	0	24	6882	0	1	1
50002	1	1	1	0	0	14	3182	0	1	1
50057	1	1	1	0	0	6	1287	0	1	1
50058	1	1	1	0	0	6	1287	0	1	1
50112	1	1	1	0	0	4	903	0	1	1
50113	1	1	1	0	0	4	903	0	1	1
50114	1	1	1	0	0	4	903	0	1	1
50207	1	1	1	0	0	8	1764	0	1	1
50208	1	1	1	0	0	8	1764	0	1	1
50262	1	1	1	0	0	10	1980	0	1	1
50263	1	1	1	0	0	10	1980	0	1	1
50317	1	1	1	0	0	20	4904	0	1	1
50372	1	1	1	0	0	16	3822	0	1	1
50427	1	1	1	0	0	18	4107	0	1	1
50482	1	1	1	0	0	20	4904	0	1	1
50537	1	1	1	0	0	6	1287	0	1	1
50538	1	1	1	0	0	6	1287	0	1	1
50607	1	1	1	0	0	8	1764	0	1	1
50608	1	1	1	0	0	8	1764	0	1	1
50662	1	1	1	0	0	18	4107	0	1	1
50717	1	1	1	0	0	6	1287	0	1	1
50718	1	1	1	0	0	6	1287	0	1	1
50772	1	1	1	0	0	10	1980	0	1	1
50773	1	1	1	0	0	10	1980	0	1	1
50847	1	1	1	0	0	14	3182	0	1	1
50902	1	1	1	0	0	4	903	0	1	1
50903	1	1	1	0	0	4	903	0	1	1
50904	1	1	1	0	0	4	903	0	1	1
50957	1	1	1	0	0	6	1287	0	1	1
50958	1	1	1	0	0	6	1287	0	1	1
51012	1	1	1	0	0	18	4107	0	1	1
51013	1	1	1	0	0	18	4107	0	1	1
51067	1	1	1	0	0	16	3822	0	1	1
51122	1	1	1	0	0	20	4904	0	1	1
51177	1	1	1	0	0	26	7708	0	1	1
51178	1	1	1	0	0	26	7708	0	1	1
51232	1	1	1	0	0	4	903	0	1	1
51233	1	1	1	0	0	4	903	0	1	1
51234	1	1	1	0	0	4	903	0	1	1
51367	1	1	1	0	0	6	1287	0	1	1
51368	1	1	1	0	0	6	1287	0	1	1
51422	1	1	1	0	0	16	3822	0	1	1
51477	1	1	1	0	0	18	4107	0	1	1
51532	1	1	1	0	0	20	4904	0	1	1
51587	1	1	1	0	0	18	4107	0	1	1
51642	1	1	1	0	0	8	1764	0	1	1
51643	1	1	1	0	0	8	1764	0	1	1
51697	1	1	1	0	0	12	2481	0	1	1
51752	1	1	1	0	0	12	2481	0	1	1
51807	1	1	1	0	0	6	1287	0	1	1
51808	1	1	1	0	0	6	1287	0	1	1
51862	1	1	1	0	0	8	1764	0	1	1
51863	1	1	1	0	0	8	1764	0	1	1
51917	1	1	1	0	0	20	4904	0	1	1
52007	1	1	1	0	0	14	3182	0	1	1
52062	1	1	1	0	0	12	2481	0	1	1
52117	1	1	1	0	0	14	3182	0	1	1
52207	1	1	1	0	0	6	1287	0	1	1
52208	1	1	1	0	0	6	1287	0	1	1
52262	1	1	1	0	0	4	903	0	1	1
52263	1	1	1	0	0	4	903	0	1	1
52264	1	1	1	0	0	4	903	0	1	1
52317	1	1	1	0	0	24	6882	0	1	1
52372	1	1	1	0	0	6	1287	0	1	1
52373	1	1	1	0	0	6	1287	0	1	1
52427	1	1	1	0	0	6	1287	0	1	1
52428	1	1	1	0	0	6	1287	0	1	1
52429	1	1	1	0	0	6	1287	0	1	1
52430	1	1	1	0	0	6	1287	0	1	1
52482	1	1	1	0	0	12	2481	0	1	1
52537	1	1	1	0	0	18	4107	0	1	1
52592	1	1	1	0	0	28	9422	0	1	1
52647	1	1	1	0	0	12	2481	0	1	1
52702	1	1	1	0	0	4	903	0	1	1
52703	1	1	1	0	0	4	903	0	1	1
52757	1	1	1	0	0	12	2481	0	1	1
52812	1	1	1	0	0	24	6882	0	1	1
52867	1	1	1	0	0	6	1287	0	1	1
52922	1	1	1	0	0	12	2481	0	1	1
52977	1	1	1	0	0	14	3182	0	1	1
53032	1	1	1	0	0	24	6882	0	1	1
53087	1	1	1	0	0	8	1764	0	1	1
53142	1	1	1	0	0	0	349	0	1	1
53143	1	1	1	0	0	0	349	0	1	1
53144	1	1	1	0	0	0	349	0	1	1
53145	1	1	1	0	0	0	349	0	1	1
53197	1	1	1	0	0	12	2481	0	1	1
53252	1	1	1	0	0	0	349	0	1	1
53253	1	1	1	0	0	0	349	0	1	1
53254	1	1	1	0	0	0	349	0	1	1
53255	1	1	1	0	0	0	349	0	1	1
53307	1	1	1	0	0	8	1764	0	1	1
53407	1	1	1	0	0	2	573	0	1	1
53408	1	1	1	0	0	2	573	0	1	1
53409	1	1	1	0	0	2	573	0	1	1
53462	1	1	1	0	0	10	1980	0	1	1
53517	1	1	1	0	0	12	2481	0	1	1
53572	1	1	1	0	0	14	3182	0	1	1
53627	1	1	1	0	0	14	3182	0	1	1
53682	1	1	1	0	0	20	4904	0	1	1
53737	1	1	1	0	0	18	4107	0	1	1
53792	1	1	1	0	0	0	349	0	1	1
53793	1	1	1	0	0	0	349	0	1	1
53794	1	1	1	0	0	0	349	0	1	1
53795	1	1	1	0	0	0	349	0	1	1
53847	1	1	1	0	0	6	1287	0	1	1
53848	1	1	1	0	0	6	1287	0	1	1
53902	1	1	1	0	0	8	1764	0	1	1
53957	1	1	1	0	0	14	3182	0	1	1
54047	1	1	1	0	0	6	1287	0	1	1
54048	1	1	1	0	0	6	1287	0	1	1
54102	1	1	1	0	0	14	3182	0	1	1
54207	1	1	1	0	0	8	1764	0	1	1
54262	1	1	1	0	0	16	3822	0	1	1
54317	1	1	1	0	0	8	1764	0	1	1
54407	1	1	1	0	0	10	1980	0	1	1
54487	1	1	1	0	0	22	5861	0	1	1
54542	1	1	1	0	0	6	1287	0	1	1
54543	1	1	1	0	0	6	1287	0	1	1
54597	1	1	1	0	0	8	1764	0	1	1
54652	1	1	1	0	0	16	3822	0	1	1
54707	1	1	1	0	0	2	573	0	1	1
54708	1	1	1	0	0	2	573	0	1	1
54709	1	1	1	0	0	2	573	0	1	1
54762	1	1	1	0	0	16	3822	0	1	1
54763	1	1	1	0	0	16	3822	0	1	1
54764	1	1	1	0	0	16	3822	0	1	1
54765	1	1	1	0	0	16	3822	0	1	1
54817	1	1	1	0	0	6	1287	0	1	1
54818	1	1	1	0	0	6	1287	0	1	1
54872	1	1	1	0	0	8	1764	0	1	1
54927	1	1	1	0	0	20	4904	0	1	1
54982	1	1	1	0	0	8	1764	0	1	1
55037	1	1	1	0	0	16	3822	0	1	1
55092	1	1	1	0	0	4	903	0	1	1
55093	1	1	1	0	0	4	903	0	1	1
55167	1	1	1	0	0	14	3182	0	1	1
55222	1	1	1	0	0	0	349	0	1	1
55223	1	1	1	0	0	0	349	0	1	1
55224	1	1	1	0	0	0	349	0	1	1
55225	1	1	1	0	0	0	349	0	1	1
55226	1	1	1	0	0	0	349	0	1	1
55287	1	1	1	0	0	20	4904	0	1	1
55342	1	1	1	0	0	8	1764	0	1	1
55407	1	1	1	0	0	24	6882	0	1	1
55462	1	1	1	0	0	22	5861	0	1	1
55517	1	1	1	0	0	18	4107	0	1	1
55572	1	1	1	0	0	8	1764	0	1	1
55627	1	1	1	0	0	20	4904	0	1	1
55682	1	1	1	0	0	2	573	0	1	1
55683	1	1	1	0	0	2	573	0	1	1
55684	1	1	1	0	0	2	573	0	1	1
55737	1	1	1	0	0	4	903	0	1	1
55738	1	1	1	0	0	4	903	0	1	1
55792	1	1	1	0	0	4	903	0	1	1
55793	1	1	1	0	0	4	903	0	1	1
55847	1	1	1	0	0	26	7708	0	1	1
55902	1	1	1	0	0	24	6882	0	1	1
55957	1	1	1	0	0	12	2481	0	1	1
56012	1	1	1	0	0	2	573	0	1	1
56013	1	1	1	0	0	2	573	0	1	1
56014	1	1	1	0	0	2	573	0	1	1
56015	1	1	1	0	0	2	573	0	1	1
56067	1	1	1	0	0	14	3182	0	1	1
56068	1	1	1	0	0	14	3182	0	1	1
56127	1	1	1	0	0	0	349	0	1	1
56128	1	1	1	0	0	0	349	0	1	1
56129	1	1	1	0	0	0	349	0	1	1
56130	1	1	1	0	0	0	349	0	1	1
56131	1	1	1	0	0	0	349	0	1	1
56132	1	1	1	0	0	0	349	0	1	1
56182	1	1	1	0	0	8	1764	0	1	1
56183	1	1	1	0	0	8	1764	0	1	1
56237	1	1	1	0	0	8	1764	0	1	1
56238	1	1	1	0	0	8	1764	0	1	1
56292	1	1	1	0	0	2	573	0	1	1
56293	1	1	1	0	0	2	573	0	1	1
56294	1	1	1	0	0	2	573	0	1	1
56295	1	1	1	0	0	2	573	0	1	1
56347	1	1	1	0	0	2	573	0	1	1
56348	1	1	1	0	0	2	573	0	1	1
56349	1	1	1	0	0	2	573	0	1	1
56350	1	1	1	0	0	2	573	0	1	1
56402	1	1	1	0	0	6	1287	0	1	1
56403	1	1	1	0	0	6	1287	0	1	1
56457	1	1	1	0	0	16	3822	0	1	1
56512	1	1	1	0	0	8	1764	0	1	1
56513	1	1	1	0	0	8	1764	0	1	1
56567	1	1	1	0	0	14	3182	0	1	1
56622	1	1	1	0	0	14	3182	0	1	1
56677	1	1	1	0	0	2	573	0	1	1
56678	1	1	1	0	0	2	573	0	1	1
56679	1	1	1	0	0	2	573	0	1	1
56680	1	1	1	0	0	2	573	0	1	1
56727	1	1	1	0	0	10	1980	0	1	1
56732	1	1	1	0	0	10	1980	0	1	1
56782	1	1	1	0	0	16	3822	0	1	1
56837	1	1	1	0	0	18	4107	0	1	1
56892	1	1	1	0	0	16	3822	0	1	1
56947	1	1	1	0	0	20	4904	0	1	1
57002	1	1	1	0	0	14	3182	0	1	1
57057	1	1	1	0	0	8	1764	0	1	1
57058	1	1	1	0	0	8	1764	0	1	1
57127	1	1	1	0	0	12	2481	0	1	1
57182	1	1	1	0	0	10	1980	0	1	1
57237	1	1	1	0	0	18	4107	0	1	1
57292	1	1	1	0	0	6	1287	0	1	1
57293	1	1	1	0	0	6	1287	0	1	1
57367	1	1	1	0	0	14	3182	0	1	1
57422	1	1	1	0	0	26	7708	0	1	1
57477	1	1	1	0	0	10	1980	0	1	1
57478	1	1	1	0	0	10	1980	0	1	1
57532	1	1	1	0	0	14	3182	0	1	1
57587	1	1	1	0	0	14	3182	0	1	1
57642	1	1	1	0	0	14	3182	0	1	1
57697	1	1	1	0	0	8	1764	0	1	1
57698	1	1	1	0	0	8	1764	0	1	1
57752	1	1	1	0	0	0	349	0	1	1
57753	1	1	1	0	0	0	349	0	1	1
57754	1	1	1	0	0	0	349	0	1	1
57755	1	1	1	0	0	0	349	0	1	1
57756	1	1	1	0	0	0	349	0	1	1
57757	1	1	1	0	0	0	349	0	1	1
57807	1	1	1	0	0	18	4107	0	1	1
57862	1	1	1	0	0	18	4107	0	1	1
57917	1	1	1	0	0	18	4107	0	1	1
57972	1	1	1	0	0	18	4107	0	1	1
58027	1	1	1	0	0	14	3182	0	1	1
58082	1	1	1	0	0	14	3182	0	1	1
58137	1	1	1	0	0	10	1980	0	1	1
58138	1	1	1	0	0	10	1980	0	1	1
58192	1	1	1	0	0	16	3822	0	1	1
58247	1	1	1	0	0	28	9422	0	1	1
58302	1	1	1	0	0	18	4107	0	1	1
58357	1	1	1	0	0	24	6882	0	1	1
58412	1	1	1	0	0	22	5861	0	1	1
58467	1	1	1	0	0	12	2481	0	1	1
58468	1	1	1	0	0	12	2481	0	1	1
58469	1	1	1	0	0	12	2481	0	1	1
58522	1	1	1	0	0	12	2481	0	1	1
58577	1	1	1	0	0	16	3822	0	1	1
58632	1	1	1	0	0	0	349	0	1	1
58633	1	1	1	0	0	0	349	0	1	1
58634	1	1	1	0	0	0	349	0	1	1
58635	1	1	1	0	0	0	349	0	1	1
58636	1	1	1	0	0	0	349	0	1	1
58637	1	1	1	0	0	0	349	0	1	1
58638	1	1	1	0	0	0	349	0	1	1
58687	1	1	1	0	0	8	1764	0	1	1
58688	1	1	1	0	0	8	1764	0	1	1
58742	1	1	1	0	0	18	4107	0	1	1
58797	1	1	1	0	0	16	3822	0	1	1
58798	1	1	1	0	0	16	3822	0	1	1
58847	1	1	1	0	0	0	349	0	1	1
58852	1	1	1	0	0	0	349	0	1	1
58853	1	1	1	0	0	0	349	0	1	1
58854	1	1	1	0	0	2	573	0	1	1
58855	1	1	1	0	0	2	573	0	1	1
58856	1	1	1	0	0	2	573	0	1	1
58902	1	1	1	0	0	8	1764	0	1	1
58903	1	1	1	0	0	8	1764	0	1	1
58907	1	1	1	0	0	8	1764	0	1	1
58957	1	1	1	0	0	2	573	0	1	1
58958	1	1	1	0	0	2	573	0	1	1
58959	1	1	1	0	0	2	573	0	1	1
58960	1	1	1	0	0	2	573	0	1	1
58961	1	1	1	0	0	2	573	0	1	1
59012	1	1	1	0	0	22	5861	0	1	1
59067	1	1	1	0	0	6	1287	0	1	1
59068	1	1	1	0	0	6	1287	0	1	1
59122	1	1	1	0	0	16	3822	0	1	1
59177	1	1	1	0	0	22	5861	0	1	1
59178	1	1	1	0	0	22	5861	0	1	1
59179	1	1	1	0	0	22	5861	0	1	1
59180	1	1	1	0	0	22	5861	0	1	1
59232	1	1	1	0	0	24	6882	0	1	1
59233	1	1	1	0	0	24	6882	0	1	1
59287	1	1	1	0	0	4	903	0	1	1
59288	1	1	1	0	0	4	903	0	1	1
59289	1	1	1	0	0	4	903	0	1	1
59290	1	1	1	0	0	4	903	0	1	1
59291	1	1	1	0	0	4	903	0	1	1
59292	1	1	1	0	0	4	903	0	1	1
59293	1	1	1	0	0	4	903	0	1	1
59294	1	1	1	0	0	4	903	0	1	1
59295	1	1	1	0	0	4	903	0	1	1
59367	1	1	1	0	0	6	1287	0	1	1
59368	1	1	1	0	0	6	1287	0	1	1
59447	1	1	1	0	0	0	349	0	1	1
59448	1	1	1	0	0	0	349	0	1	1
59449	1	1	1	0	0	0	349	0	1	1
59450	1	1	1	0	0	0	349	0	1	1
59451	1	1	1	0	0	0	349	0	1	1
59452	1	1	1	0	0	0	349	0	1	1
59453	1	1	1	0	0	0	349	0	1	1
59502	1	1	1	0	0	18	4107	0	1	1
59503	1	1	1	0	0	18	4107	0	1	1
59557	1	1	1	0	0	16	3822	0	1	1
59687	1	1	1	0	0	22	5861	0	1	1
59742	1	1	1	0	0	0	349	0	1	1
59743	1	1	1	0	0	0	349	0	1	1
59744	1	1	1	0	0	0	349	0	1	1
59745	1	1	1	0	0	0	349	0	1	1
59746	1	1	1	0	0	0	349	0	1	1
59747	1	1	1	0	0	0	349	0	1	1
59748	1	1	1	0	0	0	349	0	1	1
59749	1	1	1	0	0	8	1764	0	1	1
59750	1	1	1	0	0	4	903	0	1	1
59797	1	1	1	0	0	6	1287	0	1	1
59852	1	1	1	0	0	22	5861	0	1	1
59927	1	1	1	0	0	8	1764	0	1	1
59928	1	1	1	0	0	8	1764	0	1	1
60007	1	1	1	0	0	20	4904	0	1	1
60087	1	1	1	0	0	14	3182	0	1	1
60142	1	1	1	0	0	22	5861	0	1	1
60197	1	1	1	0	0	14	3182	0	1	1
60252	1	1	1	0	0	6	1287	0	1	1
60307	1	1	1	0	0	6	1287	0	1	1
60362	1	1	1	0	0	6	1287	0	1	1
60417	1	1	1	0	0	26	7708	0	1	1
60472	1	1	1	0	0	4	903	0	1	1
60473	1	1	1	0	0	4	903	0	1	1
60527	1	1	1	0	0	18	4107	0	1	1
60528	1	1	1	0	0	18	4107	0	1	1
60529	1	1	1	0	0	18	4107	0	1	1
60582	1	1	1	0	0	6	1287	0	1	1
60583	1	1	1	0	0	6	1287	0	1	1
60637	1	1	1	0	0	10	1980	0	1	1
60638	1	1	1	0	0	10	1980	0	1	1
60692	1	1	1	0	0	6	1287	0	1	1
60693	1	1	1	0	0	6	1287	0	1	1
60694	1	1	1	0	0	6	1287	0	1	1
60747	1	1	1	0	0	6	1287	0	1	1
60748	1	1	1	0	0	6	1287	0	1	1
60802	1	1	1	0	0	18	4107	0	1	1
60857	1	1	1	0	0	8	1764	0	1	1
60912	1	1	1	0	0	14	3182	0	1	1
60967	1	1	1	0	0	14	3182	0	1	1
61022	1	1	1	0	0	14	3182	0	1	1
61077	1	1	1	0	0	4	903	0	1	1
61078	1	1	1	0	0	4	903	0	1	1
61132	1	1	1	0	0	10	1980	0	1	1
61187	1	1	1	0	0	12	2481	0	1	1
61242	1	1	1	0	0	16	3822	0	1	1
61297	1	1	1	0	0	4	903	0	1	1
61298	1	1	1	0	0	4	903	0	1	1
61352	1	1	1	0	0	24	6882	0	1	1
61407	1	1	1	0	0	12	2481	0	1	1
61462	1	1	1	0	0	14	3182	0	1	1
61527	1	1	1	0	0	12	2481	0	1	1
61582	1	1	1	0	0	14	3182	0	1	1
61637	1	1	1	0	0	2	573	0	1	1
61638	1	1	1	0	0	2	573	0	1	1
61639	1	1	1	0	0	2	573	0	1	1
61727	1	1	1	0	0	22	5861	0	1	1
61782	1	1	1	0	0	6	1287	0	1	1
61783	1	1	1	0	0	6	1287	0	1	1
61837	1	1	1	0	0	2	573	0	1	1
61838	1	1	1	0	0	2	573	0	1	1
61839	1	1	1	0	0	2	573	0	1	1
61892	1	1	1	0	0	22	5861	0	1	1
61947	1	1	1	0	0	4	903	0	1	1
61948	1	1	1	0	0	4	903	0	1	1
62002	1	1	1	0	0	8	1764	0	1	1
62057	1	1	1	0	0	2	573	0	1	1
62058	1	1	1	0	0	2	573	0	1	1
62059	1	1	1	0	0	2	573	0	1	1
62112	1	1	1	0	0	14	3182	0	1	1
62167	1	1	1	0	0	22	5861	0	1	1
62222	1	1	1	0	0	6	1287	0	1	1
62223	1	1	1	0	0	6	1287	0	1	1
62277	1	1	1	0	0	18	4107	0	1	1
62332	1	1	1	0	0	6	1287	0	1	1
62333	1	1	1	0	0	6	1287	0	1	1
62334	1	1	1	0	0	6	1287	0	1	1
62335	1	1	1	0	0	6	1287	0	1	1
62336	1	1	1	0	0	6	1287	0	1	1
62337	1	1	1	0	0	6	1287	0	1	1
62387	1	1	1	0	0	10	1980	0	1	1
62442	1	1	1	0	0	12	2481	0	1	1
62497	1	1	1	0	0	8	1764	0	1	1
62552	1	1	1	0	0	22	5861	0	1	1
62607	1	1	1	0	0	20	4904	0	1	1
62662	1	1	1	0	0	24	6882	0	1	1
62717	1	1	1	0	0	4	903	0	1	1
62718	1	1	1	0	0	4	903	0	1	1
62772	1	1	1	0	0	6	1287	0	1	1
62773	1	1	1	0	0	6	1287	0	1	1
62827	1	1	1	0	0	0	349	0	1	1
62828	1	1	1	0	0	0	349	0	1	1
62829	1	1	1	0	0	0	349	0	1	1
62830	1	1	1	0	0	0	349	0	1	1
62831	1	1	1	0	0	0	349	0	1	1
62882	1	1	1	0	0	2	573	0	1	1
62883	1	1	1	0	0	2	573	0	1	1
62884	1	1	1	0	0	2	573	0	1	1
62937	1	1	1	0	0	12	2481	0	1	1
62992	1	1	1	0	0	24	6882	0	1	1
63047	1	1	1	0	0	16	3822	0	1	1
63102	1	1	1	0	0	18	4107	0	1	1
63157	1	1	1	0	0	2	573	0	1	1
63158	1	1	1	0	0	2	573	0	1	1
63159	1	1	1	0	0	2	573	0	1	1
63160	1	1	1	0	0	2	573	0	1	1
63287	1	1	1	0	0	24	6882	0	1	1
63342	1	1	1	0	0	20	4904	0	1	1
63407	1	1	1	0	0	14	3182	0	1	1
63462	1	1	1	0	0	18	4107	0	1	1
63517	1	1	1	0	0	14	3182	0	1	1
63572	1	1	1	0	0	20	4904	0	1	1
63627	1	1	1	0	0	28	9422	0	1	0
63827	1	1	1	0	0	20	4904	0	1	1
63982	1	1	1	0	0	4	903	0	1	1
64037	1	1	1	0	0	10	1980	0	1	1
64092	1	1	1	0	0	24	6882	0	1	1
64147	1	1	1	0	0	26	7708	0	1	1
64202	1	1	1	0	0	4	903	0	1	1
64257	1	1	1	0	0	24	6882	0	1	1
64312	1	1	1	0	0	18	4107	0	1	1
64367	1	1	1	0	0	18	4107	0	1	1
64422	1	1	1	0	0	24	6882	0	1	1
64477	1	1	1	0	0	16	3822	0	1	1
64532	1	1	1	0	0	18	4107	0	1	1
64587	1	1	1	0	0	6	1287	0	1	1
64642	1	1	1	0	0	6	1287	0	1	1
64727	1	1	1	0	0	4	903	0	1	1
64728	1	1	1	0	0	4	903	0	1	1
64782	1	1	1	0	0	4	903	0	1	1
64783	1	1	1	0	0	4	903	0	1	1
64837	1	1	1	0	0	8	1764	0	1	1
64892	1	1	1	0	0	6	1287	0	1	1
64947	1	1	1	0	0	14	3182	0	1	1
65002	1	1	1	0	0	14	3182	0	1	1
65057	1	1	1	0	0	24	6882	0	1	1
65112	1	1	1	0	0	20	4904	0	1	1
65167	1	1	1	0	0	8	1764	0	1	1
65222	1	1	1	0	0	12	2481	0	1	1
65287	1	1	1	0	0	4	903	0	1	1
65288	1	1	1	0	0	4	903	0	1	1
65342	1	1	1	0	0	4	903	0	1	1
65343	1	1	1	0	0	4	903	0	1	1
65397	1	1	1	0	0	8	1764	0	1	1
65452	1	1	1	0	0	6	1287	0	1	1
65507	1	1	1	0	0	12	2481	0	1	1
65562	1	1	1	0	0	0	349	0	1	1
65563	1	1	1	0	0	0	349	0	1	1
65564	1	1	1	0	0	0	349	0	1	1
65565	1	1	1	0	0	0	349	0	1	1
65617	1	1	1	0	0	2	573	0	1	1
65618	1	1	1	0	0	2	573	0	1	1
65687	1	1	1	0	0	24	6882	0	1	1
65742	1	1	1	0	0	20	4904	0	1	1
65797	1	1	1	0	0	0	349	0	1	1
65798	1	1	1	0	0	0	349	0	1	1
65799	1	1	1	0	0	0	349	0	1	1
65800	1	1	1	0	0	0	349	0	1	1
65852	1	1	1	0	0	18	4107	0	1	1
65907	1	1	1	0	0	14	3182	0	1	1
65962	1	1	1	0	0	4	903	0	1	1
65963	1	1	1	0	0	4	903	0	1	1
66047	1	1	1	0	0	10	1980	0	1	1
66102	1	1	1	0	0	10	1980	0	1	1
66157	1	1	1	0	0	4	903	0	1	1
66158	1	1	1	0	0	4	903	0	1	1
66212	1	1	1	0	0	0	349	0	1	1
66213	1	1	1	0	0	0	349	0	1	1
66214	1	1	1	0	0	0	349	0	1	1
66215	1	1	1	0	0	0	349	0	1	1
66267	1	1	1	0	0	8	1764	0	1	1
66322	1	1	1	0	0	6	1287	0	1	1
66377	1	1	1	0	0	6	1287	0	1	1
66432	1	1	1	0	0	10	1980	0	1	1
66487	1	1	1	0	0	14	3182	0	1	1
66542	1	1	1	0	0	12	2481	0	1	1
66597	1	1	1	0	0	22	5861	0	1	1
66652	1	1	1	0	0	14	3182	0	1	1
66707	1	1	1	0	0	6	1287	0	1	1
66708	1	1	1	0	0	6	1287	0	1	1
66762	1	1	1	0	0	14	3182	0	1	1
66817	1	1	1	0	0	24	6882	0	1	1
66872	1	1	1	0	0	18	4107	0	1	1
66927	1	1	1	0	0	18	4107	0	1	1
66982	1	1	1	0	0	0	349	0	1	1
66983	1	1	1	0	0	0	349	0	1	1
66984	1	1	1	0	0	0	349	0	1	1
66985	1	1	1	0	0	0	349	0	1	1
67037	1	1	1	0	0	16	3822	0	1	1
67092	1	1	1	0	0	2	573	0	1	1
67093	1	1	1	0	0	2	573	0	1	1
67094	1	1	1	0	0	2	573	0	1	1
67147	1	1	1	0	0	6	1287	0	1	1
67148	1	1	1	0	0	6	1287	0	1	1
67202	1	1	1	0	0	6	1287	0	1	1
67203	1	1	1	0	0	6	1287	0	1	1
67257	1	1	1	0	0	4	903	0	1	1
67258	1	1	1	0	0	4	903	0	1	1
67327	1	1	1	0	0	10	1980	0	1	1
67382	1	1	1	0	0	18	4107	0	1	1
67437	1	1	1	0	0	10	1980	0	1	1
67492	1	1	1	0	0	16	3822	0	1	1
67547	1	1	1	0	0	10	1980	0	1	1
67602	1	1	1	0	0	20	4904	0	1	1
67657	1	1	1	0	0	18	4107	0	1	1
67712	1	1	1	0	0	20	4904	0	1	1
67767	1	1	1	0	0	8	1764	0	1	1
67822	1	1	1	0	0	4	903	0	1	1
67823	1	1	1	0	0	4	903	0	1	1
67927	1	1	1	0	0	0	349	0	1	1
67928	1	1	1	0	0	0	349	0	1	1
67929	1	1	1	0	0	0	349	0	1	1
67930	1	1	1	0	0	0	349	0	1	1
67931	1	1	1	0	0	0	349	0	1	1
67982	1	1	1	0	0	0	349	0	1	1
67983	1	1	1	0	0	0	349	0	1	1
67984	1	1	1	0	0	0	349	0	1	1
67985	1	1	1	0	0	0	349	0	1	1
67986	1	1	1	0	0	0	349	0	1	1
68037	1	1	1	0	0	6	1287	0	1	1
68038	1	1	1	0	0	6	1287	0	1	1
68092	1	1	1	0	0	14	3182	0	1	1
68147	1	1	1	0	0	0	349	0	1	1
68148	1	1	1	0	0	0	349	0	1	1
68149	1	1	1	0	0	0	349	0	1	1
68150	1	1	1	0	0	0	349	0	1	1
68151	1	1	1	0	0	0	349	0	1	1
68202	1	1	1	0	0	6	1287	0	1	1
68203	1	1	1	0	0	6	1287	0	1	1
68257	1	1	1	0	0	10	1980	0	1	1
68312	1	1	1	0	0	4	903	0	1	1
68313	1	1	1	0	0	4	903	0	1	1
68367	1	1	1	0	0	14	3182	0	1	1
68487	1	1	1	0	0	18	4107	0	1	1
68542	1	1	1	0	0	0	349	0	1	1
68543	1	1	1	0	0	0	349	0	1	1
68544	1	1	1	0	0	0	349	0	1	1
68545	1	1	1	0	0	0	349	0	1	1
68546	1	1	1	0	0	0	349	0	1	1
68597	1	1	1	0	0	16	3822	0	1	1
68652	1	1	1	0	0	18	4107	0	1	1
68707	1	1	1	0	0	6	1287	0	1	1
68708	1	1	1	0	0	6	1287	0	1	1
68762	1	1	1	0	0	4	903	0	1	1
68763	1	1	1	0	0	4	903	0	1	1
68847	1	1	1	0	0	8	1764	0	1	1
68902	1	1	1	0	0	8	1764	0	1	1
68957	1	1	1	0	0	8	1764	0	1	1
69012	1	1	1	0	0	2	573	0	1	1
69013	1	1	1	0	0	2	573	0	1	1
69014	1	1	1	0	0	2	573	0	1	1
69067	1	1	1	0	0	6	1287	0	1	1
69068	1	1	1	0	0	6	1287	0	1	1
69122	1	1	1	0	0	22	5861	0	1	1
69177	1	1	1	0	0	20	4904	0	1	1
69232	1	1	1	0	0	24	6882	0	1	1
69287	1	1	1	0	0	22	5861	0	1	1
69342	1	1	1	0	0	4	903	0	1	1
69343	1	1	1	0	0	4	903	0	1	1
69397	1	1	1	0	0	2	573	0	1	1
69398	1	1	1	0	0	2	573	0	1	1
69399	1	1	1	0	0	2	573	0	1	1
69400	1	1	1	0	0	2	573	0	1	1
69452	1	1	1	0	0	8	1764	0	1	1
69453	1	1	1	0	0	8	1764	0	1	1
69507	1	1	1	0	0	12	2481	0	1	1
69562	1	1	1	0	0	8	1764	0	1	1
69563	1	1	1	0	0	8	1764	0	1	1
69617	1	1	1	0	0	20	4904	0	1	1
69672	1	1	1	0	0	16	3822	0	1	1
69727	1	1	1	0	0	18	4107	0	1	1
69782	1	1	1	0	0	22	5861	0	1	1
69837	1	1	1	0	0	22	5861	0	1	1
69927	1	1	1	0	0	12	2481	0	1	1
69982	1	1	1	0	0	16	3822	0	1	1
70037	1	1	1	0	0	22	5861	0	1	1
70092	1	1	1	0	0	18	4107	0	1	1
70147	1	1	1	0	0	26	7708	0	1	1
70202	1	1	1	0	0	2	573	0	1	1
70203	1	1	1	0	0	2	573	0	1	1
70204	1	1	1	0	0	2	573	0	1	1
70205	1	1	1	0	0	2	573	0	1	1
70257	1	1	1	0	0	14	3182	0	1	1
70312	1	1	1	0	0	14	3182	0	1	1
70367	1	1	1	0	0	6	1287	0	1	1
70368	1	1	1	0	0	6	1287	0	1	1
70422	1	1	1	0	0	10	1980	0	1	1
70477	1	1	1	0	0	2	573	0	1	1
70478	1	1	1	0	0	2	573	0	1	1
70479	1	1	1	0	0	2	573	0	1	1
70480	1	1	1	0	0	2	573	0	1	1
70532	1	1	1	0	0	4	903	0	1	1
70533	1	1	1	0	0	4	903	0	1	1
70534	1	1	1	0	0	4	903	0	1	1
70587	1	1	1	0	0	22	5861	0	1	1
70642	1	1	1	0	0	26	7708	0	1	1
70727	1	1	1	0	0	20	4904	0	1	1
70782	1	1	1	0	0	24	6882	0	1	1
70783	1	1	1	0	0	24	6882	0	1	1
70837	1	1	1	0	0	12	2481	0	1	1
70838	1	1	1	0	0	12	2481	0	1	1
70839	1	1	1	0	0	12	2481	0	1	1
70892	1	1	1	0	0	20	4904	0	1	1
70947	1	1	1	0	0	8	1764	0	1	1
70948	1	1	1	0	0	8	1764	0	1	1
71002	1	1	1	0	0	4	903	0	1	1
71003	1	1	1	0	0	4	903	0	1	1
71004	1	1	1	0	0	4	903	0	1	1
71057	1	1	1	0	0	14	3182	0	1	1
71112	1	1	1	0	0	14	3182	0	1	1
71207	1	1	1	0	0	16	3822	0	1	1
71262	1	1	1	0	0	4	903	0	1	1
71263	1	1	1	0	0	4	903	0	1	1
71264	1	1	1	0	0	4	903	0	1	1
71317	1	1	1	0	0	8	1764	0	1	1
71318	1	1	1	0	0	8	1764	0	1	1
71372	1	1	1	0	0	20	4904	0	1	1
71427	1	1	1	0	0	18	4107	0	1	1
71482	1	1	1	0	0	14	3182	0	1	1
71483	1	1	1	0	0	14	3182	0	1	1
71567	1	1	1	0	0	18	4107	0	1	1
71622	1	1	1	0	0	26	7708	0	1	1
71677	1	1	1	0	0	4	903	0	1	1
71678	1	1	1	0	0	4	903	0	1	1
71679	1	1	1	0	0	4	903	0	1	1
71767	1	1	1	0	0	12	2481	0	1	1
71847	1	1	1	0	0	2	573	0	1	1
71848	1	1	1	0	0	2	573	0	1	1
71849	1	1	1	0	0	2	573	0	1	1
71850	1	1	1	0	0	2	573	0	1	1
71902	1	1	1	0	0	8	1764	0	1	1
71903	1	1	1	0	0	8	1764	0	1	1
71957	1	1	1	0	0	0	349	0	1	1
71958	1	1	1	0	0	0	349	0	1	1
71959	1	1	1	0	0	0	349	0	1	1
71960	1	1	1	0	0	0	349	0	1	1
71961	1	1	1	0	0	0	349	0	1	1
71962	1	1	1	0	0	0	349	0	1	1
71963	1	1	1	0	0	0	349	0	1	1
72007	1	1	1	0	0	20	4904	0	1	1
72012	1	1	1	0	0	20	4904	0	1	1
72062	1	1	1	0	0	20	4904	0	1	1
72063	1	1	1	0	0	20	4904	0	1	1
72117	1	1	1	0	0	18	4107	0	1	1
72172	1	1	1	0	0	12	2481	0	1	1
72227	1	1	1	0	0	16	3822	0	1	1
72282	1	1	1	0	0	4	903	0	1	1
72283	1	1	1	0	0	4	903	0	1	1
72284	1	1	1	0	0	4	903	0	1	1
72367	1	1	1	0	0	22	5861	0	1	1
72422	1	1	1	0	0	0	349	0	1	1
72423	1	1	1	0	0	0	349	0	1	1
72424	1	1	1	0	0	0	349	0	1	1
72425	1	1	1	0	0	0	349	0	1	1
72426	1	1	1	0	0	0	349	0	1	1
72427	1	1	1	0	0	0	349	0	1	1
72428	1	1	1	0	0	0	349	0	1	1
72477	1	1	1	0	0	6	1287	0	1	1
72478	1	1	1	0	0	6	1287	0	1	1
72532	1	1	1	0	0	18	4107	0	1	1
72587	1	1	1	0	0	6	1287	0	1	1
72588	1	1	1	0	0	6	1287	0	1	1
72647	1	1	1	0	0	2	573	0	1	1
72648	1	1	1	0	0	2	573	0	1	1
72649	1	1	1	0	0	2	573	0	1	1
72650	1	1	1	0	0	2	573	0	1	1
72651	1	1	1	0	0	2	573	0	1	1
72702	1	1	1	0	0	24	6882	0	1	1
72757	1	1	1	0	0	20	4904	0	1	1
72812	1	1	1	0	0	8	1764	0	1	1
72813	1	1	1	0	0	8	1764	0	1	1
72867	1	1	1	0	0	12	2481	0	1	1
72927	1	1	1	0	0	4	903	0	1	1
72928	1	1	1	0	0	4	903	0	1	1
72929	1	1	1	0	0	4	903	0	1	1
72982	1	1	1	0	0	4	903	0	1	1
72983	1	1	1	0	0	4	903	0	1	1
72984	1	1	1	0	0	4	903	0	1	1
73037	1	1	1	0	0	14	3182	0	1	1
73038	1	1	1	0	0	14	3182	0	1	1
73039	1	1	1	0	0	14	3182	0	1	1
73092	1	1	1	0	0	20	4904	0	1	1
73147	1	1	1	0	0	24	6882	0	1	1
73202	1	1	1	0	0	8	1764	0	1	1
73203	1	1	1	0	0	8	1764	0	1	1
73204	1	1	1	0	0	8	1764	0	1	1
73257	1	1	1	0	0	12	2481	0	1	1
73312	1	1	1	0	0	4	903	0	1	1
73313	1	1	1	0	0	4	903	0	1	1
73407	1	1	1	0	0	10	1980	0	1	1
73462	1	1	1	0	0	14	3182	0	1	1
73517	1	1	1	0	0	18	4107	0	1	1
73572	1	1	1	0	0	6	1287	0	1	1
73627	1	1	1	0	0	14	3182	0	1	1
73682	1	1	1	0	0	18	4107	0	1	1
73737	1	1	1	0	0	14	3182	0	1	1
73792	1	1	1	0	0	14	3182	0	1	1
73847	1	1	1	0	0	20	4904	0	1	1
73902	1	1	1	0	0	8	1764	0	1	1
73967	1	1	1	0	0	12	2481	0	1	1
74022	1	1	1	0	0	20	4904	0	1	1
74077	1	1	1	0	0	6	1287	0	1	1
74078	1	1	1	0	0	6	1287	0	1	1
74132	1	1	1	0	0	20	4904	0	1	1
74187	1	1	1	0	0	2	573	0	1	1
74188	1	1	1	0	0	2	573	0	1	1
74189	1	1	1	0	0	2	573	0	1	1
74242	1	1	1	0	0	6	1287	0	1	1
74243	1	1	1	0	0	6	1287	0	1	1
74297	1	1	1	0	0	14	3182	0	1	1
74352	1	1	1	0	0	8	1764	0	1	1
74407	1	1	1	0	0	4	903	0	1	1
74408	1	1	1	0	0	4	903	0	1	1
74462	1	1	1	0	0	20	4904	0	1	1
74517	1	1	1	0	0	10	1980	0	1	1
74572	1	1	1	0	0	8	1764	0	1	1
74627	1	1	1	0	0	2	573	0	1	1
74628	1	1	1	0	0	2	573	0	1	1
74629	1	1	1	0	0	2	573	0	1	1
74682	1	1	1	0	0	6	1287	0	1	1
74683	1	1	1	0	0	6	1287	0	1	1
74737	1	1	1	0	0	2	573	0	1	1
74738	1	1	1	0	0	2	573	0	1	1
74739	1	1	1	0	0	2	573	0	1	1
74792	1	1	1	0	0	8	1764	0	1	1
74927	1	1	1	0	0	0	349	0	1	1
74928	1	1	1	0	0	0	349	0	1	1
74929	1	1	1	0	0	0	349	0	1	1
74930	1	1	1	0	0	0	349	0	1	1
74931	1	1	1	0	0	0	349	0	1	1
74982	1	1	1	0	0	6	1287	0	1	1
74983	1	1	1	0	0	6	1287	0	1	1
75047	1	1	1	0	0	16	3822	0	1	1
75102	1	1	1	0	0	2	573	0	1	1
75103	1	1	1	0	0	2	573	0	1	1
75104	1	1	1	0	0	2	573	0	1	1
75157	1	1	1	0	0	0	349	0	1	1
75158	1	1	1	0	0	0	349	0	1	1
75159	1	1	1	0	0	0	349	0	1	1
75160	1	1	1	0	0	0	349	0	1	1
75161	1	1	1	0	0	0	349	0	1	1
75247	1	1	1	0	0	8	1764	0	1	1
75302	1	1	1	0	0	24	6882	0	1	1
75357	1	1	1	0	0	16	3822	0	1	1
75412	1	1	1	0	0	28	9422	0	1	1
75467	1	1	1	0	0	12	2481	0	1	1
75522	1	1	1	0	0	10	1980	0	1	1
75577	1	1	1	0	0	4	903	0	1	1
75578	1	1	1	0	0	4	903	0	1	1
75632	1	1	1	0	0	2	573	0	1	1
75633	1	1	1	0	0	2	573	0	1	1
75634	1	1	1	0	0	2	573	0	1	1
75687	1	1	1	0	0	14	3182	0	1	1
75807	1	1	1	0	0	20	4904	0	1	1
75862	1	1	1	0	0	6	1287	0	1	1
75863	1	1	1	0	0	6	1287	0	1	1
75917	1	1	1	0	0	0	349	0	1	1
75918	1	1	1	0	0	0	349	0	1	1
75919	1	1	1	0	0	0	349	0	1	1
75920	1	1	1	0	0	0	349	0	1	1
75921	1	1	1	0	0	0	349	0	1	1
75972	1	1	1	0	0	20	4904	0	1	1
76027	1	1	1	0	0	2	573	0	1	1
76028	1	1	1	0	0	2	573	0	1	1
76029	1	1	1	0	0	2	573	0	1	1
76082	1	1	1	0	0	4	903	0	1	1
76083	1	1	1	0	0	4	903	0	1	1
76137	1	1	1	0	0	18	4107	0	1	1
76192	1	1	1	0	0	16	3822	0	1	1
76247	1	1	1	0	0	2	573	0	1	1
76248	1	1	1	0	0	2	573	0	1	1
76249	1	1	1	0	0	2	573	0	1	1
76302	1	1	1	0	0	6	1287	0	1	1
76303	1	1	1	0	0	6	1287	0	1	1
76357	1	1	1	0	0	4	903	0	1	1
76358	1	1	1	0	0	4	903	0	1	1
76412	1	1	1	0	0	20	4904	0	1	1
76467	1	1	1	0	0	0	349	0	1	1
76468	1	1	1	0	0	0	349	0	1	1
76469	1	1	1	0	0	0	349	0	1	1
76470	1	1	1	0	0	0	349	0	1	1
76471	1	1	1	0	0	0	349	0	1	1
76522	1	1	1	0	0	18	4107	0	1	1
76647	1	1	1	0	0	6	1287	0	1	1
76648	1	1	1	0	0	6	1287	0	1	1
76702	1	1	1	0	0	16	3822	0	1	1
76757	1	1	1	0	0	18	4107	0	1	1
76812	1	1	1	0	0	18	4107	0	1	1
76867	1	1	1	0	0	20	4904	0	1	1
76922	1	1	1	0	0	6	1287	0	1	1
76923	1	1	1	0	0	6	1287	0	1	1
76977	1	1	1	0	0	12	2481	0	1	1
77047	1	1	1	0	0	24	6882	0	1	1
77102	1	1	1	0	0	18	4107	0	1	1
77157	1	1	1	0	0	14	3182	0	1	1
77212	1	1	1	0	0	16	3822	0	1	1
77267	1	1	1	0	0	18	4107	0	1	1
77322	1	1	1	0	0	24	6882	0	1	1
77377	1	1	1	0	0	2	573	0	1	1
77378	1	1	1	0	0	2	573	0	1	1
77379	1	1	1	0	0	2	573	0	1	1
77380	1	1	1	0	0	2	573	0	1	1
77432	1	1	1	0	0	20	4904	0	1	1
77487	1	1	1	0	0	24	6882	0	1	1
77542	1	1	1	0	0	14	3182	0	1	1
77597	1	1	1	0	0	18	4107	0	1	1
77652	1	1	1	0	0	12	2481	0	1	1
77707	1	1	1	0	0	2	573	0	1	1
77708	1	1	1	0	0	2	573	0	1	1
77709	1	1	1	0	0	2	573	0	1	1
77710	1	1	1	0	0	2	573	0	1	1
77762	1	1	1	0	0	20	4904	0	1	1
77817	1	1	1	0	0	12	2481	0	1	1
77872	1	1	1	0	0	20	4904	0	1	1
77927	1	1	1	0	0	4	903	0	1	1
77928	1	1	1	0	0	4	903	0	1	1
77929	1	1	1	0	0	4	903	0	1	1
77982	1	1	1	0	0	12	2481	0	1	1
78037	1	1	1	0	0	4	903	0	1	1
78038	1	1	1	0	0	4	903	0	1	1
78039	1	1	1	0	0	4	903	0	1	1
78092	1	1	1	0	0	10	1980	0	1	1
78093	1	1	1	0	0	10	1980	0	1	1
78147	1	1	1	0	0	14	3182	0	1	1
78202	1	1	1	0	0	12	2481	0	1	1
78257	1	1	1	0	0	22	5861	0	1	1
78312	1	1	1	0	0	4	903	0	1	1
78313	1	1	1	0	0	4	903	0	1	1
78314	1	1	1	0	0	4	903	0	1	1
78367	1	1	1	0	0	12	2481	0	1	1
78422	1	1	1	0	0	4	903	0	1	1
78423	1	1	1	0	0	4	903	0	1	1
78424	1	1	1	0	0	4	903	0	1	1
78477	1	1	1	0	0	8	1764	0	1	1
78478	1	1	1	0	0	8	1764	0	1	1
78532	1	1	1	0	0	22	5861	0	1	1
78587	1	1	1	0	0	28	9422	0	1	1
78642	1	1	1	0	0	16	3822	0	1	1
78697	1	1	1	0	0	18	4107	0	1	1
78752	1	1	1	0	0	4	903	0	1	1
78753	1	1	1	0	0	4	903	0	1	1
78754	1	1	1	0	0	4	903	0	1	1
78807	1	1	1	0	0	0	349	0	1	1
78808	1	1	1	0	0	0	349	0	1	1
78809	1	1	1	0	0	0	349	0	1	1
78810	1	1	1	0	0	0	349	0	1	1
78811	1	1	1	0	0	0	349	0	1	1
78812	1	1	1	0	0	0	349	0	1	1
78862	1	1	1	0	0	24	6882	0	1	1
78917	1	1	1	0	0	16	3822	0	1	1
78972	1	1	1	0	0	20	4904	0	1	1
79027	1	1	1	0	0	6	1287	0	1	1
79028	1	1	1	0	0	6	1287	0	1	1
79082	1	1	1	0	0	12	2481	0	1	1
79083	1	1	1	0	0	12	2481	0	1	1
79084	1	1	1	0	0	12	2481	0	1	1
79085	1	1	1	0	0	12	2481	0	1	1
79086	1	1	1	0	0	12	2481	0	1	1
79137	1	1	1	0	0	16	3822	0	1	1
79207	1	1	1	0	0	22	5861	0	1	1
79262	1	1	1	0	0	22	5861	0	1	1
79317	1	1	1	0	0	22	5861	0	1	1
79372	1	1	1	0	0	18	4107	0	1	1
79427	1	1	1	0	0	16	3822	0	1	1
79482	1	1	1	0	0	22	5861	0	1	1
79537	1	1	1	0	0	14	3182	0	1	1
79592	1	1	1	0	0	12	2481	0	1	1
79647	1	1	1	0	0	22	5861	0	1	1
79648	1	1	1	0	0	22	5861	0	1	1
79702	1	1	1	0	0	4	903	0	1	1
79703	1	1	1	0	0	4	903	0	1	1
79704	1	1	1	0	0	4	903	0	1	1
79757	1	1	1	0	0	6	1287	0	1	1
79758	1	1	1	0	0	6	1287	0	1	1
79812	1	1	1	0	0	6	1287	0	1	1
79813	1	1	1	0	0	6	1287	0	1	1
79867	1	1	1	0	0	8	1764	0	1	1
79868	1	1	1	0	0	8	1764	0	1	1
79922	1	1	1	0	0	2	573	0	1	1
79923	1	1	1	0	0	2	573	0	1	1
79924	1	1	1	0	0	2	573	0	1	1
79925	1	1	1	0	0	2	573	0	1	1
79926	1	1	1	0	0	2	573	0	1	1
79977	1	1	1	0	0	16	3822	0	1	1
80032	1	1	1	0	0	10	1980	0	1	1
80033	1	1	1	0	0	10	1980	0	1	1
80087	1	1	1	0	0	2	573	0	1	1
80088	1	1	1	0	0	2	573	0	1	1
80089	1	1	1	0	0	2	573	0	1	1
80090	1	1	1	0	0	2	573	0	1	1
80091	1	1	1	0	0	2	573	0	1	1
80142	1	1	1	0	0	12	2481	0	1	1
80197	1	1	1	0	0	14	3182	0	1	1
80252	1	1	1	0	0	26	7708	0	1	1
80253	1	1	1	0	0	26	7708	0	1	1
80254	1	1	1	0	0	26	7708	0	1	1
80255	1	1	1	0	0	26	7708	0	1	1
80256	1	1	1	0	0	26	7708	0	1	1
80307	1	1	1	0	0	12	2481	0	1	1
80362	1	1	1	0	0	24	6882	0	1	1
80417	1	1	1	0	0	20	4904	0	1	1
80472	1	1	1	0	0	12	2481	0	1	1
80527	1	1	1	0	0	2	573	0	1	1
80528	1	1	1	0	0	2	573	0	1	1
80529	1	1	1	0	0	2	573	0	1	1
80582	1	1	1	0	0	14	3182	0	1	1
80637	1	1	1	0	0	12	2481	0	1	1
80692	1	1	1	0	0	2	573	0	1	1
80693	1	1	1	0	0	2	573	0	1	1
80694	1	1	1	0	0	2	573	0	1	1
80767	1	1	1	0	0	18	4107	0	1	1
80822	1	1	1	0	0	16	3822	0	1	1
80877	1	1	1	0	0	2	573	0	1	1
80878	1	1	1	0	0	2	573	0	1	1
80879	1	1	1	0	0	2	573	0	1	1
80932	1	1	1	0	0	18	4107	0	1	1
80987	1	1	1	0	0	4	903	0	1	1
80988	1	1	1	0	0	4	903	0	1	1
81042	1	1	1	0	0	6	1287	0	1	1
81043	1	1	1	0	0	6	1287	0	1	1
81097	1	1	1	0	0	26	7708	0	1	1
81152	1	1	1	0	0	22	5861	0	1	1
81207	1	1	1	0	0	18	4107	0	1	1
81262	1	1	1	0	0	2	573	0	1	1
81263	1	1	1	0	0	2	573	0	1	1
81264	1	1	1	0	0	2	573	0	1	1
81317	1	1	1	0	0	12	2481	0	1	1
81372	1	1	1	0	0	22	5861	0	1	1
81427	1	1	1	0	0	12	2481	0	1	1
81482	1	1	1	0	0	14	3182	0	1	1
81537	1	1	1	0	0	12	2481	0	1	1
81592	1	1	1	0	0	6	1287	0	1	1
81593	1	1	1	0	0	6	1287	0	1	1
81647	1	1	1	0	0	6	1287	0	1	1
81648	1	1	1	0	0	6	1287	0	1	1
81702	1	1	1	0	0	20	4904	0	1	1
81757	1	1	1	0	0	14	3182	0	1	1
81812	1	1	1	0	0	4	903	0	1	1
81813	1	1	1	0	0	4	903	0	1	1
81867	1	1	1	0	0	18	4107	0	1	1
81922	1	1	1	0	0	0	349	0	1	1
81923	1	1	1	0	0	0	349	0	1	1
81924	1	1	1	0	0	0	349	0	1	1
81925	1	1	1	0	0	0	349	0	1	1
81926	1	1	1	0	0	0	349	0	1	1
81977	1	1	1	0	0	18	4107	0	1	1
82032	1	1	1	0	0	0	349	0	1	1
82033	1	1	1	0	0	0	349	0	1	1
82034	1	1	1	0	0	0	349	0	1	1
82035	1	1	1	0	0	0	349	0	1	1
82036	1	1	1	0	0	0	349	0	1	1
82087	1	1	1	0	0	14	3182	0	1	1
82142	1	1	1	0	0	0	349	0	1	1
82143	1	1	1	0	0	0	349	0	1	1
82144	1	1	1	0	0	0	349	0	1	1
82145	1	1	1	0	0	0	349	0	1	1
82146	1	1	1	0	0	0	349	0	1	1
82197	1	1	1	0	0	0	349	0	1	1
82198	1	1	1	0	0	0	349	0	1	1
82199	1	1	1	0	0	0	349	0	1	1
82200	1	1	1	0	0	0	349	0	1	1
82201	1	1	1	0	0	0	349	0	1	1
82252	1	1	1	0	0	14	3182	0	1	1
82307	1	1	1	0	0	22	5861	0	1	1
82362	1	1	1	0	0	10	1980	0	1	1
82417	1	1	1	0	0	24	6882	0	1	1
82472	1	1	1	0	0	6	1287	0	1	1
82473	1	1	1	0	0	6	1287	0	1	1
82527	1	1	1	0	0	18	4107	0	1	1
82582	1	1	1	0	0	2	573	0	1	1
82583	1	1	1	0	0	2	573	0	1	1
82584	1	1	1	0	0	2	573	0	1	1
82637	1	1	1	0	0	24	6882	0	1	1
82692	1	1	1	0	0	8	1764	0	1	1
82747	1	1	1	0	0	18	4107	0	1	1
82802	1	1	1	0	0	12	2481	0	1	1
82857	1	1	1	0	0	2	573	0	1	1
82858	1	1	1	0	0	2	573	0	1	1
82859	1	1	1	0	0	2	573	0	1	1
82912	1	1	1	0	0	8	1764	0	1	1
82967	1	1	1	0	0	28	9422	0	1	1
83022	1	1	1	0	0	12	2481	0	1	1
83087	1	1	1	0	0	16	3822	0	1	1
83142	1	1	1	0	0	18	4107	0	1	1
83197	1	1	1	0	0	24	6882	0	1	1
83287	1	1	1	0	0	20	4904	0	1	1
83342	1	1	1	0	0	16	3822	0	1	1
83397	1	1	1	0	0	24	6882	0	1	1
83452	1	1	1	0	0	18	4107	0	1	1
83507	1	1	1	0	0	12	2481	0	1	1
83562	1	1	1	0	0	10	1980	0	1	1
83647	1	1	1	0	0	20	4904	0	1	1
83727	1	1	1	0	0	10	1980	0	1	1
83782	1	1	1	0	0	6	1287	0	1	1
83783	1	1	1	0	0	6	1287	0	1	1
83837	1	1	1	0	0	18	4107	0	1	1
83892	1	1	1	0	0	14	3182	0	1	1
83967	1	1	1	0	0	4	903	0	1	1
83968	1	1	1	0	0	4	903	0	1	1
84022	1	1	1	0	0	14	3182	0	1	1
84087	1	1	1	0	0	2	573	0	1	1
84088	1	1	1	0	0	2	573	0	1	1
84089	1	1	1	0	0	2	573	0	1	1
84090	1	1	1	0	0	2	573	0	1	1
84142	1	1	1	0	0	22	5861	0	1	1
84197	1	1	1	0	0	18	4107	0	1	1
84252	1	1	1	0	0	4	903	0	1	1
84253	1	1	1	0	0	4	903	0	1	1
84254	1	1	1	0	0	4	903	0	1	1
84307	1	1	1	0	0	12	2481	0	1	1
84362	1	1	1	0	0	12	2481	0	1	1
84410	1	1	1	0	0	0	349	0	1	1
84411	1	1	1	0	0	0	349	0	1	1
84412	1	1	1	0	0	0	349	0	1	1
84413	1	1	1	0	0	0	349	0	1	1
84417	1	1	1	0	0	0	349	0	1	1
84487	1	1	1	0	0	22	5861	0	1	1
84542	1	1	1	0	0	14	3182	0	1	1
84597	1	1	1	0	0	12	2481	0	1	1
84652	1	1	1	0	0	10	1980	0	1	1
84707	1	1	1	0	0	16	3822	0	1	1
84762	1	1	1	0	0	18	4107	0	1	1
84817	1	1	1	0	0	22	5861	0	1	1
84872	1	1	1	0	0	24	6882	0	1	1
84927	1	1	1	0	0	10	1980	0	1	1
85007	1	1	1	0	0	0	349	0	1	1
85008	1	1	1	0	0	0	349	0	1	1
85009	1	1	1	0	0	0	349	0	1	1
85010	1	1	1	0	0	0	349	0	1	1
85011	1	1	1	0	0	0	349	0	1	1
85012	1	1	1	0	0	0	349	0	1	1
85062	1	1	1	0	0	10	1980	0	1	1
85063	1	1	1	0	0	10	1980	0	1	1
85117	1	1	1	0	0	20	4904	0	1	1
85172	1	1	1	0	0	18	4107	0	1	1
85227	1	1	1	0	0	18	4107	0	1	1
85282	1	1	1	0	0	20	4904	0	1	1
85337	1	1	1	0	0	2	573	0	1	1
85338	1	1	1	0	0	2	573	0	1	1
85339	1	1	1	0	0	2	573	0	1	1
85340	1	1	1	0	0	2	573	0	1	1
85392	1	1	1	0	0	8	1764	0	1	1
85393	1	1	1	0	0	8	1764	0	1	1
85447	1	1	1	0	0	4	903	0	1	1
85448	1	1	1	0	0	4	903	0	1	1
85449	1	1	1	0	0	4	903	0	1	1
85502	1	1	1	0	0	6	1287	0	1	1
85503	1	1	1	0	0	6	1287	0	1	1
85557	1	1	1	0	0	14	3182	0	1	1
85612	1	1	1	0	0	24	6882	0	1	1
85613	1	1	1	0	0	24	6882	0	1	1
85614	1	1	1	0	0	24	6882	0	1	1
85667	1	1	1	0	0	18	4107	0	1	1
85722	1	1	1	0	0	6	1287	0	1	1
85723	1	1	1	0	0	6	1287	0	1	1
85777	1	1	1	0	0	2	573	0	1	1
85778	1	1	1	0	0	2	573	0	1	1
85779	1	1	1	0	0	2	573	0	1	1
85780	1	1	1	0	0	2	573	0	1	1
85832	1	1	1	0	0	20	4904	0	1	1
85887	1	1	1	0	0	22	5861	0	1	1
85942	1	1	1	0	0	16	3822	0	1	1
85997	1	1	1	0	0	12	2481	0	1	1
86052	1	1	1	0	0	8	1764	0	1	1
86053	1	1	1	0	0	8	1764	0	1	1
86107	1	1	1	0	0	14	3182	0	1	1
86162	1	1	1	0	0	14	3182	0	1	1
86163	1	1	1	0	0	14	3182	0	1	1
86164	1	1	1	0	0	14	3182	0	1	1
86165	1	1	1	0	0	14	3182	0	1	1
86217	1	1	1	0	0	0	349	0	1	1
86218	1	1	1	0	0	0	349	0	1	1
86219	1	1	1	0	0	0	349	0	1	1
86220	1	1	1	0	0	0	349	0	1	1
86221	1	1	1	0	0	0	349	0	1	1
86222	1	1	1	0	0	0	349	0	1	1
86223	1	1	1	0	0	0	349	0	1	1
86272	1	1	1	0	0	6	1287	0	1	1
86273	1	1	1	0	0	6	1287	0	1	1
86327	1	1	1	0	0	8	1764	0	1	1
86328	1	1	1	0	0	8	1764	0	1	1
86382	1	1	1	0	0	18	4107	0	1	1
86437	1	1	1	0	0	6	1287	0	1	1
86438	1	1	1	0	0	6	1287	0	1	1
86492	1	1	1	0	0	10	1980	0	1	1
86493	1	1	1	0	0	10	1980	0	1	1
86554	1	1	1	0	0	0	349	0	1	1
86555	1	1	1	0	0	0	349	0	1	1
86556	1	1	1	0	0	0	349	0	1	1
86557	1	1	1	0	0	0	349	0	1	1
86558	1	1	1	0	0	0	349	0	1	1
86559	1	1	1	0	0	0	349	0	1	1
86560	1	1	1	0	0	0	349	0	1	1
86609	1	1	1	0	0	4	903	0	1	1
86610	1	1	1	0	0	4	903	0	1	1
86611	1	1	1	0	0	4	903	0	1	1
86664	1	1	1	0	0	10	1980	0	1	1
86665	1	1	1	0	0	10	1980	0	1	1
86719	1	1	1	0	0	8	1764	0	1	1
86720	1	1	1	0	0	8	1764	0	1	1
86767	1	1	1	0	0	2	573	0	1	1
86774	1	1	1	0	0	0	349	0	1	1
86775	1	1	1	0	0	0	349	0	1	1
86776	1	1	1	0	0	0	349	0	1	1
86777	1	1	1	0	0	0	349	0	1	1
86778	1	1	1	0	0	0	349	0	1	1
86779	1	1	1	0	0	0	349	0	1	1
86822	1	1	1	0	0	18	4107	0	1	1
86823	1	1	1	0	0	18	4107	0	1	1
86829	1	1	1	0	0	24	6882	0	1	1
86877	1	1	1	0	0	24	6882	0	1	1
86878	1	1	1	0	0	24	6882	0	1	1
86879	1	1	1	0	0	24	6882	0	1	1
86884	1	1	1	0	0	6	1287	0	1	1
86932	1	1	1	0	0	18	4107	0	1	1
86933	1	1	1	0	0	18	4107	0	1	1
86987	1	1	1	0	0	10	1980	0	1	1
86988	1	1	1	0	0	10	1980	0	1	1
87042	1	1	1	0	0	20	4904	0	1	1
87043	1	1	1	0	0	20	4904	0	1	1
87044	1	1	1	0	0	20	4904	0	1	1
87045	1	1	1	0	0	20	4904	0	1	1
87046	1	1	1	0	0	20	4904	0	1	1
87047	1	1	1	0	0	2	573	0	1	1
87097	1	1	1	0	0	6	1287	0	1	1
87098	1	1	1	0	0	6	1287	0	1	1
87167	1	1	1	0	0	6	1287	0	1	1
87168	1	1	1	0	0	6	1287	0	1	1
87222	1	1	1	0	0	18	4107	0	1	1
87277	1	1	1	0	0	2	573	0	1	1
87278	1	1	1	0	0	2	573	0	1	1
87279	1	1	1	0	0	2	573	0	1	1
87280	1	1	1	0	0	2	573	0	1	1
87281	1	1	1	0	0	2	573	0	1	1
87332	1	1	1	0	0	6	1287	0	1	1
87333	1	1	1	0	0	6	1287	0	1	1
87407	1	1	1	0	0	14	3182	0	1	1
87462	1	1	1	0	0	2	573	0	1	1
87463	1	1	1	0	0	2	573	0	1	1
87464	1	1	1	0	0	2	573	0	1	1
87465	1	1	1	0	0	2	573	0	1	1
87466	1	1	1	0	0	2	573	0	1	1
87517	1	1	1	0	0	6	1287	0	1	1
87518	1	1	1	0	0	6	1287	0	1	1
87519	1	1	1	0	0	6	1287	0	1	1
87520	1	1	1	0	0	6	1287	0	1	1
87572	1	1	1	0	0	10	1980	0	1	1
87627	1	1	1	0	0	10	1980	0	1	1
87682	1	1	1	0	0	2	573	0	1	1
87737	1	1	1	0	0	2	573	0	1	1
87738	1	1	1	0	0	2	573	0	1	1
87739	1	1	1	0	0	2	573	0	1	1
87792	1	1	1	0	0	8	1764	0	1	1
87847	1	1	1	0	0	6	1287	0	1	1
87902	1	1	1	0	0	6	1287	0	1	1
87957	1	1	1	0	0	10	1980	0	1	1
88012	1	1	1	0	0	12	2481	0	1	1
88067	1	1	1	0	0	10	1980	0	1	1
88122	1	1	1	0	0	8	1764	0	1	1
88177	1	1	1	0	0	4	903	0	1	1
88178	1	1	1	0	0	4	903	0	1	1
88232	1	1	1	0	0	0	349	0	1	1
88233	1	1	1	0	0	0	349	0	1	1
88234	1	1	1	0	0	0	349	0	1	1
88235	1	1	1	0	0	0	349	0	1	1
88287	1	1	1	0	0	12	2481	0	1	1
88342	1	1	1	0	0	12	2481	0	1	1
88397	1	1	1	0	0	8	1764	0	1	1
88452	1	1	1	0	0	6	1287	0	1	1
88453	1	1	1	0	0	6	1287	0	1	1
88507	1	1	1	0	0	18	4107	0	1	1
88562	1	1	1	0	0	2	573	0	1	1
88563	1	1	1	0	0	2	573	0	1	1
88564	1	1	1	0	0	2	573	0	1	1
88617	1	1	1	0	0	2	573	0	1	1
88618	1	1	1	0	0	2	573	0	1	1
88619	1	1	1	0	0	2	573	0	1	1
88672	1	1	1	0	0	8	1764	0	1	1
88727	1	1	1	0	0	18	4107	0	1	1
88782	1	1	1	0	0	20	4904	0	1	1
88837	1	1	1	0	0	10	1980	0	1	1
88927	1	1	1	0	0	4	903	0	1	1
88928	1	1	1	0	0	4	903	0	1	1
88982	1	1	1	0	0	20	4904	0	1	1
89037	1	1	1	0	0	18	4107	0	1	1
89092	1	1	1	0	0	14	3182	0	1	1
89147	1	1	1	0	0	8	1764	0	1	1
89207	1	1	1	0	0	18	4107	0	1	1
89262	1	1	1	0	0	16	3822	0	1	1
89367	1	1	1	0	0	16	3822	0	1	1
89422	1	1	1	0	0	2	573	0	1	1
89423	1	1	1	0	0	2	573	0	1	1
89424	1	1	1	0	0	2	573	0	1	1
89477	1	1	1	0	0	4	903	0	1	1
89478	1	1	1	0	0	4	903	0	1	1
89479	1	1	1	0	0	4	903	0	1	1
89480	1	1	1	0	0	4	903	0	1	1
89481	1	1	1	0	0	4	903	0	1	1
89532	1	1	1	0	0	6	1287	0	1	1
89533	1	1	1	0	0	6	1287	0	1	1
89587	1	1	1	0	0	8	1764	0	1	1
89642	1	1	1	0	0	20	4904	0	1	1
89727	1	1	1	0	0	2	573	0	1	1
89728	1	1	1	0	0	2	573	0	1	1
89729	1	1	1	0	0	2	573	0	1	1
89782	1	1	1	0	0	20	4904	0	1	1
89837	1	1	1	0	0	2	573	0	1	1
89838	1	1	1	0	0	2	573	0	1	1
89839	1	1	1	0	0	2	573	0	1	1
89892	1	1	1	0	0	18	4107	0	1	1
89947	1	1	1	0	0	12	2481	0	1	1
90002	1	1	1	0	0	16	3822	0	1	1
90057	1	1	1	0	0	6	1287	0	1	1
90058	1	1	1	0	0	6	1287	0	1	1
90112	1	1	1	0	0	16	3822	0	1	1
90167	1	1	1	0	0	22	5861	0	1	1
90222	1	1	1	0	0	22	5861	0	1	1
90277	1	1	1	0	0	24	6882	0	1	1
90332	1	1	1	0	0	20	4904	0	1	1
90387	1	1	1	0	0	18	4107	0	1	1
90442	1	1	1	0	0	22	5861	0	1	1
90567	1	1	1	0	0	18	4107	0	1	1
90622	1	1	1	0	0	20	4904	0	1	1
90687	1	1	1	0	0	12	2481	0	1	1
90742	1	1	1	0	0	12	2481	0	1	1
90797	1	1	1	0	0	2	573	0	1	1
90798	1	1	1	0	0	2	573	0	1	1
90799	1	1	1	0	0	2	573	0	1	1
90887	1	1	1	0	0	14	3182	0	1	1
90942	1	1	1	0	0	6	1287	0	1	1
90943	1	1	1	0	0	6	1287	0	1	1
90997	1	1	1	0	0	4	903	0	1	1
90998	1	1	1	0	0	4	903	0	1	1
91087	1	1	1	0	0	2	573	0	1	1
91088	1	1	1	0	0	2	573	0	1	1
91089	1	1	1	0	0	2	573	0	1	1
91090	1	1	1	0	0	2	573	0	1	1
91142	1	1	1	0	0	20	4904	0	1	1
91197	1	1	1	0	0	14	3182	0	1	1
91252	1	1	1	0	0	24	6882	0	1	1
91307	1	1	1	0	0	16	3822	0	1	1
91362	1	1	1	0	0	18	4107	0	1	1
91417	1	1	1	0	0	14	3182	0	1	1
91472	1	1	1	0	0	0	349	0	1	1
91473	1	1	1	0	0	0	349	0	1	1
91474	1	1	1	0	0	0	349	0	1	1
91475	1	1	1	0	0	0	349	0	1	1
91476	1	1	1	0	0	0	349	0	1	1
91477	1	1	1	0	0	0	349	0	1	1
91527	1	1	1	0	0	4	903	0	1	1
91528	1	1	1	0	0	4	903	0	1	1
91529	1	1	1	0	0	4	903	0	1	1
91582	1	1	1	0	0	4	903	0	1	1
91583	1	1	1	0	0	4	903	0	1	1
91584	1	1	1	0	0	4	903	0	1	1
91637	1	1	1	0	0	18	4107	0	1	1
91692	1	1	1	0	0	22	5861	0	1	1
91767	1	1	1	0	0	16	3822	0	1	1
91822	1	1	1	0	0	22	5861	0	1	1
91877	1	1	1	0	0	18	4107	0	1	1
91967	1	1	1	0	0	4	903	0	1	1
91968	1	1	1	0	0	4	903	0	1	1
91969	1	1	1	0	0	4	903	0	1	1
92022	1	1	1	0	0	0	349	0	1	1
92023	1	1	1	0	0	0	349	0	1	1
92024	1	1	1	0	0	0	349	0	1	1
92025	1	1	1	0	0	0	349	0	1	1
92026	1	1	1	0	0	0	349	0	1	1
92027	1	1	1	0	0	0	349	0	1	1
92077	1	1	1	0	0	22	5861	0	1	1
92132	1	1	1	0	0	16	3822	0	1	1
92187	1	1	1	0	0	22	5861	0	1	1
92242	1	1	1	0	0	18	4107	0	1	1
92297	1	1	1	0	0	0	349	0	1	1
92298	1	1	1	0	0	0	349	0	1	1
92299	1	1	1	0	0	0	349	0	1	1
92300	1	1	1	0	0	0	349	0	1	1
92301	1	1	1	0	0	0	349	0	1	1
92302	1	1	1	0	0	0	349	0	1	1
92352	1	1	1	0	0	4	903	0	1	1
92353	1	1	1	0	0	4	903	0	1	1
92354	1	1	1	0	0	4	903	0	1	1
92407	1	1	1	0	0	0	349	0	1	1
92408	1	1	1	0	0	0	349	0	1	1
92409	1	1	1	0	0	0	349	0	1	1
92410	1	1	1	0	0	0	349	0	1	1
92411	1	1	1	0	0	0	349	0	1	1
92412	1	1	1	0	0	0	349	0	1	1
92462	1	1	1	0	0	6	1287	0	1	1
92463	1	1	1	0	0	6	1287	0	1	1
92517	1	1	1	0	0	8	1764	0	1	1
92518	1	1	1	0	0	8	1764	0	1	1
92572	1	1	1	0	0	24	6882	0	1	1
92627	1	1	1	0	0	22	5861	0	1	1
92687	1	1	1	0	0	10	1980	0	1	1
92688	1	1	1	0	0	10	1980	0	1	1
92742	1	1	1	0	0	10	1980	0	1	1
92743	1	1	1	0	0	10	1980	0	1	1
92797	1	1	1	0	0	4	903	0	1	1
92798	1	1	1	0	0	4	903	0	1	1
92799	1	1	1	0	0	4	903	0	1	1
92887	1	1	1	0	0	8	1764	0	1	1
92888	1	1	1	0	0	8	1764	0	1	1
92942	1	1	1	0	0	8	1764	0	1	1
92943	1	1	1	0	0	8	1764	0	1	1
92997	1	1	1	0	0	6	1287	0	1	1
92998	1	1	1	0	0	6	1287	0	1	1
93052	1	1	1	0	0	18	4107	0	1	1
93107	1	1	1	0	0	4	903	0	1	1
93108	1	1	1	0	0	4	903	0	1	1
93109	1	1	1	0	0	4	903	0	1	1
93162	1	1	1	0	0	2	573	0	1	1
93163	1	1	1	0	0	2	573	0	1	1
93164	1	1	1	0	0	2	573	0	1	1
93165	1	1	1	0	0	2	573	0	1	1
93217	1	1	1	0	0	4	903	0	1	1
93218	1	1	1	0	0	4	903	0	1	1
93219	1	1	1	0	0	4	903	0	1	1
93272	1	1	1	0	0	24	6882	0	1	1
93327	1	1	1	0	0	0	349	0	1	1
93328	1	1	1	0	0	0	349	0	1	1
93329	1	1	1	0	0	0	349	0	1	1
93330	1	1	1	0	0	0	349	0	1	1
93331	1	1	1	0	0	0	349	0	1	1
93332	1	1	1	0	0	0	349	0	1	1
93333	1	1	1	0	0	0	349	0	1	1
93382	1	1	1	0	0	12	2481	0	1	1
93437	1	1	1	0	0	20	4904	0	1	1
93492	1	1	1	0	0	8	1764	0	1	1
93493	1	1	1	0	0	8	1764	0	1	1
93567	1	1	1	0	0	10	1980	0	1	1
93568	1	1	1	0	0	10	1980	0	1	1
93622	1	1	1	0	0	18	4107	0	1	1
93677	1	1	1	0	0	12	2481	0	1	1
93678	1	1	1	0	0	12	2481	0	1	1
93679	1	1	1	0	0	12	2481	0	1	1
93732	1	1	1	0	0	0	349	0	1	1
93733	1	1	1	0	0	0	349	0	1	1
93734	1	1	1	0	0	0	349	0	1	1
93735	1	1	1	0	0	0	349	0	1	1
93736	1	1	1	0	0	0	349	0	1	1
93737	1	1	1	0	0	0	349	0	1	1
93738	1	1	1	0	0	0	349	0	1	1
93787	1	1	1	0	0	8	1764	0	1	1
93788	1	1	1	0	0	8	1764	0	1	1
93842	1	1	1	0	0	6	1287	0	1	1
93843	1	1	1	0	0	6	1287	0	1	1
93897	1	1	1	0	0	8	1764	0	1	1
93898	1	1	1	0	0	8	1764	0	1	1
93952	1	1	1	0	0	12	2481	0	1	1
94007	1	1	1	0	0	6	1287	0	1	1
94008	1	1	1	0	0	6	1287	0	1	1
94062	1	1	1	0	0	20	4904	0	1	1
94117	1	1	1	0	0	18	4107	0	1	1
94172	1	1	1	0	0	18	4107	0	1	1
94227	1	1	1	0	0	2	573	0	1	1
94228	1	1	1	0	0	2	573	0	1	1
94229	1	1	1	0	0	2	573	0	1	1
94230	1	1	1	0	0	2	573	0	1	1
94231	1	1	1	0	0	2	573	0	1	1
94282	1	1	1	0	0	14	3182	0	1	1
94337	1	1	1	0	0	24	6882	0	1	1
94338	1	1	1	0	0	24	6882	0	1	1
94339	1	1	1	0	0	24	6882	0	1	1
94392	1	1	1	0	0	18	4107	0	1	1
94447	1	1	1	0	0	18	4107	0	1	1
94502	1	1	1	0	0	2	573	0	1	1
94503	1	1	1	0	0	2	573	0	1	1
94504	1	1	1	0	0	2	573	0	1	1
94505	1	1	1	0	0	2	573	0	1	1
94506	1	1	1	0	0	2	573	0	1	1
94557	1	1	1	0	0	4	903	0	1	1
94558	1	1	1	0	0	4	903	0	1	1
94559	1	1	1	0	0	4	903	0	1	1
94612	1	1	1	0	0	26	7708	0	1	1
94667	1	1	1	0	0	16	3822	0	1	1
94668	1	1	1	0	0	16	3822	0	1	1
94722	1	1	1	0	0	6	1287	0	1	1
94723	1	1	1	0	0	6	1287	0	1	1
94777	1	1	1	0	0	12	2481	0	1	1
94847	1	1	1	0	0	4	903	0	1	1
94848	1	1	1	0	0	4	903	0	1	1
94849	1	1	1	0	0	4	903	0	1	1
94902	1	1	1	0	0	6	1287	0	1	1
94903	1	1	1	0	0	6	1287	0	1	1
94904	1	1	1	0	0	6	1287	0	1	1
94905	1	1	1	0	0	6	1287	0	1	1
94957	1	1	1	0	0	8	1764	0	1	1
95012	1	1	1	0	0	14	3182	0	1	1
95127	1	1	1	0	0	8	1764	0	1	1
95182	1	1	1	0	0	14	3182	0	1	1
95237	1	1	1	0	0	18	4107	0	1	1
95292	1	1	1	0	0	16	3822	0	1	1
95347	1	1	1	0	0	20	4904	0	1	1
95402	1	1	1	0	0	14	3182	0	1	1
95457	1	1	1	0	0	8	1764	0	1	1
95512	1	1	1	0	0	12	2481	0	1	1
95567	1	1	1	0	0	16	3822	0	1	1
95622	1	1	1	0	0	22	5861	0	1	1
95677	1	1	1	0	0	2	573	0	1	1
95678	1	1	1	0	0	2	573	0	1	1
95679	1	1	1	0	0	2	573	0	1	1
95767	1	1	1	0	0	4	903	0	1	1
95768	1	1	1	0	0	4	903	0	1	1
95822	1	1	1	0	0	12	2481	0	1	1
95877	1	1	1	0	0	2	573	0	1	1
95878	1	1	1	0	0	2	573	0	1	1
95879	1	1	1	0	0	2	573	0	1	1
95932	1	1	1	0	0	6	1287	0	1	1
95933	1	1	1	0	0	6	1287	0	1	1
95987	1	1	1	0	0	14	3182	0	1	1
96042	1	1	1	0	0	20	4904	0	1	1
96097	1	1	1	0	0	14	3182	0	1	1
96152	1	1	1	0	0	12	2481	0	1	1
96207	1	1	1	0	0	4	903	0	1	1
96208	1	1	1	0	0	4	903	0	1	1
96262	1	1	1	0	0	10	1980	0	1	1
96317	1	1	1	0	0	10	1980	0	1	1
96372	1	1	1	0	0	20	4904	0	1	1
96427	1	1	1	0	0	2	573	0	1	1
96428	1	1	1	0	0	2	573	0	1	1
96429	1	1	1	0	0	2	573	0	1	1
96482	1	1	1	0	0	12	2481	0	1	1
96537	1	1	1	0	0	18	4107	0	1	1
96607	1	1	1	0	0	22	5861	0	1	1
96687	1	1	1	0	0	16	3822	0	1	1
96742	1	1	1	0	0	22	5861	0	1	1
96797	1	1	1	0	0	18	4107	0	1	1
96887	1	1	1	0	0	4	903	0	1	1
96888	1	1	1	0	0	4	903	0	1	1
97007	1	1	1	0	0	14	3182	0	1	1
97062	1	1	1	0	0	6	1287	0	1	1
97063	1	1	1	0	0	6	1287	0	1	1
97117	1	1	1	0	0	8	1764	0	1	1
97172	1	1	1	0	0	18	4107	0	1	1
97227	1	1	1	0	0	28	9422	0	1	1
97282	1	1	1	0	0	20	4904	0	1	1
97337	1	1	1	0	0	22	5861	0	1	1
97392	1	1	1	0	0	24	6882	0	1	1
97447	1	1	1	0	0	10	1980	0	1	1
97502	1	1	1	0	0	24	6882	0	1	1
97557	1	1	1	0	0	18	4107	0	1	1
97612	1	1	1	0	0	0	349	0	1	1
97613	1	1	1	0	0	0	349	0	1	1
97614	1	1	1	0	0	0	349	0	1	1
97615	1	1	1	0	0	0	349	0	1	1
97616	1	1	1	0	0	0	349	0	1	1
97667	1	1	1	0	0	18	4107	0	1	1
97727	1	1	1	0	0	6	1287	0	1	1
97728	1	1	1	0	0	6	1287	0	1	1
97782	1	1	1	0	0	8	1764	0	1	1
97837	1	1	1	0	0	10	1980	0	1	1
97892	1	1	1	0	0	12	2481	0	1	1
97947	1	1	1	0	0	14	3182	0	1	1
98002	1	1	1	0	0	20	4904	0	1	1
98057	1	1	1	0	0	6	1287	0	1	1
98058	1	1	1	0	0	6	1287	0	1	1
98112	1	1	1	0	0	12	2481	0	1	1
98167	1	1	1	0	0	8	1764	0	1	1
98222	1	1	1	0	0	2	573	0	1	1
98223	1	1	1	0	0	2	573	0	1	1
98224	1	1	1	0	0	2	573	0	1	1
98277	1	1	1	0	0	8	1764	0	1	1
98332	1	1	1	0	0	16	3822	0	1	1
98387	1	1	1	0	0	6	1287	0	1	1
98388	1	1	1	0	0	6	1287	0	1	1
98442	1	1	1	0	0	6	1287	0	1	1
98443	1	1	1	0	0	6	1287	0	1	1
98497	1	1	1	0	0	16	3822	0	1	1
98567	1	1	1	0	0	16	3822	0	1	1
98622	1	1	1	0	0	2	573	0	1	1
98623	1	1	1	0	0	2	573	0	1	1
98624	1	1	1	0	0	2	573	0	1	1
98625	1	1	1	0	0	2	573	0	1	1
98677	1	1	1	0	0	4	903	0	1	1
98678	1	1	1	0	0	4	903	0	1	1
98732	1	1	1	0	0	12	2481	0	1	1
98733	1	1	1	0	0	12	2481	0	1	1
98734	1	1	1	0	0	12	2481	0	1	1
98735	1	1	1	0	0	12	2481	0	1	1
98736	1	1	1	0	0	12	2481	0	1	1
98787	1	1	1	0	0	2	573	0	1	1
98788	1	1	1	0	0	2	573	0	1	1
98789	1	1	1	0	0	2	573	0	1	1
98790	1	1	1	0	0	2	573	0	1	1
98842	1	1	1	0	0	6	1287	0	1	1
98843	1	1	1	0	0	6	1287	0	1	1
98897	1	1	1	0	0	2	573	0	1	1
98898	1	1	1	0	0	2	573	0	1	1
98899	1	1	1	0	0	2	573	0	1	1
98900	1	1	1	0	0	2	573	0	1	1
98952	1	1	1	0	0	2	573	0	1	1
98953	1	1	1	0	0	2	573	0	1	1
98954	1	1	1	0	0	2	573	0	1	1
98955	1	1	1	0	0	2	573	0	1	1
99007	1	1	1	0	0	18	4107	0	1	1
99062	1	1	1	0	0	8	1764	0	1	1
99063	1	1	1	0	0	8	1764	0	1	1
99117	1	1	1	0	0	12	2481	0	1	1
99207	1	1	1	0	0	0	349	0	1	1
99208	1	1	1	0	0	0	349	0	1	1
99209	1	1	1	0	0	0	349	0	1	1
99210	1	1	1	0	0	0	349	0	1	1
99211	1	1	1	0	0	0	349	0	1	1
99212	1	1	1	0	0	0	349	0	1	1
99287	1	1	1	0	0	22	5861	0	1	1
99342	1	1	1	0	0	2	573	0	1	1
99343	1	1	1	0	0	2	573	0	1	1
99344	1	1	1	0	0	2	573	0	1	1
99345	1	1	1	0	0	2	573	0	1	1
99397	1	1	1	0	0	0	349	0	1	1
99398	1	1	1	0	0	0	349	0	1	1
99399	1	1	1	0	0	0	349	0	1	1
99400	1	1	1	0	0	0	349	0	1	1
99401	1	1	1	0	0	0	349	0	1	1
99402	1	1	1	0	0	0	349	0	1	1
99452	1	1	1	0	0	22	5861	0	1	1
99507	1	1	1	0	0	6	1287	0	1	1
99508	1	1	1	0	0	6	1287	0	1	1
99562	1	1	1	0	0	2	573	0	1	1
99563	1	1	1	0	0	2	573	0	1	1
99564	1	1	1	0	0	2	573	0	1	1
99565	1	1	1	0	0	2	573	0	1	1
99617	1	1	1	0	0	2	573	0	1	1
99618	1	1	1	0	0	2	573	0	1	1
99619	1	1	1	0	0	2	573	0	1	1
99620	1	1	1	0	0	2	573	0	1	1
99672	1	1	1	0	0	12	2481	0	1	1
99767	1	1	1	0	0	8	1764	0	1	1
99768	1	1	1	0	0	8	1764	0	1	1
99887	1	1	1	0	0	0	349	0	1	1
99888	1	1	1	0	0	0	349	0	1	1
99889	1	1	1	0	0	0	349	0	1	1
99890	1	1	1	0	0	0	349	0	1	1
99891	1	1	1	0	0	0	349	0	1	1
99892	1	1	1	0	0	0	349	0	1	1
99942	1	1	1	0	0	8	1764	0	1	1
99943	1	1	1	0	0	8	1764	0	1	1
99997	1	1	1	0	0	12	2481	0	1	1
