<?xml version="1.0" encoding="utf-8"  standalone="no"?>
<!DOCTYPE svg PUBLIC "-//W3C//DTD SVG 1.1//EN" 
 "http://www.w3.org/Graphics/SVG/1.1/DTD/svg11.dtd">
<svg 
 width="600" height="480" 
 viewBox="0 0 600 480"
 xmlns="http://www.w3.org/2000/svg"
 xmlns:xlink="http://www.w3.org/1999/xlink"
>

<title>Gnuplot</title>
<desc>Produced by GNUPLOT 4.6 patchlevel 1 </desc>

<g id="gnuplot_canvas">

<rect x="0" y="0" width="600" height="480" fill="none"/>
<defs>

	<circle id='gpDot' r='0.5' stroke-width='0.5'/>
	<path id='gpPt0' stroke-width='0.222' stroke='currentColor' d='M-1,0 h2 M0,-1 v2'/>
	<path id='gpPt1' stroke-width='0.222' stroke='currentColor' d='M-1,-1 L1,1 M1,-1 L-1,1'/>
	<path id='gpPt2' stroke-width='0.222' stroke='currentColor' d='M-1,0 L1,0 M0,-1 L0,1 M-1,-1 L1,1 M-1,1 L1,-1'/>
	<rect id='gpPt3' stroke-width='0.222' stroke='currentColor' x='-1' y='-1' width='2' height='2'/>
	<rect id='gpPt4' stroke-width='0.222' stroke='currentColor' fill='currentColor' x='-1' y='-1' width='2' height='2'/>
	<circle id='gpPt5' stroke-width='0.222' stroke='currentColor' cx='0' cy='0' r='1'/>
	<use xlink:href='#gpPt5' id='gpPt6' fill='currentColor' stroke='none'/>
	<path id='gpPt7' stroke-width='0.222' stroke='currentColor' d='M0,-1.33 L-1.33,0.67 L1.33,0.67 z'/>
	<use xlink:href='#gpPt7' id='gpPt8' fill='currentColor' stroke='none'/>
	<use xlink:href='#gpPt7' id='gpPt9' stroke='currentColor' transform='rotate(180)'/>
	<use xlink:href='#gpPt9' id='gpPt10' fill='currentColor' stroke='none'/>
	<use xlink:href='#gpPt3' id='gpPt11' stroke='currentColor' transform='rotate(45)'/>
	<use xlink:href='#gpPt11' id='gpPt12' fill='currentColor' stroke='none'/>
</defs>
<g style="fill:none; color:white; stroke:currentColor; stroke-width:1.00; stroke-linecap:butt; stroke-linejoin:miter">
</g>
<g style="fill:none; color:black; stroke:currentColor; stroke-width:1.00; stroke-linecap:butt; stroke-linejoin:miter">
	<path  d='M71.9,422.4 L80.9,422.4  h0.01'/>	<g transform="translate(63.6,426.9)" style="stroke:none; fill:blue; font-family:Arial; font-size:12.00pt; text-anchor:end">
		<text> 1</text>
	</g>
	<path  d='M71.9,367.0 L76.4,367.0 M71.9,334.5 L76.4,334.5 M71.9,311.5 L76.4,311.5 M71.9,293.7 L76.4,293.7 
		M71.9,279.1 L76.4,279.1 M71.9,266.8 L76.4,266.8 M71.9,256.1 L76.4,256.1 M71.9,246.7 L76.4,246.7 
		M71.9,238.2 L80.9,238.2  h0.01'/>	<g transform="translate(63.6,242.7)" style="stroke:none; fill:blue; font-family:Arial; font-size:12.00pt; text-anchor:end">
		<text> 10</text>
	</g>
	<path  d='M71.9,182.8 L76.4,182.8 M71.9,150.4 L76.4,150.4 M71.9,127.4 L76.4,127.4 M71.9,109.5 L76.4,109.5 
		M71.9,95.0 L76.4,95.0 M71.9,82.6 L76.4,82.6 M71.9,71.9 L76.4,71.9 M71.9,62.5 L76.4,62.5 
		M71.9,54.1 L80.9,54.1  h0.01'/>	<g transform="translate(63.6,58.6)" style="stroke:none; fill:blue; font-family:Arial; font-size:12.00pt; text-anchor:end">
		<text> 100</text>
	</g>
	<path  d='M71.9,422.4 L71.9,413.4 M71.9,54.1 L71.9,63.1  h0.01'/>	<g transform="translate(71.9,444.9)" style="stroke:none; fill:black; font-family:Arial; font-size:12.00pt; text-anchor:middle">
		<text> 0</text>
	</g>
	<path  d='M115.4,422.4 L115.4,413.4 M115.4,54.1 L115.4,63.1  h0.01'/>	<g transform="translate(115.4,444.9)" style="stroke:none; fill:black; font-family:Arial; font-size:12.00pt; text-anchor:middle">
		<text> 10</text>
	</g>
	<path  d='M159.0,422.4 L159.0,413.4 M159.0,54.1 L159.0,63.1  h0.01'/>	<g transform="translate(159.0,444.9)" style="stroke:none; fill:black; font-family:Arial; font-size:12.00pt; text-anchor:middle">
		<text> 20</text>
	</g>
	<path  d='M202.5,422.4 L202.5,413.4 M202.5,54.1 L202.5,63.1  h0.01'/>	<g transform="translate(202.5,444.9)" style="stroke:none; fill:black; font-family:Arial; font-size:12.00pt; text-anchor:middle">
		<text> 30</text>
	</g>
	<path  d='M246.0,422.4 L246.0,413.4 M246.0,54.1 L246.0,63.1  h0.01'/>	<g transform="translate(246.0,444.9)" style="stroke:none; fill:black; font-family:Arial; font-size:12.00pt; text-anchor:middle">
		<text> 40</text>
	</g>
	<path  d='M289.6,422.4 L289.6,413.4 M289.6,54.1 L289.6,63.1  h0.01'/>	<g transform="translate(289.6,444.9)" style="stroke:none; fill:black; font-family:Arial; font-size:12.00pt; text-anchor:middle">
		<text> 50</text>
	</g>
	<path  d='M333.1,422.4 L333.1,413.4 M333.1,54.1 L333.1,63.1  h0.01'/>	<g transform="translate(333.1,444.9)" style="stroke:none; fill:black; font-family:Arial; font-size:12.00pt; text-anchor:middle">
		<text> 60</text>
	</g>
	<path  d='M376.6,422.4 L376.6,413.4 M376.6,54.1 L376.6,63.1  h0.01'/>	<g transform="translate(376.6,444.9)" style="stroke:none; fill:black; font-family:Arial; font-size:12.00pt; text-anchor:middle">
		<text> 70</text>
	</g>
	<path  d='M420.1,422.4 L420.1,413.4 M420.1,54.1 L420.1,63.1  h0.01'/>	<g transform="translate(420.1,444.9)" style="stroke:none; fill:black; font-family:Arial; font-size:12.00pt; text-anchor:middle">
		<text> 80</text>
	</g>
	<path  d='M463.7,422.4 L463.7,413.4 M463.7,54.1 L463.7,63.1  h0.01'/>	<g transform="translate(463.7,444.9)" style="stroke:none; fill:black; font-family:Arial; font-size:12.00pt; text-anchor:middle">
		<text> 90</text>
	</g>
	<path  d='M507.2,422.4 L507.2,413.4 M507.2,54.1 L507.2,63.1  h0.01'/>	<g transform="translate(507.2,444.9)" style="stroke:none; fill:black; font-family:Arial; font-size:12.00pt; text-anchor:middle">
		<text> 100</text>
	</g>
	<path  d='M507.2,422.4 L498.2,422.4  h0.01'/>	<g transform="translate(515.5,426.9)" style="stroke:none; fill:red; font-family:Arial; font-size:12.00pt; text-anchor:start">
		<text> 0</text>
	</g>
	<path  d='M507.2,348.7 L498.2,348.7  h0.01'/>	<g transform="translate(515.5,353.2)" style="stroke:none; fill:red; font-family:Arial; font-size:12.00pt; text-anchor:start">
		<text> 20</text>
	</g>
	<path  d='M507.2,275.1 L498.2,275.1  h0.01'/>	<g transform="translate(515.5,279.6)" style="stroke:none; fill:red; font-family:Arial; font-size:12.00pt; text-anchor:start">
		<text> 40</text>
	</g>
	<path  d='M507.2,201.4 L498.2,201.4  h0.01'/>	<g transform="translate(515.5,205.9)" style="stroke:none; fill:red; font-family:Arial; font-size:12.00pt; text-anchor:start">
		<text> 60</text>
	</g>
	<path  d='M507.2,127.8 L498.2,127.8  h0.01'/>	<g transform="translate(515.5,132.3)" style="stroke:none; fill:red; font-family:Arial; font-size:12.00pt; text-anchor:start">
		<text> 80</text>
	</g>
	<path  d='M507.2,54.1 L498.2,54.1  h0.01'/>	<g transform="translate(515.5,58.6)" style="stroke:none; fill:red; font-family:Arial; font-size:12.00pt; text-anchor:start">
		<text> 100</text>
	</g>
	<path  d='M71.9,54.1 L71.9,422.4 L507.2,422.4 L507.2,54.1 L71.9,54.1 Z  h0.01'/>	<g transform="translate(17.6,238.3) rotate(270)" style="stroke:none; fill:black; font-family:Arial; font-size:12.00pt; text-anchor:middle">
		<text>Goodput (Mbps)</text>
	</g>
	<g transform="translate(570.4,238.3) rotate(270)" style="stroke:none; fill:black; font-family:Arial; font-size:12.00pt; text-anchor:middle">
		<text>Loss rate (%)</text>
	</g>
	<g transform="translate(289.5,471.9)" style="stroke:none; fill:black; font-family:Arial; font-size:12.00pt; text-anchor:middle">
		<text>Application rate (Mbps)</text>
	</g>
	<g transform="translate(289.5,31.6)" style="stroke:none; fill:black; font-family:Arial; font-size:12.00pt; text-anchor:middle">
		<text>Goodput and Loss rate Uplink (17Mbps ul, 70Mbps dl)</text>
	</g>
	<path  d='M365.4,413.4 L365.4,377.4 L498.9,377.4 L498.9,413.4 L365.4,413.4 Z  h0.01'/></g>
	<g id="gnuplot_plot_1" ><title>gnuplot_plot_1</title>
<g style="fill:none; color:red; stroke:currentColor; stroke-width:1.00; stroke-linecap:butt; stroke-linejoin:miter">
	<g transform="translate(440.1,390.9)" style="stroke:none; fill:black; font-family:Arial; font-size:12.00pt; text-anchor:end">
		<text>goodput</text>
	</g>
	<path  d='M448.4,386.4 L490.6,386.4 M505.1,197.4 L373.8,197.4 L303.6,197.4 L259.9,197.4 L230.0,197.4 L208.4,197.4 
		L191.9,197.4 L179.0,197.4 L168.6,197.4 L160.1,197.4 L152.9,197.4 L146.8,197.4 L141.6,201.6 L137.0,207.0 
		L133.0,212.0 L116.6,237.1 L107.1,256.1 L100.9,271.5 L93.1,296.6 L88.6,315.7 L85.7,331.1 L82.4,353.0 
		L80.4,370.0 L79.0,384.2 L78.0,396.1  h0.01'/></g>
	</g>
	<g id="gnuplot_plot_2" ><title>gnuplot_plot_2</title>
<g style="fill:none; color:green; stroke:currentColor; stroke-width:1.00; stroke-linecap:butt; stroke-linejoin:miter">
	<g transform="translate(440.1,408.9)" style="stroke:none; fill:black; font-family:Arial; font-size:12.00pt; text-anchor:end">
		<text>loss rate</text>
	</g>
	<path  d='M448.4,404.4 L490.6,404.4 M505.1,196.6 L373.8,167.7 L303.6,146.5 L259.9,129.8 L230.0,116.0 L208.4,104.2 
		L191.9,93.9 L179.0,84.8 L168.6,76.7 L160.1,69.3 L152.9,62.5 L146.8,56.2 L141.6,54.5 L137.0,54.5 
		L133.0,54.5 L116.6,54.5 L107.1,54.5 L100.9,54.5 L93.1,54.5 L88.6,54.6 L85.7,54.6 L82.4,54.6 
		L80.4,54.5 L79.0,54.6 L78.0,54.6  h0.01'/></g>
	</g>
<g style="fill:none; color:black; stroke:currentColor; stroke-width:1.00; stroke-linecap:butt; stroke-linejoin:miter">
	<path  d='M71.9,54.1 L71.9,422.4 L507.2,422.4 L507.2,54.1 L71.9,54.1 Z  h0.01'/></g>
</g>
</svg>

