<?xml version="1.0" encoding="utf-8"  standalone="no"?>
<!DOCTYPE svg PUBLIC "-//W3C//DTD SVG 1.1//EN" 
 "http://www.w3.org/Graphics/SVG/1.1/DTD/svg11.dtd">
<svg 
 width="600" height="480" 
 viewBox="0 0 600 480"
 xmlns="http://www.w3.org/2000/svg"
 xmlns:xlink="http://www.w3.org/1999/xlink"
>

<title>Gnuplot</title>
<desc>Produced by GNUPLOT 4.6 patchlevel 1 </desc>

<g id="gnuplot_canvas">

<rect x="0" y="0" width="600" height="480" fill="none"/>
<defs>

	<circle id='gpDot' r='0.5' stroke-width='0.5'/>
	<path id='gpPt0' stroke-width='0.222' stroke='currentColor' d='M-1,0 h2 M0,-1 v2'/>
	<path id='gpPt1' stroke-width='0.222' stroke='currentColor' d='M-1,-1 L1,1 M1,-1 L-1,1'/>
	<path id='gpPt2' stroke-width='0.222' stroke='currentColor' d='M-1,0 L1,0 M0,-1 L0,1 M-1,-1 L1,1 M-1,1 L1,-1'/>
	<rect id='gpPt3' stroke-width='0.222' stroke='currentColor' x='-1' y='-1' width='2' height='2'/>
	<rect id='gpPt4' stroke-width='0.222' stroke='currentColor' fill='currentColor' x='-1' y='-1' width='2' height='2'/>
	<circle id='gpPt5' stroke-width='0.222' stroke='currentColor' cx='0' cy='0' r='1'/>
	<use xlink:href='#gpPt5' id='gpPt6' fill='currentColor' stroke='none'/>
	<path id='gpPt7' stroke-width='0.222' stroke='currentColor' d='M0,-1.33 L-1.33,0.67 L1.33,0.67 z'/>
	<use xlink:href='#gpPt7' id='gpPt8' fill='currentColor' stroke='none'/>
	<use xlink:href='#gpPt7' id='gpPt9' stroke='currentColor' transform='rotate(180)'/>
	<use xlink:href='#gpPt9' id='gpPt10' fill='currentColor' stroke='none'/>
	<use xlink:href='#gpPt3' id='gpPt11' stroke='currentColor' transform='rotate(45)'/>
	<use xlink:href='#gpPt11' id='gpPt12' fill='currentColor' stroke='none'/>
</defs>
<g style="fill:none; color:white; stroke:currentColor; stroke-width:1.00; stroke-linecap:butt; stroke-linejoin:miter">
</g>
<g style="fill:none; color:black; stroke:currentColor; stroke-width:1.00; stroke-linecap:butt; stroke-linejoin:miter">
	<path  d='M88.5,422.4 L97.5,422.4 M515.5,422.4 L506.5,422.4  h0.01'/>	<g transform="translate(80.2,426.9)" style="stroke:none; fill:black; font-family:Arial; font-size:12.00pt; text-anchor:end">
		<text> 1</text>
	</g>
	<path  d='M88.5,394.7 L93.0,394.7 M515.5,394.7 L511.0,394.7 M88.5,378.5 L93.0,378.5 M515.5,378.5 L511.0,378.5 
		M88.5,367.0 L93.0,367.0 M515.5,367.0 L511.0,367.0 M88.5,358.0 L93.0,358.0 M515.5,358.0 L511.0,358.0 
		M88.5,350.8 L93.0,350.8 M515.5,350.8 L511.0,350.8 M88.5,344.6 L93.0,344.6 M515.5,344.6 L511.0,344.6 
		M88.5,339.2 L93.0,339.2 M515.5,339.2 L511.0,339.2 M88.5,334.5 L93.0,334.5 M515.5,334.5 L511.0,334.5 
		M88.5,330.3 L97.5,330.3 M515.5,330.3 L506.5,330.3  h0.01'/>	<g transform="translate(80.2,334.8)" style="stroke:none; fill:black; font-family:Arial; font-size:12.00pt; text-anchor:end">
		<text> 10</text>
	</g>
	<path  d='M88.5,302.6 L93.0,302.6 M515.5,302.6 L511.0,302.6 M88.5,286.4 L93.0,286.4 M515.5,286.4 L511.0,286.4 
		M88.5,274.9 L93.0,274.9 M515.5,274.9 L511.0,274.9 M88.5,266.0 L93.0,266.0 M515.5,266.0 L511.0,266.0 
		M88.5,258.7 L93.0,258.7 M515.5,258.7 L511.0,258.7 M88.5,252.5 L93.0,252.5 M515.5,252.5 L511.0,252.5 
		M88.5,247.2 L93.0,247.2 M515.5,247.2 L511.0,247.2 M88.5,242.5 L93.0,242.5 M515.5,242.5 L511.0,242.5 
		M88.5,238.2 L97.5,238.2 M515.5,238.2 L506.5,238.2  h0.01'/>	<g transform="translate(80.2,242.7)" style="stroke:none; fill:black; font-family:Arial; font-size:12.00pt; text-anchor:end">
		<text> 100</text>
	</g>
	<path  d='M88.5,210.5 L93.0,210.5 M515.5,210.5 L511.0,210.5 M88.5,194.3 L93.0,194.3 M515.5,194.3 L511.0,194.3 
		M88.5,182.8 L93.0,182.8 M515.5,182.8 L511.0,182.8 M88.5,173.9 L93.0,173.9 M515.5,173.9 L511.0,173.9 
		M88.5,166.6 L93.0,166.6 M515.5,166.6 L511.0,166.6 M88.5,160.4 L93.0,160.4 M515.5,160.4 L511.0,160.4 
		M88.5,155.1 L93.0,155.1 M515.5,155.1 L511.0,155.1 M88.5,150.4 L93.0,150.4 M515.5,150.4 L511.0,150.4 
		M88.5,146.2 L97.5,146.2 M515.5,146.2 L506.5,146.2  h0.01'/>	<g transform="translate(80.2,150.7)" style="stroke:none; fill:black; font-family:Arial; font-size:12.00pt; text-anchor:end">
		<text> 1000</text>
	</g>
	<path  d='M88.5,118.5 L93.0,118.5 M515.5,118.5 L511.0,118.5 M88.5,102.2 L93.0,102.2 M515.5,102.2 L511.0,102.2 
		M88.5,90.7 L93.0,90.7 M515.5,90.7 L511.0,90.7 M88.5,81.8 L93.0,81.8 M515.5,81.8 L511.0,81.8 
		M88.5,74.5 L93.0,74.5 M515.5,74.5 L511.0,74.5 M88.5,68.4 L93.0,68.4 M515.5,68.4 L511.0,68.4 
		M88.5,63.0 L93.0,63.0 M515.5,63.0 L511.0,63.0 M88.5,58.3 L93.0,58.3 M515.5,58.3 L511.0,58.3 
		M88.5,54.1 L97.5,54.1 M515.5,54.1 L506.5,54.1  h0.01'/>	<g transform="translate(80.2,58.6)" style="stroke:none; fill:black; font-family:Arial; font-size:12.00pt; text-anchor:end">
		<text> 10000</text>
	</g>
	<path  d='M88.5,422.4 L88.5,413.4 M88.5,54.1 L88.5,63.1  h0.01'/>	<g transform="translate(88.5,444.9)" style="stroke:none; fill:black; font-family:Arial; font-size:12.00pt; text-anchor:middle">
		<text> 0</text>
	</g>
	<path  d='M159.7,422.4 L159.7,413.4 M159.7,54.1 L159.7,63.1  h0.01'/>	<g transform="translate(159.7,444.9)" style="stroke:none; fill:black; font-family:Arial; font-size:12.00pt; text-anchor:middle">
		<text> 5</text>
	</g>
	<path  d='M230.8,422.4 L230.8,413.4 M230.8,54.1 L230.8,63.1  h0.01'/>	<g transform="translate(230.8,444.9)" style="stroke:none; fill:black; font-family:Arial; font-size:12.00pt; text-anchor:middle">
		<text> 10</text>
	</g>
	<path  d='M302.0,422.4 L302.0,413.4 M302.0,54.1 L302.0,63.1  h0.01'/>	<g transform="translate(302.0,444.9)" style="stroke:none; fill:black; font-family:Arial; font-size:12.00pt; text-anchor:middle">
		<text> 15</text>
	</g>
	<path  d='M373.2,422.4 L373.2,413.4 M373.2,54.1 L373.2,63.1  h0.01'/>	<g transform="translate(373.2,444.9)" style="stroke:none; fill:black; font-family:Arial; font-size:12.00pt; text-anchor:middle">
		<text> 20</text>
	</g>
	<path  d='M444.3,422.4 L444.3,413.4 M444.3,54.1 L444.3,63.1  h0.01'/>	<g transform="translate(444.3,444.9)" style="stroke:none; fill:black; font-family:Arial; font-size:12.00pt; text-anchor:middle">
		<text> 25</text>
	</g>
	<path  d='M515.5,422.4 L515.5,413.4 M515.5,54.1 L515.5,63.1  h0.01'/>	<g transform="translate(515.5,444.9)" style="stroke:none; fill:black; font-family:Arial; font-size:12.00pt; text-anchor:middle">
		<text> 30</text>
	</g>
	<path  d='M515.5,422.4 L506.5,422.4  h0.01'/>	<g transform="translate(523.8,426.9)" style="stroke:none; fill:red; font-family:Arial; font-size:12.00pt; text-anchor:start">
		<text> 0</text>
	</g>
	<path  d='M515.5,330.3 L506.5,330.3  h0.01'/>	<g transform="translate(523.8,334.8)" style="stroke:none; fill:red; font-family:Arial; font-size:12.00pt; text-anchor:start">
		<text> 5</text>
	</g>
	<path  d='M515.5,238.2 L506.5,238.2  h0.01'/>	<g transform="translate(523.8,242.7)" style="stroke:none; fill:red; font-family:Arial; font-size:12.00pt; text-anchor:start">
		<text> 10</text>
	</g>
	<path  d='M515.5,146.2 L506.5,146.2  h0.01'/>	<g transform="translate(523.8,150.7)" style="stroke:none; fill:red; font-family:Arial; font-size:12.00pt; text-anchor:start">
		<text> 15</text>
	</g>
	<path  d='M515.5,54.1 L506.5,54.1  h0.01'/>	<g transform="translate(523.8,58.6)" style="stroke:none; fill:red; font-family:Arial; font-size:12.00pt; text-anchor:start">
		<text> 20</text>
	</g>
	<path  d='M88.5,54.1 L88.5,422.4 L515.5,422.4 L515.5,54.1 L88.5,54.1 Z  h0.01'/>	<g transform="translate(17.6,238.3) rotate(270)" style="stroke:none; fill:black; font-family:Arial; font-size:12.00pt; text-anchor:middle">
		<text>Delay (ms)</text>
	</g>
	<g transform="translate(570.4,238.3) rotate(270)" style="stroke:none; fill:black; font-family:Arial; font-size:12.00pt; text-anchor:middle">
		<text>Goodput (Mbps)</text>
	</g>
	<g transform="translate(302.0,471.9)" style="stroke:none; fill:black; font-family:Arial; font-size:12.00pt; text-anchor:middle">
		<text>Application Rate (Mbps)</text>
	</g>
	<g transform="translate(302.0,31.6)" style="stroke:none; fill:black; font-family:Arial; font-size:12.00pt; text-anchor:middle">
		<text>Uplink delays with AM RLC (25 RBs Uplink, peak rate ~16Mbps)</text>
	</g>
	<path  d='M299.0,413.4 L299.0,359.4 L507.2,359.4 L507.2,413.4 L299.0,413.4 Z  h0.01'/></g>
	<g id="gnuplot_plot_1" ><title>gnuplot_plot_1</title>
<g style="fill:none; color:red; stroke:currentColor; stroke-width:1.00; stroke-linecap:butt; stroke-linejoin:miter">
	<g transform="translate(448.4,372.9)" style="stroke:none; fill:black; font-family:Arial; font-size:12.00pt; text-anchor:end">
		<text>Goodput</text>
	</g>
	<path  d='M456.7,368.4 L498.9,368.4 M515.5,227.9 L467.3,227.9 L428.7,227.9 L397.1,227.9 L370.8,227.9 L348.5,227.9 
		L329.4,227.9 L312.9,227.9 L298.4,227.9 L239.2,233.3 L205.3,273.8 L183.4,300.0 L155.7,333.2 L139.8,352.3 
		L129.5,364.6 L118.0,378.5 L110.9,386.9 L106.1,392.7 L102.6,396.8 L100.0,399.9 L98.0,402.4 L96.3,404.4 
		L95.0,406.0 L93.8,407.3 L92.9,408.5 L92.1,409.5 L91.4,410.3 L90.7,411.1 L90.2,411.7 L88.9,413.3 
		L88.5,413.7  h0.01'/></g>
	</g>
	<g id="gnuplot_plot_2" ><title>gnuplot_plot_2</title>
<g style="fill:none; color:green; stroke:currentColor; stroke-width:1.00; stroke-linecap:butt; stroke-linejoin:miter">
	<g transform="translate(448.4,390.9)" style="stroke:none; fill:black; font-family:Arial; font-size:12.00pt; text-anchor:end">
		<text>UL PDCP PDUs delay</text>
	</g>
	<path  d='M456.7,386.4 L498.9,386.4 M495.7,56.7 L450.5,58.7 L414.3,60.8 L384.7,63.0 L360.0,65.4 L339.1,67.9 
		L321.2,70.5 L305.7,73.4 L292.1,76.4 L236.6,101.0 L204.8,115.7 L184.3,124.9 L158.3,138.8 L143.4,151.1 
		L133.7,164.9 L122.9,336.8 L116.3,338.7 L111.8,334.3 L108.5,335.5 L106.1,337.0 L104.2,338.2 L102.6,339.2 
		L101.4,333.1 L100.3,321.7 L99.4,321.7 L98.6,321.7 L98.0,321.7 L97.4,323.3 L96.9,321.7 L95.6,321.7 
		L95.3,322.0  h0.01'/></g>
	</g>
	<g id="gnuplot_plot_3" ><title>gnuplot_plot_3</title>
<g style="fill:none; color:blue; stroke:currentColor; stroke-width:1.00; stroke-linecap:butt; stroke-linejoin:miter">
	<g transform="translate(448.4,408.9)" style="stroke:none; fill:black; font-family:Arial; font-size:12.00pt; text-anchor:end">
		<text>UL RLC PDUs delay</text>
	</g>
	<path  d='M456.7,404.4 L498.9,404.4 M495.7,378.6 L450.5,378.6 L414.3,378.6 L384.7,378.6 L360.0,378.6 L339.1,378.6 
		L321.2,378.6 L305.7,378.6 L292.1,378.6 L236.6,378.6 L204.8,379.2 L184.3,380.1 L158.3,382.5 L143.4,388.0 
		L133.7,389.6 L122.9,379.6 L116.3,385.5 L111.8,375.3 L108.5,372.2 L106.1,374.2 L104.2,376.2 L102.6,378.4 
		L101.4,360.4 L100.3,360.4 L99.4,360.4 L98.6,360.4 L98.0,360.4 L97.4,360.4 L96.9,360.4 L95.6,360.4 
		L95.3,360.4  h0.01'/></g>
	</g>
<g style="fill:none; color:black; stroke:currentColor; stroke-width:1.00; stroke-linecap:butt; stroke-linejoin:miter">
	<path  d='M88.5,54.1 L88.5,422.4 L515.5,422.4 L515.5,54.1 L88.5,54.1 Z  h0.01'/></g>
</g>
</svg>

