#App rate  good put   received rate	ulpdcp	ulrlc
28.6102   10.561   37.3489  9369.1 2.99384
25.4313   10.561   42.0171  8913.19 2.99384
22.8882   10.561   46.6862  8457.28 2.99384
20.8074   10.561   51.3547  8001.37 2.99384
19.0735   10.561   56.023  7545.46 2.99384
17.6063   10.561   60.692  7089.55 2.99384
16.3487   10.561   65.36  6633.64 2.99384
15.2588   10.561   70.0282  6177.73 2.99384
14.3051   10.561   74.6978  5721.82 2.99384
10.4037   10.2694   99.8714  3094.14 2.99384
8.17435   8.06884   99.8708  2140.98 2.94481
6.73182   6.64509   99.8745  1701.94 2.88115
4.90461   4.84155   99.8708  1203.2 2.71389
3.85756   3.80803   99.8722  883.995 2.36521
3.17891   3.13807   99.8671  626.594 2.26861
2.41777   2.38662   99.8544  8.49523 2.91432
1.9507   1.92579   99.8736  8.10724 2.51726
1.63487   1.61385   99.8708  9.05433 3.24724
1.40706   1.38902   99.8749  8.77833 3.50798
1.23497   1.21924   99.8575  8.47041 3.34007
1.10039   1.08645   99.872  8.21177 3.17203
0.992262   0.979777   99.8935  8.00069 3.00396
0.903481   0.892158   99.8831  9.32724 4.71429
0.829282   0.818585   99.8302  12.4087 4.71429
0.766345   0.75648   99.8163  12.4088 4.71429
0.712288   0.703145   99.8517  12.4089 4.71429
0.665354   0.656848   99.8413  12.4087 4.71429
0.624223   0.61628   99.8308  11.9291 4.71429
0.587881   0.580417   99.8204  12.4095 4.71429
0.50047   0.49417   99.789  12.4091 4.71429
0.476837   0.470837   99.7786  12.3293 4.71429
