#distance AppRate	MeanTx_1	Goodput(MeanRx)_1	TcpDelay_1	ul pdcp delay		ul rlc delay		lostPkt_1  MeanTx_2	Goodput(MeanRx)_2	TcpDelay_2	dl pdcp delay		dl rlc delay		lostPkt_2		UlTx		UlRx	DlTx	DlRx	ErrorUlRx	Error DlRx	UlTxHARQ	DlTxHARQ
100	110   0.00467811	0.00467811	31.9296	11.9286		4.71428		298	298		0	0.11426	0.11426	23.5447	3.53336		3		596 	301		0	683016	683016	660996		660996		0	0	0	0	
100	210   0.00890109	0.00890096	31.9278	11.9268		4.71428		568	565		0	0.218074	0.218077	23.5667	3.55534		3		1136 	568		0	1297272	1294980	1247328		1247328		0	0	0	0	
100	310   0.013124	0.0131238	31.9224	11.9214		4.71428		837	830		0	0.321887	0.32189	23.5157	3.50423		3		1674 	833		0	1909236	1902360	1829268		1829268		0	0	0	0	
100	410   0.0173468	0.0173467	31.9169	11.9159		4.71428		1107	1092		0	0.425684	0.425687	23.5174	3.50582		3		2213 	1099		0	2516616	2502864	2413404		2413404		0	0	0	0	
100	510   0.0215699	0.0215695	31.9027	11.9017		4.71428		1376	1355		0	0.529498	0.529504	23.5417	3.52995		3		2751 	1366		0	3128580	3103368	2999736		2999736		0	0	0	0	
100	610   0.0257774	0.0257767	31.9028	11.9018		4.71428		1645	1617		0	0.63328	0.633293	23.5275	3.5156		3		3289 	1632		0	3735960	3706164	3583872		3583872		0	0	0	0	
100	710   0.0299847	0.0299838	31.8846	11.8836		4.71428		1913	1875		0	0.737077	0.737093	23.5393	3.52713		3		3826 	1896		0	4341048	4297500	4163616		4163616		0	0	0	0	
100	810   0.0342079	0.0342067	31.8764	11.8754		4.71428		2183	2139		0	0.840875	0.840898	23.5939	3.58167		3		4365 	2163		0	4953012	4900296	4749948		4749948		0	0	0	0	
100	910   0.0384154	0.0384295	31.263	11.2624		4.71428		2451	2190		0	0.944672	0.944703	23.5644	3.55187		3		4904 	2452		0	5558100	5019480	5384592		5384592		0	0	0	0	
100	1010   0.0426228	0.0426367	25.922	5.91974		4.71428		2720	2323		0	1.04845	1.04849	23.5764	3.56358		3		5440 	2718		0	6165480	5322024	5968728		5968728		0	0	0	0	
100	1310   0.0552457	0.0552582	26.4927	6.49157		4.71428		3525	3448		0	1.3598	1.35987	23.6208	3.60778		3		7052 	3485		0	7978452	7900524	7650864		7650864		0	0	0	0	
100	1610   0.0678987	0.0679128	27.4672	7.46609		4.71428		4333	4239		0	1.67119	1.67126	23.6514	3.63819		3		8665 	4283		0	9798300	9713496	9405468		9405468		0	0	0	0	
100	1910   0.0805057	0.0805325	26.5773	6.57628		4.71428		5137	3876		0	1.98252	1.98262	23.685	3.67167		3		10276 	5094		0	11606688	8881500	11184228		11184228		0	0	0	0	
100	2210   0.0931433	0.093171	25.4689	5.46762		4.71428		5944	5813		0	2.29388	2.29398	23.7221	3.70892		3		11889 	5882		0	13419660	13321104	12916872		12916872		0	0	0	0	
100	2510   0.105512	0.105545	26.222	6.22095		4.71428		6733	6588		0	2.59839	2.59844	23.724	3.71101		3		13467 	6663		0	15209712	15095112	14629752		14629752		0	0	0	0	
100	2810   0.117808	0.117847	26.2042	6.20292		4.71428		7518	5084		0	2.90029	2.9004	23.7078	3.69491		3		15038 	7448		0	16999764	11650236	16353612		16353612		0	0	0	0	
100	3110   0.130116	0.13016	25.0395	5.03832		4.71428		8303	8150		0	3.20219	3.20228	23.695	3.6822		3		16609 	8231		0	18789816	18675216	18073080		18073080		0	0	0	0	
100	3410   0.142394	0.142433	25.6294	5.62837		4.71428		9087	8930		0	3.50334	3.50346	23.6832	3.6705		3		18175 	9016		0	20577576	20462976	19796940		19796940		0	0	0	0	
100	3710   0.154672	0.154715	25.7211	5.7202		4.71428		9871	9140		0	3.80449	3.80461	23.674	3.66143		3		19743 	9800		0	22365336	20944296	21518604		21518604		0	0	0	0	
100	4010   0.166918	0.166973	25.1516	5.15038		4.71428		10652	8598		0	4.10524	4.10536	23.6649	3.6524		3		21308 	10581		0	24153096	19702032	23233680		23233680		0	0	0	0	
100	4310   0.179194	0.179247	25.2847	5.28363		4.71428		11436	11262		0	4.40637	4.40647	23.6585	3.64613		3		22873 	11362		0	25931688	25805628	24948756		24948756		0	0	0	0	
100	4610   0.191442	0.191506	25.5212	5.51999		4.71428		12217	9757		0	4.70711	4.70724	23.6544	3.64203		3		24437 	12134		0	27707988	22358460	26644068		26644068		0	0	0	0	
100	4910   0.20367	0.203738	25.2943	5.29297		4.71428		12998	8593		0	5.00783	5.00789	23.6524	3.64003		3		26000 	12914		0	29484288	19692864	28356948		28356948		0	0	0	0	
100	5510   0.22813	0.228203	25.2656	5.26447		4.71428		14559	12090		0	5.60816	5.6082	23.6427	3.63043		3		29121 	14477		0	33048348	27705696	31789296		31789296		0	0	0	0	
100	6110   0.252558	0.252644	25.0339	5.03277		4.71428		16118	14792		0	6.20811	6.20812	23.6372	3.62501		3		32240 	16023		0	36584904	33898680	35182116		35182116		0	0	0	0	
100	6710   0.276955	0.27705	25.0334	5.03225		4.71428		17675	16181		0	6.80797	6.80795	23.6383	3.6261		3		35355 	17575		0	40116876	37077684	38590308		38590308		0	0	0	0	
100	7310   0.301305	0.301409	24.964	4.9629		4.71428		19229	18670		0	7.4081	7.40806	23.6437	3.63151		3		38463 	18754		0	42954372	42782472	41179392		41179392		0	0	0	0	
100	7910   0.32553	0.325642	24.9643	4.96319		4.71428		20775	18636		0	8.00624	8.00616	23.6527	3.64049		3		41556 	18727		0	42894780	42704544	41120100		41120100		0	0	0	0	
100	9010   0.368699	0.368819	24.9867	4.98549		4.71428		23530	18315		0	9.10007	9.10012	23.7762	3.76355		3		47068 	18495		0	42360744	41968812	40610628		40610628		0	0	0	0	
100	10110   0.328351	0.328755	25.7466	5.7442		4.71428		20955	8909		0	9.46783	9.45585	29.1299	9.09844		3		41947 	11343		0	25975236	20419428	24904836		24904836		0	0	0	0	
100	11210   0.328351	0.328755	25.7466	5.7442		4.71428		20955	8909		0	9.46783	9.45585	29.1299	9.09844		3		41947 	11343		0	25975236	20419428	24904836		24904836		0	0	0	0	
100	12310   0.328351	0.328755	25.7466	5.7442		4.71428		20955	8909		0	9.46783	9.45585	29.1299	9.09844		3		41947 	11343		0	25975236	20419428	24904836		24904836		0	0	0	0	
100	13410   0.328351	0.328755	25.7466	5.7442		4.71428		20955	8909		0	9.46783	9.45585	29.1299	9.09844		3		41947 	11343		0	25975236	20419428	24904836		24904836		0	0	0	0	
100	14510   0.328351	0.328755	25.7466	5.7442		4.71428		20955	8909		0	9.46783	9.45585	29.1299	9.09844		3		41947 	11343		0	25975236	20419428	24904836		24904836		0	0	0	0	
100	15610   0.328351	0.328755	25.7466	5.7442		4.71428		20955	8909		0	9.46783	9.45585	29.1299	9.09844		3		41947 	11343		0	25975236	20419428	24904836		24904836		0	0	0	0	
100	16710   0.328351	0.328755	25.7466	5.7442		4.71428		20955	8909		0	9.46783	9.45585	29.1299	9.09844		3		41947 	11343		0	25975236	20419428	24904836		24904836		0	0	0	0	
100	17810   0.328351	0.328755	25.7466	5.7442		4.71428		20955	8909		0	9.46783	9.45585	29.1299	9.09844		3		41947 	11343		0	25975236	20419428	24904836		24904836		0	0	0	0	
100	18910   0.328351	0.328755	25.7466	5.7442		4.71428		20955	8909		0	9.46783	9.45585	29.1299	9.09844		3		41947 	11343		0	25975236	20419428	24904836		24904836		0	0	0	0	
100	20010   0.328351	0.328755	25.7466	5.7442		4.71428		20955	8909		0	9.46783	9.45585	29.1299	9.09844		3		41947 	11343		0	25975236	20419428	24904836		24904836		0	0	0	0	
100	21110   0.328351	0.328755	25.7466	5.7442		4.71428		20955	8909		0	9.46783	9.45585	29.1299	9.09844		3		41947 	11343		0	25975236	20419428	24904836		24904836		0	0	0	0	
100	22210   0.328351	0.328755	25.7466	5.7442		4.71428		20955	8909		0	9.46783	9.45585	29.1299	9.09844		3		41947 	11343		0	25975236	20419428	24904836		24904836		0	0	0	0	
100	23310   0.328351	0.328755	25.7466	5.7442		4.71428		20955	8909		0	9.46783	9.45585	29.1299	9.09844		3		41947 	11343		0	25975236	20419428	24904836		24904836		0	0	0	0	
100	24410   0.328351	0.328755	25.7466	5.7442		4.71428		20955	8909		0	9.46783	9.45585	29.1299	9.09844		3		41947 	11343		0	25975236	20419428	24904836		24904836		0	0	0	0	
100	25510   0.328351	0.328755	25.7466	5.7442		4.71428		20955	8909		0	9.46783	9.45585	29.1299	9.09844		3		41947 	11343		0	25975236	20419428	24904836		24904836		0	0	0	0	
100	26610   0.328351	0.328755	25.7466	5.7442		4.71428		20955	8909		0	9.46783	9.45585	29.1299	9.09844		3		41947 	11343		0	25975236	20419428	24904836		24904836		0	0	0	0	
100	27710   0.328351	0.328755	25.7466	5.7442		4.71428		20955	8909		0	9.46783	9.45585	29.1299	9.09844		3		41947 	11343		0	25975236	20419428	24904836		24904836		0	0	0	0	
100	28810   0.328351	0.328755	25.7466	5.7442		4.71428		20955	8909		0	9.46783	9.45585	29.1299	9.09844		3		41947 	11343		0	25975236	20419428	24904836		24904836		0	0	0	0	
100	29910   0.328351	0.328755	25.7466	5.7442		4.71428		20955	8909		0	9.46783	9.45585	29.1299	9.09844		3		41947 	11343		0	25975236	20419428	24904836		24904836		0	0	0	0	
100	31010   0.328351	0.328755	25.7466	5.7442		4.71428		20955	8909		0	9.46783	9.45585	29.1299	9.09844		3		41947 	11343		0	25975236	20419428	24904836		24904836		0	0	0	0	
100	32110   0.328351	0.328755	25.7466	5.7442		4.71428		20955	8909		0	9.46783	9.45585	29.1299	9.09844		3		41947 	11343		0	25975236	20419428	24904836		24904836		0	0	0	0	
100	33210   0.328351	0.328755	25.7466	5.7442		4.71428		20955	8909		0	9.46783	9.45585	29.1299	9.09844		3		41947 	11343		0	25975236	20419428	24904836		24904836		0	0	0	0	
100	34310   0.328351	0.328755	25.7466	5.7442		4.71428		20955	8909		0	9.46783	9.45585	29.1299	9.09844		3		41947 	11343		0	25975236	20419428	24904836		24904836		0	0	0	0	
100	35410   0.328351	0.328755	25.7466	5.7442		4.71428		20955	8909		0	9.46783	9.45585	29.1299	9.09844		3		41947 	11343		0	25975236	20419428	24904836		24904836		0	0	0	0	
100	36510   0.328351	0.328755	25.7466	5.7442		4.71428		20955	8909		0	9.46783	9.45585	29.1299	9.09844		3		41947 	11343		0	25975236	20419428	24904836		24904836		0	0	0	0	
100	37610   0.328351	0.328755	25.7466	5.7442		4.71428		20955	8909		0	9.46783	9.45585	29.1299	9.09844		3		41947 	11343		0	25975236	20419428	24904836		24904836		0	0	0	0	
100	38710   0.328351	0.328755	25.7466	5.7442		4.71428		20955	8909		0	9.46783	9.45585	29.1299	9.09844		3		41947 	11343		0	25975236	20419428	24904836		24904836		0	0	0	0	
100	39810   0.328351	0.328755	25.7466	5.7442		4.71428		20955	8909		0	9.46783	9.45585	29.1299	9.09844		3		41947 	11343		0	25975236	20419428	24904836		24904836		0	0	0	0	
100	40910   0.328351	0.328755	25.7466	5.7442		4.71428		20955	8909		0	9.46783	9.45585	29.1299	9.09844		3		41947 	11343		0	25975236	20419428	24904836		24904836		0	0	0	0	
100	42010   0.328351	0.328755	25.7466	5.7442		4.71428		20955	8909		0	9.46783	9.45585	29.1299	9.09844		3		41947 	11343		0	25975236	20419428	24904836		24904836		0	0	0	0	
100	43110   0.328351	0.328755	25.7466	5.7442		4.71428		20955	8909		0	9.46783	9.45585	29.1299	9.09844		3		41947 	11343		0	25975236	20419428	24904836		24904836		0	0	0	0	
100	44210   0.328351	0.328755	25.7466	5.7442		4.71428		20955	8909		0	9.46783	9.45585	29.1299	9.09844		3		41947 	11343		0	25975236	20419428	24904836		24904836		0	0	0	0	
100	45310   0.328351	0.328755	25.7466	5.7442		4.71428		20955	8909		0	9.46783	9.45585	29.1299	9.09844		3		41947 	11343		0	25975236	20419428	24904836		24904836		0	0	0	0	
100	46410   0.328351	0.328755	25.7466	5.7442		4.71428		20955	8909		0	9.46783	9.45585	29.1299	9.09844		3		41947 	11343		0	25975236	20419428	24904836		24904836		0	0	0	0	
100	47510   0.328351	0.328755	25.7466	5.7442		4.71428		20955	8909		0	9.46783	9.45585	29.1299	9.09844		3		41947 	11343		0	25975236	20419428	24904836		24904836		0	0	0	0	
100	48610   0.328351	0.328755	25.7466	5.7442		4.71428		20955	8909		0	9.46783	9.45585	29.1299	9.09844		3		41947 	11343		0	25975236	20419428	24904836		24904836		0	0	0	0	
100	49710   0.328351	0.328755	25.7466	5.7442		4.71428		20955	8909		0	9.46783	9.45585	29.1299	9.09844		3		41947 	11343		0	25975236	20419428	24904836		24904836		0	0	0	0	
