#AppRate	MeanTx_1	Goodput(MeanRx)_1	TcpDelay_1	ul pdcp delay		ul rlc delay		lostPkt_1  MeanTx_2	Goodput(MeanRx)_2	TcpDelay_2	dl pdcp delay		dl rlc delay		lostPkt_2		UlTx		UlRx	DlTx	DlRx
10   0.0104159	0.0104158	31.9393	11.9286		4.71428		0	0.000455252	0.000455252	23.0593	3.05835		3		0	68760	68760	127455		127455
110   0.11426	0.11426	32.3917	12.3806		4.71428		0	0.0046781	0.00467811	23.0619	3.0609		3		0	689892	689892	1309710		1309710
210   0.218074	0.218073	32.3632	12.3526		4.71428		0	0.00890096	0.00890096	23.0618	3.06084		3		0	1301856	1301856	2487570		2487570
310   0.321887	0.321874	32.4179	12.4067		4.71428		0	0.0131233	0.0131238	23.0618	3.06081		3		0	1913820	1911528	3656640		3656640
410   0.425669	0.425659	32.4227	12.4119		4.71428		0	0.0173306	0.017331	23.0618	3.06078		3		0	2528076	2521200	4821315		4821315
510   0.529498	0.529473	32.4046	12.3937		4.71428		0	0.0215686	0.0215695	23.0586	3.05757		3		0	3144624	3133164	5990385		5990385
610   0.63328	0.633266	32.429	12.4179		4.71428		0	0.0257762	0.0257767	23.0585	3.05755		3		0	3761172	3742836	7155060		7155060
710   0.737061	0.737033	32.4357	12.4245		4.71428		0	0.0299828	0.0299838	23.0585	3.05753		3		0	4380012	4343340	8306550		8306550
810   0.840875	0.840859	32.3897	12.3784		4.71428		0	0.0342063	0.0342067	23.0585	3.05754		3		0	4996560	4955304	9475620		9475620
910   0.944672	0.944658	31.1267	11.1154		4.71428		0	0.0384135	0.0384277	23.0602	3.05925		3		0	4950720	4600044	8790000		8790000
1010   1.04844	1.04879	26.3934	6.37964		4.71428		0	0.0426355	0.0426367	23.0575	3.05648		3		0	5443500	5386200	10301880		10301880
1310   1.3598	1.36015	27.1295	7.1177		4.71428		0	0.055257	0.0552582	23.0617	3.06069		3		0	8054088	7978452	15259440		15259440
1610   1.67118	1.67154	28.1362	8.12473		4.71428		0	0.0678952	0.0678936	23.0617	3.06067		3		0	9878520	9802884	18753465		18753465
1910   1.98251	1.98321	27.0758	7.06257		4.71428		0	0.0805305	0.0805159	23.0566	3.05562		3		0	9259680	8984640	17184450		17184450
2210   2.29388	2.29454	26.2097	6.19811		4.71428		0	0.0931658	0.0931662	23.0585	3.05752		3		0	13518216	13426536	25684380		25684380
2510   2.59874	2.59947	26.9597	6.94818		4.71428		0	0.10554	0.105539	23.0585	3.05752		3		0	15324312	15214296	29103690		29103690
2810   2.90028	2.90096	27.0824	7.0673		4.71428		0	0.117831	0.117829	23.0549	3.05391		3		0	13531968	9681408	18520530		18520530
3110   3.20218	3.20325	25.7458	5.73432		4.71428		0	0.13014	0.130137	23.0617	3.06069		3		0	18904416	18796692	35959890		35959890
3410   3.50369	3.50468	26.3249	6.31325		4.71428		0	0.14243	0.142426	23.0585	3.05754		3		0	20692176	20582160	39374805		39374805
3710   3.80446	3.80576	26.8494	6.83642		4.71428		0	0.154704	0.154691	23.0571	3.05616		3		0	20669256	17648400	33753600		33753600
4010   4.10561	4.10703	25.6497	5.63666		4.71428		0	0.166987	0.16698	23.057	3.05604		3		0	19928940	19823508	37924455		37924455
4310   4.40634	4.4077	25.9518	5.94035		4.71428		0	0.17923	0.179222	23.0585	3.05755		3		0	26060040	25938564	49615155		49615155
4610   4.70743	4.70872	26.3523	6.33752		4.71428		0	0.191474	0.191471	23.0552	3.05418		3		0	22617456	16630752	31815405		31815405
4910   5.00815	5.00989	25.7478	5.73354		4.71428		0	0.203722	0.203712	23.059	3.05796		3		0	23389860	19823508	37924455		37924455
5510   5.60815	5.60972	26.0609	6.04687		4.71428		0	0.228176	0.228176	23.0592	3.05818		3		0	28379544	23036892	44073060		44073060
6110   6.20842	6.21021	25.6118	5.59969		4.71428		0	0.252615	0.252616	23.058	3.05697		3		0	34187472	34049952	65142690		65142690
6710   6.80826	6.81027	26.3276	6.31403		4.71428		0	0.277006	0.276957	23.0576	3.05664		3		0	32470764	29431572	56304345		56304345
7310   7.40836	7.41059	26.2579	6.24454		4.71428		0	0.301351	0.301346	23.058	3.05702		3		0	37953228	37790496	72271380		72271380
7910   8.00611	8.00856	25.5732	5.56021		4.71428		0	0.32557	0.325563	23.0599	3.05896		3		0	38918160	38730216	74090910		74090910
9010   9.09983	9.10284	25.6096	5.59602		4.71428		0	0.368521	0.368502	23.0598	3.05881		3		0	42218640	41815248	79980210		79980210
10110   9.46585	9.46504	31.8125	11.7954		4.71428		0	0.32867	0.32867	23.0553	3.05431		3		0	30786144	24448764	46793565		46793565
11210   9.46585	9.46504	31.8125	11.7954		4.71428		0	0.32867	0.32867	23.0553	3.05431		3		0	30786144	24448764	46793565		46793565
12310   9.46585	9.46504	31.8125	11.7954		4.71428		0	0.32867	0.32867	23.0553	3.05431		3		0	30786144	24448764	46793565		46793565
13410   9.46585	9.46504	31.8125	11.7954		4.71428		0	0.32867	0.32867	23.0553	3.05431		3		0	30786144	24448764	46793565		46793565
14510   9.46585	9.46504	31.8125	11.7954		4.71428		0	0.32867	0.32867	23.0553	3.05431		3		0	30786144	24448764	46793565		46793565
15610   9.46585	9.46504	31.8125	11.7954		4.71428		0	0.32867	0.32867	23.0553	3.05431		3		0	30786144	24448764	46793565		46793565
16710   9.46585	9.46504	31.8125	11.7954		4.71428		0	0.32867	0.32867	23.0553	3.05431		3		0	30786144	24448764	46793565		46793565
17810   9.46585	9.46504	31.8125	11.7954		4.71428		0	0.32867	0.32867	23.0553	3.05431		3		0	30786144	24448764	46793565		46793565
18910   9.46585	9.46504	31.8125	11.7954		4.71428		0	0.32867	0.32867	23.0553	3.05431		3		0	30786144	24448764	46793565		46793565
20010   9.46585	9.46504	31.8125	11.7954		4.71428		0	0.32867	0.32867	23.0553	3.05431		3		0	30786144	24448764	46793565		46793565
21110   9.46585	9.46504	31.8125	11.7954		4.71428		0	0.32867	0.32867	23.0553	3.05431		3		0	30786144	24448764	46793565		46793565
22210   9.46585	9.46504	31.8125	11.7954		4.71428		0	0.32867	0.32867	23.0553	3.05431		3		0	30786144	24448764	46793565		46793565
23310   9.46585	9.46504	31.8125	11.7954		4.71428		0	0.32867	0.32867	23.0553	3.05431		3		0	30786144	24448764	46793565		46793565
24410   9.46585	9.46504	31.8125	11.7954		4.71428		0	0.32867	0.32867	23.0553	3.05431		3		0	30786144	24448764	46793565		46793565
25510   9.46585	9.46504	31.8125	11.7954		4.71428		0	0.32867	0.32867	23.0553	3.05431		3		0	30786144	24448764	46793565		46793565
26610   9.46585	9.46504	31.8125	11.7954		4.71428		0	0.32867	0.32867	23.0553	3.05431		3		0	30786144	24448764	46793565		46793565
27710   9.46585	9.46504	31.8125	11.7954		4.71428		0	0.32867	0.32867	23.0553	3.05431		3		0	30786144	24448764	46793565		46793565
28810   9.46585	9.46504	31.8125	11.7954		4.71428		0	0.32867	0.32867	23.0553	3.05431		3		0	30786144	24448764	46793565		46793565
29910   9.46585	9.46504	31.8125	11.7954		4.71428		0	0.32867	0.32867	23.0553	3.05431		3		0	30786144	24448764	46793565		46793565
31010   9.46585	9.46504	31.8125	11.7954		4.71428		0	0.32867	0.32867	23.0553	3.05431		3		0	30786144	24448764	46793565		46793565
32110   9.46585	9.46504	31.8125	11.7954		4.71428		0	0.32867	0.32867	23.0553	3.05431		3		0	30786144	24448764	46793565		46793565
33210   9.46585	9.46504	31.8125	11.7954		4.71428		0	0.32867	0.32867	23.0553	3.05431		3		0	30786144	24448764	46793565		46793565
34310   9.46585	9.46504	31.8125	11.7954		4.71428		0	0.32867	0.32867	23.0553	3.05431		3		0	30786144	24448764	46793565		46793565
35410   9.46585	9.46504	31.8125	11.7954		4.71428		0	0.32867	0.32867	23.0553	3.05431		3		0	30786144	24448764	46793565		46793565
36510   9.46585	9.46504	31.8125	11.7954		4.71428		0	0.32867	0.32867	23.0553	3.05431		3		0	30786144	24448764	46793565		46793565
37610   9.46585	9.46504	31.8125	11.7954		4.71428		0	0.32867	0.32867	23.0553	3.05431		3		0	30786144	24448764	46793565		46793565
38710   9.46585	9.46504	31.8125	11.7954		4.71428		0	0.32867	0.32867	23.0553	3.05431		3		0	30786144	24448764	46793565		46793565
39810   9.46585	9.46504	31.8125	11.7954		4.71428		0	0.32867	0.32867	23.0553	3.05431		3		0	30786144	24448764	46793565		46793565
40910   9.46585	9.46504	31.8125	11.7954		4.71428		0	0.32867	0.32867	23.0553	3.05431		3		0	30786144	24448764	46793565		46793565
42010   9.46585	9.46504	31.8125	11.7954		4.71428		0	0.32867	0.32867	23.0553	3.05431		3		0	30786144	24448764	46793565		46793565
43110   9.46585	9.46504	31.8125	11.7954		4.71428		0	0.32867	0.32867	23.0553	3.05431		3		0	30786144	24448764	46793565		46793565
44210   9.46585	9.46504	31.8125	11.7954		4.71428		0	0.32867	0.32867	23.0553	3.05431		3		0	30786144	24448764	46793565		46793565
45310   9.46585	9.46504	31.8125	11.7954		4.71428		0	0.32867	0.32867	23.0553	3.05431		3		0	30786144	24448764	46793565		46793565
46410   9.46585	9.46504	31.8125	11.7954		4.71428		0	0.32867	0.32867	23.0553	3.05431		3		0	30786144	24448764	46793565		46793565
47510   9.46585	9.46504	31.8125	11.7954		4.71428		0	0.32867	0.32867	23.0553	3.05431		3		0	30786144	24448764	46793565		46793565
48610   9.46585	9.46504	31.8125	11.7954		4.71428		0	0.32867	0.32867	23.0553	3.05431		3		0	30786144	24448764	46793565		46793565
49710   9.46585	9.46504	31.8125	11.7954		4.71428		0	0.32867	0.32867	23.0553	3.05431		3		0	30786144	24448764	46793565		46793565
