<?xml version="1.0" encoding="utf-8"  standalone="no"?>
<!DOCTYPE svg PUBLIC "-//W3C//DTD SVG 1.1//EN" 
 "http://www.w3.org/Graphics/SVG/1.1/DTD/svg11.dtd">
<svg 
 width="600" height="480" 
 viewBox="0 0 600 480"
 xmlns="http://www.w3.org/2000/svg"
 xmlns:xlink="http://www.w3.org/1999/xlink"
>

<title>Gnuplot</title>
<desc>Produced by GNUPLOT 4.6 patchlevel 1 </desc>

<g id="gnuplot_canvas">

<rect x="0" y="0" width="600" height="480" fill="none"/>
<defs>

	<circle id='gpDot' r='0.5' stroke-width='0.5'/>
	<path id='gpPt0' stroke-width='0.222' stroke='currentColor' d='M-1,0 h2 M0,-1 v2'/>
	<path id='gpPt1' stroke-width='0.222' stroke='currentColor' d='M-1,-1 L1,1 M1,-1 L-1,1'/>
	<path id='gpPt2' stroke-width='0.222' stroke='currentColor' d='M-1,0 L1,0 M0,-1 L0,1 M-1,-1 L1,1 M-1,1 L1,-1'/>
	<rect id='gpPt3' stroke-width='0.222' stroke='currentColor' x='-1' y='-1' width='2' height='2'/>
	<rect id='gpPt4' stroke-width='0.222' stroke='currentColor' fill='currentColor' x='-1' y='-1' width='2' height='2'/>
	<circle id='gpPt5' stroke-width='0.222' stroke='currentColor' cx='0' cy='0' r='1'/>
	<use xlink:href='#gpPt5' id='gpPt6' fill='currentColor' stroke='none'/>
	<path id='gpPt7' stroke-width='0.222' stroke='currentColor' d='M0,-1.33 L-1.33,0.67 L1.33,0.67 z'/>
	<use xlink:href='#gpPt7' id='gpPt8' fill='currentColor' stroke='none'/>
	<use xlink:href='#gpPt7' id='gpPt9' stroke='currentColor' transform='rotate(180)'/>
	<use xlink:href='#gpPt9' id='gpPt10' fill='currentColor' stroke='none'/>
	<use xlink:href='#gpPt3' id='gpPt11' stroke='currentColor' transform='rotate(45)'/>
	<use xlink:href='#gpPt11' id='gpPt12' fill='currentColor' stroke='none'/>
</defs>
<g style="fill:none; color:white; stroke:currentColor; stroke-width:1.00; stroke-linecap:butt; stroke-linejoin:miter">
</g>
<g style="fill:none; color:black; stroke:currentColor; stroke-width:1.00; stroke-linecap:butt; stroke-linejoin:miter">
	<path  d='M80.2,422.4 L89.2,422.4 M391.7,422.4 L382.7,422.4  h0.01'/>	<g transform="translate(71.9,426.9)" style="stroke:none; fill:black; font-family:Arial; font-size:12.00pt; text-anchor:end">
		<text> 1</text>
	</g>
	<path  d='M80.2,385.4 L84.7,385.4 M391.7,385.4 L387.2,385.4 M80.2,363.8 L84.7,363.8 M391.7,363.8 L387.2,363.8 
		M80.2,348.5 L84.7,348.5 M391.7,348.5 L387.2,348.5 M80.2,336.6 L84.7,336.6 M391.7,336.6 L387.2,336.6 
		M80.2,326.9 L84.7,326.9 M391.7,326.9 L387.2,326.9 M80.2,318.7 L84.7,318.7 M391.7,318.7 L387.2,318.7 
		M80.2,311.5 L84.7,311.5 M391.7,311.5 L387.2,311.5 M80.2,305.3 L84.7,305.3 M391.7,305.3 L387.2,305.3 
		M80.2,299.6 L89.2,299.6 M391.7,299.6 L382.7,299.6  h0.01'/>	<g transform="translate(71.9,304.1)" style="stroke:none; fill:black; font-family:Arial; font-size:12.00pt; text-anchor:end">
		<text> 10</text>
	</g>
	<path  d='M80.2,262.7 L84.7,262.7 M391.7,262.7 L387.2,262.7 M80.2,241.1 L84.7,241.1 M391.7,241.1 L387.2,241.1 
		M80.2,225.7 L84.7,225.7 M391.7,225.7 L387.2,225.7 M80.2,213.8 L84.7,213.8 M391.7,213.8 L387.2,213.8 
		M80.2,204.1 L84.7,204.1 M391.7,204.1 L387.2,204.1 M80.2,195.9 L84.7,195.9 M391.7,195.9 L387.2,195.9 
		M80.2,188.8 L84.7,188.8 M391.7,188.8 L387.2,188.8 M80.2,182.5 L84.7,182.5 M391.7,182.5 L387.2,182.5 
		M80.2,176.9 L89.2,176.9 M391.7,176.9 L382.7,176.9  h0.01'/>	<g transform="translate(71.9,181.4)" style="stroke:none; fill:black; font-family:Arial; font-size:12.00pt; text-anchor:end">
		<text> 100</text>
	</g>
	<path  d='M80.2,139.9 L84.7,139.9 M391.7,139.9 L387.2,139.9 M80.2,118.3 L84.7,118.3 M391.7,118.3 L387.2,118.3 
		M80.2,103.0 L84.7,103.0 M391.7,103.0 L387.2,103.0 M80.2,91.1 L84.7,91.1 M391.7,91.1 L387.2,91.1 
		M80.2,81.3 L84.7,81.3 M391.7,81.3 L387.2,81.3 M80.2,73.1 L84.7,73.1 M391.7,73.1 L387.2,73.1 
		M80.2,66.0 L84.7,66.0 M391.7,66.0 L387.2,66.0 M80.2,59.7 L84.7,59.7 M391.7,59.7 L387.2,59.7 
		M80.2,54.1 L89.2,54.1 M391.7,54.1 L382.7,54.1  h0.01'/>	<g transform="translate(71.9,58.6)" style="stroke:none; fill:black; font-family:Arial; font-size:12.00pt; text-anchor:end">
		<text> 1000</text>
	</g>
	<path  d='M80.2,422.4 L80.2,413.4 M80.2,54.1 L80.2,63.1  h0.01'/>	<g transform="translate(80.2,444.9)" style="stroke:none; fill:black; font-family:Arial; font-size:12.00pt; text-anchor:middle">
		<text> 0</text>
	</g>
	<path  d='M108.5,422.4 L108.5,413.4 M108.5,54.1 L108.5,63.1  h0.01'/>	<g transform="translate(108.5,444.9)" style="stroke:none; fill:black; font-family:Arial; font-size:12.00pt; text-anchor:middle">
		<text> 5</text>
	</g>
	<path  d='M136.8,422.4 L136.8,413.4 M136.8,54.1 L136.8,63.1  h0.01'/>	<g transform="translate(136.8,444.9)" style="stroke:none; fill:black; font-family:Arial; font-size:12.00pt; text-anchor:middle">
		<text> 10</text>
	</g>
	<path  d='M165.2,422.4 L165.2,413.4 M165.2,54.1 L165.2,63.1  h0.01'/>	<g transform="translate(165.2,444.9)" style="stroke:none; fill:black; font-family:Arial; font-size:12.00pt; text-anchor:middle">
		<text> 15</text>
	</g>
	<path  d='M193.5,422.4 L193.5,413.4 M193.5,54.1 L193.5,63.1  h0.01'/>	<g transform="translate(193.5,444.9)" style="stroke:none; fill:black; font-family:Arial; font-size:12.00pt; text-anchor:middle">
		<text> 20</text>
	</g>
	<path  d='M221.8,422.4 L221.8,413.4 M221.8,54.1 L221.8,63.1  h0.01'/>	<g transform="translate(221.8,444.9)" style="stroke:none; fill:black; font-family:Arial; font-size:12.00pt; text-anchor:middle">
		<text> 25</text>
	</g>
	<path  d='M250.1,422.4 L250.1,413.4 M250.1,54.1 L250.1,63.1  h0.01'/>	<g transform="translate(250.1,444.9)" style="stroke:none; fill:black; font-family:Arial; font-size:12.00pt; text-anchor:middle">
		<text> 30</text>
	</g>
	<path  d='M278.4,422.4 L278.4,413.4 M278.4,54.1 L278.4,63.1  h0.01'/>	<g transform="translate(278.4,444.9)" style="stroke:none; fill:black; font-family:Arial; font-size:12.00pt; text-anchor:middle">
		<text> 35</text>
	</g>
	<path  d='M306.7,422.4 L306.7,413.4 M306.7,54.1 L306.7,63.1  h0.01'/>	<g transform="translate(306.7,444.9)" style="stroke:none; fill:black; font-family:Arial; font-size:12.00pt; text-anchor:middle">
		<text> 40</text>
	</g>
	<path  d='M335.1,422.4 L335.1,413.4 M335.1,54.1 L335.1,63.1  h0.01'/>	<g transform="translate(335.1,444.9)" style="stroke:none; fill:black; font-family:Arial; font-size:12.00pt; text-anchor:middle">
		<text> 45</text>
	</g>
	<path  d='M363.4,422.4 L363.4,413.4 M363.4,54.1 L363.4,63.1  h0.01'/>	<g transform="translate(363.4,444.9)" style="stroke:none; fill:black; font-family:Arial; font-size:12.00pt; text-anchor:middle">
		<text> 50</text>
	</g>
	<path  d='M391.7,422.4 L391.7,413.4 M391.7,54.1 L391.7,63.1  h0.01'/>	<g transform="translate(391.7,444.9)" style="stroke:none; fill:black; font-family:Arial; font-size:12.00pt; text-anchor:middle">
		<text> 55</text>
	</g>
	<path  d='M80.2,54.1 L80.2,422.4 L391.7,422.4 L391.7,54.1 L80.2,54.1 Z  h0.01'/>	<g transform="translate(17.6,238.3) rotate(270)" style="stroke:none; fill:black; font-family:Arial; font-size:12.00pt; text-anchor:middle">
		<text>Latency/Delay (ms)</text>
	</g>
	<g transform="translate(235.9,471.9)" style="stroke:none; fill:black; font-family:Arial; font-size:12.00pt; text-anchor:middle">
		<text>Application Rate (Mbps)</text>
	</g>
	<g transform="translate(235.9,31.6)" style="stroke:none; fill:black; font-family:Arial; font-size:12.00pt; text-anchor:middle">
		<text>Traffic Rate and Latency (25 RBs Uplink, peak rate ~17.75Mbps)</text>
	</g>
</g>
	<g id="gnuplot_plot_1" ><title>gnuplot_plot_1</title>
<g style="fill:none; color:red; stroke:currentColor; stroke-width:1.00; stroke-linecap:butt; stroke-linejoin:miter">
	<g transform="translate(532.8,67.6)" style="stroke:none; fill:black; font-family:Arial; font-size:12.00pt; text-anchor:end">
		<text>Overall Latency</text>
	</g>
	<use xlink:href='#gpPt0' transform='translate(118.0,214.7) scale(4.50)'/>
	<use xlink:href='#gpPt0' transform='translate(116.2,215.2) scale(4.50)'/>
	<use xlink:href='#gpPt0' transform='translate(114.6,215.7) scale(4.50)'/>
	<use xlink:href='#gpPt0' transform='translate(113.2,216.0) scale(4.50)'/>
	<use xlink:href='#gpPt0' transform='translate(111.8,215.5) scale(4.50)'/>
	<use xlink:href='#gpPt0' transform='translate(110.6,215.6) scale(4.50)'/>
	<use xlink:href='#gpPt0' transform='translate(379.3,57.7) scale(4.50)'/>
	<use xlink:href='#gpPt0' transform='translate(109.4,215.6) scale(4.50)'/>
	<use xlink:href='#gpPt0' transform='translate(108.4,215.9) scale(4.50)'/>
	<use xlink:href='#gpPt0' transform='translate(358.0,57.9) scale(4.50)'/>
	<use xlink:href='#gpPt0' transform='translate(107.4,216.0) scale(4.50)'/>
	<use xlink:href='#gpPt0' transform='translate(106.5,215.8) scale(4.50)'/>
	<use xlink:href='#gpPt0' transform='translate(339.5,58.2) scale(4.50)'/>
	<use xlink:href='#gpPt0' transform='translate(105.6,215.4) scale(4.50)'/>
	<use xlink:href='#gpPt0' transform='translate(104.8,215.4) scale(4.50)'/>
	<use xlink:href='#gpPt0' transform='translate(323.3,58.6) scale(4.50)'/>
	<use xlink:href='#gpPt0' transform='translate(104.1,215.5) scale(4.50)'/>
	<use xlink:href='#gpPt0' transform='translate(103.3,215.7) scale(4.50)'/>
	<use xlink:href='#gpPt0' transform='translate(309.0,58.9) scale(4.50)'/>
	<use xlink:href='#gpPt0' transform='translate(102.7,215.9) scale(4.50)'/>
	<use xlink:href='#gpPt0' transform='translate(102.0,216.0) scale(4.50)'/>
	<use xlink:href='#gpPt0' transform='translate(296.3,59.3) scale(4.50)'/>
	<use xlink:href='#gpPt0' transform='translate(101.5,215.8) scale(4.50)'/>
	<use xlink:href='#gpPt0' transform='translate(100.9,215.5) scale(4.50)'/>
	<use xlink:href='#gpPt0' transform='translate(284.9,59.8) scale(4.50)'/>
	<use xlink:href='#gpPt0' transform='translate(100.3,214.9) scale(4.50)'/>
	<use xlink:href='#gpPt0' transform='translate(99.8,214.8) scale(4.50)'/>
	<use xlink:href='#gpPt0' transform='translate(274.6,60.3) scale(4.50)'/>
	<use xlink:href='#gpPt0' transform='translate(99.4,214.7) scale(4.50)'/>
	<use xlink:href='#gpPt0' transform='translate(98.9,215.2) scale(4.50)'/>
	<use xlink:href='#gpPt0' transform='translate(265.4,60.8) scale(4.50)'/>
	<use xlink:href='#gpPt0' transform='translate(98.5,215.3) scale(4.50)'/>
	<use xlink:href='#gpPt0' transform='translate(98.0,215.5) scale(4.50)'/>
	<use xlink:href='#gpPt0' transform='translate(257.0,61.4) scale(4.50)'/>
	<use xlink:href='#gpPt0' transform='translate(97.6,215.7) scale(4.50)'/>
	<use xlink:href='#gpPt0' transform='translate(97.3,215.9) scale(4.50)'/>
	<use xlink:href='#gpPt0' transform='translate(249.3,62.1) scale(4.50)'/>
	<use xlink:href='#gpPt0' transform='translate(96.9,216.0) scale(4.50)'/>
	<use xlink:href='#gpPt0' transform='translate(96.5,215.9) scale(4.50)'/>
	<use xlink:href='#gpPt0' transform='translate(242.2,62.8) scale(4.50)'/>
	<use xlink:href='#gpPt0' transform='translate(96.2,215.6) scale(4.50)'/>
	<use xlink:href='#gpPt0' transform='translate(95.9,215.3) scale(4.50)'/>
	<use xlink:href='#gpPt0' transform='translate(235.8,63.7) scale(4.50)'/>
	<use xlink:href='#gpPt0' transform='translate(95.6,214.8) scale(4.50)'/>
	<use xlink:href='#gpPt0' transform='translate(95.3,214.3) scale(4.50)'/>
	<use xlink:href='#gpPt0' transform='translate(229.8,64.7) scale(4.50)'/>
	<use xlink:href='#gpPt0' transform='translate(95.0,214.3) scale(4.50)'/>
	<use xlink:href='#gpPt0' transform='translate(94.7,214.2) scale(4.50)'/>
	<use xlink:href='#gpPt0' transform='translate(224.2,65.9) scale(4.50)'/>
	<use xlink:href='#gpPt0' transform='translate(94.4,214.3) scale(4.50)'/>
	<use xlink:href='#gpPt0' transform='translate(94.2,214.4) scale(4.50)'/>
	<use xlink:href='#gpPt0' transform='translate(219.1,67.3) scale(4.50)'/>
	<use xlink:href='#gpPt0' transform='translate(93.9,214.5) scale(4.50)'/>
	<use xlink:href='#gpPt0' transform='translate(93.7,214.7) scale(4.50)'/>
	<use xlink:href='#gpPt0' transform='translate(214.3,69.0) scale(4.50)'/>
	<use xlink:href='#gpPt0' transform='translate(93.5,214.8) scale(4.50)'/>
	<use xlink:href='#gpPt0' transform='translate(93.3,214.9) scale(4.50)'/>
	<use xlink:href='#gpPt0' transform='translate(209.8,71.1) scale(4.50)'/>
	<use xlink:href='#gpPt0' transform='translate(93.0,215.0) scale(4.50)'/>
	<use xlink:href='#gpPt0' transform='translate(92.8,215.1) scale(4.50)'/>
	<use xlink:href='#gpPt0' transform='translate(205.6,73.7) scale(4.50)'/>
	<use xlink:href='#gpPt0' transform='translate(92.6,215.2) scale(4.50)'/>
	<use xlink:href='#gpPt0' transform='translate(92.4,215.3) scale(4.50)'/>
	<use xlink:href='#gpPt0' transform='translate(201.7,77.1) scale(4.50)'/>
	<use xlink:href='#gpPt0' transform='translate(92.2,215.4) scale(4.50)'/>
	<use xlink:href='#gpPt0' transform='translate(92.1,215.5) scale(4.50)'/>
	<use xlink:href='#gpPt0' transform='translate(198.0,81.7) scale(4.50)'/>
	<use xlink:href='#gpPt0' transform='translate(91.9,215.6) scale(4.50)'/>
	<use xlink:href='#gpPt0' transform='translate(91.7,215.7) scale(4.50)'/>
	<use xlink:href='#gpPt0' transform='translate(194.6,87.1) scale(4.50)'/>
	<use xlink:href='#gpPt0' transform='translate(91.5,215.8) scale(4.50)'/>
	<use xlink:href='#gpPt0' transform='translate(91.4,216.0) scale(4.50)'/>
	<use xlink:href='#gpPt0' transform='translate(191.3,93.1) scale(4.50)'/>
	<use xlink:href='#gpPt0' transform='translate(91.2,215.9) scale(4.50)'/>
	<use xlink:href='#gpPt0' transform='translate(91.1,215.7) scale(4.50)'/>
	<use xlink:href='#gpPt0' transform='translate(188.2,99.8) scale(4.50)'/>
	<use xlink:href='#gpPt0' transform='translate(90.9,215.4) scale(4.50)'/>
	<use xlink:href='#gpPt0' transform='translate(90.8,215.1) scale(4.50)'/>
	<use xlink:href='#gpPt0' transform='translate(185.3,107.5) scale(4.50)'/>
	<use xlink:href='#gpPt0' transform='translate(90.6,214.7) scale(4.50)'/>
	<use xlink:href='#gpPt0' transform='translate(90.5,214.4) scale(4.50)'/>
	<use xlink:href='#gpPt0' transform='translate(182.5,116.5) scale(4.50)'/>
	<use xlink:href='#gpPt0' transform='translate(90.4,213.9) scale(4.50)'/>
	<use xlink:href='#gpPt0' transform='translate(90.2,213.4) scale(4.50)'/>
	<use xlink:href='#gpPt0' transform='translate(179.9,127.4) scale(4.50)'/>
	<use xlink:href='#gpPt0' transform='translate(90.1,213.2) scale(4.50)'/>
	<use xlink:href='#gpPt0' transform='translate(90.0,213.1) scale(4.50)'/>
	<use xlink:href='#gpPt0' transform='translate(89.8,212.9) scale(4.50)'/>
	<use xlink:href='#gpPt0' transform='translate(89.7,212.9) scale(4.50)'/>
	<use xlink:href='#gpPt0' transform='translate(89.6,212.9) scale(4.50)'/>
	<use xlink:href='#gpPt0' transform='translate(89.5,213.0) scale(4.50)'/>
	<use xlink:href='#gpPt0' transform='translate(89.4,213.0) scale(4.50)'/>
	<use xlink:href='#gpPt0' transform='translate(89.3,213.1) scale(4.50)'/>
	<use xlink:href='#gpPt0' transform='translate(170.6,215.1) scale(4.50)'/>
	<use xlink:href='#gpPt0' transform='translate(89.2,213.1) scale(4.50)'/>
	<use xlink:href='#gpPt0' transform='translate(89.1,213.2) scale(4.50)'/>
	<use xlink:href='#gpPt0' transform='translate(89.0,213.2) scale(4.50)'/>
	<use xlink:href='#gpPt0' transform='translate(88.9,213.3) scale(4.50)'/>
	<use xlink:href='#gpPt0' transform='translate(88.8,213.3) scale(4.50)'/>
	<use xlink:href='#gpPt0' transform='translate(88.7,213.4) scale(4.50)'/>
	<use xlink:href='#gpPt0' transform='translate(88.6,213.4) scale(4.50)'/>
	<use xlink:href='#gpPt0' transform='translate(88.5,213.5) scale(4.50)'/>
	<use xlink:href='#gpPt0' transform='translate(88.4,213.5) scale(4.50)'/>
	<use xlink:href='#gpPt0' transform='translate(88.3,213.6) scale(4.50)'/>
	<use xlink:href='#gpPt0' transform='translate(161.2,216.0) scale(4.50)'/>
	<use xlink:href='#gpPt0' transform='translate(88.3,213.6) scale(4.50)'/>
	<use xlink:href='#gpPt0' transform='translate(88.2,213.7) scale(4.50)'/>
	<use xlink:href='#gpPt0' transform='translate(88.1,213.8) scale(4.50)'/>
	<use xlink:href='#gpPt0' transform='translate(88.0,213.8) scale(4.50)'/>
	<use xlink:href='#gpPt0' transform='translate(87.9,213.9) scale(4.50)'/>
	<use xlink:href='#gpPt0' transform='translate(87.9,213.9) scale(4.50)'/>
	<use xlink:href='#gpPt0' transform='translate(87.8,214.0) scale(4.50)'/>
	<use xlink:href='#gpPt0' transform='translate(87.7,214.0) scale(4.50)'/>
	<use xlink:href='#gpPt0' transform='translate(87.6,214.1) scale(4.50)'/>
	<use xlink:href='#gpPt0' transform='translate(87.6,214.2) scale(4.50)'/>
	<use xlink:href='#gpPt0' transform='translate(153.6,216.2) scale(4.50)'/>
	<use xlink:href='#gpPt0' transform='translate(87.5,214.2) scale(4.50)'/>
	<use xlink:href='#gpPt0' transform='translate(87.4,214.2) scale(4.50)'/>
	<use xlink:href='#gpPt0' transform='translate(87.4,214.3) scale(4.50)'/>
	<use xlink:href='#gpPt0' transform='translate(87.3,214.4) scale(4.50)'/>
	<use xlink:href='#gpPt0' transform='translate(87.2,214.4) scale(4.50)'/>
	<use xlink:href='#gpPt0' transform='translate(87.2,214.5) scale(4.50)'/>
	<use xlink:href='#gpPt0' transform='translate(87.1,214.5) scale(4.50)'/>
	<use xlink:href='#gpPt0' transform='translate(87.0,214.6) scale(4.50)'/>
	<use xlink:href='#gpPt0' transform='translate(87.0,214.6) scale(4.50)'/>
	<use xlink:href='#gpPt0' transform='translate(86.9,214.7) scale(4.50)'/>
	<use xlink:href='#gpPt0' transform='translate(147.3,216.2) scale(4.50)'/>
	<use xlink:href='#gpPt0' transform='translate(86.9,214.7) scale(4.50)'/>
	<use xlink:href='#gpPt0' transform='translate(86.8,214.8) scale(4.50)'/>
	<use xlink:href='#gpPt0' transform='translate(86.8,214.8) scale(4.50)'/>
	<use xlink:href='#gpPt0' transform='translate(86.7,214.9) scale(4.50)'/>
	<use xlink:href='#gpPt0' transform='translate(86.6,214.9) scale(4.50)'/>
	<use xlink:href='#gpPt0' transform='translate(86.6,215.0) scale(4.50)'/>
	<use xlink:href='#gpPt0' transform='translate(86.5,215.0) scale(4.50)'/>
	<use xlink:href='#gpPt0' transform='translate(86.5,215.1) scale(4.50)'/>
	<use xlink:href='#gpPt0' transform='translate(86.4,215.2) scale(4.50)'/>
	<use xlink:href='#gpPt0' transform='translate(86.4,215.2) scale(4.50)'/>
	<use xlink:href='#gpPt0' transform='translate(141.9,216.2) scale(4.50)'/>
	<use xlink:href='#gpPt0' transform='translate(86.3,215.3) scale(4.50)'/>
	<use xlink:href='#gpPt0' transform='translate(86.3,215.3) scale(4.50)'/>
	<use xlink:href='#gpPt0' transform='translate(86.2,215.4) scale(4.50)'/>
	<use xlink:href='#gpPt0' transform='translate(86.2,215.5) scale(4.50)'/>
	<use xlink:href='#gpPt0' transform='translate(86.2,215.5) scale(4.50)'/>
	<use xlink:href='#gpPt0' transform='translate(86.1,215.5) scale(4.50)'/>
	<use xlink:href='#gpPt0' transform='translate(86.1,215.6) scale(4.50)'/>
	<use xlink:href='#gpPt0' transform='translate(86.0,215.7) scale(4.50)'/>
	<use xlink:href='#gpPt0' transform='translate(86.0,215.7) scale(4.50)'/>
	<use xlink:href='#gpPt0' transform='translate(85.9,215.8) scale(4.50)'/>
	<use xlink:href='#gpPt0' transform='translate(137.4,216.2) scale(4.50)'/>
	<use xlink:href='#gpPt0' transform='translate(133.5,216.2) scale(4.50)'/>
	<use xlink:href='#gpPt0' transform='translate(130.1,216.2) scale(4.50)'/>
	<use xlink:href='#gpPt0' transform='translate(127.1,216.2) scale(4.50)'/>
	<use xlink:href='#gpPt0' transform='translate(124.4,216.1) scale(4.50)'/>
	<use xlink:href='#gpPt0' transform='translate(122.0,215.9) scale(4.50)'/>
	<use xlink:href='#gpPt0' transform='translate(119.9,214.9) scale(4.50)'/>
	<use xlink:href='#gpPt0' transform='translate(562.2,63.1) scale(4.50)'/>
</g>
	</g>
	<g id="gnuplot_plot_2" ><title>gnuplot_plot_2</title>
<g style="fill:none; color:green; stroke:currentColor; stroke-width:1.00; stroke-linecap:butt; stroke-linejoin:miter">
	<g transform="translate(532.8,85.6)" style="stroke:none; fill:black; font-family:Arial; font-size:12.00pt; text-anchor:end">
		<text>UL PDCP PDUs</text>
	</g>
	<use xlink:href='#gpPt1' transform='translate(118.0,322.3) scale(4.50)'/>
	<use xlink:href='#gpPt1' transform='translate(116.2,325.3) scale(4.50)'/>
	<use xlink:href='#gpPt1' transform='translate(114.6,329.7) scale(4.50)'/>
	<use xlink:href='#gpPt1' transform='translate(113.2,332.2) scale(4.50)'/>
	<use xlink:href='#gpPt1' transform='translate(111.8,327.8) scale(4.50)'/>
	<use xlink:href='#gpPt1' transform='translate(110.6,328.5) scale(4.50)'/>
	<use xlink:href='#gpPt1' transform='translate(379.3,66.2) scale(4.50)'/>
	<use xlink:href='#gpPt1' transform='translate(109.4,328.9) scale(4.50)'/>
	<use xlink:href='#gpPt1' transform='translate(108.4,331.2) scale(4.50)'/>
	<use xlink:href='#gpPt1' transform='translate(358.0,66.5) scale(4.50)'/>
	<use xlink:href='#gpPt1' transform='translate(107.4,332.2) scale(4.50)'/>
	<use xlink:href='#gpPt1' transform='translate(106.5,330.4) scale(4.50)'/>
	<use xlink:href='#gpPt1' transform='translate(339.5,66.8) scale(4.50)'/>
	<use xlink:href='#gpPt1' transform='translate(105.6,326.9) scale(4.50)'/>
	<use xlink:href='#gpPt1' transform='translate(104.8,326.8) scale(4.50)'/>
	<use xlink:href='#gpPt1' transform='translate(323.3,67.2) scale(4.50)'/>
	<use xlink:href='#gpPt1' transform='translate(104.1,327.7) scale(4.50)'/>
	<use xlink:href='#gpPt1' transform='translate(103.3,329.6) scale(4.50)'/>
	<use xlink:href='#gpPt1' transform='translate(309.0,67.6) scale(4.50)'/>
	<use xlink:href='#gpPt1' transform='translate(102.7,331.4) scale(4.50)'/>
	<use xlink:href='#gpPt1' transform='translate(102.0,332.2) scale(4.50)'/>
	<use xlink:href='#gpPt1' transform='translate(296.3,68.0) scale(4.50)'/>
	<use xlink:href='#gpPt1' transform='translate(101.5,330.5) scale(4.50)'/>
	<use xlink:href='#gpPt1' transform='translate(100.9,327.8) scale(4.50)'/>
	<use xlink:href='#gpPt1' transform='translate(284.9,68.5) scale(4.50)'/>
	<use xlink:href='#gpPt1' transform='translate(100.3,323.2) scale(4.50)'/>
	<use xlink:href='#gpPt1' transform='translate(99.8,322.3) scale(4.50)'/>
	<use xlink:href='#gpPt1' transform='translate(274.6,69.1) scale(4.50)'/>
	<use xlink:href='#gpPt1' transform='translate(99.4,321.7) scale(4.50)'/>
	<use xlink:href='#gpPt1' transform='translate(98.9,325.3) scale(4.50)'/>
	<use xlink:href='#gpPt1' transform='translate(265.4,69.6) scale(4.50)'/>
	<use xlink:href='#gpPt1' transform='translate(98.5,326.5) scale(4.50)'/>
	<use xlink:href='#gpPt1' transform='translate(98.0,327.9) scale(4.50)'/>
	<use xlink:href='#gpPt1' transform='translate(257.0,70.3) scale(4.50)'/>
	<use xlink:href='#gpPt1' transform='translate(97.6,329.2) scale(4.50)'/>
	<use xlink:href='#gpPt1' transform='translate(97.3,330.7) scale(4.50)'/>
	<use xlink:href='#gpPt1' transform='translate(249.3,71.1) scale(4.50)'/>
	<use xlink:href='#gpPt1' transform='translate(96.9,332.1) scale(4.50)'/>
	<use xlink:href='#gpPt1' transform='translate(96.5,330.9) scale(4.50)'/>
	<use xlink:href='#gpPt1' transform='translate(242.2,71.9) scale(4.50)'/>
	<use xlink:href='#gpPt1' transform='translate(96.2,328.7) scale(4.50)'/>
	<use xlink:href='#gpPt1' transform='translate(95.9,326.0) scale(4.50)'/>
	<use xlink:href='#gpPt1' transform='translate(235.8,72.9) scale(4.50)'/>
	<use xlink:href='#gpPt1' transform='translate(95.6,322.4) scale(4.50)'/>
	<use xlink:href='#gpPt1' transform='translate(95.3,318.5) scale(4.50)'/>
	<use xlink:href='#gpPt1' transform='translate(229.8,74.1) scale(4.50)'/>
	<use xlink:href='#gpPt1' transform='translate(95.0,318.9) scale(4.50)'/>
	<use xlink:href='#gpPt1' transform='translate(94.7,318.2) scale(4.50)'/>
	<use xlink:href='#gpPt1' transform='translate(224.2,75.4) scale(4.50)'/>
	<use xlink:href='#gpPt1' transform='translate(94.4,318.9) scale(4.50)'/>
	<use xlink:href='#gpPt1' transform='translate(94.2,319.7) scale(4.50)'/>
	<use xlink:href='#gpPt1' transform='translate(219.1,77.0) scale(4.50)'/>
	<use xlink:href='#gpPt1' transform='translate(93.9,320.4) scale(4.50)'/>
	<use xlink:href='#gpPt1' transform='translate(93.7,321.3) scale(4.50)'/>
	<use xlink:href='#gpPt1' transform='translate(214.3,79.0) scale(4.50)'/>
	<use xlink:href='#gpPt1' transform='translate(93.5,322.0) scale(4.50)'/>
	<use xlink:href='#gpPt1' transform='translate(93.3,322.9) scale(4.50)'/>
	<use xlink:href='#gpPt1' transform='translate(209.8,81.4) scale(4.50)'/>
	<use xlink:href='#gpPt1' transform='translate(93.0,323.6) scale(4.50)'/>
	<use xlink:href='#gpPt1' transform='translate(92.8,324.6) scale(4.50)'/>
	<use xlink:href='#gpPt1' transform='translate(205.6,84.4) scale(4.50)'/>
	<use xlink:href='#gpPt1' transform='translate(92.6,325.4) scale(4.50)'/>
	<use xlink:href='#gpPt1' transform='translate(92.4,326.3) scale(4.50)'/>
	<use xlink:href='#gpPt1' transform='translate(201.7,88.4) scale(4.50)'/>
	<use xlink:href='#gpPt1' transform='translate(92.2,327.1) scale(4.50)'/>
	<use xlink:href='#gpPt1' transform='translate(92.1,328.1) scale(4.50)'/>
	<use xlink:href='#gpPt1' transform='translate(198.0,93.9) scale(4.50)'/>
	<use xlink:href='#gpPt1' transform='translate(91.9,328.9) scale(4.50)'/>
	<use xlink:href='#gpPt1' transform='translate(91.7,329.9) scale(4.50)'/>
	<use xlink:href='#gpPt1' transform='translate(194.6,101.1) scale(4.50)'/>
	<use xlink:href='#gpPt1' transform='translate(91.5,330.8) scale(4.50)'/>
	<use xlink:href='#gpPt1' transform='translate(91.4,331.9) scale(4.50)'/>
	<use xlink:href='#gpPt1' transform='translate(191.3,109.5) scale(4.50)'/>
	<use xlink:href='#gpPt1' transform='translate(91.2,331.0) scale(4.50)'/>
	<use xlink:href='#gpPt1' transform='translate(91.1,329.2) scale(4.50)'/>
	<use xlink:href='#gpPt1' transform='translate(188.2,119.4) scale(4.50)'/>
	<use xlink:href='#gpPt1' transform='translate(90.9,326.9) scale(4.50)'/>
	<use xlink:href='#gpPt1' transform='translate(90.8,324.3) scale(4.50)'/>
	<use xlink:href='#gpPt1' transform='translate(185.3,131.6) scale(4.50)'/>
	<use xlink:href='#gpPt1' transform='translate(90.6,321.8) scale(4.50)'/>
	<use xlink:href='#gpPt1' transform='translate(90.5,319.4) scale(4.50)'/>
	<use xlink:href='#gpPt1' transform='translate(182.5,147.4) scale(4.50)'/>
	<use xlink:href='#gpPt1' transform='translate(90.4,316.0) scale(4.50)'/>
	<use xlink:href='#gpPt1' transform='translate(90.2,312.8) scale(4.50)'/>
	<use xlink:href='#gpPt1' transform='translate(179.9,170.0) scale(4.50)'/>
	<use xlink:href='#gpPt1' transform='translate(90.1,311.5) scale(4.50)'/>
	<use xlink:href='#gpPt1' transform='translate(90.0,310.6) scale(4.50)'/>
	<use xlink:href='#gpPt1' transform='translate(89.8,309.7) scale(4.50)'/>
	<use xlink:href='#gpPt1' transform='translate(89.7,309.4) scale(4.50)'/>
	<use xlink:href='#gpPt1' transform='translate(89.6,309.6) scale(4.50)'/>
	<use xlink:href='#gpPt1' transform='translate(89.5,309.9) scale(4.50)'/>
	<use xlink:href='#gpPt1' transform='translate(89.4,310.2) scale(4.50)'/>
	<use xlink:href='#gpPt1' transform='translate(89.3,310.7) scale(4.50)'/>
	<use xlink:href='#gpPt1' transform='translate(170.6,330.6) scale(4.50)'/>
	<use xlink:href='#gpPt1' transform='translate(89.2,310.9) scale(4.50)'/>
	<use xlink:href='#gpPt1' transform='translate(89.1,311.2) scale(4.50)'/>
	<use xlink:href='#gpPt1' transform='translate(89.0,311.5) scale(4.50)'/>
	<use xlink:href='#gpPt1' transform='translate(88.9,312.0) scale(4.50)'/>
	<use xlink:href='#gpPt1' transform='translate(88.8,312.2) scale(4.50)'/>
	<use xlink:href='#gpPt1' transform='translate(88.7,312.6) scale(4.50)'/>
	<use xlink:href='#gpPt1' transform='translate(88.6,312.9) scale(4.50)'/>
	<use xlink:href='#gpPt1' transform='translate(88.5,313.3) scale(4.50)'/>
	<use xlink:href='#gpPt1' transform='translate(88.4,313.6) scale(4.50)'/>
	<use xlink:href='#gpPt1' transform='translate(88.3,314.0) scale(4.50)'/>
	<use xlink:href='#gpPt1' transform='translate(161.2,333.2) scale(4.50)'/>
	<use xlink:href='#gpPt1' transform='translate(88.3,314.3) scale(4.50)'/>
	<use xlink:href='#gpPt1' transform='translate(88.2,314.7) scale(4.50)'/>
	<use xlink:href='#gpPt1' transform='translate(88.1,315.0) scale(4.50)'/>
	<use xlink:href='#gpPt1' transform='translate(88.0,315.4) scale(4.50)'/>
	<use xlink:href='#gpPt1' transform='translate(87.9,315.7) scale(4.50)'/>
	<use xlink:href='#gpPt1' transform='translate(87.9,316.2) scale(4.50)'/>
	<use xlink:href='#gpPt1' transform='translate(87.8,316.4) scale(4.50)'/>
	<use xlink:href='#gpPt1' transform='translate(87.7,316.8) scale(4.50)'/>
	<use xlink:href='#gpPt1' transform='translate(87.6,317.2) scale(4.50)'/>
	<use xlink:href='#gpPt1' transform='translate(87.6,317.6) scale(4.50)'/>
	<use xlink:href='#gpPt1' transform='translate(153.6,334.1) scale(4.50)'/>
	<use xlink:href='#gpPt1' transform='translate(87.5,317.9) scale(4.50)'/>
	<use xlink:href='#gpPt1' transform='translate(87.4,318.3) scale(4.50)'/>
	<use xlink:href='#gpPt1' transform='translate(87.4,318.6) scale(4.50)'/>
	<use xlink:href='#gpPt1' transform='translate(87.3,319.1) scale(4.50)'/>
	<use xlink:href='#gpPt1' transform='translate(87.2,319.4) scale(4.50)'/>
	<use xlink:href='#gpPt1' transform='translate(87.2,319.8) scale(4.50)'/>
	<use xlink:href='#gpPt1' transform='translate(87.1,320.2) scale(4.50)'/>
	<use xlink:href='#gpPt1' transform='translate(87.0,320.7) scale(4.50)'/>
	<use xlink:href='#gpPt1' transform='translate(87.0,321.0) scale(4.50)'/>
	<use xlink:href='#gpPt1' transform='translate(86.9,321.4) scale(4.50)'/>
	<use xlink:href='#gpPt1' transform='translate(147.3,334.1) scale(4.50)'/>
	<use xlink:href='#gpPt1' transform='translate(86.9,321.8) scale(4.50)'/>
	<use xlink:href='#gpPt1' transform='translate(86.8,322.3) scale(4.50)'/>
	<use xlink:href='#gpPt1' transform='translate(86.8,322.6) scale(4.50)'/>
	<use xlink:href='#gpPt1' transform='translate(86.7,323.1) scale(4.50)'/>
	<use xlink:href='#gpPt1' transform='translate(86.6,323.4) scale(4.50)'/>
	<use xlink:href='#gpPt1' transform='translate(86.6,323.9) scale(4.50)'/>
	<use xlink:href='#gpPt1' transform='translate(86.5,324.2) scale(4.50)'/>
	<use xlink:href='#gpPt1' transform='translate(86.5,324.7) scale(4.50)'/>
	<use xlink:href='#gpPt1' transform='translate(86.4,325.1) scale(4.50)'/>
	<use xlink:href='#gpPt1' transform='translate(86.4,325.7) scale(4.50)'/>
	<use xlink:href='#gpPt1' transform='translate(141.9,334.2) scale(4.50)'/>
	<use xlink:href='#gpPt1' transform='translate(86.3,326.0) scale(4.50)'/>
	<use xlink:href='#gpPt1' transform='translate(86.3,326.4) scale(4.50)'/>
	<use xlink:href='#gpPt1' transform='translate(86.2,326.8) scale(4.50)'/>
	<use xlink:href='#gpPt1' transform='translate(86.2,327.4) scale(4.50)'/>
	<use xlink:href='#gpPt1' transform='translate(86.2,327.7) scale(4.50)'/>
	<use xlink:href='#gpPt1' transform='translate(86.1,328.2) scale(4.50)'/>
	<use xlink:href='#gpPt1' transform='translate(86.1,328.6) scale(4.50)'/>
	<use xlink:href='#gpPt1' transform='translate(86.0,329.2) scale(4.50)'/>
	<use xlink:href='#gpPt1' transform='translate(86.0,329.6) scale(4.50)'/>
	<use xlink:href='#gpPt1' transform='translate(85.9,330.1) scale(4.50)'/>
	<use xlink:href='#gpPt1' transform='translate(137.4,334.3) scale(4.50)'/>
	<use xlink:href='#gpPt1' transform='translate(133.5,334.2) scale(4.50)'/>
	<use xlink:href='#gpPt1' transform='translate(130.1,334.2) scale(4.50)'/>
	<use xlink:href='#gpPt1' transform='translate(127.1,333.7) scale(4.50)'/>
	<use xlink:href='#gpPt1' transform='translate(124.4,332.7) scale(4.50)'/>
	<use xlink:href='#gpPt1' transform='translate(122.0,331.0) scale(4.50)'/>
	<use xlink:href='#gpPt1' transform='translate(119.9,323.8) scale(4.50)'/>
	<use xlink:href='#gpPt1' transform='translate(562.2,81.1) scale(4.50)'/>
</g>
	</g>
	<g id="gnuplot_plot_3" ><title>gnuplot_plot_3</title>
<g style="fill:none; color:blue; stroke:currentColor; stroke-width:1.00; stroke-linecap:butt; stroke-linejoin:miter">
	<g transform="translate(532.8,103.6)" style="stroke:none; fill:black; font-family:Arial; font-size:12.00pt; text-anchor:end">
		<text>DL PDCP PDUs</text>
	</g>
	<use xlink:href='#gpPt2' transform='translate(118.0,361.6) scale(4.50)'/>
	<use xlink:href='#gpPt2' transform='translate(116.2,362.4) scale(4.50)'/>
	<use xlink:href='#gpPt2' transform='translate(114.6,363.1) scale(4.50)'/>
	<use xlink:href='#gpPt2' transform='translate(113.2,363.1) scale(4.50)'/>
	<use xlink:href='#gpPt2' transform='translate(111.8,363.1) scale(4.50)'/>
	<use xlink:href='#gpPt2' transform='translate(110.6,363.1) scale(4.50)'/>
	<use xlink:href='#gpPt2' transform='translate(379.3,174.3) scale(4.50)'/>
	<use xlink:href='#gpPt2' transform='translate(109.4,363.1) scale(4.50)'/>
	<use xlink:href='#gpPt2' transform='translate(108.4,363.1) scale(4.50)'/>
	<use xlink:href='#gpPt2' transform='translate(358.0,174.3) scale(4.50)'/>
	<use xlink:href='#gpPt2' transform='translate(107.4,363.1) scale(4.50)'/>
	<use xlink:href='#gpPt2' transform='translate(106.5,363.2) scale(4.50)'/>
	<use xlink:href='#gpPt2' transform='translate(339.5,174.3) scale(4.50)'/>
	<use xlink:href='#gpPt2' transform='translate(105.6,363.2) scale(4.50)'/>
	<use xlink:href='#gpPt2' transform='translate(104.8,363.1) scale(4.50)'/>
	<use xlink:href='#gpPt2' transform='translate(323.3,174.3) scale(4.50)'/>
	<use xlink:href='#gpPt2' transform='translate(104.1,363.1) scale(4.50)'/>
	<use xlink:href='#gpPt2' transform='translate(103.3,363.1) scale(4.50)'/>
	<use xlink:href='#gpPt2' transform='translate(309.0,174.3) scale(4.50)'/>
	<use xlink:href='#gpPt2' transform='translate(102.7,363.1) scale(4.50)'/>
	<use xlink:href='#gpPt2' transform='translate(102.0,363.1) scale(4.50)'/>
	<use xlink:href='#gpPt2' transform='translate(296.3,174.3) scale(4.50)'/>
	<use xlink:href='#gpPt2' transform='translate(101.5,363.1) scale(4.50)'/>
	<use xlink:href='#gpPt2' transform='translate(100.9,363.1) scale(4.50)'/>
	<use xlink:href='#gpPt2' transform='translate(284.9,174.3) scale(4.50)'/>
	<use xlink:href='#gpPt2' transform='translate(100.3,363.1) scale(4.50)'/>
	<use xlink:href='#gpPt2' transform='translate(99.8,362.8) scale(4.50)'/>
	<use xlink:href='#gpPt2' transform='translate(274.6,174.3) scale(4.50)'/>
	<use xlink:href='#gpPt2' transform='translate(99.4,363.1) scale(4.50)'/>
	<use xlink:href='#gpPt2' transform='translate(98.9,363.1) scale(4.50)'/>
	<use xlink:href='#gpPt2' transform='translate(265.4,174.3) scale(4.50)'/>
	<use xlink:href='#gpPt2' transform='translate(98.5,363.1) scale(4.50)'/>
	<use xlink:href='#gpPt2' transform='translate(98.0,363.1) scale(4.50)'/>
	<use xlink:href='#gpPt2' transform='translate(257.0,174.3) scale(4.50)'/>
	<use xlink:href='#gpPt2' transform='translate(97.6,363.1) scale(4.50)'/>
	<use xlink:href='#gpPt2' transform='translate(97.3,363.1) scale(4.50)'/>
	<use xlink:href='#gpPt2' transform='translate(249.3,174.3) scale(4.50)'/>
	<use xlink:href='#gpPt2' transform='translate(96.9,363.1) scale(4.50)'/>
	<use xlink:href='#gpPt2' transform='translate(96.5,363.1) scale(4.50)'/>
	<use xlink:href='#gpPt2' transform='translate(242.2,174.3) scale(4.50)'/>
	<use xlink:href='#gpPt2' transform='translate(96.2,363.1) scale(4.50)'/>
	<use xlink:href='#gpPt2' transform='translate(95.9,363.2) scale(4.50)'/>
	<use xlink:href='#gpPt2' transform='translate(235.8,174.3) scale(4.50)'/>
	<use xlink:href='#gpPt2' transform='translate(95.6,363.2) scale(4.50)'/>
	<use xlink:href='#gpPt2' transform='translate(95.3,363.2) scale(4.50)'/>
	<use xlink:href='#gpPt2' transform='translate(229.8,174.3) scale(4.50)'/>
	<use xlink:href='#gpPt2' transform='translate(95.0,363.1) scale(4.50)'/>
	<use xlink:href='#gpPt2' transform='translate(94.7,363.1) scale(4.50)'/>
	<use xlink:href='#gpPt2' transform='translate(224.2,174.3) scale(4.50)'/>
	<use xlink:href='#gpPt2' transform='translate(94.4,363.1) scale(4.50)'/>
	<use xlink:href='#gpPt2' transform='translate(94.2,363.1) scale(4.50)'/>
	<use xlink:href='#gpPt2' transform='translate(219.1,174.3) scale(4.50)'/>
	<use xlink:href='#gpPt2' transform='translate(93.9,363.1) scale(4.50)'/>
	<use xlink:href='#gpPt2' transform='translate(93.7,363.1) scale(4.50)'/>
	<use xlink:href='#gpPt2' transform='translate(214.3,174.3) scale(4.50)'/>
	<use xlink:href='#gpPt2' transform='translate(93.5,363.1) scale(4.50)'/>
	<use xlink:href='#gpPt2' transform='translate(93.3,363.1) scale(4.50)'/>
	<use xlink:href='#gpPt2' transform='translate(209.8,174.3) scale(4.50)'/>
	<use xlink:href='#gpPt2' transform='translate(93.0,363.1) scale(4.50)'/>
	<use xlink:href='#gpPt2' transform='translate(92.8,363.1) scale(4.50)'/>
	<use xlink:href='#gpPt2' transform='translate(205.6,174.3) scale(4.50)'/>
	<use xlink:href='#gpPt2' transform='translate(92.6,363.1) scale(4.50)'/>
	<use xlink:href='#gpPt2' transform='translate(92.4,363.1) scale(4.50)'/>
	<use xlink:href='#gpPt2' transform='translate(201.7,174.3) scale(4.50)'/>
	<use xlink:href='#gpPt2' transform='translate(92.2,363.1) scale(4.50)'/>
	<use xlink:href='#gpPt2' transform='translate(92.1,363.1) scale(4.50)'/>
	<use xlink:href='#gpPt2' transform='translate(198.0,174.3) scale(4.50)'/>
	<use xlink:href='#gpPt2' transform='translate(91.9,363.1) scale(4.50)'/>
	<use xlink:href='#gpPt2' transform='translate(91.7,363.1) scale(4.50)'/>
	<use xlink:href='#gpPt2' transform='translate(194.6,174.3) scale(4.50)'/>
	<use xlink:href='#gpPt2' transform='translate(91.5,363.1) scale(4.50)'/>
	<use xlink:href='#gpPt2' transform='translate(91.4,363.1) scale(4.50)'/>
	<use xlink:href='#gpPt2' transform='translate(191.3,174.3) scale(4.50)'/>
	<use xlink:href='#gpPt2' transform='translate(91.2,363.1) scale(4.50)'/>
	<use xlink:href='#gpPt2' transform='translate(91.1,363.1) scale(4.50)'/>
	<use xlink:href='#gpPt2' transform='translate(188.2,174.3) scale(4.50)'/>
	<use xlink:href='#gpPt2' transform='translate(90.9,363.1) scale(4.50)'/>
	<use xlink:href='#gpPt2' transform='translate(90.8,363.1) scale(4.50)'/>
	<use xlink:href='#gpPt2' transform='translate(185.3,174.3) scale(4.50)'/>
	<use xlink:href='#gpPt2' transform='translate(90.6,363.1) scale(4.50)'/>
	<use xlink:href='#gpPt2' transform='translate(90.5,363.1) scale(4.50)'/>
	<use xlink:href='#gpPt2' transform='translate(182.5,174.3) scale(4.50)'/>
	<use xlink:href='#gpPt2' transform='translate(90.4,363.1) scale(4.50)'/>
	<use xlink:href='#gpPt2' transform='translate(90.2,363.1) scale(4.50)'/>
	<use xlink:href='#gpPt2' transform='translate(179.9,174.3) scale(4.50)'/>
	<use xlink:href='#gpPt2' transform='translate(90.1,363.1) scale(4.50)'/>
	<use xlink:href='#gpPt2' transform='translate(90.0,363.1) scale(4.50)'/>
	<use xlink:href='#gpPt2' transform='translate(89.8,363.1) scale(4.50)'/>
	<use xlink:href='#gpPt2' transform='translate(89.7,363.1) scale(4.50)'/>
	<use xlink:href='#gpPt2' transform='translate(89.6,363.1) scale(4.50)'/>
	<use xlink:href='#gpPt2' transform='translate(89.5,363.1) scale(4.50)'/>
	<use xlink:href='#gpPt2' transform='translate(89.4,363.1) scale(4.50)'/>
	<use xlink:href='#gpPt2' transform='translate(89.3,363.1) scale(4.50)'/>
	<use xlink:href='#gpPt2' transform='translate(170.6,353.2) scale(4.50)'/>
	<use xlink:href='#gpPt2' transform='translate(89.2,363.1) scale(4.50)'/>
	<use xlink:href='#gpPt2' transform='translate(89.1,363.1) scale(4.50)'/>
	<use xlink:href='#gpPt2' transform='translate(89.0,363.1) scale(4.50)'/>
	<use xlink:href='#gpPt2' transform='translate(88.9,363.1) scale(4.50)'/>
	<use xlink:href='#gpPt2' transform='translate(88.8,363.1) scale(4.50)'/>
	<use xlink:href='#gpPt2' transform='translate(88.7,363.1) scale(4.50)'/>
	<use xlink:href='#gpPt2' transform='translate(88.6,363.1) scale(4.50)'/>
	<use xlink:href='#gpPt2' transform='translate(88.5,363.1) scale(4.50)'/>
	<use xlink:href='#gpPt2' transform='translate(88.4,363.1) scale(4.50)'/>
	<use xlink:href='#gpPt2' transform='translate(88.3,363.1) scale(4.50)'/>
	<use xlink:href='#gpPt2' transform='translate(161.2,361.5) scale(4.50)'/>
	<use xlink:href='#gpPt2' transform='translate(88.3,363.1) scale(4.50)'/>
	<use xlink:href='#gpPt2' transform='translate(88.2,363.1) scale(4.50)'/>
	<use xlink:href='#gpPt2' transform='translate(88.1,363.1) scale(4.50)'/>
	<use xlink:href='#gpPt2' transform='translate(88.0,363.1) scale(4.50)'/>
	<use xlink:href='#gpPt2' transform='translate(87.9,363.1) scale(4.50)'/>
	<use xlink:href='#gpPt2' transform='translate(87.9,363.1) scale(4.50)'/>
	<use xlink:href='#gpPt2' transform='translate(87.8,363.1) scale(4.50)'/>
	<use xlink:href='#gpPt2' transform='translate(87.7,363.1) scale(4.50)'/>
	<use xlink:href='#gpPt2' transform='translate(87.6,363.1) scale(4.50)'/>
	<use xlink:href='#gpPt2' transform='translate(87.6,363.1) scale(4.50)'/>
	<use xlink:href='#gpPt2' transform='translate(153.6,363.0) scale(4.50)'/>
	<use xlink:href='#gpPt2' transform='translate(87.5,363.1) scale(4.50)'/>
	<use xlink:href='#gpPt2' transform='translate(87.4,363.1) scale(4.50)'/>
	<use xlink:href='#gpPt2' transform='translate(87.4,363.1) scale(4.50)'/>
	<use xlink:href='#gpPt2' transform='translate(87.3,363.1) scale(4.50)'/>
	<use xlink:href='#gpPt2' transform='translate(87.2,363.1) scale(4.50)'/>
	<use xlink:href='#gpPt2' transform='translate(87.2,363.1) scale(4.50)'/>
	<use xlink:href='#gpPt2' transform='translate(87.1,363.1) scale(4.50)'/>
	<use xlink:href='#gpPt2' transform='translate(87.0,363.1) scale(4.50)'/>
	<use xlink:href='#gpPt2' transform='translate(87.0,363.1) scale(4.50)'/>
	<use xlink:href='#gpPt2' transform='translate(86.9,363.1) scale(4.50)'/>
	<use xlink:href='#gpPt2' transform='translate(147.3,363.1) scale(4.50)'/>
	<use xlink:href='#gpPt2' transform='translate(86.9,363.1) scale(4.50)'/>
	<use xlink:href='#gpPt2' transform='translate(86.8,363.1) scale(4.50)'/>
	<use xlink:href='#gpPt2' transform='translate(86.8,363.1) scale(4.50)'/>
	<use xlink:href='#gpPt2' transform='translate(86.7,363.1) scale(4.50)'/>
	<use xlink:href='#gpPt2' transform='translate(86.6,363.1) scale(4.50)'/>
	<use xlink:href='#gpPt2' transform='translate(86.6,363.1) scale(4.50)'/>
	<use xlink:href='#gpPt2' transform='translate(86.5,363.1) scale(4.50)'/>
	<use xlink:href='#gpPt2' transform='translate(86.5,363.1) scale(4.50)'/>
	<use xlink:href='#gpPt2' transform='translate(86.4,363.1) scale(4.50)'/>
	<use xlink:href='#gpPt2' transform='translate(86.4,363.1) scale(4.50)'/>
	<use xlink:href='#gpPt2' transform='translate(141.9,363.1) scale(4.50)'/>
	<use xlink:href='#gpPt2' transform='translate(86.3,363.1) scale(4.50)'/>
	<use xlink:href='#gpPt2' transform='translate(86.3,363.1) scale(4.50)'/>
	<use xlink:href='#gpPt2' transform='translate(86.2,363.1) scale(4.50)'/>
	<use xlink:href='#gpPt2' transform='translate(86.2,363.1) scale(4.50)'/>
	<use xlink:href='#gpPt2' transform='translate(86.2,363.1) scale(4.50)'/>
	<use xlink:href='#gpPt2' transform='translate(86.1,363.1) scale(4.50)'/>
	<use xlink:href='#gpPt2' transform='translate(86.1,363.1) scale(4.50)'/>
	<use xlink:href='#gpPt2' transform='translate(86.0,363.1) scale(4.50)'/>
	<use xlink:href='#gpPt2' transform='translate(86.0,363.1) scale(4.50)'/>
	<use xlink:href='#gpPt2' transform='translate(85.9,363.1) scale(4.50)'/>
	<use xlink:href='#gpPt2' transform='translate(137.4,363.1) scale(4.50)'/>
	<use xlink:href='#gpPt2' transform='translate(133.5,363.1) scale(4.50)'/>
	<use xlink:href='#gpPt2' transform='translate(130.1,363.1) scale(4.50)'/>
	<use xlink:href='#gpPt2' transform='translate(127.1,363.1) scale(4.50)'/>
	<use xlink:href='#gpPt2' transform='translate(124.4,363.1) scale(4.50)'/>
	<use xlink:href='#gpPt2' transform='translate(122.0,363.1) scale(4.50)'/>
	<use xlink:href='#gpPt2' transform='translate(119.9,361.7) scale(4.50)'/>
	<use xlink:href='#gpPt2' transform='translate(562.2,99.1) scale(4.50)'/>
</g>
	</g>
	<g id="gnuplot_plot_4" ><title>gnuplot_plot_4</title>
<g style="fill:none; color:cyan; stroke:currentColor; stroke-width:1.00; stroke-linecap:butt; stroke-linejoin:miter">
	<g transform="translate(532.8,121.6)" style="stroke:none; fill:black; font-family:Arial; font-size:12.00pt; text-anchor:end">
		<text>UL RLC PDUs</text>
	</g>
	<use xlink:href='#gpPt3' transform='translate(118.0,339.7) scale(4.50)'/>
	<use xlink:href='#gpPt3' transform='translate(116.2,339.7) scale(4.50)'/>
	<use xlink:href='#gpPt3' transform='translate(114.6,339.7) scale(4.50)'/>
	<use xlink:href='#gpPt3' transform='translate(113.2,339.7) scale(4.50)'/>
	<use xlink:href='#gpPt3' transform='translate(111.8,339.7) scale(4.50)'/>
	<use xlink:href='#gpPt3' transform='translate(110.6,339.7) scale(4.50)'/>
	<use xlink:href='#gpPt3' transform='translate(379.3,339.7) scale(4.50)'/>
	<use xlink:href='#gpPt3' transform='translate(109.4,339.7) scale(4.50)'/>
	<use xlink:href='#gpPt3' transform='translate(108.4,339.7) scale(4.50)'/>
	<use xlink:href='#gpPt3' transform='translate(358.0,339.7) scale(4.50)'/>
	<use xlink:href='#gpPt3' transform='translate(107.4,339.7) scale(4.50)'/>
	<use xlink:href='#gpPt3' transform='translate(106.5,339.7) scale(4.50)'/>
	<use xlink:href='#gpPt3' transform='translate(339.5,339.7) scale(4.50)'/>
	<use xlink:href='#gpPt3' transform='translate(105.6,339.7) scale(4.50)'/>
	<use xlink:href='#gpPt3' transform='translate(104.8,339.7) scale(4.50)'/>
	<use xlink:href='#gpPt3' transform='translate(323.3,339.7) scale(4.50)'/>
	<use xlink:href='#gpPt3' transform='translate(104.1,339.7) scale(4.50)'/>
	<use xlink:href='#gpPt3' transform='translate(103.3,339.7) scale(4.50)'/>
	<use xlink:href='#gpPt3' transform='translate(309.0,339.7) scale(4.50)'/>
	<use xlink:href='#gpPt3' transform='translate(102.7,339.7) scale(4.50)'/>
	<use xlink:href='#gpPt3' transform='translate(102.0,339.7) scale(4.50)'/>
	<use xlink:href='#gpPt3' transform='translate(296.3,339.7) scale(4.50)'/>
	<use xlink:href='#gpPt3' transform='translate(101.5,339.7) scale(4.50)'/>
	<use xlink:href='#gpPt3' transform='translate(100.9,339.7) scale(4.50)'/>
	<use xlink:href='#gpPt3' transform='translate(284.9,339.7) scale(4.50)'/>
	<use xlink:href='#gpPt3' transform='translate(100.3,339.7) scale(4.50)'/>
	<use xlink:href='#gpPt3' transform='translate(99.8,339.7) scale(4.50)'/>
	<use xlink:href='#gpPt3' transform='translate(274.6,339.7) scale(4.50)'/>
	<use xlink:href='#gpPt3' transform='translate(99.4,339.7) scale(4.50)'/>
	<use xlink:href='#gpPt3' transform='translate(98.9,339.7) scale(4.50)'/>
	<use xlink:href='#gpPt3' transform='translate(265.4,339.7) scale(4.50)'/>
	<use xlink:href='#gpPt3' transform='translate(98.5,339.7) scale(4.50)'/>
	<use xlink:href='#gpPt3' transform='translate(98.0,339.7) scale(4.50)'/>
	<use xlink:href='#gpPt3' transform='translate(257.0,339.7) scale(4.50)'/>
	<use xlink:href='#gpPt3' transform='translate(97.6,339.7) scale(4.50)'/>
	<use xlink:href='#gpPt3' transform='translate(97.3,339.7) scale(4.50)'/>
	<use xlink:href='#gpPt3' transform='translate(249.3,339.7) scale(4.50)'/>
	<use xlink:href='#gpPt3' transform='translate(96.9,339.7) scale(4.50)'/>
	<use xlink:href='#gpPt3' transform='translate(96.5,339.7) scale(4.50)'/>
	<use xlink:href='#gpPt3' transform='translate(242.2,339.7) scale(4.50)'/>
	<use xlink:href='#gpPt3' transform='translate(96.2,339.7) scale(4.50)'/>
	<use xlink:href='#gpPt3' transform='translate(95.9,339.7) scale(4.50)'/>
	<use xlink:href='#gpPt3' transform='translate(235.8,339.7) scale(4.50)'/>
	<use xlink:href='#gpPt3' transform='translate(95.6,339.7) scale(4.50)'/>
	<use xlink:href='#gpPt3' transform='translate(95.3,339.7) scale(4.50)'/>
	<use xlink:href='#gpPt3' transform='translate(229.8,339.7) scale(4.50)'/>
	<use xlink:href='#gpPt3' transform='translate(95.0,339.7) scale(4.50)'/>
	<use xlink:href='#gpPt3' transform='translate(94.7,339.7) scale(4.50)'/>
	<use xlink:href='#gpPt3' transform='translate(224.2,339.7) scale(4.50)'/>
	<use xlink:href='#gpPt3' transform='translate(94.4,339.7) scale(4.50)'/>
	<use xlink:href='#gpPt3' transform='translate(94.2,339.7) scale(4.50)'/>
	<use xlink:href='#gpPt3' transform='translate(219.1,339.7) scale(4.50)'/>
	<use xlink:href='#gpPt3' transform='translate(93.9,339.7) scale(4.50)'/>
	<use xlink:href='#gpPt3' transform='translate(93.7,339.7) scale(4.50)'/>
	<use xlink:href='#gpPt3' transform='translate(214.3,339.7) scale(4.50)'/>
	<use xlink:href='#gpPt3' transform='translate(93.5,339.7) scale(4.50)'/>
	<use xlink:href='#gpPt3' transform='translate(93.3,339.7) scale(4.50)'/>
	<use xlink:href='#gpPt3' transform='translate(209.8,339.7) scale(4.50)'/>
	<use xlink:href='#gpPt3' transform='translate(93.0,339.7) scale(4.50)'/>
	<use xlink:href='#gpPt3' transform='translate(92.8,339.7) scale(4.50)'/>
	<use xlink:href='#gpPt3' transform='translate(205.6,339.7) scale(4.50)'/>
	<use xlink:href='#gpPt3' transform='translate(92.6,339.7) scale(4.50)'/>
	<use xlink:href='#gpPt3' transform='translate(92.4,339.7) scale(4.50)'/>
	<use xlink:href='#gpPt3' transform='translate(201.7,339.7) scale(4.50)'/>
	<use xlink:href='#gpPt3' transform='translate(92.2,339.7) scale(4.50)'/>
	<use xlink:href='#gpPt3' transform='translate(92.1,339.7) scale(4.50)'/>
	<use xlink:href='#gpPt3' transform='translate(198.0,339.7) scale(4.50)'/>
	<use xlink:href='#gpPt3' transform='translate(91.9,339.7) scale(4.50)'/>
	<use xlink:href='#gpPt3' transform='translate(91.7,339.7) scale(4.50)'/>
	<use xlink:href='#gpPt3' transform='translate(194.6,339.7) scale(4.50)'/>
	<use xlink:href='#gpPt3' transform='translate(91.5,339.7) scale(4.50)'/>
	<use xlink:href='#gpPt3' transform='translate(91.4,339.7) scale(4.50)'/>
	<use xlink:href='#gpPt3' transform='translate(191.3,339.7) scale(4.50)'/>
	<use xlink:href='#gpPt3' transform='translate(91.2,339.7) scale(4.50)'/>
	<use xlink:href='#gpPt3' transform='translate(91.1,339.7) scale(4.50)'/>
	<use xlink:href='#gpPt3' transform='translate(188.2,339.7) scale(4.50)'/>
	<use xlink:href='#gpPt3' transform='translate(90.9,339.7) scale(4.50)'/>
	<use xlink:href='#gpPt3' transform='translate(90.8,339.7) scale(4.50)'/>
	<use xlink:href='#gpPt3' transform='translate(185.3,339.7) scale(4.50)'/>
	<use xlink:href='#gpPt3' transform='translate(90.6,339.7) scale(4.50)'/>
	<use xlink:href='#gpPt3' transform='translate(90.5,339.7) scale(4.50)'/>
	<use xlink:href='#gpPt3' transform='translate(182.5,339.7) scale(4.50)'/>
	<use xlink:href='#gpPt3' transform='translate(90.4,339.7) scale(4.50)'/>
	<use xlink:href='#gpPt3' transform='translate(90.2,339.7) scale(4.50)'/>
	<use xlink:href='#gpPt3' transform='translate(179.9,339.7) scale(4.50)'/>
	<use xlink:href='#gpPt3' transform='translate(90.1,339.7) scale(4.50)'/>
	<use xlink:href='#gpPt3' transform='translate(90.0,339.7) scale(4.50)'/>
	<use xlink:href='#gpPt3' transform='translate(89.8,339.7) scale(4.50)'/>
	<use xlink:href='#gpPt3' transform='translate(89.7,339.7) scale(4.50)'/>
	<use xlink:href='#gpPt3' transform='translate(89.6,339.7) scale(4.50)'/>
	<use xlink:href='#gpPt3' transform='translate(89.5,339.7) scale(4.50)'/>
	<use xlink:href='#gpPt3' transform='translate(89.4,339.7) scale(4.50)'/>
	<use xlink:href='#gpPt3' transform='translate(89.3,339.7) scale(4.50)'/>
	<use xlink:href='#gpPt3' transform='translate(170.6,339.7) scale(4.50)'/>
	<use xlink:href='#gpPt3' transform='translate(89.2,339.7) scale(4.50)'/>
	<use xlink:href='#gpPt3' transform='translate(89.1,339.7) scale(4.50)'/>
	<use xlink:href='#gpPt3' transform='translate(89.0,339.7) scale(4.50)'/>
	<use xlink:href='#gpPt3' transform='translate(88.9,339.7) scale(4.50)'/>
	<use xlink:href='#gpPt3' transform='translate(88.8,339.7) scale(4.50)'/>
	<use xlink:href='#gpPt3' transform='translate(88.7,339.7) scale(4.50)'/>
	<use xlink:href='#gpPt3' transform='translate(88.6,339.7) scale(4.50)'/>
	<use xlink:href='#gpPt3' transform='translate(88.5,339.7) scale(4.50)'/>
	<use xlink:href='#gpPt3' transform='translate(88.4,339.7) scale(4.50)'/>
	<use xlink:href='#gpPt3' transform='translate(88.3,339.7) scale(4.50)'/>
	<use xlink:href='#gpPt3' transform='translate(161.2,339.7) scale(4.50)'/>
	<use xlink:href='#gpPt3' transform='translate(88.3,339.7) scale(4.50)'/>
	<use xlink:href='#gpPt3' transform='translate(88.2,339.7) scale(4.50)'/>
	<use xlink:href='#gpPt3' transform='translate(88.1,339.7) scale(4.50)'/>
	<use xlink:href='#gpPt3' transform='translate(88.0,339.7) scale(4.50)'/>
	<use xlink:href='#gpPt3' transform='translate(87.9,339.7) scale(4.50)'/>
	<use xlink:href='#gpPt3' transform='translate(87.9,339.7) scale(4.50)'/>
	<use xlink:href='#gpPt3' transform='translate(87.8,339.7) scale(4.50)'/>
	<use xlink:href='#gpPt3' transform='translate(87.7,339.7) scale(4.50)'/>
	<use xlink:href='#gpPt3' transform='translate(87.6,339.7) scale(4.50)'/>
	<use xlink:href='#gpPt3' transform='translate(87.6,339.7) scale(4.50)'/>
	<use xlink:href='#gpPt3' transform='translate(153.6,339.7) scale(4.50)'/>
	<use xlink:href='#gpPt3' transform='translate(87.5,339.7) scale(4.50)'/>
	<use xlink:href='#gpPt3' transform='translate(87.4,339.7) scale(4.50)'/>
	<use xlink:href='#gpPt3' transform='translate(87.4,339.7) scale(4.50)'/>
	<use xlink:href='#gpPt3' transform='translate(87.3,339.7) scale(4.50)'/>
	<use xlink:href='#gpPt3' transform='translate(87.2,339.7) scale(4.50)'/>
	<use xlink:href='#gpPt3' transform='translate(87.2,339.7) scale(4.50)'/>
	<use xlink:href='#gpPt3' transform='translate(87.1,339.7) scale(4.50)'/>
	<use xlink:href='#gpPt3' transform='translate(87.0,339.7) scale(4.50)'/>
	<use xlink:href='#gpPt3' transform='translate(87.0,339.7) scale(4.50)'/>
	<use xlink:href='#gpPt3' transform='translate(86.9,339.7) scale(4.50)'/>
	<use xlink:href='#gpPt3' transform='translate(147.3,339.7) scale(4.50)'/>
	<use xlink:href='#gpPt3' transform='translate(86.9,339.7) scale(4.50)'/>
	<use xlink:href='#gpPt3' transform='translate(86.8,339.7) scale(4.50)'/>
	<use xlink:href='#gpPt3' transform='translate(86.8,339.7) scale(4.50)'/>
	<use xlink:href='#gpPt3' transform='translate(86.7,339.7) scale(4.50)'/>
	<use xlink:href='#gpPt3' transform='translate(86.6,339.7) scale(4.50)'/>
	<use xlink:href='#gpPt3' transform='translate(86.6,339.7) scale(4.50)'/>
	<use xlink:href='#gpPt3' transform='translate(86.5,339.7) scale(4.50)'/>
	<use xlink:href='#gpPt3' transform='translate(86.5,339.7) scale(4.50)'/>
	<use xlink:href='#gpPt3' transform='translate(86.4,339.7) scale(4.50)'/>
	<use xlink:href='#gpPt3' transform='translate(86.4,339.7) scale(4.50)'/>
	<use xlink:href='#gpPt3' transform='translate(141.9,339.7) scale(4.50)'/>
	<use xlink:href='#gpPt3' transform='translate(86.3,339.7) scale(4.50)'/>
	<use xlink:href='#gpPt3' transform='translate(86.3,339.7) scale(4.50)'/>
	<use xlink:href='#gpPt3' transform='translate(86.2,339.7) scale(4.50)'/>
	<use xlink:href='#gpPt3' transform='translate(86.2,339.7) scale(4.50)'/>
	<use xlink:href='#gpPt3' transform='translate(86.2,339.7) scale(4.50)'/>
	<use xlink:href='#gpPt3' transform='translate(86.1,339.7) scale(4.50)'/>
	<use xlink:href='#gpPt3' transform='translate(86.1,339.7) scale(4.50)'/>
	<use xlink:href='#gpPt3' transform='translate(86.0,339.7) scale(4.50)'/>
	<use xlink:href='#gpPt3' transform='translate(86.0,339.7) scale(4.50)'/>
	<use xlink:href='#gpPt3' transform='translate(85.9,339.7) scale(4.50)'/>
	<use xlink:href='#gpPt3' transform='translate(137.4,339.7) scale(4.50)'/>
	<use xlink:href='#gpPt3' transform='translate(133.5,339.7) scale(4.50)'/>
	<use xlink:href='#gpPt3' transform='translate(130.1,339.7) scale(4.50)'/>
	<use xlink:href='#gpPt3' transform='translate(127.1,339.7) scale(4.50)'/>
	<use xlink:href='#gpPt3' transform='translate(124.4,339.7) scale(4.50)'/>
	<use xlink:href='#gpPt3' transform='translate(122.0,339.7) scale(4.50)'/>
	<use xlink:href='#gpPt3' transform='translate(119.9,339.7) scale(4.50)'/>
	<use xlink:href='#gpPt3' transform='translate(562.2,117.1) scale(4.50)'/>
</g>
	</g>
	<g id="gnuplot_plot_5" ><title>gnuplot_plot_5</title>
<g style="fill:none; color:#157545; stroke:currentColor; stroke-width:1.00; stroke-linecap:butt; stroke-linejoin:miter">
	<g transform="translate(532.8,139.6)" style="stroke:none; fill:black; font-family:Arial; font-size:12.00pt; text-anchor:end">
		<text>DL RLC PDUs</text>
	</g>
	<use xlink:href='#gpPt4' transform='translate(118.0,363.8) scale(4.50)'/>
	<use xlink:href='#gpPt4' transform='translate(116.2,363.8) scale(4.50)'/>
	<use xlink:href='#gpPt4' transform='translate(114.6,363.8) scale(4.50)'/>
	<use xlink:href='#gpPt4' transform='translate(113.2,363.8) scale(4.50)'/>
	<use xlink:href='#gpPt4' transform='translate(111.8,363.8) scale(4.50)'/>
	<use xlink:href='#gpPt4' transform='translate(110.6,363.8) scale(4.50)'/>
	<use xlink:href='#gpPt4' transform='translate(379.3,363.8) scale(4.50)'/>
	<use xlink:href='#gpPt4' transform='translate(109.4,363.8) scale(4.50)'/>
	<use xlink:href='#gpPt4' transform='translate(108.4,363.8) scale(4.50)'/>
	<use xlink:href='#gpPt4' transform='translate(358.0,363.8) scale(4.50)'/>
	<use xlink:href='#gpPt4' transform='translate(107.4,363.8) scale(4.50)'/>
	<use xlink:href='#gpPt4' transform='translate(106.5,363.8) scale(4.50)'/>
	<use xlink:href='#gpPt4' transform='translate(339.5,363.8) scale(4.50)'/>
	<use xlink:href='#gpPt4' transform='translate(105.6,363.8) scale(4.50)'/>
	<use xlink:href='#gpPt4' transform='translate(104.8,363.8) scale(4.50)'/>
	<use xlink:href='#gpPt4' transform='translate(323.3,363.8) scale(4.50)'/>
	<use xlink:href='#gpPt4' transform='translate(104.1,363.8) scale(4.50)'/>
	<use xlink:href='#gpPt4' transform='translate(103.3,363.8) scale(4.50)'/>
	<use xlink:href='#gpPt4' transform='translate(309.0,363.8) scale(4.50)'/>
	<use xlink:href='#gpPt4' transform='translate(102.7,363.8) scale(4.50)'/>
	<use xlink:href='#gpPt4' transform='translate(102.0,363.8) scale(4.50)'/>
	<use xlink:href='#gpPt4' transform='translate(296.3,363.8) scale(4.50)'/>
	<use xlink:href='#gpPt4' transform='translate(101.5,363.8) scale(4.50)'/>
	<use xlink:href='#gpPt4' transform='translate(100.9,363.8) scale(4.50)'/>
	<use xlink:href='#gpPt4' transform='translate(284.9,363.8) scale(4.50)'/>
	<use xlink:href='#gpPt4' transform='translate(100.3,363.8) scale(4.50)'/>
	<use xlink:href='#gpPt4' transform='translate(99.8,363.8) scale(4.50)'/>
	<use xlink:href='#gpPt4' transform='translate(274.6,363.8) scale(4.50)'/>
	<use xlink:href='#gpPt4' transform='translate(99.4,363.8) scale(4.50)'/>
	<use xlink:href='#gpPt4' transform='translate(98.9,363.8) scale(4.50)'/>
	<use xlink:href='#gpPt4' transform='translate(265.4,363.8) scale(4.50)'/>
	<use xlink:href='#gpPt4' transform='translate(98.5,363.8) scale(4.50)'/>
	<use xlink:href='#gpPt4' transform='translate(98.0,363.8) scale(4.50)'/>
	<use xlink:href='#gpPt4' transform='translate(257.0,363.8) scale(4.50)'/>
	<use xlink:href='#gpPt4' transform='translate(97.6,363.8) scale(4.50)'/>
	<use xlink:href='#gpPt4' transform='translate(97.3,363.8) scale(4.50)'/>
	<use xlink:href='#gpPt4' transform='translate(249.3,363.8) scale(4.50)'/>
	<use xlink:href='#gpPt4' transform='translate(96.9,363.8) scale(4.50)'/>
	<use xlink:href='#gpPt4' transform='translate(96.5,363.8) scale(4.50)'/>
	<use xlink:href='#gpPt4' transform='translate(242.2,363.8) scale(4.50)'/>
	<use xlink:href='#gpPt4' transform='translate(96.2,363.8) scale(4.50)'/>
	<use xlink:href='#gpPt4' transform='translate(95.9,363.8) scale(4.50)'/>
	<use xlink:href='#gpPt4' transform='translate(235.8,363.8) scale(4.50)'/>
	<use xlink:href='#gpPt4' transform='translate(95.6,363.8) scale(4.50)'/>
	<use xlink:href='#gpPt4' transform='translate(95.3,363.8) scale(4.50)'/>
	<use xlink:href='#gpPt4' transform='translate(229.8,363.8) scale(4.50)'/>
	<use xlink:href='#gpPt4' transform='translate(95.0,363.8) scale(4.50)'/>
	<use xlink:href='#gpPt4' transform='translate(94.7,363.8) scale(4.50)'/>
	<use xlink:href='#gpPt4' transform='translate(224.2,363.8) scale(4.50)'/>
	<use xlink:href='#gpPt4' transform='translate(94.4,363.8) scale(4.50)'/>
	<use xlink:href='#gpPt4' transform='translate(94.2,363.8) scale(4.50)'/>
	<use xlink:href='#gpPt4' transform='translate(219.1,363.8) scale(4.50)'/>
	<use xlink:href='#gpPt4' transform='translate(93.9,363.8) scale(4.50)'/>
	<use xlink:href='#gpPt4' transform='translate(93.7,363.8) scale(4.50)'/>
	<use xlink:href='#gpPt4' transform='translate(214.3,363.8) scale(4.50)'/>
	<use xlink:href='#gpPt4' transform='translate(93.5,363.8) scale(4.50)'/>
	<use xlink:href='#gpPt4' transform='translate(93.3,363.8) scale(4.50)'/>
	<use xlink:href='#gpPt4' transform='translate(209.8,363.8) scale(4.50)'/>
	<use xlink:href='#gpPt4' transform='translate(93.0,363.8) scale(4.50)'/>
	<use xlink:href='#gpPt4' transform='translate(92.8,363.8) scale(4.50)'/>
	<use xlink:href='#gpPt4' transform='translate(205.6,363.8) scale(4.50)'/>
	<use xlink:href='#gpPt4' transform='translate(92.6,363.8) scale(4.50)'/>
	<use xlink:href='#gpPt4' transform='translate(92.4,363.8) scale(4.50)'/>
	<use xlink:href='#gpPt4' transform='translate(201.7,363.8) scale(4.50)'/>
	<use xlink:href='#gpPt4' transform='translate(92.2,363.8) scale(4.50)'/>
	<use xlink:href='#gpPt4' transform='translate(92.1,363.8) scale(4.50)'/>
	<use xlink:href='#gpPt4' transform='translate(198.0,363.8) scale(4.50)'/>
	<use xlink:href='#gpPt4' transform='translate(91.9,363.8) scale(4.50)'/>
	<use xlink:href='#gpPt4' transform='translate(91.7,363.8) scale(4.50)'/>
	<use xlink:href='#gpPt4' transform='translate(194.6,363.8) scale(4.50)'/>
	<use xlink:href='#gpPt4' transform='translate(91.5,363.8) scale(4.50)'/>
	<use xlink:href='#gpPt4' transform='translate(91.4,363.8) scale(4.50)'/>
	<use xlink:href='#gpPt4' transform='translate(191.3,363.8) scale(4.50)'/>
	<use xlink:href='#gpPt4' transform='translate(91.2,363.8) scale(4.50)'/>
	<use xlink:href='#gpPt4' transform='translate(91.1,363.8) scale(4.50)'/>
	<use xlink:href='#gpPt4' transform='translate(188.2,363.8) scale(4.50)'/>
	<use xlink:href='#gpPt4' transform='translate(90.9,363.8) scale(4.50)'/>
	<use xlink:href='#gpPt4' transform='translate(90.8,363.8) scale(4.50)'/>
	<use xlink:href='#gpPt4' transform='translate(185.3,363.8) scale(4.50)'/>
	<use xlink:href='#gpPt4' transform='translate(90.6,363.8) scale(4.50)'/>
	<use xlink:href='#gpPt4' transform='translate(90.5,363.8) scale(4.50)'/>
	<use xlink:href='#gpPt4' transform='translate(182.5,363.8) scale(4.50)'/>
	<use xlink:href='#gpPt4' transform='translate(90.4,363.8) scale(4.50)'/>
	<use xlink:href='#gpPt4' transform='translate(90.2,363.8) scale(4.50)'/>
	<use xlink:href='#gpPt4' transform='translate(179.9,363.8) scale(4.50)'/>
	<use xlink:href='#gpPt4' transform='translate(90.1,363.8) scale(4.50)'/>
	<use xlink:href='#gpPt4' transform='translate(90.0,363.8) scale(4.50)'/>
	<use xlink:href='#gpPt4' transform='translate(89.8,363.8) scale(4.50)'/>
	<use xlink:href='#gpPt4' transform='translate(89.7,363.8) scale(4.50)'/>
	<use xlink:href='#gpPt4' transform='translate(89.6,363.8) scale(4.50)'/>
	<use xlink:href='#gpPt4' transform='translate(89.5,363.8) scale(4.50)'/>
	<use xlink:href='#gpPt4' transform='translate(89.4,363.8) scale(4.50)'/>
	<use xlink:href='#gpPt4' transform='translate(89.3,363.8) scale(4.50)'/>
	<use xlink:href='#gpPt4' transform='translate(170.6,363.8) scale(4.50)'/>
	<use xlink:href='#gpPt4' transform='translate(89.2,363.8) scale(4.50)'/>
	<use xlink:href='#gpPt4' transform='translate(89.1,363.8) scale(4.50)'/>
	<use xlink:href='#gpPt4' transform='translate(89.0,363.8) scale(4.50)'/>
	<use xlink:href='#gpPt4' transform='translate(88.9,363.8) scale(4.50)'/>
	<use xlink:href='#gpPt4' transform='translate(88.8,363.8) scale(4.50)'/>
	<use xlink:href='#gpPt4' transform='translate(88.7,363.8) scale(4.50)'/>
	<use xlink:href='#gpPt4' transform='translate(88.6,363.8) scale(4.50)'/>
	<use xlink:href='#gpPt4' transform='translate(88.5,363.8) scale(4.50)'/>
	<use xlink:href='#gpPt4' transform='translate(88.4,363.8) scale(4.50)'/>
	<use xlink:href='#gpPt4' transform='translate(88.3,363.8) scale(4.50)'/>
	<use xlink:href='#gpPt4' transform='translate(161.2,363.8) scale(4.50)'/>
	<use xlink:href='#gpPt4' transform='translate(88.3,363.8) scale(4.50)'/>
	<use xlink:href='#gpPt4' transform='translate(88.2,363.8) scale(4.50)'/>
	<use xlink:href='#gpPt4' transform='translate(88.1,363.8) scale(4.50)'/>
	<use xlink:href='#gpPt4' transform='translate(88.0,363.8) scale(4.50)'/>
	<use xlink:href='#gpPt4' transform='translate(87.9,363.8) scale(4.50)'/>
	<use xlink:href='#gpPt4' transform='translate(87.9,363.8) scale(4.50)'/>
	<use xlink:href='#gpPt4' transform='translate(87.8,363.8) scale(4.50)'/>
	<use xlink:href='#gpPt4' transform='translate(87.7,363.8) scale(4.50)'/>
	<use xlink:href='#gpPt4' transform='translate(87.6,363.8) scale(4.50)'/>
	<use xlink:href='#gpPt4' transform='translate(87.6,363.8) scale(4.50)'/>
	<use xlink:href='#gpPt4' transform='translate(153.6,363.8) scale(4.50)'/>
	<use xlink:href='#gpPt4' transform='translate(87.5,363.8) scale(4.50)'/>
	<use xlink:href='#gpPt4' transform='translate(87.4,363.8) scale(4.50)'/>
	<use xlink:href='#gpPt4' transform='translate(87.4,363.8) scale(4.50)'/>
	<use xlink:href='#gpPt4' transform='translate(87.3,363.8) scale(4.50)'/>
	<use xlink:href='#gpPt4' transform='translate(87.2,363.8) scale(4.50)'/>
	<use xlink:href='#gpPt4' transform='translate(87.2,363.8) scale(4.50)'/>
	<use xlink:href='#gpPt4' transform='translate(87.1,363.8) scale(4.50)'/>
	<use xlink:href='#gpPt4' transform='translate(87.0,363.8) scale(4.50)'/>
	<use xlink:href='#gpPt4' transform='translate(87.0,363.8) scale(4.50)'/>
	<use xlink:href='#gpPt4' transform='translate(86.9,363.8) scale(4.50)'/>
	<use xlink:href='#gpPt4' transform='translate(147.3,363.8) scale(4.50)'/>
	<use xlink:href='#gpPt4' transform='translate(86.9,363.8) scale(4.50)'/>
	<use xlink:href='#gpPt4' transform='translate(86.8,363.8) scale(4.50)'/>
	<use xlink:href='#gpPt4' transform='translate(86.8,363.8) scale(4.50)'/>
	<use xlink:href='#gpPt4' transform='translate(86.7,363.8) scale(4.50)'/>
	<use xlink:href='#gpPt4' transform='translate(86.6,363.8) scale(4.50)'/>
	<use xlink:href='#gpPt4' transform='translate(86.6,363.8) scale(4.50)'/>
	<use xlink:href='#gpPt4' transform='translate(86.5,363.8) scale(4.50)'/>
	<use xlink:href='#gpPt4' transform='translate(86.5,363.8) scale(4.50)'/>
	<use xlink:href='#gpPt4' transform='translate(86.4,363.8) scale(4.50)'/>
	<use xlink:href='#gpPt4' transform='translate(86.4,363.8) scale(4.50)'/>
	<use xlink:href='#gpPt4' transform='translate(141.9,363.8) scale(4.50)'/>
	<use xlink:href='#gpPt4' transform='translate(86.3,363.8) scale(4.50)'/>
	<use xlink:href='#gpPt4' transform='translate(86.3,363.8) scale(4.50)'/>
	<use xlink:href='#gpPt4' transform='translate(86.2,363.8) scale(4.50)'/>
	<use xlink:href='#gpPt4' transform='translate(86.2,363.8) scale(4.50)'/>
	<use xlink:href='#gpPt4' transform='translate(86.2,363.8) scale(4.50)'/>
	<use xlink:href='#gpPt4' transform='translate(86.1,363.8) scale(4.50)'/>
	<use xlink:href='#gpPt4' transform='translate(86.1,363.8) scale(4.50)'/>
	<use xlink:href='#gpPt4' transform='translate(86.0,363.8) scale(4.50)'/>
	<use xlink:href='#gpPt4' transform='translate(86.0,363.8) scale(4.50)'/>
	<use xlink:href='#gpPt4' transform='translate(85.9,363.8) scale(4.50)'/>
	<use xlink:href='#gpPt4' transform='translate(137.4,363.8) scale(4.50)'/>
	<use xlink:href='#gpPt4' transform='translate(133.5,363.8) scale(4.50)'/>
	<use xlink:href='#gpPt4' transform='translate(130.1,363.8) scale(4.50)'/>
	<use xlink:href='#gpPt4' transform='translate(127.1,363.8) scale(4.50)'/>
	<use xlink:href='#gpPt4' transform='translate(124.4,363.8) scale(4.50)'/>
	<use xlink:href='#gpPt4' transform='translate(122.0,363.8) scale(4.50)'/>
	<use xlink:href='#gpPt4' transform='translate(119.9,363.8) scale(4.50)'/>
	<use xlink:href='#gpPt4' transform='translate(562.2,135.1) scale(4.50)'/>
</g>
	</g>
<g style="fill:none; color:black; stroke:currentColor; stroke-width:1.00; stroke-linecap:butt; stroke-linejoin:miter">
	<path  d='M80.2,54.1 L80.2,422.4 L391.7,422.4 L391.7,54.1 L80.2,54.1 Z  h0.01'/></g>
</g>
</svg>

